﻿<?xml version="1.0"?>
<!-- Generator: Adobe Illustrator 10.0, SVG Export Plug-In . SVG Version: 3.0.0 Build 77)  -->
<!DOCTYPE svg PUBLIC "-//W3C//DTD SVG 1.0//EN" "http://www.w3.org/TR/2001/REC-SVG-20010904/DTD/svg10.dtd"[
	<!ENTITY ns_flows "http://ns.adobe.com/Flows/1.0/">
	<!ENTITY ns_svg "http://www.w3.org/2000/svg">
	<!ENTITY ns_xlink "http://www.w3.org/1999/xlink">
	<!ENTITY st0 "fill:none;stroke:#000000;stroke-linecap:round;stroke-linejoin:round;">
	<!ENTITY st1 "fill:none;stroke:#000000;stroke-width:0.6;stroke-linecap:round;stroke-linejoin:round;">
	<!ENTITY st2 "font-size:6px;">
	<!ENTITY st3 "font-family:'Arial';">
	<!ATTLIST svg
		ewd:ver CDATA #IMPLIED
		xmlns:ewd CDATA #FIXED "http://shcl.co.jp/ewd"
		xmlns:a CDATA #FIXED "http://ns.adobe.com/AdobeSVGViewerExtensions/3.0/">
	<!ATTLIST g
		ewd:pinNo CDATA #IMPLIED>
]>
<svg width="85.691" height="27.304" viewBox="0 0 85.691 27.304" style="overflow:visible;enable-background:new 0 0 85.691 27.304" xml:space="preserve" onload="call_execInitLoadProc_svg('connector')" ewd:ver="2.1.2.9" xmlns="&ns_svg;" xmlns:ewd="http://shcl.co.jp/ewd" xmlns:a="http://ns.adobe.com/AdobeSVGViewerExtensions/3.0/" xmlns:xlink="&ns_xlink;">
<script type="text/javascript" xlink:href="../../../../../system/js/ewd/fig/svgfig.js"/>
<g id="レイヤー_1">
	<path style="&st1;" d="M33.344,3.185v21.061"/>
	<path style="&st1;" d="M36.8,25.86c0.47,0,0.852-0.385,0.852-0.859V2.289c0-0.475-0.382-0.859-0.852-0.859"/>
	<path style="&st0;" d="M37.697,1.43H1.352C0.881,1.43,0.5,1.814,0.5,2.289v22.712c0,0.475,0.381,0.859,0.852,0.859h36.355"/>
	<path style="&st0;" d="M41.952,7.019L37.697,1.43"/>
	<path style="&st1;" d="M43.605,9.19l-1.653-2.172"/>
	<path style="&st1;" d="M49.871,3.712v2.996"/>
	<path style="&st0;" d="M49.871,1.205v2.507"/>
	<path style="&st1;" d="M49.871,6.708c-1.162,1.568-3.026,2.585-5.128,2.585c-0.388,0-0.768-0.035-1.137-0.102"/>
	<path style="&st0;" d="M49.885,3.687c-1.08,1.988-3.187,3.338-5.607,3.338"/>
	<path style="&st0;" d="M44.277,7.024h-2.32"/>
	<path style="&st0;" d="M49.871,1.205h16.384"/>
	<path style="&st1;" d="M49.871,2.927h16.384"/>
	<path style="&st1;" d="M49.871,4.573h16.384"/>
	<path style="&st1;" d="M66.255,5.679v2.839"/>
	<path style="&st0;" d="M66.255,1.205v4.474"/>
	<path style="&st1;" d="M72.322,4.05c0-0.234,0.19-0.425,0.425-0.425h5.786"/>
	<path style="&st1;" d="M66.255,8.518l6.067-0.889"/>
	<path style="&st0;" d="M66.255,5.679l6.067-0.715"/>
	<path style="&st1;" d="M72.322,2.151h6.118"/>
	<path style="&st0;" d="M41.952,20.285l-4.255,5.589"/>
	<path style="&st1;" d="M43.605,18.112l-1.653,2.173"/>
	<path style="&st1;" d="M49.871,23.592v-2.997"/>
	<path style="&st0;" d="M49.871,26.099v-2.507"/>
	<path style="&st1;" d="M49.871,20.596c-1.162-1.568-3.026-2.585-5.128-2.585c-0.388,0-0.768,0.034-1.137,0.101"/>
	<path style="&st0;" d="M49.885,23.616c-1.08-1.988-3.187-3.338-5.607-3.338"/>
	<path style="&st0;" d="M44.277,20.278h-2.32"/>
	<path style="&st0;" d="M49.871,26.099h16.384"/>
	<path style="&st1;" d="M49.871,24.377h16.384"/>
	<path style="&st1;" d="M49.871,22.729h16.384"/>
	<path style="&st1;" d="M66.255,21.624v-2.838"/>
	<path style="&st0;" d="M66.255,26.099v-4.475"/>
	<path style="&st1;" d="M72.322,23.253c0,0.235,0.19,0.426,0.425,0.426h5.786"/>
	<path style="&st1;" d="M66.255,18.786l6.067,0.889"/>
	<path style="&st0;" d="M66.255,21.624l6.067,0.716"/>
	<path style="&st1;" d="M72.322,25.152h6.118"/>
	<path style="&st1;" d="M72.322,4.964v2.665"/>
	<path style="&st0;" d="M72.322,22.34v4.464h6.067l0.499-7.888V8.388L78.39,0.5h-6.067v4.464"/>
	<path style="&st1;" d="M72.322,19.675v2.665"/>
	<g ewd:pinNo="1">
		<text transform="matrix(1 0 0 1 82.3555 15.3057)"><tspan x="0" y="0" style="&st3; &st2;">1</tspan></text>
	</g>
</g>
</svg>