﻿<?xml version="1.0"?>
<!-- Generator: Adobe Illustrator 10.0, SVG Export Plug-In . SVG Version: 3.0.0 Build 77)  -->
<!DOCTYPE svg PUBLIC "-//W3C//DTD SVG 1.0//EN" "http://www.w3.org/TR/2001/REC-SVG-20010904/DTD/svg10.dtd"[
	<!ENTITY ns_flows "http://ns.adobe.com/Flows/1.0/">
	<!ENTITY ns_svg "http://www.w3.org/2000/svg">
	<!ENTITY ns_xlink "http://www.w3.org/1999/xlink">
	<!ENTITY st0 "fill:none;stroke:#000000;stroke-linecap:round;stroke-linejoin:round;">
	<!ENTITY st1 "fill:none;stroke:#000000;stroke-width:0.6;stroke-linecap:round;stroke-linejoin:round;">
	<!ENTITY st2 "fill:none;stroke:#000000;stroke-width:0.6;">
	<!ENTITY st3 "fill:none;stroke:#000000;">
	<!ENTITY st4 "font-size:6px;">
	<!ENTITY st5 "font-family:'Arial';">
	<!ATTLIST svg
		ewd:ver CDATA #IMPLIED
		xmlns:ewd CDATA #FIXED "http://shcl.co.jp/ewd"
		xmlns:a CDATA #FIXED "http://ns.adobe.com/AdobeSVGViewerExtensions/3.0/">
	<!ATTLIST g
		ewd:pinNo CDATA #IMPLIED>
]>
<svg width="238.198" height="78.78" viewBox="0 0 238.198 78.78" style="overflow:visible;enable-background:new 0 0 238.198 78.78" xml:space="preserve" onload="call_execInitLoadProc_svg('connector')" ewd:ver="2.1.2.9" xmlns="&ns_svg;" xmlns:ewd="http://shcl.co.jp/ewd" xmlns:a="http://ns.adobe.com/AdobeSVGViewerExtensions/3.0/" xmlns:xlink="&ns_xlink;">
<script type="text/javascript" xlink:href="../../../../../system/js/ewd/fig/svgfig.js"/>
<g id="レイヤー_1">
	<path style="&st2;" d="M5,49.076h96.378"/>
	<path style="&st2;" d="M13.761,39.154v19.843"/>
	<path style="&st2;" d="M22.523,39.154v19.843"/>
	<path style="&st2;" d="M31.285,39.154v19.843"/>
	<path style="&st2;" d="M40.046,39.154v19.843"/>
	<path style="&st2;" d="M48.808,39.154v19.843"/>
	<path style="&st2;" d="M57.57,39.154v19.843"/>
	<path style="&st2;" d="M66.332,39.154v19.843"/>
	<path style="&st2;" d="M75.093,39.154v19.843"/>
	<path style="&st2;" d="M83.854,39.154v19.843"/>
	<path style="&st2;" d="M92.616,39.154v19.843"/>
	<path style="&st2;" d="M101.378,58.997V39.154H5v19.843H101.378z"/>
	<path style="&st2;" d="M63.977,36.406"/>
	<path style="&st2;" d="M36.115,36.406c-0.783,0-1.417-0.635-1.417-1.417v-7.425c0-0.783,0.635-1.417,1.417-1.417h33.898    c0.783,0,1.417,0.635,1.417,1.417v7.425c0,0.783-0.635,1.417-1.417,1.417"/>
	<path style="&st2;" d="M12.529,30.36h3.896c0.783,0,1.417,0.635,1.417,1.417v4.769"/>
	<path style="&st2;" d="M93.966,30.36h-3.988c-0.782,0-1.417,0.635-1.417,1.417v4.629"/>
	<path style="&st2;" d="M61.289,28.437v6.552c0,0.783-0.635,1.417-1.417,1.417h-2.853c-0.783,0-1.417-0.635-1.417-1.417v-6.552"/>
	<path style="&st2;" d="M50.831,28.437v6.552c0,0.783-0.635,1.417-1.417,1.417h-2.998c-0.783,0-1.417-0.635-1.417-1.417v-6.552"/>
	<path style="&st2;" d="M0.5,29.057l1.871,1.871"/>
	<path style="&st2;" d="M10.668,24.98v14.174"/>
	<path style="&st2;" d="M10.668,31.193h1.86"/>
	<path style="&st2;" d="M2.371,30.928h8.297"/>
	<path style="&st2;" d="M2.371,30.928v27.521"/>
	<path style="&st2;" d="M2.371,58.449H0.5"/>
	<path style="&st2;" d="M2.371,58.449l1.88,1.88"/>
	<path style="&st2;" d="M39.707,62.249v2.218H25.422v-2.218"/>
	<path style="&st2;" d="M7.366,62.249v3.481"/>
	<path style="&st2;" d="M19.465,62.249v3.481"/>
	<path style="&st2;" d="M7.366,64.245h12.099"/>
	<path style="&st2;" d="M4.251,60.329v1.92"/>
	<path style="&st2;" d="M3.28,62.249v3.481"/>
	<path style="&st2;" d="M93.848,30.36h-3.895c-0.783,0-1.418,0.635-1.418,1.417v4.769"/>
	<path style="&st2;" d="M105.877,29.057h-6.17v-2.408l-2.955-2.459l-2.904,2.201v8.598c0,0.783-0.635,1.417-1.417,1.417H67.417    c-0.783,0-1.417-0.634-1.417-1.417v-5.135c0-0.783-0.635-1.417-1.417-1.417H53.188H41.794c-0.783,0-1.417,0.635-1.417,1.417v5.135    c0,0.783-0.634,1.417-1.417,1.417H13.946c-0.783,0-1.417-0.635-1.417-1.417v-8.598L9.625,24.19L6.67,26.649v2.408H0.5"/>
	<path style="&st2;" d="M105.877,29.057l-1.871,1.871"/>
	<path style="&st2;" d="M95.709,24.98v14.174"/>
	<path style="&st2;" d="M95.709,31.193h-1.861"/>
	<path style="&st2;" d="M104.006,30.928h-8.297"/>
	<path style="&st2;" d="M104.006,30.928v27.521"/>
	<path style="&st2;" d="M104.006,58.449l-1.88,1.88"/>
	<path style="&st2;" d="M102.126,60.329H53.188H4.251"/>
	<path style="&st2;" d="M105.877,62.249H53.188H0.5"/>
	<path style="&st2;" d="M60.463,62.249v2.281h-7.274h-7.274v-2.281"/>
	<path style="&st2;" d="M66.67,62.249v2.218h14.285v-2.218"/>
	<path style="&st2;" d="M99.011,62.249v3.481"/>
	<path style="&st2;" d="M86.912,62.249v3.481"/>
	<path style="&st2;" d="M99.011,64.245H86.912"/>
	<path style="&st2;" d="M105.877,65.73H53.188H0.5"/>
	<path style="&st2;" d="M102.126,60.329v1.92"/>
	<path style="&st2;" d="M103.098,62.249v3.481"/>
	<path style="&st3;" d="M53.188,73.445h35.08l13.288-3.888l4.32-3.827V26.125l-9.438-8.422H53.188H9.937L0.5,26.125V65.73    l4.32,3.827l13.288,3.888H53.188z"/>
	<path style="&st2;" d="M103.619,65.73l-16.938,5.731H53.188H19.695L2.758,65.73"/>
	<path style="&st1;" d="M138.875,41.593v-1.797h0.646v1.797"/>
	<path style="&st1;" d="M140.503,40.706c0,0.705-0.57,1.276-1.275,1.276c-0.704,0-1.275-0.571-1.275-1.276    c0-0.703,0.571-1.275,1.275-1.275C139.933,39.431,140.503,40.003,140.503,40.706z"/>
	<path style="&st1;" d="M140.22,40.706c0,0.549-0.444,0.992-0.992,0.992s-0.992-0.443-0.992-0.992c0-0.547,0.444-0.991,0.992-0.991    S140.22,40.159,140.22,40.706z"/>
	<path style="&st1;" d="M147.131,41.593v-1.797h0.646v1.797"/>
	<path style="&st1;" d="M148.759,40.706c0,0.705-0.57,1.276-1.275,1.276c-0.704,0-1.275-0.571-1.275-1.276    c0-0.703,0.571-1.275,1.275-1.275C148.188,39.431,148.759,40.003,148.759,40.706z"/>
	<path style="&st1;" d="M148.476,40.706c0,0.549-0.444,0.992-0.992,0.992s-0.992-0.443-0.992-0.992    c0-0.547,0.444-0.991,0.992-0.991S148.476,40.159,148.476,40.706z"/>
	<path style="&st1;" d="M155.493,41.593v-1.797h0.646v1.797"/>
	<path style="&st1;" d="M157.121,40.706c0,0.705-0.57,1.276-1.275,1.276c-0.704,0-1.275-0.571-1.275-1.276    c0-0.703,0.571-1.275,1.275-1.275C156.551,39.431,157.121,40.003,157.121,40.706z"/>
	<path style="&st1;" d="M156.838,40.706c0,0.549-0.444,0.992-0.992,0.992s-0.992-0.443-0.992-0.992    c0-0.547,0.444-0.991,0.992-0.991S156.838,40.159,156.838,40.706z"/>
	<path style="&st1;" d="M163.855,41.593v-1.797h0.646v1.797"/>
	<path style="&st1;" d="M165.483,40.706c0,0.705-0.57,1.276-1.275,1.276c-0.704,0-1.275-0.571-1.275-1.276    c0-0.703,0.571-1.275,1.275-1.275C164.913,39.431,165.483,40.003,165.483,40.706z"/>
	<path style="&st1;" d="M165.2,40.706c0,0.549-0.444,0.992-0.992,0.992s-0.992-0.443-0.992-0.992c0-0.547,0.444-0.991,0.992-0.991    S165.2,40.159,165.2,40.706z"/>
	<path style="&st1;" d="M172.218,41.593v-1.797h0.646v1.797"/>
	<path style="&st1;" d="M173.846,40.706c0,0.705-0.57,1.276-1.275,1.276c-0.704,0-1.275-0.571-1.275-1.276    c0-0.703,0.571-1.275,1.275-1.275C173.275,39.431,173.846,40.003,173.846,40.706z"/>
	<path style="&st1;" d="M173.563,40.706c0,0.549-0.444,0.992-0.992,0.992s-0.992-0.443-0.992-0.992    c0-0.547,0.444-0.991,0.992-0.991S173.563,40.159,173.563,40.706z"/>
	<path style="&st1;" d="M180.58,41.593v-1.797h0.646v1.797"/>
	<path style="&st1;" d="M182.208,40.706c0,0.705-0.57,1.276-1.275,1.276c-0.704,0-1.275-0.571-1.275-1.276    c0-0.703,0.571-1.275,1.275-1.275C181.638,39.431,182.208,40.003,182.208,40.706z"/>
	<path style="&st1;" d="M181.925,40.706c0,0.549-0.444,0.992-0.992,0.992s-0.992-0.443-0.992-0.992    c0-0.547,0.444-0.991,0.992-0.991S181.925,40.159,181.925,40.706z"/>
	<path style="&st1;" d="M188.942,41.593v-1.797h0.646v1.797"/>
	<path style="&st1;" d="M190.57,40.706c0,0.705-0.57,1.276-1.275,1.276c-0.704,0-1.275-0.571-1.275-1.276    c0-0.703,0.571-1.275,1.275-1.275C190,39.431,190.57,40.003,190.57,40.706z"/>
	<path style="&st1;" d="M190.287,40.706c0,0.549-0.444,0.992-0.992,0.992s-0.992-0.443-0.992-0.992    c0-0.547,0.444-0.991,0.992-0.991S190.287,40.159,190.287,40.706z"/>
	<path style="&st1;" d="M197.305,41.593v-1.797h0.646v1.797"/>
	<path style="&st1;" d="M198.933,40.706c0,0.705-0.57,1.276-1.275,1.276c-0.704,0-1.275-0.571-1.275-1.276    c0-0.703,0.571-1.275,1.275-1.275C198.362,39.431,198.933,40.003,198.933,40.706z"/>
	<path style="&st1;" d="M198.649,40.706c0,0.549-0.444,0.992-0.992,0.992s-0.992-0.443-0.992-0.992    c0-0.547,0.444-0.991,0.992-0.991S198.649,40.159,198.649,40.706z"/>
	<path style="&st1;" d="M205.667,41.593v-1.797h0.646v1.797"/>
	<path style="&st1;" d="M207.295,40.706c0,0.705-0.57,1.276-1.275,1.276c-0.704,0-1.275-0.571-1.275-1.276    c0-0.703,0.571-1.275,1.275-1.275C206.725,39.431,207.295,40.003,207.295,40.706z"/>
	<path style="&st1;" d="M207.012,40.706c0,0.549-0.444,0.992-0.992,0.992s-0.992-0.443-0.992-0.992    c0-0.547,0.444-0.991,0.992-0.991S207.012,40.159,207.012,40.706z"/>
	<path style="&st1;" d="M214.029,41.593v-1.797h0.646v1.797"/>
	<path style="&st1;" d="M215.657,40.706c0,0.705-0.57,1.276-1.275,1.276c-0.704,0-1.275-0.571-1.275-1.276    c0-0.703,0.571-1.275,1.275-1.275C215.087,39.431,215.657,40.003,215.657,40.706z"/>
	<path style="&st1;" d="M215.374,40.706c0,0.549-0.444,0.992-0.992,0.992s-0.992-0.443-0.992-0.992    c0-0.547,0.444-0.991,0.992-0.991S215.374,40.159,215.374,40.706z"/>
	<path style="&st1;" d="M222.392,41.593v-1.797h0.646v1.797"/>
	<path style="&st1;" d="M224.02,40.706c0,0.705-0.57,1.276-1.275,1.276c-0.704,0-1.275-0.571-1.275-1.276    c0-0.703,0.571-1.275,1.275-1.275C223.449,39.431,224.02,40.003,224.02,40.706z"/>
	<path style="&st1;" d="M223.736,40.706c0,0.549-0.444,0.992-0.992,0.992s-0.992-0.443-0.992-0.992    c0-0.547,0.444-0.991,0.992-0.991S223.736,40.159,223.736,40.706z"/>
	<path style="&st1;" d="M138.875,53.782v-1.797h0.646v1.797"/>
	<path style="&st1;" d="M140.503,52.895c0,0.705-0.57,1.276-1.275,1.276c-0.704,0-1.275-0.571-1.275-1.276    c0-0.703,0.571-1.275,1.275-1.275C139.933,51.62,140.503,52.192,140.503,52.895z"/>
	<path style="&st1;" d="M140.22,52.895c0,0.549-0.444,0.992-0.992,0.992s-0.992-0.443-0.992-0.992c0-0.547,0.444-0.991,0.992-0.991    S140.22,52.348,140.22,52.895z"/>
	<path style="&st1;" d="M147.131,53.782v-1.797h0.646v1.797"/>
	<path style="&st1;" d="M148.759,52.895c0,0.705-0.57,1.276-1.275,1.276c-0.704,0-1.275-0.571-1.275-1.276    c0-0.703,0.571-1.275,1.275-1.275C148.188,51.62,148.759,52.192,148.759,52.895z"/>
	<path style="&st1;" d="M148.476,52.895c0,0.549-0.444,0.992-0.992,0.992s-0.992-0.443-0.992-0.992    c0-0.547,0.444-0.991,0.992-0.991S148.476,52.348,148.476,52.895z"/>
	<path style="&st1;" d="M155.493,53.782v-1.797h0.646v1.797"/>
	<path style="&st1;" d="M157.121,52.895c0,0.705-0.57,1.276-1.275,1.276c-0.704,0-1.275-0.571-1.275-1.276    c0-0.703,0.571-1.275,1.275-1.275C156.551,51.62,157.121,52.192,157.121,52.895z"/>
	<path style="&st1;" d="M156.838,52.895c0,0.549-0.444,0.992-0.992,0.992s-0.992-0.443-0.992-0.992    c0-0.547,0.444-0.991,0.992-0.991S156.838,52.348,156.838,52.895z"/>
	<path style="&st1;" d="M163.855,53.782v-1.797h0.646v1.797"/>
	<path style="&st1;" d="M165.483,52.895c0,0.705-0.57,1.276-1.275,1.276c-0.704,0-1.275-0.571-1.275-1.276    c0-0.703,0.571-1.275,1.275-1.275C164.913,51.62,165.483,52.192,165.483,52.895z"/>
	<path style="&st1;" d="M165.2,52.895c0,0.549-0.444,0.992-0.992,0.992s-0.992-0.443-0.992-0.992c0-0.547,0.444-0.991,0.992-0.991    S165.2,52.348,165.2,52.895z"/>
	<path style="&st1;" d="M172.218,53.782v-1.797h0.646v1.797"/>
	<path style="&st1;" d="M173.846,52.895c0,0.705-0.57,1.276-1.275,1.276c-0.704,0-1.275-0.571-1.275-1.276    c0-0.703,0.571-1.275,1.275-1.275C173.275,51.62,173.846,52.192,173.846,52.895z"/>
	<path style="&st1;" d="M173.563,52.895c0,0.549-0.444,0.992-0.992,0.992s-0.992-0.443-0.992-0.992    c0-0.547,0.444-0.991,0.992-0.991S173.563,52.348,173.563,52.895z"/>
	<path style="&st1;" d="M180.58,53.782v-1.797h0.646v1.797"/>
	<path style="&st1;" d="M182.208,52.895c0,0.705-0.57,1.276-1.275,1.276c-0.704,0-1.275-0.571-1.275-1.276    c0-0.703,0.571-1.275,1.275-1.275C181.638,51.62,182.208,52.192,182.208,52.895z"/>
	<path style="&st1;" d="M181.925,52.895c0,0.549-0.444,0.992-0.992,0.992s-0.992-0.443-0.992-0.992    c0-0.547,0.444-0.991,0.992-0.991S181.925,52.348,181.925,52.895z"/>
	<path style="&st1;" d="M188.942,53.782v-1.797h0.646v1.797"/>
	<path style="&st1;" d="M190.57,52.895c0,0.705-0.57,1.276-1.275,1.276c-0.704,0-1.275-0.571-1.275-1.276    c0-0.703,0.571-1.275,1.275-1.275C190,51.62,190.57,52.192,190.57,52.895z"/>
	<path style="&st1;" d="M190.287,52.895c0,0.549-0.444,0.992-0.992,0.992s-0.992-0.443-0.992-0.992    c0-0.547,0.444-0.991,0.992-0.991S190.287,52.348,190.287,52.895z"/>
	<path style="&st1;" d="M197.305,53.782v-1.797h0.646v1.797"/>
	<path style="&st1;" d="M198.933,52.895c0,0.705-0.57,1.276-1.275,1.276c-0.704,0-1.275-0.571-1.275-1.276    c0-0.703,0.571-1.275,1.275-1.275C198.362,51.62,198.933,52.192,198.933,52.895z"/>
	<path style="&st1;" d="M198.649,52.895c0,0.549-0.444,0.992-0.992,0.992s-0.992-0.443-0.992-0.992    c0-0.547,0.444-0.991,0.992-0.991S198.649,52.348,198.649,52.895z"/>
	<path style="&st1;" d="M205.667,53.782v-1.797h0.646v1.797"/>
	<path style="&st1;" d="M207.295,52.895c0,0.705-0.57,1.276-1.275,1.276c-0.704,0-1.275-0.571-1.275-1.276    c0-0.703,0.571-1.275,1.275-1.275C206.725,51.62,207.295,52.192,207.295,52.895z"/>
	<path style="&st1;" d="M207.012,52.895c0,0.549-0.444,0.992-0.992,0.992s-0.992-0.443-0.992-0.992    c0-0.547,0.444-0.991,0.992-0.991S207.012,52.348,207.012,52.895z"/>
	<path style="&st1;" d="M214.029,53.782v-1.797h0.646v1.797"/>
	<path style="&st1;" d="M215.657,52.895c0,0.705-0.57,1.276-1.275,1.276c-0.704,0-1.275-0.571-1.275-1.276    c0-0.703,0.571-1.275,1.275-1.275C215.087,51.62,215.657,52.192,215.657,52.895z"/>
	<path style="&st1;" d="M215.374,52.895c0,0.549-0.444,0.992-0.992,0.992s-0.992-0.443-0.992-0.992    c0-0.547,0.444-0.991,0.992-0.991S215.374,52.348,215.374,52.895z"/>
	<path style="&st1;" d="M222.392,53.782v-1.797h0.646v1.797"/>
	<path style="&st1;" d="M224.02,52.895c0,0.705-0.57,1.276-1.275,1.276c-0.704,0-1.275-0.571-1.275-1.276    c0-0.703,0.571-1.275,1.275-1.275C223.449,51.62,224.02,52.192,224.02,52.895z"/>
	<path style="&st1;" d="M223.736,52.895c0,0.549-0.444,0.992-0.992,0.992s-0.992-0.443-0.992-0.992    c0-0.547,0.444-0.991,0.992-0.991S223.736,52.348,223.736,52.895z"/>
	<path style="&st0;" d="M179.931,9.004V0.5H53.188v8.699"/>
	<path style="&st1;" d="M220.306,66.264h-78.906"/>
	<path style="&st0;" d="M141.399,66.264h-8.486c-4.227,0-7.653-3.426-7.653-7.653V25.14c0-4.227,3.427-7.654,7.653-7.654h97.133    c4.227,0,7.652,3.428,7.652,7.654v33.472c0,4.227-3.426,7.653-7.652,7.653h-9.74"/>
	<path style="&st0;" d="M220.306,66.264v8.188c0,2.113-1.715,3.828-3.828,3.828h-71.252c-2.113,0-3.826-1.715-3.826-3.828v-8.188"/>
	<path style="&st1;" d="M163.815,28.845c0,1.056-0.856,1.913-1.912,1.913h-14.107c-1.057,0-1.913-0.857-1.913-1.913v-5.859    c0-1.056,0.856-1.912,1.913-1.912h14.107c1.056,0,1.912,0.856,1.912,1.912V28.845z"/>
	<path style="&st1;" d="M214.925,28.484c0,1.056-0.857,1.913-1.914,1.913h-12.313c-1.057,0-1.912-0.857-1.912-1.913v-5.499    c0-1.056,0.855-1.912,1.912-1.912h12.313c1.057,0,1.914,0.856,1.914,1.912V28.484z"/>
	<path style="&st1;" d="M155.931,72.209h49.637"/>
	<path style="&st1;" d="M155.909,78.28v-5.814c0-1.057,0.857-1.914,1.914-1.914h45.852c1.057,0,1.914,0.857,1.914,1.914v5.814"/>
	<path style="&st1;" d="M173.042,66.264v4.287"/>
	<path style="&st1;" d="M188.692,66.264v5.945"/>
	<path style="&st1;" d="M184.554,72.209v3.863h-7.617v-3.863"/>
	<path style="&st1;" d="M176.937,74.543h7.617"/>
	<path style="&st1;" d="M175.093,70.551V67.76h11.652v2.791"/>
	<path style="&st1;" d="M225.952,48.174h-90.04v-2.998h90.04V48.174z"/>
	<path style="&st1;" d="M128.995,38.604h3.343V55.09h-3.343"/>
	<path style="&st1;" d="M232.177,55.09h-2.998V38.375h2.998"/>
	<path style="&st1;" d="M189.175,62.008h-16.486v-4.265h16.486V62.008z"/>
	<path style="&st1;" d="M166.349,34.108h-23.75V22.579h-6.571v4.729h-7.032v34.01h43.693"/>
	<path style="&st1;" d="M195.169,35.261h-28.82v-9.568h28.82V35.261z"/>
	<path style="&st1;" d="M169.239,30.99h23.436"/>
	<path style="&st1;" d="M183.161,30.99v1.836h-4.24V30.99"/>
	<path style="&st1;" d="M172.993,30.99v1.772h-3.754v-7.07"/>
	<path style="&st1;" d="M189.257,30.99v1.772h3.418v-7.07"/>
	<path style="&st1;" d="M189.175,61.317h43.002v-34.24h-5.996v-4.369h-7.219v11.4h-23.793"/>
	<path style="&st1;" d="M143.296,37.758v5.74"/>
	<path style="&st1;" d="M151.645,37.758v5.74"/>
	<path style="&st1;" d="M159.995,37.758v5.74"/>
	<path style="&st1;" d="M168.345,37.758v5.74"/>
	<path style="&st1;" d="M176.694,37.758v5.74"/>
	<path style="&st1;" d="M185.042,37.758v5.74"/>
	<path style="&st1;" d="M193.392,37.758v5.74"/>
	<path style="&st1;" d="M201.741,37.758v5.74"/>
	<path style="&st1;" d="M210.091,37.758v5.74"/>
	<path style="&st1;" d="M218.438,37.758v5.74"/>
	<path style="&st1;" d="M226.788,43.498h-91.842v-5.74h91.842V43.498z"/>
	<path style="&st1;" d="M143.296,50.004v5.74"/>
	<path style="&st1;" d="M151.645,50.004v5.74"/>
	<path style="&st1;" d="M159.995,50.004v5.74"/>
	<path style="&st1;" d="M168.345,50.004v5.74"/>
	<path style="&st1;" d="M176.694,50.004v5.74"/>
	<path style="&st1;" d="M185.042,50.004v5.74"/>
	<path style="&st1;" d="M193.392,50.004v5.74"/>
	<path style="&st1;" d="M201.741,50.004v5.74"/>
	<path style="&st1;" d="M210.091,50.004v5.74"/>
	<path style="&st1;" d="M218.438,50.004v5.74"/>
	<path style="&st1;" d="M226.788,55.744h-91.842v-5.74h91.842V55.744z"/>
	<path style="&st1;" d="M139.228,52.896h33.296"/>
	<path style="&st1;" d="M139.228,40.707h50.067"/>
	<path style="&st1;" d="M222.744,40.707"/>
	<path style="&st1;" d="M180.933,52.896h16.725"/>
	<path style="&st1;" d="M206.02,52.896h16.725"/>
	<path style="&st1;" d="M197.657,40.707h25.087"/>
	<g ewd:pinNo="1">
		<text transform="matrix(1 0 0 1 7.4268 46.332)"><tspan x="0" y="0" style="&st5; &st4;">1</tspan></text>
	</g>
	<g ewd:pinNo="2">
		<text transform="matrix(1 0 0 1 16.4316 46.2222)"><tspan x="0" y="0" style="&st5; &st4;">2</tspan></text>
	</g>
	<g ewd:pinNo="3">
		<text transform="matrix(1 0 0 1 25.251 46.332)"><tspan x="0" y="0" style="&st5; &st4;">3</tspan></text>
	</g>
	<g ewd:pinNo="4">
		<text transform="matrix(1 0 0 1 34.0146 46.0566)"><tspan x="0" y="0" style="&st5; &st4;">4</tspan></text>
	</g>
	<g ewd:pinNo="5">
		<text transform="matrix(1 0 0 1 42.5029 46.0566)"><tspan x="0" y="0" style="&st5; &st4;">5</tspan></text>
	</g>
	<g ewd:pinNo="6">
		<text transform="matrix(1 0 0 1 51.4395 46.167)"><tspan x="0" y="0" style="&st5; &st4;">6</tspan></text>
	</g>
	<g ewd:pinNo="7">
		<text transform="matrix(1 0 0 1 60.4194 46.3472)"><tspan x="0" y="0" style="&st5; &st4;">7</tspan></text>
	</g>
	<g ewd:pinNo="8">
		<text transform="matrix(1 0 0 1 69.1152 46.2837)"><tspan x="0" y="0" style="&st5; &st4;">8</tspan></text>
	</g>
	<g ewd:pinNo="9">
		<text transform="matrix(1 0 0 1 77.7285 46.1235)"><tspan x="0" y="0" style="&st5; &st4;">9</tspan></text>
	</g>
	<g ewd:pinNo="10">
		<text transform="matrix(1 0 0 1 84.8721 46.3301)"><tspan x="0" y="0" style="&st5; &st4;">10</tspan></text>
	</g>
	<g ewd:pinNo="11">
		<text transform="matrix(1 0 0 1 93.9023 46.2754)"><tspan x="0" y="0" style="&st5; &st4;">11</tspan></text>
	</g>
	<g ewd:pinNo="12">
		<text transform="matrix(1 0 0 1 5.9565 56.0601)"><tspan x="0" y="0" style="&st5; &st4;">12</tspan></text>
	</g>
	<g ewd:pinNo="13">
		<text transform="matrix(1 0 0 1 14.8179 55.9492)"><tspan x="0" y="0" style="&st5; &st4;">13</tspan></text>
	</g>
	<g ewd:pinNo="14">
		<text transform="matrix(1 0 0 1 23.5112 56.1626)"><tspan x="0" y="0" style="&st5; &st4;">14</tspan></text>
	</g>
	<g ewd:pinNo="15">
		<text transform="matrix(1 0 0 1 32.2529 56.104)"><tspan x="0" y="0" style="&st5; &st4;">15</tspan></text>
	</g>
	<g ewd:pinNo="16">
		<text transform="matrix(1 0 0 1 40.9434 56.1289)"><tspan x="0" y="0" style="&st5; &st4;">16</tspan></text>
	</g>
	<g ewd:pinNo="17">
		<text transform="matrix(1 0 0 1 49.8179 56.0654)"><tspan x="0" y="0" style="&st5; &st4;">17</tspan></text>
	</g>
	<g ewd:pinNo="18">
		<text transform="matrix(1 0 0 1 58.519 56.0322)"><tspan x="0" y="0" style="&st5; &st4;">18</tspan></text>
	</g>
	<g ewd:pinNo="19">
		<text transform="matrix(1 0 0 1 67.1382 56.0132)"><tspan x="0" y="0" style="&st5; &st4;">19</tspan></text>
	</g>
	<g ewd:pinNo="20">
		<text transform="matrix(1 0 0 1 75.8223 56.0952)"><tspan x="0" y="0" style="&st5; &st4;">20</tspan></text>
	</g>
	<g ewd:pinNo="21">
		<text transform="matrix(1 0 0 1 85.0693 56.0991)"><tspan x="0" y="0" style="&st5; &st4;">21</tspan></text>
	</g>
	<g ewd:pinNo="22">
		<text transform="matrix(1 0 0 1 93.6934 55.9419)"><tspan x="0" y="0" style="&st5; &st4;">22</tspan></text>
	</g>
</g>
</svg>