﻿<?xml version="1.0" encoding="utf-8"?>
<!DOCTYPE svg PUBLIC "-//W3C//DTD SVG 1.0//EN" "http://www.w3.org/TR/2001/REC-SVG-20010904/DTD/svg10.dtd"[
	<!ENTITY ns_flows "http://ns.adobe.com/Flows/1.0/">
	<!ENTITY ns_svg "http://www.w3.org/2000/svg">
	<!ENTITY ns_xlink "http://www.w3.org/1999/xlink">
	<!ENTITY st0 "font-size:7px;font-family:'MS-PGothic';adobe-font-script:japanese;">
	<!ENTITY st1 "font-size:6px;font-family:'ArialMT';">
	<!-- White fill  -->
	<!ENTITY st2 "fill:#FFFFFF;stroke:#000000; stroke-width:1.41;stroke-linecap:round;stroke-linejoin:round;">
	<!-- Yellow fill  -->
	<!ENTITY st3 "fill:#FFFFCC;stroke:#FFFFCC; stroke-width:0.1;stroke-linecap:round;stroke-linejoin:round;">
	<!-- Gray fill  -->
	<!ENTITY st4 "fill:#CCCCCC;stroke:#CCCCCC; stroke-width:0.1;stroke-linecap:round;stroke-linejoin:round;">
	<!-- Light-blue fill -->
	<!ENTITY st5 "fill:#CCECF4;stroke:#000000; stroke-width:1.133;stroke-linecap:round;stroke-linejoin:round;">
	<!ENTITY st6 "fill:none;stroke-linecap:butt; stroke-linejoin:round;">
	<!ENTITY st7 "fill:none;stroke:#000000;stroke-linecap:round;stroke-linejoin:round;">
	<!ENTITY st8 "enable-background:new    ;">
	<!-- Black fill -->
	<!ENTITY st9 "fill:#000000;stroke:#000000; stroke-linecap:round;stroke-linejoin:round;">
	<!-- SRS note   -->
	<!ENTITY st10 "font-size:9px;font-family:'ArialMT';">
	<!ENTITY st11 "font-size:9px;font-family:'Svg Symbol';">
	<!ENTITY st12 "font-size:6px;font-family:'Svg Symbol';">
	<!ENTITY st13 "fill:none;stroke:#ff0000;stroke-linecap:round;stroke-linejoin:round;">
	<!-- Yellow fill  -->
	<!ENTITY st14 "fill:#FFFF00;stroke:#FFFF00; stroke-width:0.1;stroke-linecap:round;stroke-linejoin:round;">
	<!ENTITY st15 "font-size:6px;font-family:'MS-PGothic';adobe-font-script:japanese;">
	<!ENTITY st16 "1.00 0.00 0.00 1.00">
	<!ENTITY st17 "0.00 -1.00 1.00 0.00">
	<!ENTITY st18 "font-size:6px;font-family:'Arial';">
	<!ENTITY st19 "font-size:9px;font-family:'Arial';">
	<!ENTITY st20 "font-size:6px;font-family:'MS-PGothic','MS PGothic';adobe-font-script:japanese;">
	<!ENTITY st21 "font-size:7px;font-family:'MS-PGothic','MS PGothic';adobe-font-script:japanese;">
	<!ATTLIST svg
		xmlns:ewd CDATA #FIXED "http://shcl.co.jp/ewd"
		xmlns:a CDATA #FIXED "http://ns.adobe.com/AdobeSVGViewerExtensions/3.0/"
		ewd:ver CDATA #IMPLIED
	>
	<!ATTLIST a
		ewd:lineID CDATA #IMPLIED
		ewd:groupID CDATA #IMPLIED
		ewd:figtype CDATA #IMPLIED
		ewd:code CDATA #IMPLIED
		ewd:figID CDATA #IMPLIED
		ewd:pinNo CDATA #IMPLIED
		ewd:comment CDATA #IMPLIED >
	<!ATTLIST g
		ewd:lineID CDATA #IMPLIED
		ewd:groupID CDATA #IMPLIED
		ewd:figtype CDATA #IMPLIED
		ewd:code CDATA #IMPLIED
		ewd:figID CDATA #IMPLIED
		ewd:pinNo CDATA #IMPLIED
		ewd:comment CDATA #IMPLIED >
	<!ATTLIST text
		ewd:textID CDATA #IMPLIED >
	<!ATTLIST title
		ewd:textID CDATA #IMPLIED >
]>
<!-- Generator: Shintec Hozumi YS   -->
<svg onload="call_execInitLoadProc_svg('system')" style="overflow:visible;  enable-background:new 0 0 6156.344 710.000" viewBox="0 0 6156.344 710.000" height="710.000" width="6156.344" xml:space="preserve" ewd:ver="2.1.2.9" xmlns="&ns_svg;" xmlns:a="http://ns.adobe.com/AdobeSVGViewerExtensions/3.0/" xmlns:ewd="http://shcl.co.jp/ewd" xmlns:xlink="&ns_xlink;">
<path style="stroke-width: 1.42 ;&st7;  " d=" M  4334.28,   219.22  L  4329.30,   214.25  " /><path style="stroke-width: 1.42 ;&st7;  " d=" M  4317.28,   226.28  L  4322.25,   231.25  " /><path style="stroke-width: 1.42 ;&st7;  " d=" M  4329.30,   231.25  L  4334.28,   226.28  " /><path style="stroke-width: 1.42 ;&st7;  " d=" M  4322.25,   214.25  L  4317.28,   219.22  " /><text style="&st18;" transform="matrix(&st17;  4279.59  198.94 )">B</text><text style="&st18;" transform="matrix(&st17;  4237.1  199.72 )">W</text><text style="&st18;" transform="matrix(&st17;  4492.05  300.92 )">B</text><text style="&st18;" transform="matrix(&st17;  4373.07  199.72 )">W</text><text style="&st18;" transform="matrix(&st17;  4415.57  198.94 )">B</text><text style="&st18;" transform="matrix(&st16;  4374.7  321.03 )">L</text><text style="&st18;" transform="matrix(&st17;  4024.63  157.22 )">W</text><text style="&st18;" transform="matrix(&st17;  4075.62  156.45 )">B</text><text style="&st18;" transform="matrix(&st17;  4322.08  455.76 )">BR</text><text style="&st18;" transform="matrix(&st17;  4322.08  370.96 )" ewd:textID="1">(Shielded)</text><text style="&st18;" transform="matrix(&st16;  4237.39  86.05 )">ECM</text><text style="&st18;" transform="matrix(&st16;  4237.38  73.01 )">C82(G),C83(B),C85(J),C146(A), <tspan x="0 " dy="6.0">C147(H),G142(D),G143(E),G145(F)</tspan></text><text style="&st18;" transform="matrix(&st17;  4426.9  201.97 )">(*9)</text><text style="&st18;" transform="matrix(&st17;  4384.4  201.97 )">(*9)</text><text style="&st18;" transform="matrix(&st17;  4333.41  363.44 )">(*9)</text><text style="&st18;" transform="matrix(&st16;  4371.56  332.37 )">(*9)</text><text style="&st18;" transform="matrix(&st17;  4333.41  456.92 )">(*9)</text><text style="&st18;" transform="matrix(&st17;  4290.92  203.52 )">(*10)</text><text style="&st18;" transform="matrix(&st17;  4248.43  203.52 )">(*10)</text><text style="&st18;" transform="matrix(&st16;  4113.11  542.0 )">B(*12)</text><text style="&st18;" transform="matrix(&st16;  4112.33  558.99 )">W(*12)</text><text style="&st18;" transform="matrix(&st16;  4164.1  542.0 )">B(*12)</text><text style="&st18;" transform="matrix(&st16;  4163.32  558.99 )">W(*12)</text><text style="&st18;" transform="matrix(&st16;  4475.34  174.3 )">C38(G),C40(I),C41(J),C114(A), <tspan x="0 " dy="6.0">C115(B),C174(K),C175(L),G49(E), </tspan><tspan x="0 " dy="6.0">G50(F),G140(C),G160(M),G161(N)</tspan></text><text style="&st18;" transform="matrix(&st16;  4475.35  193.56 )">ECM</text><text style="&st18;" transform="matrix(&st17;  4203.1  455.76 )">BR</text><text style="&st18;" transform="matrix(&st17;  4214.43  458.47 )">(*10)</text><text style="&st18;" transform="matrix(&st16;  4169.84  626.98 )">W</text><text style="&st18;" transform="matrix(&st16;  4118.85  626.98 )">W</text><text style="&st18;" transform="matrix(&st16;  4110.98  584.49 )">GR(*12)</text><text style="&st18;" transform="matrix(&st16;  4111.02  601.49 )">LG(*12)</text><text style="&st18;" transform="matrix(&st16;  4161.97  584.49 )">GR(*12)</text><text style="&st18;" transform="matrix(&st16;  4162.01  601.49 )">LG(*12)</text><text style="&st18;" transform="matrix(&st16;  4170.81  643.98 )">P</text><text style="&st18;" transform="matrix(&st16;  4119.82  643.98 )">P</text><g ewd:figtype="conn" ewd:figID="7" ewd:code="C38,C40,C41,C114,C115,C174,C175,G49,G50,G140,G160,G161"><path style="stroke-width: 1.42 ;&st7;  " d=" M  4478.75,   197.25  L  4478.75,   248.24  L  5583.56,   248.24  L  5583.56,   197.25  L  4478.75,   197.25  " /><g ewd:lineID="85"><text style="&st18;" transform="matrix(&st16;  4483.95  263.81 )">17</text><text style="&st18;" transform="matrix(&st16;  4483.95  254.75 )">24</text><text style="&st18;" transform="matrix(&st16;  4483.95  272.88 )">25</text><path style="stroke-width: 1.42 ;&st7;   " d=" M  4495.75,   266.37  C  4493.25    266.37   4491.22    268.40   4491.22    270.91  " /><path style="stroke-width: 1.42 ;&st7;   " d=" M  4491.22,   270.91  C  4491.22    273.41   4493.25    275.44   4495.75    275.44  " /><path style="stroke-width: 1.42 ;&st7;   " d=" M  4495.75,   275.44  C  4498.25    275.44   4500.28    273.41   4500.28    270.91  " /><text style="&st18;" transform="matrix(&st16;  4493.44  272.88 )">N</text><path style="stroke-width: 1.42 ;&st7;   " d=" M  4495.75,   248.24  C  4493.25    248.24   4491.22    250.27   4491.22    252.78  " /><path style="stroke-width: 1.42 ;&st7;   " d=" M  4491.22,   252.78  C  4491.22    255.28   4493.25    257.31   4495.75    257.31  " /><path style="stroke-width: 1.42 ;&st7;   " d=" M  4495.75,   257.31  C  4498.25    257.31   4500.28    255.28   4500.28    252.78  " /><path style="stroke-width: 1.42 ;&st7;   " d=" M  4495.75,   257.31  C  4493.25    257.31   4491.22    259.34   4491.22    261.84  " /><path style="stroke-width: 1.42 ;&st7;   " d=" M  4491.22,   261.84  C  4491.22    264.34   4493.25    266.37   4495.75    266.37  " /><path style="stroke-width: 1.42 ;&st7;   " d=" M  4495.75,   266.37  C  4498.25    266.37   4500.28    264.34   4500.28    261.84  " /><text style="&st18;" transform="matrix(&st16;  4493.33  254.75 )">C</text><text style="&st18;" transform="matrix(&st16;  4493.64  263.81 )">E</text><text style="&st18;" transform="matrix(&st16;  4486.97  244.55 )">CANH</text></g></g><g ewd:figtype="conn" ewd:figID="27" ewd:code="C108"><path style="stroke-width: 1.42 ;&st7;  " d=" M  4198.30,   418.22  L  4215.29,   418.22  L  4215.29,   401.22  L  4198.30,   401.22  L  4198.30,   418.22  " /><path style="stroke-width: 0.85 ;&st7;  " d=" M  4206.80,   418.22  L  4206.80,   401.22  " /><text style="&st18;" transform="matrix(&st16;  4197.51  426.41 )">13</text><text style="&st18;" transform="matrix(&st16;  4200.61  397.53 )">1</text><g ewd:figtype="title"><text style="&st18;" transform="matrix(&st17;  4223.19  421.11 )">C108</text><text style="&st18;" transform="matrix(&st17;  4230.01  421.12 )" ewd:textID="51">No. 26 Junction <tspan x="0 " dy="6.0">Connector</tspan></text></g></g><g ewd:figtype="conn" ewd:figID="28" ewd:code="C165-A"><path style="stroke-width: 1.42 ;&st7;  " d=" M  4317.28,   418.22  L  4334.27,   418.22  L  4334.27,   401.22  L  4317.28,   401.22  L  4317.28,   418.22  " /><path style="stroke-width: 0.85 ;&st7;  " d=" M  4325.78,   401.22  L  4325.78,   418.22  " /><text style="&st18;" transform="matrix(&st16;  4317.08  424.72 )">2</text><path style="stroke-width: 1.42 ;&st7;   " d=" M  4330.31,   422.75  C  4330.31    420.24   4328.28    418.22   4325.78    418.22  " /><path style="stroke-width: 1.42 ;&st7;   " d=" M  4325.78,   418.22  C  4323.27    418.22   4321.24    420.24   4321.24    422.75  " /><path style="stroke-width: 1.42 ;&st7;   " d=" M  4321.24,   422.75  C  4321.24    425.25   4323.27    427.28   4325.78    427.28  " /><path style="stroke-width: 1.42 ;&st7;   " d=" M  4325.78,   427.28  C  4328.28    427.28   4330.31    425.25   4330.31    422.75  " /><text style="&st18;" transform="matrix(&st16;  4323.47  424.72 )">A</text><text style="&st18;" transform="matrix(&st16;  4317.08  398.65 )">1</text><path style="stroke-width: 1.42 ;&st7;   " d=" M  4330.31,   396.69  C  4330.31    394.18   4328.28    392.15   4325.78    392.15  " /><path style="stroke-width: 1.42 ;&st7;   " d=" M  4325.78,   392.15  C  4323.27    392.15   4321.24    394.18   4321.24    396.69  " /><path style="stroke-width: 1.42 ;&st7;   " d=" M  4321.24,   396.69  C  4321.24    399.19   4323.27    401.22   4325.78    401.22  " /><path style="stroke-width: 1.42 ;&st7;   " d=" M  4325.78,   401.22  C  4328.28    401.22   4330.31    399.19   4330.31    396.69  " /><text style="&st18;" transform="matrix(&st16;  4323.47  398.65 )">A</text><g ewd:figtype="title"><text style="&st18;" transform="matrix(&st16;  4336.54  411.69 )" ewd:textID="53">No. 28 Junction Connector</text><text style="&st18;" transform="matrix(&st16;  4336.53  404.86 )">C165(A)</text></g></g><g ewd:figtype="conn" ewd:figID="31" ewd:code="C95"><path style="stroke-width: 0.85 ;&st7;  " d=" M  4240.79,   290.74  L  4240.79,   299.24  " /><path style="stroke-width: 0.85 ;&st7;  " d=" M  4240.79,   265.24  L  4240.79,   273.74  " /><path style="stroke-width: 1.42 ;&st7;  " d=" M  4249.29,   290.74  L  4249.29,   282.24  " /><path style="stroke-width: 1.42 ;&st7;  " d=" M  4232.29,   290.74  L  4232.29,   282.24  " /><path style="stroke-width: 1.42 ;&st7;  " d=" M  4232.29,   273.74  L  4232.29,   282.24  " /><path style="stroke-width: 1.42 ;&st7;  " d=" M  4249.29,   273.74  L  4249.29,   282.24  " /><path style="stroke-width: 0.85 ;&st7;   " d=" M  4240.79,   290.74  C  4242.75    290.74   4244.33    289.15   4244.33    287.20  " /><path style="stroke-width: 0.85 ;&st7;   " d=" M  4244.33,   287.20  C  4244.33    285.24   4242.75    283.65   4240.79    283.65  " /><path style="stroke-width: 0.85 ;&st7;   " d=" M  4240.79,   283.65  C  4239.80    283.65   4238.96    284.01   4238.26    284.72  " /><path style="stroke-width: 0.85 ;&st7;   " d=" M  4238.26,   284.72  C  4239.63    286.11   4241.87    286.14   4243.27    284.77  " /><path style="stroke-width: 0.85 ;&st7;   " d=" M  4243.27,   284.77  C  4244.67    283.40   4244.69    281.16   4243.32    279.76  " /><path style="stroke-width: 0.85 ;&st7;   " d=" M  4243.32,   279.76  C  4241.95    278.36   4239.71    278.34   4238.31    279.71  " /><path style="stroke-width: 0.85 ;&st7;   " d=" M  4238.31,   279.71  C  4238.29    279.73   4238.28    279.74   4238.26    279.76  " /><path style="stroke-width: 0.85 ;&st7;   " d=" M  4238.26,   279.76  C  4239.63    281.16   4241.87    281.18   4243.27    279.81  " /><path style="stroke-width: 0.85 ;&st7;   " d=" M  4243.27,   279.81  C  4244.67    278.44   4244.69    276.20   4243.32    274.80  " /><path style="stroke-width: 0.85 ;&st7;   " d=" M  4243.32,   274.80  C  4242.63    274.09   4241.78    273.74   4240.79    273.74  " /><path style="stroke-width: 1.42 ;&st7;   " d=" M  4232.29,   290.74  C  4232.29    295.43   4236.10    299.24   4240.79    299.24  " /><path style="stroke-width: 1.42 ;&st7;   " d=" M  4240.79,   299.24  C  4245.48    299.24   4249.29    295.43   4249.29    290.74  " /><path style="stroke-width: 1.42 ;&st7;   " d=" M  4249.29,   273.74  C  4249.29    269.05   4245.48    265.24   4240.79    265.24  " /><path style="stroke-width: 1.42 ;&st7;   " d=" M  4240.79,   265.24  C  4236.10    265.24   4232.29    269.05   4232.29    273.74  " /><text style="&st18;" transform="matrix(&st16;  4234.61  307.43 )">1</text><text style="&st18;" transform="matrix(&st16;  4234.61  261.55 )">2</text><g ewd:figtype="title"><text style="&st18;" transform="matrix(&st17;  4256.9  293.64 )">C95</text><text style="&st18;" transform="matrix(&st17;  4264.01  293.64 )" ewd:textID="24">Crank Position <tspan x="0 " dy="6.0">Sensor</tspan></text></g></g><g ewd:figtype="conn" ewd:figID="62" ewd:code="C82,C83,C85,C146,C147,G142,G143,G145"><path style="stroke-width: 0.85 ;&st7; stroke-dasharray:3, 1.5;" d=" M  4087.82,   117.37  L  4096.31,   117.37  " /><path style="stroke-width: 0.85 ;&st7; stroke-dasharray:3, 1.5;" d=" M  4385.27,   117.37  L  4402.26,   117.37  " /><path style="stroke-width: 0.85 ;&st7; stroke-dasharray:3, 1.5;" d=" M  4385.27,   108.30  L  4402.26,   108.30  " /><path style="stroke-width: 0.85 ;&st7; stroke-dasharray:3, 1.5;" d=" M  4036.82,   117.37  L  4062.32,   117.37  " /><path style="stroke-width: 0.85 ;&st7; stroke-dasharray:3, 1.5;" d=" M  4087.82,   108.30  L  4096.31,   108.30  " /><path style="stroke-width: 0.85 ;&st7; stroke-dasharray:3, 1.5;" d=" M  4036.82,   108.30  L  4066.57,   108.30  " /><g ewd:lineID="101,106"><text style="&st18;" transform="matrix(&st16;  4407.47  110.27 )">27</text><text style="&st18;" transform="matrix(&st16;  4407.47  119.33 )">16</text><text style="&st18;" transform="matrix(&st16;  4416.96  110.27 )">A</text><path style="stroke-width: 1.42 ;&st7;   " d=" M  4423.79,   108.30  C  4423.79    105.80   4421.76    103.77   4419.26    103.77  " /><path style="stroke-width: 1.42 ;&st7;   " d=" M  4419.26,   103.77  C  4416.76    103.77   4414.73    105.80   4414.73    108.30  " /><path style="stroke-width: 1.42 ;&st7;   " d=" M  4414.73,   108.30  C  4414.73    110.80   4416.76    112.83   4419.26    112.83  " /><path style="stroke-width: 1.42 ;&st7;   " d=" M  4419.26,   112.83  C  4421.76    112.83   4423.79    110.80   4423.79    108.30  " /><path style="stroke-width: 1.42 ;&st7;   " d=" M  4423.79,   117.37  C  4423.79    114.86   4421.76    112.83   4419.26    112.83  " /><path style="stroke-width: 1.42 ;&st7;   " d=" M  4419.26,   112.83  C  4416.76    112.83   4414.73    114.86   4414.73    117.37  " /><path style="stroke-width: 1.42 ;&st7;   " d=" M  4414.73,   117.37  C  4414.73    119.87   4416.76    121.90   4419.26    121.90  " /><path style="stroke-width: 1.42 ;&st7;   " d=" M  4419.26,   121.90  C  4421.76    121.90   4423.79    119.87   4423.79    117.37  " /><text style="&st18;" transform="matrix(&st16;  4417.81  119.33 )">J</text><text style="&st18;" transform="matrix(&st16;  4413.54  100.07 )">NE+</text></g><g ewd:lineID="102,104"><text style="&st18;" transform="matrix(&st16;  4364.97  119.33 )">17</text><text style="&st18;" transform="matrix(&st16;  4364.97  110.27 )">34</text><text style="&st18;" transform="matrix(&st16;  4375.32  119.33 )">J</text><path style="stroke-width: 1.42 ;&st7;   " d=" M  4381.30,   108.30  C  4381.30    105.80   4379.27    103.77   4376.77    103.77  " /><path style="stroke-width: 1.42 ;&st7;   " d=" M  4376.77,   103.77  C  4374.27    103.77   4372.24    105.80   4372.24    108.30  " /><path style="stroke-width: 1.42 ;&st7;   " d=" M  4372.24,   108.30  C  4372.24    110.80   4374.27    112.83   4376.77    112.83  " /><path style="stroke-width: 1.42 ;&st7;   " d=" M  4376.77,   112.83  C  4379.27    112.83   4381.30    110.80   4381.30    108.30  " /><path style="stroke-width: 1.42 ;&st7;   " d=" M  4381.30,   117.37  C  4381.30    114.86   4379.27    112.83   4376.77    112.83  " /><path style="stroke-width: 1.42 ;&st7;   " d=" M  4376.77,   112.83  C  4374.27    112.83   4372.24    114.86   4372.24    117.37  " /><path style="stroke-width: 1.42 ;&st7;   " d=" M  4372.24,   117.37  C  4372.24    119.87   4374.27    121.90   4376.77    121.90  " /><path style="stroke-width: 1.42 ;&st7;   " d=" M  4376.77,   121.90  C  4379.27    121.90   4381.30    119.87   4381.30    117.37  " /><text style="&st18;" transform="matrix(&st16;  4374.46  110.27 )">A</text><text style="&st18;" transform="matrix(&st16;  4371.05  100.07 )">NE-</text></g><g ewd:lineID="176"><text style="&st18;" transform="matrix(&st16;  4101.52  110.27 )">17</text><text style="&st18;" transform="matrix(&st16;  4101.52  119.33 )">15</text><path style="stroke-width: 1.42 ;&st7;   " d=" M  4117.85,   108.30  C  4117.85    105.80   4115.82    103.77   4113.31    103.77  " /><path style="stroke-width: 1.42 ;&st7;   " d=" M  4113.31,   103.77  C  4110.81    103.77   4108.78    105.80   4108.78    108.30  " /><path style="stroke-width: 1.42 ;&st7;   " d=" M  4108.78,   108.30  C  4108.78    110.80   4110.81    112.83   4113.31    112.83  " /><path style="stroke-width: 1.42 ;&st7;   " d=" M  4113.31,   112.83  C  4115.82    112.83   4117.85    110.80   4117.85    108.30  " /><path style="stroke-width: 1.42 ;&st7;   " d=" M  4117.85,   117.37  C  4117.85    114.86   4115.82    112.83   4113.31    112.83  " /><path style="stroke-width: 1.42 ;&st7;   " d=" M  4113.31,   112.83  C  4110.81    112.83   4108.78    114.86   4108.78    117.37  " /><path style="stroke-width: 1.42 ;&st7;   " d=" M  4108.78,   117.37  C  4108.78    119.87   4110.81    121.90   4113.31    121.90  " /><path style="stroke-width: 1.42 ;&st7;   " d=" M  4113.31,   121.90  C  4115.82    121.90   4117.85    119.87   4117.85    117.37  " /><text style="&st18;" transform="matrix(&st16;  4111.01  110.27 )">A</text><text style="&st18;" transform="matrix(&st16;  4110.85  119.33 )">G</text><text style="&st18;" transform="matrix(&st16;  4105.89  100.07 )">GE01</text></g><g ewd:lineID="98"><text style="&st18;" transform="matrix(&st16;  4016.53  119.33 )">20</text><text style="&st18;" transform="matrix(&st16;  4019.63  110.27 )">6</text><text style="&st18;" transform="matrix(&st16;  4025.87  119.33 )">G</text><path style="stroke-width: 1.42 ;&st7;   " d=" M  4032.86,   108.30  C  4032.86    105.80   4030.83    103.77   4028.33    103.77  " /><path style="stroke-width: 1.42 ;&st7;   " d=" M  4028.33,   103.77  C  4025.82    103.77   4023.79    105.80   4023.79    108.30  " /><path style="stroke-width: 1.42 ;&st7;   " d=" M  4023.79,   108.30  C  4023.79    110.80   4025.82    112.83   4028.33    112.83  " /><path style="stroke-width: 1.42 ;&st7;   " d=" M  4028.33,   112.83  C  4030.83    112.83   4032.86    110.80   4032.86    108.30  " /><path style="stroke-width: 1.42 ;&st7;   " d=" M  4032.86,   117.37  C  4032.86    114.86   4030.83    112.83   4028.33    112.83  " /><path style="stroke-width: 1.42 ;&st7;   " d=" M  4028.33,   112.83  C  4025.82    112.83   4023.79    114.86   4023.79    117.37  " /><path style="stroke-width: 1.42 ;&st7;   " d=" M  4023.79,   117.37  C  4023.79    119.87   4025.82    121.90   4028.33    121.90  " /><path style="stroke-width: 1.42 ;&st7;   " d=" M  4028.33,   121.90  C  4030.83    121.90   4032.86    119.87   4032.86    117.37  " /><text style="&st18;" transform="matrix(&st16;  4026.02  110.27 )">A</text><text style="&st18;" transform="matrix(&st16;  4024.04  100.07 )">M-</text></g><g ewd:lineID="99"><text style="&st18;" transform="matrix(&st16;  4070.62  110.27 )">7</text><text style="&st18;" transform="matrix(&st16;  4067.52  119.33 )">19</text><path style="stroke-width: 1.42 ;&st7;   " d=" M  4083.85,   108.30  C  4083.85    105.80   4081.82    103.77   4079.32    103.77  " /><path style="stroke-width: 1.42 ;&st7;   " d=" M  4079.32,   103.77  C  4076.82    103.77   4074.79    105.80   4074.79    108.30  " /><path style="stroke-width: 1.42 ;&st7;   " d=" M  4074.79,   108.30  C  4074.79    110.80   4076.82    112.83   4079.32    112.83  " /><path style="stroke-width: 1.42 ;&st7;   " d=" M  4079.32,   112.83  C  4081.82    112.83   4083.85    110.80   4083.85    108.30  " /><path style="stroke-width: 1.42 ;&st7;   " d=" M  4083.85,   117.37  C  4083.85    114.86   4081.82    112.83   4079.32    112.83  " /><path style="stroke-width: 1.42 ;&st7;   " d=" M  4079.32,   112.83  C  4076.82    112.83   4074.79    114.86   4074.79    117.37  " /><path style="stroke-width: 1.42 ;&st7;   " d=" M  4074.79,   117.37  C  4074.79    119.87   4076.82    121.90   4079.32    121.90  " /><path style="stroke-width: 1.42 ;&st7;   " d=" M  4079.32,   121.90  C  4081.82    121.90   4083.85    119.87   4083.85    117.37  " /><text style="&st18;" transform="matrix(&st16;  4077.01  110.27 )">A</text><text style="&st18;" transform="matrix(&st16;  4076.86  119.33 )">G</text><text style="&st18;" transform="matrix(&st16;  4075.04  100.07 )">M+</text></g></g><g ewd:figtype="conn" ewd:figID="63" ewd:code="C126"><path style="stroke-width: 1.42 ;&st7;  " d=" M  4359.77,   265.24  L  4359.77,   299.24  L  4436.26,   299.24  L  4436.26,   265.24  L  4359.77,   265.24  " /><g ewd:lineID="104"><text style="&st18;" transform="matrix(&st16;  4370.58  261.55 )">2</text><text style="&st18;" transform="matrix(&st16;  4371.05  272.88 )">NE-</text></g><g ewd:lineID="105"><text style="&st18;" transform="matrix(&st16;  4413.08  307.43 )">3</text><text style="&st18;" transform="matrix(&st16;  4412.61  295.54 )">GND</text></g><g ewd:lineID="106"><text style="&st18;" transform="matrix(&st16;  4413.08  261.55 )">1</text><text style="&st18;" transform="matrix(&st16;  4415.1  272.88 )">NE</text></g><g ewd:figtype="title"><text style="&st18;" transform="matrix(&st17;  4443.87  302.13 )">C126</text><text style="&st18;" transform="matrix(&st17;  4450.98  302.14 )" ewd:textID="24">Crank Position Sensor</text></g></g><g ewd:figtype="gp" ewd:figID="121" ewd:code="CD"><path style="stroke-width: 0.85 ;&st7;  " d=" M  4205.38,   710.00  L  4208.21,   710.00  " /><path style="stroke-width: 0.85 ;&st7;  " d=" M  4203.96,   707.17  L  4209.63,   707.17  " /><path style="stroke-width: 0.85 ;&st7;  " d=" M  4202.55,   704.33  L  4211.04,   704.33  " /><path style="stroke-width: 0.85 ;&st7;  " d=" M  4198.30,   701.50  L  4215.29,   701.50  " /><path style="stroke-width: 0.85 ;&st7;  " d=" M  4206.80,   697.25  L  4206.80,   701.50  " /></g><g ewd:figtype="gp" ewd:figID="122" ewd:code="CG"><path style="stroke-width: 0.85 ;&st7;  " d=" M  4324.36,   710.00  L  4327.19,   710.00  " /><path style="stroke-width: 0.85 ;&st7;  " d=" M  4322.94,   707.17  L  4328.61,   707.17  " /><path style="stroke-width: 0.85 ;&st7;  " d=" M  4321.53,   704.33  L  4330.02,   704.33  " /><path style="stroke-width: 0.85 ;&st7;  " d=" M  4317.28,   701.50  L  4334.27,   701.50  " /><path style="stroke-width: 0.85 ;&st7;  " d=" M  4325.78,   697.25  L  4325.78,   701.50  " /></g><g ewd:code=" " ewd:figID="161" ewd:comment="10, " ewd:figtype="sh"><path style="stroke-width: 0.85 ;&st7; stroke-dasharray:3, 1.5;" d=" M  4206.80,   222.75  L  4300.28,   222.75  L  4300.28,   171.76  L  4206.80,   171.76  L  4206.80,   222.75  " /><path style="stroke-width: 0.85 ;&st7;  " d=" M  4205.60,   221.75  L  4205.33,   222.22  L  4205.24,   222.75  L  4205.33,   223.28  L  4205.60,   223.75  L  4206.02,   224.10  L  4206.53,   224.28  L  4207.06,   224.28  L  4207.57,   224.10  L  4207.99,   223.75  L  4208.26,   223.28  L  4208.35,   222.75  L  4208.26,   222.22  L  4207.99,   221.75  L  4207.57,   221.40  L  4207.06,   221.21  L  4206.53,   221.21  L  4206.02,   221.40  L  4205.60,   221.75  L  4206.00,   222.46  L  4206.00,   223.04  L  4206.37,   223.48  L  4206.94,   223.58  L  4207.45,   223.30  L  4207.65,   222.75  L  4207.45,   222.20  L  4206.94,   221.91  L  4206.37,   222.01  L  4206.80,   222.75  " /><g ewd:code="" ewd:figID="173" ewd:comment=" " ewd:figtype="commref"><text style="&st18;" transform="matrix(&st17;  4203.1  209.49 )" ewd:textID="1">(Shielded)</text></g><g ewd:code="" ewd:figID="183" ewd:comment="10" ewd:figtype="commref"><text style="&st18;" transform="matrix(&st17;  4214.43  203.52 )">(*10)</text></g></g><g ewd:code=" " ewd:figID="162" ewd:comment=" ,9" ewd:figtype="sh"><path style="stroke-width: 0.85 ;&st7; stroke-dasharray:3, 1.5;" d=" M  4325.78,   214.25  L  4325.78,   171.76  L  4436.26,   171.76  L  4436.26,   222.75  L  4334.27,   222.75  " /><g ewd:code="" ewd:figID="174" ewd:comment=" " ewd:figtype="commref"><text style="&st18;" transform="matrix(&st17;  4322.08  209.49 )" ewd:textID="1">(Shielded)</text></g><g ewd:code="" ewd:figID="182" ewd:comment="9" ewd:figtype="commref"><text style="&st18;" transform="matrix(&st17;  4333.41  201.97 )">(*9)</text></g></g><g ewd:code="" ewd:figID="180" ewd:comment="9" ewd:figtype="commref"><text style="&st18;" transform="matrix(&st16;  4424.35  110.27 )">(*9)</text></g><g ewd:code="" ewd:figID="181" ewd:comment="10" ewd:figtype="commref"><text style="&st18;" transform="matrix(&st16;  4424.35  119.33 )">(*10)</text></g><g ewd:code="" ewd:figID="194" ewd:comment="10" ewd:figtype="commref"><text style="&st18;" transform="matrix(&st16;  4118.41  119.33 )">(*10)</text></g><g ewd:code="" ewd:figID="195" ewd:comment="9" ewd:figtype="commref"><text style="&st18;" transform="matrix(&st16;  4118.41  110.27 )">(*9)</text></g></svg>