﻿<?xml version="1.0" encoding="utf-8"?>
<!DOCTYPE svg PUBLIC "-//W3C//DTD SVG 1.0//EN" "http://www.w3.org/TR/2001/REC-SVG-20010904/DTD/svg10.dtd"[
	<!ENTITY ns_flows "http://ns.adobe.com/Flows/1.0/">
	<!ENTITY ns_svg "http://www.w3.org/2000/svg">
	<!ENTITY ns_xlink "http://www.w3.org/1999/xlink">
	<!ENTITY st0 "font-size:7px;font-family:'MS-PGothic';adobe-font-script:japanese;">
	<!ENTITY st1 "font-size:6px;font-family:'ArialMT';">
	<!-- White fill  -->
	<!ENTITY st2 "fill:#FFFFFF;stroke:#000000; stroke-width:1.41;stroke-linecap:round;stroke-linejoin:round;">
	<!-- Yellow fill  -->
	<!ENTITY st3 "fill:#FFFFCC;stroke:#FFFFCC; stroke-width:0.1;stroke-linecap:round;stroke-linejoin:round;">
	<!-- Gray fill  -->
	<!ENTITY st4 "fill:#CCCCCC;stroke:#CCCCCC; stroke-width:0.1;stroke-linecap:round;stroke-linejoin:round;">
	<!-- Light-blue fill -->
	<!ENTITY st5 "fill:#CCECF4;stroke:#000000; stroke-width:1.133;stroke-linecap:round;stroke-linejoin:round;">
	<!ENTITY st6 "fill:none;stroke-linecap:butt; stroke-linejoin:round;">
	<!ENTITY st7 "fill:none;stroke:#000000;stroke-linecap:round;stroke-linejoin:round;">
	<!ENTITY st8 "enable-background:new    ;">
	<!-- Black fill -->
	<!ENTITY st9 "fill:#000000;stroke:#000000; stroke-linecap:round;stroke-linejoin:round;">
	<!-- SRS note   -->
	<!ENTITY st10 "font-size:9px;font-family:'ArialMT';">
	<!ENTITY st11 "font-size:9px;font-family:'Svg Symbol';">
	<!ENTITY st12 "font-size:6px;font-family:'Svg Symbol';">
	<!ENTITY st13 "fill:none;stroke:#ff0000;stroke-linecap:round;stroke-linejoin:round;">
	<!-- Yellow fill  -->
	<!ENTITY st14 "fill:#FFFF00;stroke:#FFFF00; stroke-width:0.1;stroke-linecap:round;stroke-linejoin:round;">
	<!ENTITY st15 "font-size:6px;font-family:'MS-PGothic';adobe-font-script:japanese;">
	<!ENTITY st16 "1.00 0.00 0.00 1.00">
	<!ENTITY st17 "0.00 -1.00 1.00 0.00">
	<!ENTITY st18 "font-size:6px;font-family:'Arial';">
	<!ENTITY st19 "font-size:9px;font-family:'Arial';">
	<!ENTITY st20 "font-size:6px;font-family:'MS-PGothic','MS PGothic';adobe-font-script:japanese;">
	<!ENTITY st21 "font-size:7px;font-family:'MS-PGothic','MS PGothic';adobe-font-script:japanese;">
	<!ATTLIST svg
		xmlns:ewd CDATA #FIXED "http://shcl.co.jp/ewd"
		xmlns:a CDATA #FIXED "http://ns.adobe.com/AdobeSVGViewerExtensions/3.0/"
		ewd:ver CDATA #IMPLIED
	>
	<!ATTLIST a
		ewd:lineID CDATA #IMPLIED
		ewd:groupID CDATA #IMPLIED
		ewd:figtype CDATA #IMPLIED
		ewd:code CDATA #IMPLIED
		ewd:figID CDATA #IMPLIED
		ewd:pinNo CDATA #IMPLIED
		ewd:comment CDATA #IMPLIED >
	<!ATTLIST g
		ewd:lineID CDATA #IMPLIED
		ewd:groupID CDATA #IMPLIED
		ewd:figtype CDATA #IMPLIED
		ewd:code CDATA #IMPLIED
		ewd:figID CDATA #IMPLIED
		ewd:pinNo CDATA #IMPLIED
		ewd:comment CDATA #IMPLIED >
	<!ATTLIST text
		ewd:textID CDATA #IMPLIED >
	<!ATTLIST title
		ewd:textID CDATA #IMPLIED >
]>
<!-- Generator: Shintec Hozumi YS   -->
<svg onload="call_execInitLoadProc_svg('system')" style="overflow:visible;  enable-background:new 0 0 6156.344 710.000" viewBox="0 0 6156.344 710.000" height="710.000" width="6156.344" xml:space="preserve" ewd:ver="2.1.2.9" xmlns="&ns_svg;" xmlns:a="http://ns.adobe.com/AdobeSVGViewerExtensions/3.0/" xmlns:ewd="http://shcl.co.jp/ewd" xmlns:xlink="&ns_xlink;">
<path style="stroke-width: 1.42 ;&st7;  " d=" M  4716.71,   328.26  L  4721.68,   333.23  " /><path style="stroke-width: 1.42 ;&st7;  " d=" M  4728.74,   333.23  L  4733.71,   328.26  " /><path style="stroke-width: 1.42 ;&st7;  " d=" M  4721.68,   316.23  L  4716.71,   321.20  " /><path style="stroke-width: 1.42 ;&st7;  " d=" M  4733.71,   321.20  L  4728.74,   316.23  " /><text style="&st18;" transform="matrix(&st17;  4577.04  303.06 )">GR</text><text style="&st18;" transform="matrix(&st17;  4611.03  303.02 )">LG</text><text style="&st18;" transform="matrix(&st17;  4526.05  301.7 )">W</text><text style="&st18;" transform="matrix(&st17;  4806.5  300.81 )">L</text><text style="&st18;" transform="matrix(&st17;  4772.51  300.92 )">Y</text><text style="&st18;" transform="matrix(&st17;  4806.5  424.17 )">W-B</text><text style="&st18;" transform="matrix(&st17;  4721.52  489.94 )" ewd:textID="1">(Shielded)</text><text style="&st18;" transform="matrix(&st17;  4772.51  591.74 )">BR</text><text style="&st18;" transform="matrix(&st17;  4817.83  303.95 )">(*7)</text><text style="&st18;" transform="matrix(&st17;  4783.84  303.95 )">(*7)</text><text style="&st18;" transform="matrix(&st17;  4732.85  482.42 )">(*7)</text><text style="&st18;" transform="matrix(&st17;  4817.83  422.93 )">(*7)</text><text style="&st18;" transform="matrix(&st17;  4783.84  599.8 )">(*7 M/T)</text><text style="&st18;" transform="matrix(&st17;  4537.38  305.5 )">(*12)</text><text style="&st18;" transform="matrix(&st17;  4503.39  305.5 )">(*12)</text><text style="&st18;" transform="matrix(&st17;  4588.37  305.5 )">(*12)</text><text style="&st18;" transform="matrix(&st17;  4622.37  305.5 )">(*12)</text><text style="&st18;" transform="matrix(&st16;  4688.25  626.98 )">W</text><text style="&st18;" transform="matrix(&st16;  4637.26  626.98 )">W</text><text style="&st18;" transform="matrix(&st16;  4689.22  643.98 )">P</text><text style="&st18;" transform="matrix(&st16;  4638.23  643.98 )">P</text><text style="&st18;" transform="matrix(&st17;  4721.51  591.74 )">BR</text><text style="&st18;" transform="matrix(&st17;  4732.85  599.38 )">(*7 A/T)</text><text style="&st18;" transform="matrix(&st17;  4891.49  300.81 )">L</text><text style="&st18;" transform="matrix(&st17;  4933.98  300.92 )">Y</text><text style="&st18;" transform="matrix(&st17;  4959.48  591.74 )">BR</text><text style="&st18;" transform="matrix(&st17;  4902.82  305.5 )">(*20)</text><text style="&st18;" transform="matrix(&st17;  4945.31  305.5 )">(*20)</text><text style="&st18;" transform="matrix(&st17;  4970.81  594.45 )">(*20)</text><g ewd:figtype="conn" ewd:figID="7" ewd:code="C38,C40,C41,C114,C115,C174,C175,G49,G50,G140,G160,G161"><path style="stroke-width: 0.85 ;&st7; stroke-dasharray:3, 1.5;" d=" M  4589.23,   261.84  L  4597.73,   261.84  " /><path style="stroke-width: 0.85 ;&st7; stroke-dasharray:3, 1.5;" d=" M  4589.23,   252.78  L  4597.73,   252.78  " /><path style="stroke-width: 0.85 ;&st7; stroke-dasharray:3, 1.5;" d=" M  4538.24,   261.84  L  4563.74,   261.84  " /><path style="stroke-width: 0.85 ;&st7; stroke-dasharray:3, 1.5;" d=" M  4538.24,   252.78  L  4563.74,   252.78  " /><path style="stroke-width: 0.85 ;&st7; stroke-dasharray:3, 1.5;" d=" M  4504.25,   261.84  L  4512.74,   261.84  " /><path style="stroke-width: 0.85 ;&st7; stroke-dasharray:3, 1.5;" d=" M  4504.25,   252.78  L  4512.74,   252.78  " /><path style="stroke-width: 0.85 ;&st7; stroke-dasharray:3, 1.5;" d=" M  4504.25,   270.91  L  4512.74,   270.91  " /><path style="stroke-width: 0.85 ;&st7; stroke-dasharray:3, 1.5;" d=" M  4538.24,   270.91  L  4563.74,   270.91  " /><path style="stroke-width: 0.85 ;&st7; stroke-dasharray:3, 1.5;" d=" M  4589.23,   270.91  L  4601.98,   270.91  " /><g ewd:lineID="107"><text style="&st18;" transform="matrix(&st16;  4517.95  263.81 )">28</text><text style="&st18;" transform="matrix(&st16;  4517.95  272.88 )">31</text><text style="&st18;" transform="matrix(&st16;  4517.95  254.75 )">23</text><text style="&st18;" transform="matrix(&st16;  4527.44  272.88 )">N</text><path style="stroke-width: 1.42 ;&st7;   " d=" M  4534.28,   252.78  C  4534.28    250.27   4532.25    248.24   4529.74    248.24  " /><path style="stroke-width: 1.42 ;&st7;   " d=" M  4529.74,   248.24  C  4527.24    248.24   4525.21    250.27   4525.21    252.78  " /><path style="stroke-width: 1.42 ;&st7;   " d=" M  4525.21,   252.78  C  4525.21    255.28   4527.24    257.31   4529.74    257.31  " /><path style="stroke-width: 1.42 ;&st7;   " d=" M  4529.74,   257.31  C  4532.25    257.31   4534.28    255.28   4534.28    252.78  " /><path style="stroke-width: 1.42 ;&st7;   " d=" M  4534.28,   261.84  C  4534.28    259.34   4532.25    257.31   4529.74    257.31  " /><path style="stroke-width: 1.42 ;&st7;   " d=" M  4529.74,   257.31  C  4527.24    257.31   4525.21    259.34   4525.21    261.84  " /><path style="stroke-width: 1.42 ;&st7;   " d=" M  4525.21,   261.84  C  4525.21    264.34   4527.24    266.37   4529.74    266.37  " /><path style="stroke-width: 1.42 ;&st7;   " d=" M  4529.74,   266.37  C  4532.25    266.37   4534.28    264.34   4534.28    261.84  " /><text style="&st18;" transform="matrix(&st16;  4527.63  263.81 )">E</text><text style="&st18;" transform="matrix(&st16;  4527.32  254.75 )">C</text><path style="stroke-width: 1.42 ;&st7;   " d=" M  4534.28,   270.91  C  4534.28    268.40   4532.25    266.37   4529.74    266.37  " /><path style="stroke-width: 1.42 ;&st7;   " d=" M  4529.74,   266.37  C  4527.24    266.37   4525.21    268.40   4525.21    270.91  " /><path style="stroke-width: 1.42 ;&st7;   " d=" M  4525.21,   270.91  C  4525.21    273.41   4527.24    275.44   4529.74    275.44  " /><path style="stroke-width: 1.42 ;&st7;   " d=" M  4529.74,   275.44  C  4532.25    275.44   4534.28    273.41   4534.28    270.91  " /><text style="&st18;" transform="matrix(&st16;  4521.39  244.55 )">CANL</text></g><g ewd:lineID="108"><text style="&st18;" transform="matrix(&st16;  4568.94  263.81 )">15</text><text style="&st18;" transform="matrix(&st16;  4568.94  272.88 )">34</text><text style="&st18;" transform="matrix(&st16;  4568.94  254.75 )">18</text><text style="&st18;" transform="matrix(&st16;  4578.0  272.88 )">M</text><path style="stroke-width: 1.42 ;&st7;   " d=" M  4585.27,   270.91  C  4585.27    268.40   4583.24    266.37   4580.73    266.37  " /><path style="stroke-width: 1.42 ;&st7;   " d=" M  4580.73,   266.37  C  4578.23    266.37   4576.20    268.40   4576.20    270.91  " /><path style="stroke-width: 1.42 ;&st7;   " d=" M  4576.20,   270.91  C  4576.20    273.41   4578.23    275.44   4580.73    275.44  " /><path style="stroke-width: 1.42 ;&st7;   " d=" M  4580.73,   275.44  C  4583.24    275.44   4585.27    273.41   4585.27    270.91  " /><text style="&st18;" transform="matrix(&st16;  4578.62  263.81 )">F</text><path style="stroke-width: 1.42 ;&st7;   " d=" M  4585.27,   261.84  C  4585.27    259.34   4583.24    257.31   4580.73    257.31  " /><path style="stroke-width: 1.42 ;&st7;   " d=" M  4580.73,   257.31  C  4578.23    257.31   4576.20    259.34   4576.20    261.84  " /><path style="stroke-width: 1.42 ;&st7;   " d=" M  4576.20,   261.84  C  4576.20    264.34   4578.23    266.37   4580.73    266.37  " /><path style="stroke-width: 1.42 ;&st7;   " d=" M  4580.73,   266.37  C  4583.24    266.37   4585.27    264.34   4585.27    261.84  " /><text style="&st18;" transform="matrix(&st16;  4578.31  254.75 )">C</text><path style="stroke-width: 1.42 ;&st7;   " d=" M  4585.27,   252.78  C  4585.27    250.27   4583.24    248.24   4580.73    248.24  " /><path style="stroke-width: 1.42 ;&st7;   " d=" M  4580.73,   248.24  C  4578.23    248.24   4576.20    250.27   4576.20    252.78  " /><path style="stroke-width: 1.42 ;&st7;   " d=" M  4576.20,   252.78  C  4576.20    255.28   4578.23    257.31   4580.73    257.31  " /><path style="stroke-width: 1.42 ;&st7;   " d=" M  4580.73,   257.31  C  4583.24    257.31   4585.27    255.28   4585.27    252.78  " /><text style="&st18;" transform="matrix(&st16;  4574.71  244.55 )">AC1</text></g><g ewd:lineID="109"><text style="&st18;" transform="matrix(&st16;  4606.04  272.88 )">9</text><text style="&st18;" transform="matrix(&st16;  4602.93  263.81 )">14</text><text style="&st18;" transform="matrix(&st16;  4602.93  254.75 )">19</text><text style="&st18;" transform="matrix(&st16;  4612.42  272.88 )">N</text><path style="stroke-width: 1.42 ;&st7;   " d=" M  4619.26,   261.84  C  4619.26    259.34   4617.23    257.31   4614.73    257.31  " /><path style="stroke-width: 1.42 ;&st7;   " d=" M  4614.73,   257.31  C  4612.23    257.31   4610.20    259.34   4610.20    261.84  " /><path style="stroke-width: 1.42 ;&st7;   " d=" M  4610.20,   261.84  C  4610.20    264.34   4612.23    266.37   4614.73    266.37  " /><path style="stroke-width: 1.42 ;&st7;   " d=" M  4614.73,   266.37  C  4617.23    266.37   4619.26    264.34   4619.26    261.84  " /><text style="&st18;" transform="matrix(&st16;  4612.62  263.81 )">F</text><text style="&st18;" transform="matrix(&st16;  4612.31  254.75 )">C</text><path style="stroke-width: 1.42 ;&st7;   " d=" M  4619.26,   270.91  C  4619.26    268.40   4617.23    266.37   4614.73    266.37  " /><path style="stroke-width: 1.42 ;&st7;   " d=" M  4614.73,   266.37  C  4612.23    266.37   4610.20    268.40   4610.20    270.91  " /><path style="stroke-width: 1.42 ;&st7;   " d=" M  4610.20,   270.91  C  4610.20    273.41   4612.23    275.44   4614.73    275.44  " /><path style="stroke-width: 1.42 ;&st7;   " d=" M  4614.73,   275.44  C  4617.23    275.44   4619.26    273.41   4619.26    270.91  " /><path style="stroke-width: 1.42 ;&st7;   " d=" M  4619.26,   252.78  C  4619.26    250.27   4617.23    248.24   4614.73    248.24  " /><path style="stroke-width: 1.42 ;&st7;   " d=" M  4614.73,   248.24  C  4612.23    248.24   4610.20    250.27   4610.20    252.78  " /><path style="stroke-width: 1.42 ;&st7;   " d=" M  4610.20,   252.78  C  4610.20    255.28   4612.23    257.31   4614.73    257.31  " /><path style="stroke-width: 1.42 ;&st7;   " d=" M  4614.73,   257.31  C  4617.23    257.31   4619.26    255.28   4619.26    252.78  " /><text style="&st18;" transform="matrix(&st16;  4608.31  244.55 )">ACT</text></g><g ewd:lineID="112"><text style="&st18;" transform="matrix(&st16;  4764.43  254.75 )">27</text><path style="stroke-width: 1.42 ;&st7;   " d=" M  4780.73,   252.78  C  4780.73    250.27   4778.71    248.24   4776.20    248.24  " /><path style="stroke-width: 1.42 ;&st7;   " d=" M  4776.20,   248.24  C  4773.70    248.24   4771.67    250.27   4771.67    252.78  " /><path style="stroke-width: 1.42 ;&st7;   " d=" M  4771.67,   252.78  C  4771.67    255.28   4773.70    257.31   4776.20    257.31  " /><path style="stroke-width: 1.42 ;&st7;   " d=" M  4776.20,   257.31  C  4778.71    257.31   4780.73    255.28   4780.73    252.78  " /><text style="&st18;" transform="matrix(&st16;  4773.9  254.75 )">A</text><text style="&st18;" transform="matrix(&st16;  4770.49  244.55 )">NE+</text></g><g ewd:lineID="114"><text style="&st18;" transform="matrix(&st16;  4798.43  254.75 )">34</text><path style="stroke-width: 1.42 ;&st7;   " d=" M  4814.73,   252.78  C  4814.73    250.27   4812.70    248.24   4810.20    248.24  " /><path style="stroke-width: 1.42 ;&st7;   " d=" M  4810.20,   248.24  C  4807.69    248.24   4805.66    250.27   4805.66    252.78  " /><path style="stroke-width: 1.42 ;&st7;   " d=" M  4805.66,   252.78  C  4805.66    255.28   4807.69    257.31   4810.20    257.31  " /><path style="stroke-width: 1.42 ;&st7;   " d=" M  4810.20,   257.31  C  4812.70    257.31   4814.73    255.28   4814.73    252.78  " /><text style="&st18;" transform="matrix(&st16;  4807.89  254.75 )">A</text><text style="&st18;" transform="matrix(&st16;  4804.48  244.55 )">NE-</text></g><g ewd:lineID="115"><text style="&st18;" transform="matrix(&st16;  4925.88  254.75 )">35</text><path style="stroke-width: 1.42 ;&st7;   " d=" M  4942.21,   252.78  C  4942.21    250.27   4940.18    248.24   4937.67    248.24  " /><path style="stroke-width: 1.42 ;&st7;   " d=" M  4937.67,   248.24  C  4935.17    248.24   4933.14    250.27   4933.14    252.78  " /><path style="stroke-width: 1.42 ;&st7;   " d=" M  4933.14,   252.78  C  4933.14    255.28   4935.17    257.31   4937.67    257.31  " /><path style="stroke-width: 1.42 ;&st7;   " d=" M  4937.67,   257.31  C  4940.18    257.31   4942.21    255.28   4942.21    252.78  " /><text style="&st18;" transform="matrix(&st16;  4935.6  254.75 )">L</text><text style="&st18;" transform="matrix(&st16;  4931.96  244.55 )">NE-</text></g><g ewd:lineID="116"><text style="&st18;" transform="matrix(&st16;  4883.39  254.75 )">27</text><path style="stroke-width: 1.42 ;&st7;   " d=" M  4899.71,   252.78  C  4899.71    250.27   4897.69    248.24   4895.18    248.24  " /><path style="stroke-width: 1.42 ;&st7;   " d=" M  4895.18,   248.24  C  4892.68    248.24   4890.65    250.27   4890.65    252.78  " /><path style="stroke-width: 1.42 ;&st7;   " d=" M  4890.65,   252.78  C  4890.65    255.28   4892.68    257.31   4895.18    257.31  " /><path style="stroke-width: 1.42 ;&st7;   " d=" M  4895.18,   257.31  C  4897.69    257.31   4899.71    255.28   4899.71    252.78  " /><text style="&st18;" transform="matrix(&st16;  4893.11  254.75 )">L</text><text style="&st18;" transform="matrix(&st16;  4889.47  244.55 )">NE+</text></g><g ewd:lineID="85"><path style="stroke-width: 1.42 ;&st7;   " d=" M  4500.28,   270.91  C  4500.28    268.40   4498.25    266.37   4495.75    266.37  " /><path style="stroke-width: 1.42 ;&st7;   " d=" M  4500.28,   252.78  C  4500.28    250.27   4498.25    248.24   4495.75    248.24  " /><path style="stroke-width: 1.42 ;&st7;   " d=" M  4500.28,   261.84  C  4500.28    259.34   4498.25    257.31   4495.75    257.31  " /></g><g ewd:figtype="title"><text style="&st18;" transform="matrix(&st16;  4789.79  218.76 )">C38(G),C40(I),C41(J),C114(A),C115(B),C174(K), <tspan x="0 " dy="6.0">C175(L),G49(E),G50(F),G140(C),G160(M),G161(N)</tspan></text><text style="&st18;" transform="matrix(&st16;  4789.79  231.8 )">ECM</text></g></g><g ewd:figtype="conn" ewd:figID="20" ewd:code="C126"><path style="stroke-width: 1.42 ;&st7;  " d=" M  4827.19,   358.73  L  4759.20,   358.73  L  4759.20,   392.72  L  4827.19,   392.72  L  4827.19,   358.73  " /><g ewd:lineID="112"><text style="&st18;" transform="matrix(&st16;  4770.02  355.04 )">1</text><text style="&st18;" transform="matrix(&st16;  4770.49  366.36 )">NE+</text></g><g ewd:lineID="113"><text style="&st18;" transform="matrix(&st16;  4804.01  400.91 )">3</text><text style="&st18;" transform="matrix(&st16;  4808.09  389.02 )">E</text></g><g ewd:lineID="114"><text style="&st18;" transform="matrix(&st16;  4804.01  355.04 )">2</text><text style="&st18;" transform="matrix(&st16;  4804.48  366.36 )">NE-</text></g><g ewd:figtype="title"><text style="&st18;" transform="matrix(&st17;  4841.91  395.63 )" ewd:textID="24">Crank Position Sensor</text><text style="&st18;" transform="matrix(&st17;  4834.8  395.62 )">C126</text></g></g><g ewd:figtype="conn" ewd:figID="21" ewd:code="C137"><path style="stroke-width: 0.85 ;&st7;  " d=" M  4725.21,   520.20  L  4725.21,   537.20  " /><path style="stroke-width: 1.42 ;&st7;  " d=" M  4716.71,   520.20  L  4733.71,   520.20  L  4733.71,   537.20  L  4716.71,   537.20  L  4716.71,   520.20  " /><text style="&st18;" transform="matrix(&st16;  4719.03  545.39 )">7</text><text style="&st18;" transform="matrix(&st16;  4719.03  516.51 )">4</text><g ewd:figtype="title"><text style="&st18;" transform="matrix(&st17;  4748.43  540.1 )" ewd:textID="52">No. 27 Junction <tspan x="0 " dy="6.0">Connector</tspan></text><text style="&st18;" transform="matrix(&st17;  4741.6  540.09 )">C137</text></g></g><g ewd:figtype="conn" ewd:figID="57" ewd:code="C176"><path style="stroke-width: 1.42 ;&st7;  " d=" M  4886.68,   367.22  L  4886.68,   375.72  " /><path style="stroke-width: 1.42 ;&st7;  " d=" M  4903.68,   367.22  L  4903.68,   375.72  " /><path style="stroke-width: 1.42 ;&st7;  " d=" M  4886.68,   384.22  L  4886.68,   375.72  " /><path style="stroke-width: 1.42 ;&st7;  " d=" M  4903.68,   384.22  L  4903.68,   375.72  " /><path style="stroke-width: 0.85 ;&st7;  " d=" M  4895.18,   358.73  L  4895.18,   367.22  " /><path style="stroke-width: 0.85 ;&st7;  " d=" M  4895.18,   384.22  L  4895.18,   392.72  " /><path style="stroke-width: 1.42 ;&st7;   " d=" M  4903.68,   367.22  C  4903.68    362.53   4899.88    358.73   4895.18    358.73  " /><path style="stroke-width: 1.42 ;&st7;   " d=" M  4895.18,   358.73  C  4890.49    358.73   4886.68    362.53   4886.68    367.22  " /><path style="stroke-width: 1.42 ;&st7;   " d=" M  4886.68,   384.22  C  4886.68    388.91   4890.49    392.72   4895.18    392.72  " /><path style="stroke-width: 1.42 ;&st7;   " d=" M  4895.18,   392.72  C  4899.88    392.72   4903.68    388.91   4903.68    384.22  " /><path style="stroke-width: 0.85 ;&st7;   " d=" M  4892.65,   373.24  C  4894.02    374.64   4896.26    374.66   4897.66    373.29  " /><path style="stroke-width: 0.85 ;&st7;   " d=" M  4897.66,   373.29  C  4899.06    371.93   4899.08    369.68   4897.71    368.29  " /><path style="stroke-width: 0.85 ;&st7;   " d=" M  4897.71,   368.29  C  4897.02    367.58   4896.17    367.22   4895.18    367.22  " /><path style="stroke-width: 0.85 ;&st7;   " d=" M  4892.65,   378.20  C  4894.02    379.60   4896.26    379.62   4897.66    378.25  " /><path style="stroke-width: 0.85 ;&st7;   " d=" M  4897.66,   378.25  C  4899.06    376.88   4899.08    374.64   4897.71    373.24  " /><path style="stroke-width: 0.85 ;&st7;   " d=" M  4897.71,   373.24  C  4896.34    371.85   4894.10    371.82   4892.70    373.19  " /><path style="stroke-width: 0.85 ;&st7;   " d=" M  4892.70,   373.19  C  4892.69    373.21   4892.67    373.23   4892.65    373.24  " /><path style="stroke-width: 0.85 ;&st7;   " d=" M  4895.18,   384.22  C  4897.14    384.22   4898.72    382.64   4898.72    380.68  " /><path style="stroke-width: 0.85 ;&st7;   " d=" M  4898.72,   380.68  C  4898.72    378.72   4897.14    377.14   4895.18    377.14  " /><path style="stroke-width: 0.85 ;&st7;   " d=" M  4895.18,   377.14  C  4894.19    377.14   4893.35    377.49   4892.65    378.20  " /><text style="&st18;" transform="matrix(&st16;  4889.0  400.91 )">1</text><text style="&st18;" transform="matrix(&st16;  4889.0  355.04 )">2</text><g ewd:figtype="title"><text style="&st18;" transform="matrix(&st17;  4911.57  395.62 )">C176</text><text style="&st18;" transform="matrix(&st17;  4918.4  395.63 )" ewd:textID="24">Crank Position <tspan x="0 " dy="6.0">Sensor</tspan></text></g></g><g ewd:figtype="conn" ewd:figID="58" ewd:code="C188"><path style="stroke-width: 1.42 ;&st7;  " d=" M  4954.67,   520.20  L  4971.67,   520.20  L  4971.67,   537.20  L  4954.67,   537.20  L  4954.67,   520.20  " /><path style="stroke-width: 0.85 ;&st7;  " d=" M  4963.17,   520.20  L  4963.17,   537.20  " /><text style="&st18;" transform="matrix(&st16;  4953.88  545.39 )">11</text><text style="&st18;" transform="matrix(&st16;  4953.88  516.51 )">10</text><g ewd:figtype="title"><text style="&st18;" transform="matrix(&st17;  4986.39  540.1 )" ewd:textID="54">No. 29 Junction <tspan x="0 " dy="6.0">Connector</tspan></text><text style="&st18;" transform="matrix(&st17;  4979.56  540.09 )">C188</text></g></g><g ewd:figtype="gp" ewd:figID="123" ewd:code="CE"><path style="stroke-width: 0.85 ;&st7;  " d=" M  4725.21,   697.25  L  4725.21,   701.50  " /><path style="stroke-width: 0.85 ;&st7;  " d=" M  4716.71,   701.50  L  4733.71,   701.50  " /><path style="stroke-width: 0.85 ;&st7;  " d=" M  4720.96,   704.33  L  4729.46,   704.33  " /><path style="stroke-width: 0.85 ;&st7;  " d=" M  4722.38,   707.17  L  4728.04,   707.17  " /><path style="stroke-width: 0.85 ;&st7;  " d=" M  4723.79,   710.00  L  4726.62,   710.00  " /></g><g ewd:figtype="gp" ewd:figID="124" ewd:code="CF"><path style="stroke-width: 0.85 ;&st7;  " d=" M  4776.20,   697.25  L  4776.20,   701.50  " /><path style="stroke-width: 0.85 ;&st7;  " d=" M  4767.70,   701.50  L  4784.70,   701.50  " /><path style="stroke-width: 0.85 ;&st7;  " d=" M  4771.95,   704.33  L  4780.45,   704.33  " /><path style="stroke-width: 0.85 ;&st7;  " d=" M  4773.37,   707.17  L  4779.03,   707.17  " /><path style="stroke-width: 0.85 ;&st7;  " d=" M  4774.78,   710.00  L  4777.62,   710.00  " /></g><g ewd:figtype="gp" ewd:figID="125" ewd:code="CI"><path style="stroke-width: 0.85 ;&st7;  " d=" M  4963.17,   697.25  L  4963.17,   701.50  " /><path style="stroke-width: 0.85 ;&st7;  " d=" M  4954.67,   701.50  L  4971.67,   701.50  " /><path style="stroke-width: 0.85 ;&st7;  " d=" M  4958.92,   704.33  L  4967.42,   704.33  " /><path style="stroke-width: 0.85 ;&st7;  " d=" M  4960.34,   707.17  L  4966.00,   707.17  " /><path style="stroke-width: 0.85 ;&st7;  " d=" M  4961.75,   710.00  L  4964.59,   710.00  " /></g><g ewd:code=" " ewd:figID="219" ewd:comment="20, " ewd:figtype="sh"><path style="stroke-width: 0.85 ;&st7; stroke-dasharray:3, 1.5;" d=" M  4963.17,   324.73  L  4869.68,   324.73  L  4869.68,   273.74  L  4963.17,   273.74  L  4963.17,   324.73  " /><path style="stroke-width: 0.85 ;&st7;  " d=" M  4961.98,   323.73  L  4961.70,   324.20  L  4961.61,   324.73  L  4961.70,   325.26  L  4961.98,   325.73  L  4962.39,   326.08  L  4962.90,   326.27  L  4963.44,   326.27  L  4963.95,   326.08  L  4964.36,   325.73  L  4964.63,   325.26  L  4964.73,   324.73  L  4964.63,   324.20  L  4964.36,   323.73  L  4963.95,   323.38  L  4963.44,   323.20  L  4962.90,   323.20  L  4962.39,   323.38  L  4961.98,   323.73  L  4962.37,   324.44  L  4962.37,   325.02  L  4962.74,   325.47  L  4963.32,   325.57  L  4963.82,   325.28  L  4964.02,   324.73  L  4963.82,   324.18  L  4963.32,   323.90  L  4962.74,   323.99  L  4963.17,   324.73  " /><g ewd:code="" ewd:figID="220" ewd:comment=" " ewd:figtype="commref"><text style="&st18;" transform="matrix(&st17;  4865.99  311.47 )" ewd:textID="1">(Shielded)</text></g><g ewd:code="" ewd:figID="221" ewd:comment="20" ewd:figtype="commref"><text style="&st18;" transform="matrix(&st17;  4877.32  305.5 )">(*20)</text></g></g><g ewd:code=" " ewd:figID="164" ewd:comment=" ,7" ewd:figtype="sh"><path style="stroke-width: 0.85 ;&st7; stroke-dasharray:3, 1.5;" d=" M  4733.71,   324.73  L  4827.19,   324.73  L  4827.19,   273.74  L  4725.21,   273.74  L  4725.21,   316.23  " /><g ewd:code="" ewd:figID="184" ewd:comment=" " ewd:figtype="commref"><text style="&st18;" transform="matrix(&st17;  4721.52  311.47 )" ewd:textID="1">(Shielded)</text></g><g ewd:code="" ewd:figID="187" ewd:comment="7" ewd:figtype="commref"><text style="&st18;" transform="matrix(&st17;  4732.85  303.95 )">(*7)</text></g></g><g ewd:code="" ewd:figID="190" ewd:comment="8" ewd:figtype="commref"><text style="&st18;" transform="matrix(&st16;  4619.82  263.81 )">(*8)</text></g><g ewd:code="" ewd:figID="191" ewd:comment="7" ewd:figtype="commref"><text style="&st18;" transform="matrix(&st16;  4619.82  254.75 )">(*7)</text></g><g ewd:code="" ewd:figID="218" ewd:comment="20" ewd:figtype="commref"><text style="&st18;" transform="matrix(&st16;  4619.82  272.88 )">(*20)</text></g><g ewd:code="10" ewd:figID="197" ewd:comment="" ewd:figtype="comment"><text style="&st18;" transform="matrix(&st16;  4815.29  139.73 )">*10 :1GR-FE</text></g><g ewd:code="12" ewd:figID="199" ewd:comment="" ewd:figtype="comment"><text style="&st18;" transform="matrix(&st16;  4815.29  148.23 )">*12 :1GD-FTV, 2GD-FTV, 1KD-FTV, 2KD-FTV, 5L-E</text></g><g ewd:code="9" ewd:figID="200" ewd:comment="" ewd:figtype="comment"><text style="&st18;" transform="matrix(&st16;  4815.29  131.23 )">* 9 :2TR-FE</text></g><g ewd:code="7" ewd:figID="196" ewd:comment="" ewd:figtype="comment"><text style="&st18;" transform="matrix(&st16;  4815.29  114.24 )">* 7 :1KD-FTV, 2KD-FTV</text></g><g ewd:code="8" ewd:figID="198" ewd:comment="" ewd:figtype="comment"><text style="&st18;" transform="matrix(&st16;  4815.29  122.73 )">* 8 :1GD-FTV, 2GD-FTV</text></g><g ewd:code="20" ewd:figID="159" ewd:comment="" ewd:figtype="comment"><text style="&st18;" transform="matrix(&st16;  4815.29  156.73 )">*20 :5L-E</text></g></svg>