﻿<?xml version="1.0" encoding="utf-8"?>
<!DOCTYPE svg PUBLIC "-//W3C//DTD SVG 1.0//EN" "http://www.w3.org/TR/2001/REC-SVG-20010904/DTD/svg10.dtd"[
	<!ENTITY ns_flows "http://ns.adobe.com/Flows/1.0/">
	<!ENTITY ns_svg "http://www.w3.org/2000/svg">
	<!ENTITY ns_xlink "http://www.w3.org/1999/xlink">
	<!ENTITY st0 "font-size:7px;font-family:'MS-PGothic';adobe-font-script:japanese;">
	<!ENTITY st1 "font-size:6px;font-family:'ArialMT';">
	<!-- White fill  -->
	<!ENTITY st2 "fill:#FFFFFF;stroke:#000000; stroke-width:1.41;stroke-linecap:round;stroke-linejoin:round;">
	<!-- Yellow fill  -->
	<!ENTITY st3 "fill:#FFFFCC;stroke:#FFFFCC; stroke-width:0.1;stroke-linecap:round;stroke-linejoin:round;">
	<!-- Gray fill  -->
	<!ENTITY st4 "fill:#CCCCCC;stroke:#CCCCCC; stroke-width:0.1;stroke-linecap:round;stroke-linejoin:round;">
	<!-- Light-blue fill -->
	<!ENTITY st5 "fill:#CCECF4;stroke:#000000; stroke-width:1.133;stroke-linecap:round;stroke-linejoin:round;">
	<!ENTITY st6 "fill:none;stroke-linecap:butt; stroke-linejoin:round;">
	<!ENTITY st7 "fill:none;stroke:#000000;stroke-linecap:round;stroke-linejoin:round;">
	<!ENTITY st8 "enable-background:new    ;">
	<!-- Black fill -->
	<!ENTITY st9 "fill:#000000;stroke:#000000; stroke-linecap:round;stroke-linejoin:round;">
	<!-- SRS note   -->
	<!ENTITY st10 "font-size:9px;font-family:'ArialMT';">
	<!ENTITY st11 "font-size:9px;font-family:'Svg Symbol';">
	<!ENTITY st12 "font-size:6px;font-family:'Svg Symbol';">
	<!ENTITY st13 "fill:none;stroke:#ff0000;stroke-linecap:round;stroke-linejoin:round;">
	<!-- Yellow fill  -->
	<!ENTITY st14 "fill:#FFFF00;stroke:#FFFF00; stroke-width:0.1;stroke-linecap:round;stroke-linejoin:round;">
	<!ENTITY st15 "font-size:6px;font-family:'MS-PGothic';adobe-font-script:japanese;">
	<!ENTITY st16 "1.00 0.00 0.00 1.00">
	<!ENTITY st17 "0.00 -1.00 1.00 0.00">
	<!ENTITY st18 "font-size:6px;font-family:'Arial';">
	<!ENTITY st19 "font-size:9px;font-family:'Arial';">
	<!ENTITY st20 "font-size:6px;font-family:'MS-PGothic','MS PGothic';adobe-font-script:japanese;">
	<!ENTITY st21 "font-size:7px;font-family:'MS-PGothic','MS PGothic';adobe-font-script:japanese;">
	<!ATTLIST svg
		xmlns:ewd CDATA #FIXED "http://shcl.co.jp/ewd"
		xmlns:a CDATA #FIXED "http://ns.adobe.com/AdobeSVGViewerExtensions/3.0/"
		ewd:ver CDATA #IMPLIED
	>
	<!ATTLIST a
		ewd:lineID CDATA #IMPLIED
		ewd:groupID CDATA #IMPLIED
		ewd:figtype CDATA #IMPLIED
		ewd:code CDATA #IMPLIED
		ewd:figID CDATA #IMPLIED
		ewd:pinNo CDATA #IMPLIED
		ewd:comment CDATA #IMPLIED >
	<!ATTLIST g
		ewd:lineID CDATA #IMPLIED
		ewd:groupID CDATA #IMPLIED
		ewd:figtype CDATA #IMPLIED
		ewd:code CDATA #IMPLIED
		ewd:figID CDATA #IMPLIED
		ewd:pinNo CDATA #IMPLIED
		ewd:comment CDATA #IMPLIED >
	<!ATTLIST text
		ewd:textID CDATA #IMPLIED >
	<!ATTLIST title
		ewd:textID CDATA #IMPLIED >
]>
<!-- Generator: Shintec Hozumi YS   -->
<svg onload="call_execInitLoadProc_svg('system')" style="overflow:visible;  enable-background:new 0 0 486.046 710.000" viewBox="0 0 486.046 710.000" height="710.000" width="486.046" xml:space="preserve" ewd:ver="2.1.2.9" xmlns="&ns_svg;" xmlns:a="http://ns.adobe.com/AdobeSVGViewerExtensions/3.0/" xmlns:ewd="http://shcl.co.jp/ewd" xmlns:xlink="&ns_xlink;">
<path style="stroke-width: 1.42 ;&st7;  " d=" M   263.46,   146.26  L   254.96,   146.26  " /><path style="stroke-width: 1.42 ;&st7;  " d=" M   161.47,   146.26  L   152.97,   146.26  " /><path style="stroke-width: 1.42 ;&st7;  " d=" M   322.95,   622.18  L   331.44,   622.18  " /><path style="stroke-width: 1.42 ;&st7;  " d=" M   339.94,   443.71  L   331.44,   443.71  " /><text style="&st18;" transform="matrix(&st17;  64.29  241.36 )">R</text><text style="&st18;" transform="matrix(&st17;  327.75  343.42 )">Y</text><text style="&st18;" transform="matrix(&st17;  157.78  352.19 )">G</text><text style="&st18;" transform="matrix(&st17;  64.29  353.78 )">BR</text><text style="&st18;" transform="matrix(&st17;  251.26  253.99 )">P</text><text style="&st18;" transform="matrix(&st17;  455.23  242.21 )">W</text><text style="&st18;" transform="matrix(&st17;  421.23  241.43 )">Y</text><text style="&st18;" transform="matrix(&st17;  251.26  173.25 )">P</text><text style="&st18;" transform="matrix(&st17;  149.28  241.32 )">L</text><text style="&st18;" transform="matrix(&st17;  251.26  122.26 )">P</text><text style="&st18;" transform="matrix(&st17;  149.28  122.38 )">R</text><text style="&st18;" transform="matrix(&st17;  64.29  164.87 )">R</text><text style="&st18;" transform="matrix(&st17;  404.24  419.9 )">Y</text><text style="&st18;" transform="matrix(&st17;  455.23  419.9 )">B</text><text style="&st18;" transform="matrix(&st17;  157.78  420.18 )">G</text><text style="&st18;" transform="matrix(&st17;  157.78  543.15 )">W-B</text><text style="&st18;" transform="matrix(&st17;  296.59  672.53 )">(RHD)</text><text style="&st18;" transform="matrix(&st17;  327.75  600.24 )">BR</text><text style="&st18;" transform="matrix(&st17;  327.75  668.22 )">BR</text><text style="&st18;" transform="matrix(&st17;  327.75  466.65 )">Y</text><text style="&st18;" transform="matrix(&st17;  327.75  424.15 )">Y</text><path style="stroke-width: 1.42 ;&st7;  " d=" M    76.49,   202.22  L    71.52,   197.25  " /><path style="stroke-width: 1.42 ;&st7;  " d=" M    59.49,   209.28  L    64.46,   214.25  " /><path style="stroke-width: 1.42 ;&st7;  " d=" M    71.52,   214.25  L    76.49,   209.28  " /><path style="stroke-width: 1.42 ;&st7;  " d=" M    64.46,   197.25  L    59.49,   202.22  " /><text style="&st18;" transform="matrix(&st17;  225.77  419.9 )">B</text><text style="&st18;" transform="matrix(&st17;  225.77  351.92 )">B</text><text style="&st18;" transform="matrix(&st17;  225.77  538.81 )">R</text><text style="&st18;" transform="matrix(&st17;  285.26  668.22 )">BR</text><text style="&st18;" transform="matrix(&st17;  339.08  672.49 )">(LHD)</text><text style="&st18;" transform="matrix(&st17;  30.3  207.36 )">R</text><text style="&st18;" transform="matrix(&st17;  41.63  217.64 )">(*7 RHD)</text><text style="&st18;" transform="matrix(&st17;  98.29  164.87 )">R</text><text style="&st18;" transform="matrix(&st17;  109.62  175.14 )">(*6 RHD)</text><text style="&st18;" transform="matrix(&st17;  98.29  241.36 )">R</text><text style="&st18;" transform="matrix(&st17;  109.62  251.63 )">(*6 RHD)</text><text style="&st18;" transform="matrix(&st17;  75.63  171.07 )">(LHD)</text><text style="&st18;" transform="matrix(&st17;  75.63  247.56 )">(LHD)</text><text style="&st18;" transform="matrix(&st17;  183.27  543.15 )">W-B</text><text style="&st18;" transform="matrix(&st17;  194.61  545.05 )">(RHD)</text><text style="&st18;" transform="matrix(&st17;  169.11  545.01 )">(LHD)</text><text style="&st18;" transform="matrix(&st17;  237.1  426.03 )">(LHD)</text><text style="&st18;" transform="matrix(&st17;  237.1  358.04 )">(LHD)</text><text style="&st18;" transform="matrix(&st17;  237.1  545.01 )">(LHD)</text><text style="&st18;" transform="matrix(&st17;  169.11  358.04 )">(LHD)</text><text style="&st18;" transform="matrix(&st17;  169.11  426.03 )">(LHD)</text><text style="&st18;" transform="matrix(&st17;  89.79  352.19 )">G</text><text style="&st18;" transform="matrix(&st17;  101.12  358.08 )">(RHD)</text><text style="&st18;" transform="matrix(&st17;  89.79  420.18 )">G</text><text style="&st18;" transform="matrix(&st17;  101.12  426.07 )">(RHD)</text><g ewd:figtype="rb" ewd:figID="1" ewd:code="FUSE11"><path style="stroke-width: 1.42 ;&st7;  " d=" M   155.10,    95.27  L   150.85,    95.27  " /><path style="stroke-width: 1.42 ;&st7;  " d=" M   155.10,   103.77  L   150.85,   103.77  " /><path style="stroke-width: 0.85 ;&st7;  " d=" M   152.97,    78.27  L   152.97,    95.27  " /><path style="stroke-width: 1.42 ;&st7;   " d=" M   150.85,    95.27  C   148.50     95.27    146.60     97.17    146.60     99.52  " /><path style="stroke-width: 1.42 ;&st7;   " d=" M   146.60,    99.52  C   146.60    101.87    148.50    103.77    150.85    103.77  " /><path style="stroke-width: 1.42 ;&st7;   " d=" M   155.10,   103.77  C   157.45    103.77    159.35    101.87    159.35     99.52  " /><path style="stroke-width: 1.42 ;&st7;   " d=" M   159.35,    99.52  C   159.35     97.17    157.45     95.27    155.10     95.27  " /><path style="stroke-width: 0.28 ;&st9;  " d=" M   152.97,    90.37  L   150.14,    87.54  L   150.14,    91.79  L   152.97,    94.62  L   155.81,    91.79  L   155.81,    87.54  L   152.97,    90.37  " /><text style="&st18;" transform="matrix(&st16;  144.93  32.08 )">(BAT)</text><text style="&st18;" transform="matrix(&st16;  169.4  53.34 )">10A <tspan x="0 " dy="6.0">ECU-B </tspan><tspan x="0 " dy="6.0">NO.2</tspan></text><text style="&st18;" transform="matrix(&st16;  151.17  101.49 )">1</text><text style="&st18;" transform="matrix(&st16;  146.79  86.47 )">2</text><path style="stroke-width: 0.85 ;&st7;  " d=" M   152.97,    69.77  L   152.97,    78.27  " /><path style="stroke-width: 1.42 ;&st7;   " d=" M   152.97,    47.11  C   150.24     48.72    149.32     52.25    150.94     54.99  " /><path style="stroke-width: 1.42 ;&st7;   " d=" M   150.94,    54.99  C   151.46     55.87    152.09     56.51    152.97     57.03  " /><path style="stroke-width: 1.42 ;&st7;   " d=" M   152.97,    66.94  C   155.71     65.33    156.62     61.80    155.01     59.06  " /><path style="stroke-width: 1.42 ;&st7;   " d=" M   155.01,    59.06  C   154.49     58.18    153.86     57.55    152.97     57.03  " /><path style="stroke-width: 0.85 ;&st7;   " d=" M   154.39,    45.69  C   154.39     44.91    153.76     44.28    152.97     44.28  " /><path style="stroke-width: 0.85 ;&st7;   " d=" M   152.97,    44.28  C   152.19     44.28    151.56     44.91    151.56     45.69  " /><path style="stroke-width: 0.85 ;&st7;   " d=" M   151.56,    45.69  C   151.56     46.48    152.19     47.11    152.97     47.11  " /><path style="stroke-width: 0.85 ;&st7;   " d=" M   152.97,    47.11  C   153.76     47.11    154.39     46.48    154.39     45.69  " /><path style="stroke-width: 0.85 ;&st7;   " d=" M   154.39,    68.36  C   154.39     67.57    153.76     66.94    152.97     66.94  " /><path style="stroke-width: 0.85 ;&st7;   " d=" M   152.97,    66.94  C   152.19     66.94    151.56     67.57    151.56     68.36  " /><path style="stroke-width: 0.85 ;&st7;   " d=" M   151.56,    68.36  C   151.56     69.14    152.19     69.77    152.97     69.77  " /><path style="stroke-width: 0.85 ;&st7;   " d=" M   152.97,    69.77  C   153.76     69.77    154.39     69.14    154.39     68.36  " /><path style="stroke-width: 1.42 ;&st7;  " d=" M   140.23,    35.78  L   140.23,    78.27  L   165.72,    78.27  L   165.72,    35.78  L   140.23,    35.78  " /></g><g ewd:figtype="conn" ewd:figID="2" ewd:code="G7"><path style="stroke-width: 1.42 ;&st7;  " d=" M    50.99,   129.26  L    50.99,    95.27  L    84.99,    95.27  L    84.99,   129.26  L    50.99,   129.26  " /><g ewd:lineID="3,4,5"><text style="&st18;" transform="matrix(&st16;  61.8  137.46 )">7</text><text style="&st18;" transform="matrix(&st16;  63.47  125.57 )">SIL</text></g><g ewd:figtype="title"><text style="&st18;" transform="matrix(&st16;  47.59  91.57 )">DLC3</text><text style="&st18;" transform="matrix(&st16;  47.58  84.75 )">G7</text></g></g><g ewd:figtype="conn" ewd:figID="3" ewd:code="G137"><path style="stroke-width: 0.85 ;&st7;  " d=" M   424.93,   197.25  L   433.43,   197.25  " /><path style="stroke-width: 0.85 ;&st7;  " d=" M   450.42,   197.25  L   458.92,   197.25  " /><path style="stroke-width: 0.85 ;&st7;   " d=" M   444.40,   199.78  C   445.80    198.41    445.82    196.17    444.46    194.77  " /><path style="stroke-width: 0.85 ;&st7;   " d=" M   444.46,   194.77  C   443.09    193.38    440.84    193.35    439.45    194.72  " /><path style="stroke-width: 0.85 ;&st7;   " d=" M   439.45,   194.72  C   438.05    196.09    438.03    198.33    439.40    199.73  " /><path style="stroke-width: 0.85 ;&st7;   " d=" M   439.40,   199.73  C   439.41    199.75    439.43    199.76    439.45    199.78  " /><path style="stroke-width: 0.85 ;&st7;   " d=" M   439.45,   199.78  C   440.84    198.41    440.87    196.17    439.50    194.77  " /><path style="stroke-width: 0.85 ;&st7;   " d=" M   439.50,   194.77  C   438.13    193.38    435.89    193.35    434.49    194.72  " /><path style="stroke-width: 0.85 ;&st7;   " d=" M   434.49,   194.72  C   433.78    195.42    433.43    196.26    433.43    197.25  " /><path style="stroke-width: 0.85 ;&st7;   " d=" M   450.42,   197.25  C   450.42    195.30    448.84    193.71    446.88    193.71  " /><path style="stroke-width: 0.85 ;&st7;   " d=" M   446.88,   193.71  C   444.93    193.71    443.34    195.30    443.34    197.25  " /><path style="stroke-width: 0.85 ;&st7;   " d=" M   443.34,   197.25  C   443.34    198.24    443.70    199.09    444.41    199.78  " /><path style="stroke-width: 0.85 ;&st7;  " d=" M   458.92,   197.25  L   458.92,   214.25  " /><path style="stroke-width: 1.42 ;&st7;  " d=" M   407.93,   180.26  L   407.93,   214.25  L   484.42,   214.25  L   484.42,   180.26  L   407.93,   180.26  " /><path style="stroke-width: 0.85 ;&st7;  " d=" M   424.93,   197.25  L   424.93,   214.25  " /><text style="&st18;" transform="matrix(&st16;  427.51  210.56 )">ANT1</text><text style="&st18;" transform="matrix(&st16;  461.51  210.56 )">ANT2</text><text style="&st18;" transform="matrix(&st16;  418.74  222.44 )">1</text><text style="&st18;" transform="matrix(&st16;  452.74  222.44 )">5</text><g ewd:figtype="title"><text style="&st18;" transform="matrix(&st16;  404.52  169.73 )">G137</text><text style="&st18;" transform="matrix(&st16;  404.53  176.56 )" ewd:textID="14">Transponder Key Coil</text></g></g><g ewd:figtype="conn" ewd:figID="4" ewd:code="H2"><path style="stroke-width: 0.85 ;&st7;  " d=" M   338.82,   543.75  L   346.18,   539.50  " /><path style="stroke-width: 0.85 ;&st7;  " d=" M   344.18,   536.03  L   336.82,   540.28  " /><path style="stroke-width: 0.85 ;&st7;  " d=" M   335.69,   545.69  L   327.20,   545.69  " /><path style="stroke-width: 1.42 ;&st7;  " d=" M   297.45,   486.20  L   297.45,   571.19  L   348.44,   571.19  L   348.44,   486.20  L   297.45,   486.20  " /><path style="stroke-width: 0.28 ;&st9;  " d=" M   331.44,   545.69  L   325.78,   537.20  L   337.11,   537.20  L   331.44,   545.69  " /><path style="stroke-width: 0.85 ;&st7;  " d=" M   344.18,   536.03  L   341.84,   539.07  L   340.38,   536.53  L   344.18,   536.03  L   342.89,   536.77  L   341.91,   538.05  L   341.29,   536.98  L   342.89,   536.77  L   342.25,   537.14  L   341.94,   537.54  L   341.75,   537.21  L   342.25,   537.14  " /><path style="stroke-width: 0.85 ;&st7;  " d=" M   346.18,   539.50  L   343.85,   542.54  L   342.38,   540.00  L   346.18,   539.50  L   344.90,   540.24  L   343.91,   541.52  L   343.29,   540.45  L   344.90,   540.24  L   344.26,   540.61  L   343.95,   541.01  L   343.75,   540.68  L   344.26,   540.61  " /><path style="stroke-width: 0.85 ;&st7;  " d=" M   331.44,   571.19  L   331.44,   520.20  L   328.61,   518.78  L   334.28,   515.95  L   328.61,   513.12  L   334.28,   510.28  L   328.61,   507.45  L   334.28,   504.62  L   331.44,   503.20  L   331.44,   486.20  " /><path style="stroke-width: 0.28 ;&st9;  " d=" M   314.45,   537.20  L   320.11,   545.69  L   308.78,   545.69  L   314.45,   537.20  " /><path style="stroke-width: 0.85 ;&st7;  " d=" M   320.11,   539.81  L   318.37,   537.20  L   310.53,   537.20  L   308.78,   534.58  " /><path style="stroke-width: 0.85 ;&st7;  " d=" M   331.44,   528.70  L   314.45,   528.70  L   314.45,   554.19  L   331.44,   554.19  " /><path style="stroke-width: 0.85 ;&st7;  " d=" M   330.25,   527.69  L   329.98,   528.16  L   329.89,   528.70  L   329.98,   529.23  L   330.25,   529.70  L   330.67,   530.05  L   331.17,   530.23  L   331.72,   530.23  L   332.22,   530.05  L   332.64,   529.70  L   332.91,   529.23  L   333.00,   528.70  L   332.91,   528.16  L   332.64,   527.69  L   332.22,   527.35  L   331.72,   527.16  L   331.17,   527.16  L   330.67,   527.35  L   330.25,   527.69  L   330.65,   528.41  L   330.65,   528.99  L   331.02,   529.43  L   331.59,   529.53  L   332.10,   529.24  L   332.29,   528.70  L   332.10,   528.15  L   331.59,   527.86  L   331.02,   527.96  L   331.44,   528.70  " /><path style="stroke-width: 0.85 ;&st7;  " d=" M   330.25,   553.19  L   329.98,   553.66  L   329.89,   554.19  L   329.98,   554.73  L   330.25,   555.20  L   330.67,   555.54  L   331.17,   555.73  L   331.72,   555.73  L   332.22,   555.54  L   332.64,   555.20  L   332.91,   554.73  L   333.00,   554.19  L   332.91,   553.66  L   332.64,   553.19  L   332.22,   552.84  L   331.72,   552.66  L   331.17,   552.66  L   330.67,   552.84  L   330.25,   553.19  L   330.65,   553.90  L   330.65,   554.48  L   331.02,   554.93  L   331.59,   555.03  L   332.10,   554.74  L   332.29,   554.19  L   332.10,   553.65  L   331.59,   553.36  L   331.02,   553.46  L   331.44,   554.19  " /><text style="&st18;" transform="matrix(&st16;  334.03  494.4 )">LP</text><text style="&st18;" transform="matrix(&st16;  334.03  567.5 )">E</text><text style="&st18;" transform="matrix(&st16;  325.26  579.38 )">6</text><text style="&st18;" transform="matrix(&st16;  325.26  482.51 )">2</text><g ewd:figtype="title"><text style="&st18;" transform="matrix(&st17;  363.16  574.1 )" ewd:textID="13">Theft Warning <tspan x="0 " dy="6.0">Indicator Light Assembly</tspan></text><text style="&st18;" transform="matrix(&st17;  356.34  574.09 )">H2</text></g></g><g ewd:figtype="conn" ewd:figID="5" ewd:code="G50,G140,G142,G145,G160"><path style="stroke-width: 0.85 ;&st7; stroke-dasharray:3, 1.5;" d=" M   416.43,   498.67  L   441.93,   498.67  " /><path style="stroke-width: 0.85 ;&st7; stroke-dasharray:3, 1.5;" d=" M   416.43,   489.60  L   441.93,   489.60  " /><path style="stroke-width: 0.85 ;&st7; stroke-dasharray:3, 1.5;" d=" M   416.43,   480.54  L   441.93,   480.54  " /><path style="stroke-width: 0.85 ;&st7; stroke-dasharray:3, 1.5;" d=" M   416.43,   471.47  L   441.93,   471.47  " /><path style="stroke-width: 0.85 ;&st7; stroke-dasharray:3, 1.5;" d=" M   416.43,   462.41  L   441.93,   462.41  " /><path style="stroke-width: 1.42 ;&st7;  " d=" M   390.93,   503.20  L   390.93,   545.69  L   475.92,   545.69  L   475.92,   503.20  L   390.93,   503.20  " /><g ewd:lineID="27"><text style="&st18;" transform="matrix(&st16;  399.24  491.57 )">8</text><text style="&st18;" transform="matrix(&st16;  396.14  500.64 )">18</text><text style="&st18;" transform="matrix(&st16;  396.14  473.44 )">17</text><text style="&st18;" transform="matrix(&st16;  396.14  482.51 )">29</text><text style="&st18;" transform="matrix(&st16;  399.24  464.38 )">9</text><path style="stroke-width: 1.42 ;&st7;   " d=" M   412.46,   489.60  C   412.46    487.10    410.44    485.07    407.93    485.07  " /><path style="stroke-width: 1.42 ;&st7;   " d=" M   407.93,   485.07  C   405.43    485.07    403.40    487.10    403.40    489.60  " /><path style="stroke-width: 1.42 ;&st7;   " d=" M   403.40,   489.60  C   403.40    492.11    405.43    494.14    407.93    494.14  " /><path style="stroke-width: 1.42 ;&st7;   " d=" M   407.93,   494.14  C   410.44    494.14    412.46    492.11    412.46    489.60  " /><path style="stroke-width: 1.42 ;&st7;   " d=" M   412.46,   498.67  C   412.46    496.17    410.44    494.14    407.93    494.14  " /><path style="stroke-width: 1.42 ;&st7;   " d=" M   407.93,   494.14  C   405.43    494.14    403.40    496.17    403.40    498.67  " /><path style="stroke-width: 1.42 ;&st7;   " d=" M   403.40,   498.67  C   403.40    501.17    405.43    503.20    407.93    503.20  " /><path style="stroke-width: 1.42 ;&st7;   " d=" M   407.93,   503.20  C   410.44    503.20    412.46    501.17    412.46    498.67  " /><text style="&st18;" transform="matrix(&st16;  405.82  500.64 )">E</text><text style="&st18;" transform="matrix(&st16;  405.55  491.57 )">D</text><text style="&st18;" transform="matrix(&st16;  405.51  464.38 )">C</text><text style="&st18;" transform="matrix(&st16;  405.74  482.51 )">B</text><text style="&st18;" transform="matrix(&st16;  405.63  473.44 )">A</text><path style="stroke-width: 1.42 ;&st7;   " d=" M   412.46,   462.41  C   412.46    459.90    410.44    457.88    407.93    457.88  " /><path style="stroke-width: 1.42 ;&st7;   " d=" M   407.93,   457.88  C   405.43    457.88    403.40    459.90    403.40    462.41  " /><path style="stroke-width: 1.42 ;&st7;   " d=" M   403.40,   462.41  C   403.40    464.91    405.43    466.94    407.93    466.94  " /><path style="stroke-width: 1.42 ;&st7;   " d=" M   407.93,   466.94  C   410.44    466.94    412.46    464.91    412.46    462.41  " /><path style="stroke-width: 1.42 ;&st7;   " d=" M   412.46,   480.54  C   412.46    478.04    410.44    476.01    407.93    476.01  " /><path style="stroke-width: 1.42 ;&st7;   " d=" M   407.93,   476.01  C   405.43    476.01    403.40    478.04    403.40    480.54  " /><path style="stroke-width: 1.42 ;&st7;   " d=" M   403.40,   480.54  C   403.40    483.04    405.43    485.07    407.93    485.07  " /><path style="stroke-width: 1.42 ;&st7;   " d=" M   407.93,   485.07  C   410.44    485.07    412.46    483.04    412.46    480.54  " /><path style="stroke-width: 1.42 ;&st7;   " d=" M   412.46,   471.47  C   412.46    468.97    410.44    466.94    407.93    466.94  " /><path style="stroke-width: 1.42 ;&st7;   " d=" M   407.93,   466.94  C   405.43    466.94    403.40    468.97    403.40    471.47  " /><path style="stroke-width: 1.42 ;&st7;   " d=" M   403.40,   471.47  C   403.40    473.98    405.43    476.01    407.93    476.01  " /><path style="stroke-width: 1.42 ;&st7;   " d=" M   407.93,   476.01  C   410.44    476.01    412.46    473.98    412.46    471.47  " /><text style="&st18;" transform="matrix(&st16;  401.94  510.84 )">IMO</text></g><g ewd:lineID="29"><text style="&st18;" transform="matrix(&st16;  447.13  491.57 )">10</text><text style="&st18;" transform="matrix(&st16;  447.13  500.64 )">19</text><text style="&st18;" transform="matrix(&st16;  447.13  482.51 )">30</text><text style="&st18;" transform="matrix(&st16;  447.13  464.38 )">10</text><text style="&st18;" transform="matrix(&st16;  447.13  473.44 )">16</text><path style="stroke-width: 1.42 ;&st7;   " d=" M   463.46,   462.41  C   463.46    459.90    461.43    457.88    458.92    457.88  " /><path style="stroke-width: 1.42 ;&st7;   " d=" M   458.92,   457.88  C   456.42    457.88    454.39    459.90    454.39    462.41  " /><path style="stroke-width: 1.42 ;&st7;   " d=" M   454.39,   462.41  C   454.39    464.91    456.42    466.94    458.92    466.94  " /><path style="stroke-width: 1.42 ;&st7;   " d=" M   458.92,   466.94  C   461.43    466.94    463.46    464.91    463.46    462.41  " /><path style="stroke-width: 1.42 ;&st7;   " d=" M   463.46,   471.47  C   463.46    468.97    461.43    466.94    458.92    466.94  " /><path style="stroke-width: 1.42 ;&st7;   " d=" M   458.92,   466.94  C   456.42    466.94    454.39    468.97    454.39    471.47  " /><path style="stroke-width: 1.42 ;&st7;   " d=" M   454.39,   471.47  C   454.39    473.98    456.42    476.01    458.92    476.01  " /><path style="stroke-width: 1.42 ;&st7;   " d=" M   458.92,   476.01  C   461.43    476.01    463.46    473.98    463.46    471.47  " /><path style="stroke-width: 1.42 ;&st7;   " d=" M   463.46,   480.54  C   463.46    478.04    461.43    476.01    458.92    476.01  " /><path style="stroke-width: 1.42 ;&st7;   " d=" M   458.92,   476.01  C   456.42    476.01    454.39    478.04    454.39    480.54  " /><path style="stroke-width: 1.42 ;&st7;   " d=" M   454.39,   480.54  C   454.39    483.04    456.42    485.07    458.92    485.07  " /><path style="stroke-width: 1.42 ;&st7;   " d=" M   458.92,   485.07  C   461.43    485.07    463.46    483.04    463.46    480.54  " /><path style="stroke-width: 1.42 ;&st7;   " d=" M   463.46,   489.60  C   463.46    487.10    461.43    485.07    458.92    485.07  " /><path style="stroke-width: 1.42 ;&st7;   " d=" M   458.92,   485.07  C   456.42    485.07    454.39    487.10    454.39    489.60  " /><path style="stroke-width: 1.42 ;&st7;   " d=" M   454.39,   489.60  C   454.39    492.11    456.42    494.14    458.92    494.14  " /><path style="stroke-width: 1.42 ;&st7;   " d=" M   458.92,   494.14  C   461.43    494.14    463.46    492.11    463.46    489.60  " /><path style="stroke-width: 1.42 ;&st7;   " d=" M   463.46,   498.67  C   463.46    496.17    461.43    494.14    458.92    494.14  " /><path style="stroke-width: 1.42 ;&st7;   " d=" M   458.92,   494.14  C   456.42    494.14    454.39    496.17    454.39    498.67  " /><path style="stroke-width: 1.42 ;&st7;   " d=" M   454.39,   498.67  C   454.39    501.17    456.42    503.20    458.92    503.20  " /><path style="stroke-width: 1.42 ;&st7;   " d=" M   458.92,   503.20  C   461.43    503.20    463.46    501.17    463.46    498.67  " /><text style="&st18;" transform="matrix(&st16;  456.5  464.38 )">C</text><text style="&st18;" transform="matrix(&st16;  456.62  473.44 )">A</text><text style="&st18;" transform="matrix(&st16;  456.54  491.57 )">D</text><text style="&st18;" transform="matrix(&st16;  456.81  500.64 )">E</text><text style="&st18;" transform="matrix(&st16;  456.74  482.51 )">B</text><text style="&st18;" transform="matrix(&st16;  454.41  510.84 )">IMI</text></g><g ewd:figtype="title"><text style="&st18;" transform="matrix(&st16;  387.53  566.36 )">ECM</text><text style="&st18;" transform="matrix(&st16;  387.52  553.32 )">G50(A),G140(B),G142(C), <tspan x="0 " dy="6.0">G145(D),G160(E)</tspan></text></g></g><g ewd:figtype="conn" ewd:figID="6" ewd:code="N2"><path style="stroke-width: 1.42 ;&st7;  " d=" M   237.96,   605.18  L   237.96,   571.19  L   220.96,   571.19  L   220.96,   605.18  L   237.96,   605.18  " /><path style="stroke-width: 1.42 ;&st7;  " d=" M   229.46,   598.10  L   235.13,   575.44  " /><path style="stroke-width: 0.85 ;&st7;  " d=" M   229.46,   605.18  L   229.46,   600.93  " /><path style="stroke-width: 0.85 ;&st7;  " d=" M   229.46,   575.44  L   229.46,   571.19  " /><path style="stroke-width: 0.85 ;&st7;   " d=" M   230.88,   599.52  C   230.88    598.74    230.24    598.10    229.46    598.10  " /><path style="stroke-width: 0.85 ;&st7;   " d=" M   229.46,   598.10  C   228.68    598.10    228.05    598.74    228.05    599.52  " /><path style="stroke-width: 0.85 ;&st7;   " d=" M   228.05,   599.52  C   228.05    600.30    228.68    600.93    229.46    600.93  " /><path style="stroke-width: 0.85 ;&st7;   " d=" M   229.46,   600.93  C   230.24    600.93    230.88    600.30    230.88    599.52  " /><path style="stroke-width: 0.85 ;&st7;   " d=" M   230.88,   576.86  C   230.88    576.07    230.24    575.44    229.46    575.44  " /><path style="stroke-width: 0.85 ;&st7;   " d=" M   229.46,   575.44  C   228.68    575.44    228.05    576.07    228.05    576.86  " /><path style="stroke-width: 0.85 ;&st7;   " d=" M   228.05,   576.86  C   228.05    577.64    228.68    578.27    229.46    578.27  " /><path style="stroke-width: 0.85 ;&st7;   " d=" M   229.46,   578.27  C   230.24    578.27    230.88    577.64    230.88    576.86  " /><text style="&st18;" transform="matrix(&st16;  223.28  567.5 )">1</text><g ewd:figtype="title"><text style="&st18;" transform="matrix(&st17;  252.68  608.09 )" ewd:textID="3">Front Door Courtesy <tspan x="0 " dy="6.0">Light Switch Assembly LH</tspan></text><text style="&st18;" transform="matrix(&st17;  245.85  608.08 )">N2</text></g></g><g ewd:figtype="conn" ewd:figID="7" ewd:code="G136"><path style="stroke-width: 1.42 ;&st7;  " d=" M   169.97,   486.20  L   169.97,   452.21  L   152.97,   452.21  L   152.97,   486.20  L   169.97,   486.20  " /><path style="stroke-width: 1.42 ;&st7;  " d=" M   161.47,   479.12  L   167.14,   456.46  " /><path style="stroke-width: 0.85 ;&st7;  " d=" M   161.47,   486.20  L   161.47,   481.95  " /><path style="stroke-width: 0.85 ;&st7;  " d=" M   161.47,   456.46  L   161.47,   452.21  " /><path style="stroke-width: 0.85 ;&st7;   " d=" M   162.89,   480.54  C   162.89    479.76    162.26    479.12    161.47    479.12  " /><path style="stroke-width: 0.85 ;&st7;   " d=" M   161.47,   479.12  C   160.69    479.12    160.06    479.76    160.06    480.54  " /><path style="stroke-width: 0.85 ;&st7;   " d=" M   160.06,   480.54  C   160.06    481.32    160.69    481.95    161.47    481.95  " /><path style="stroke-width: 0.85 ;&st7;   " d=" M   161.47,   481.95  C   162.26    481.95    162.89    481.32    162.89    480.54  " /><path style="stroke-width: 0.85 ;&st7;   " d=" M   162.89,   457.88  C   162.89    457.09    162.26    456.46    161.47    456.46  " /><path style="stroke-width: 0.85 ;&st7;   " d=" M   161.47,   456.46  C   160.69    456.46    160.06    457.09    160.06    457.88  " /><path style="stroke-width: 0.85 ;&st7;   " d=" M   160.06,   457.88  C   160.06    458.66    160.69    459.29    161.47    459.29  " /><path style="stroke-width: 0.85 ;&st7;   " d=" M   161.47,   459.29  C   162.26    459.29    162.89    458.66    162.89    457.88  " /><text style="&st18;" transform="matrix(&st16;  155.29  494.4 )">2</text><text style="&st18;" transform="matrix(&st16;  155.29  448.52 )">1</text><g ewd:figtype="title"><text style="&st18;" transform="matrix(&st17;  184.69  489.11 )" ewd:textID="16">Un-Lock Warning <tspan x="0 " dy="6.0">Switch Assembly</tspan></text><text style="&st18;" transform="matrix(&st17;  177.87  489.1 )">G136</text></g></g><g ewd:figtype="conn" ewd:figID="8" ewd:code="G157"><path style="stroke-width: 0.85 ;&st7;  " d=" M   229.46,   375.72  L   229.46,   392.72  " /><path style="stroke-width: 0.85 ;&st7;  " d=" M   161.47,   375.72  L   161.47,   392.72  " /><path style="stroke-width: 1.42 ;&st7;  " d=" M   152.97,   375.72  L   237.96,   375.72  L   237.96,   392.72  L   152.97,   392.72  L   152.97,   375.72  " /><text style="&st18;" transform="matrix(&st16;  155.29  400.91 )">2</text><text style="&st18;" transform="matrix(&st16;  155.29  372.03 )">3</text><text style="&st18;" transform="matrix(&st16;  220.18  400.91 )">18</text><text style="&st18;" transform="matrix(&st16;  220.18  372.03 )">19</text><g ewd:figtype="title"><text style="&st18;" transform="matrix(&st17;  245.85  395.62 )">G157</text><text style="&st18;" transform="matrix(&st17;  252.68  395.63 )" ewd:textID="12">No. 36 Junction <tspan x="0 " dy="6.0">Connector</tspan></text></g></g><g ewd:figtype="conn" ewd:figID="9" ewd:code="G116"><path style="stroke-width: 1.42 ;&st7;  " d=" M    93.48,   197.25  L    93.48,   214.25  L   110.48,   214.25  L   110.48,   197.25  L    93.48,   197.25  " /><path style="stroke-width: 0.85 ;&st7;  " d=" M   101.98,   197.25  L   101.98,   214.25  " /><text style="&st18;" transform="matrix(&st16;  95.8  193.56 )">6</text><text style="&st18;" transform="matrix(&st16;  95.8  222.44 )">5</text><g ewd:figtype="title"><text style="&st18;" transform="matrix(&st17;  125.2  217.16 )" ewd:textID="9">No. 15 Junction <tspan x="0 " dy="6.0">Connector</tspan></text><text style="&st18;" transform="matrix(&st17;  118.38  217.15 )">G116</text></g></g><g ewd:figtype="conn" ewd:figID="10" ewd:code="G110,G148"><path style="stroke-width: 0.85 ;&st7;  " d=" M   254.96,   205.75  L   254.96,   222.75  " /><path style="stroke-width: 1.42 ;&st7;  " d=" M   246.46,   205.75  L   263.46,   205.75  L   263.46,   222.75  L   246.46,   222.75  L   246.46,   205.75  " /><text style="&st18;" transform="matrix(&st16;  246.26  229.25 )">4</text><text style="&st18;" transform="matrix(&st16;  243.16  238.32 )">14</text><text style="&st18;" transform="matrix(&st16;  252.65  238.32 )">A</text><path style="stroke-width: 1.42 ;&st7;   " d=" M   259.49,   227.28  C   259.49    224.78    257.46    222.75    254.96    222.75  " /><path style="stroke-width: 1.42 ;&st7;   " d=" M   254.96,   222.75  C   252.45    222.75    250.42    224.78    250.42    227.28  " /><path style="stroke-width: 1.42 ;&st7;   " d=" M   250.42,   227.28  C   250.42    229.78    252.45    231.81    254.96    231.81  " /><path style="stroke-width: 1.42 ;&st7;   " d=" M   254.96,   231.81  C   257.46    231.81    259.49    229.78    259.49    227.28  " /><path style="stroke-width: 1.42 ;&st7;   " d=" M   259.49,   236.35  C   259.49    233.84    257.46    231.81    254.96    231.81  " /><path style="stroke-width: 1.42 ;&st7;   " d=" M   254.96,   231.81  C   252.45    231.81    250.42    233.84    250.42    236.35  " /><path style="stroke-width: 1.42 ;&st7;   " d=" M   250.42,   236.35  C   250.42    238.85    252.45    240.88    254.96    240.88  " /><path style="stroke-width: 1.42 ;&st7;   " d=" M   254.96,   240.88  C   257.46    240.88    259.49    238.85    259.49    236.35  " /><text style="&st18;" transform="matrix(&st16;  252.77  229.25 )">B</text><text style="&st18;" transform="matrix(&st16;  246.26  194.12 )">5</text><text style="&st18;" transform="matrix(&st16;  243.16  203.19 )">13</text><text style="&st18;" transform="matrix(&st16;  252.65  203.19 )">A</text><text style="&st18;" transform="matrix(&st16;  252.77  194.12 )">B</text><path style="stroke-width: 1.42 ;&st7;   " d=" M   259.49,   192.15  C   259.49    189.65    257.46    187.62    254.96    187.62  " /><path style="stroke-width: 1.42 ;&st7;   " d=" M   254.96,   187.62  C   252.45    187.62    250.42    189.65    250.42    192.15  " /><path style="stroke-width: 1.42 ;&st7;   " d=" M   250.42,   192.15  C   250.42    194.66    252.45    196.69    254.96    196.69  " /><path style="stroke-width: 1.42 ;&st7;   " d=" M   254.96,   196.69  C   257.46    196.69    259.49    194.66    259.49    192.15  " /><path style="stroke-width: 1.42 ;&st7;   " d=" M   259.49,   201.22  C   259.49    198.72    257.46    196.69    254.96    196.69  " /><path style="stroke-width: 1.42 ;&st7;   " d=" M   254.96,   196.69  C   252.45    196.69    250.42    198.72    250.42    201.22  " /><path style="stroke-width: 1.42 ;&st7;   " d=" M   250.42,   201.22  C   250.42    203.72    252.45    205.75    254.96    205.75  " /><path style="stroke-width: 1.42 ;&st7;   " d=" M   254.96,   205.75  C   257.46    205.75    259.49    203.72    259.49    201.22  " /><g ewd:figtype="title"><text style="&st18;" transform="matrix(&st17;  233.98  225.65 )" ewd:textID="10">No. 30 Junction <tspan x="0 " dy="6.0">Connector</tspan></text><text style="&st18;" transform="matrix(&st17;  213.87  225.65 )" ewd:textID="4">No. 9 Junction <tspan x="0 " dy="6.0">Connector</tspan></text><text style="&st18;" transform="matrix(&st17;  207.04  225.65 )">G110(A)</text><text style="&st18;" transform="matrix(&st17;  227.16  225.65 )">G148(B)</text></g><g ewd:code="" ewd:figID="39" ewd:comment="" ewd:figtype="commref"><text style="&st18;" transform="matrix(&st16;  260.05  229.25 )">(LHD)</text></g><g ewd:code="" ewd:figID="40" ewd:comment="" ewd:figtype="commref"><text style="&st18;" transform="matrix(&st16;  260.05  238.32 )">(RHD)</text></g><g ewd:code="" ewd:figID="41" ewd:comment="" ewd:figtype="commref"><text style="&st18;" transform="matrix(&st16;  260.05  203.19 )">(RHD)</text></g><g ewd:code="" ewd:figID="42" ewd:comment="" ewd:figtype="commref"><text style="&st18;" transform="matrix(&st16;  260.05  194.12 )">(LHD)</text></g></g><g ewd:figtype="conn" ewd:figID="11" ewd:code="G115,G152"><path style="stroke-width: 0.85 ;&st7;  " d=" M   331.44,   375.72  L   331.44,   392.72  " /><path style="stroke-width: 1.42 ;&st7;  " d=" M   322.95,   375.72  L   339.94,   375.72  L   339.94,   392.72  L   322.95,   392.72  L   322.95,   375.72  " /><text style="&st18;" transform="matrix(&st16;  322.75  399.22 )">5</text><text style="&st18;" transform="matrix(&st16;  319.65  408.29 )">16</text><text style="&st18;" transform="matrix(&st16;  329.14  408.29 )">A</text><path style="stroke-width: 1.42 ;&st7;   " d=" M   335.98,   397.25  C   335.98    394.75    333.95    392.72    331.44    392.72  " /><path style="stroke-width: 1.42 ;&st7;   " d=" M   331.44,   392.72  C   328.94    392.72    326.91    394.75    326.91    397.25  " /><path style="stroke-width: 1.42 ;&st7;   " d=" M   326.91,   397.25  C   326.91    399.76    328.94    401.78    331.44    401.78  " /><path style="stroke-width: 1.42 ;&st7;   " d=" M   331.44,   401.78  C   333.95    401.78    335.98    399.76    335.98    397.25  " /><path style="stroke-width: 1.42 ;&st7;   " d=" M   335.98,   406.32  C   335.98    403.81    333.95    401.78    331.44    401.78  " /><path style="stroke-width: 1.42 ;&st7;   " d=" M   331.44,   401.78  C   328.94    401.78    326.91    403.81    326.91    406.32  " /><path style="stroke-width: 1.42 ;&st7;   " d=" M   326.91,   406.32  C   326.91    408.82    328.94    410.85    331.44    410.85  " /><path style="stroke-width: 1.42 ;&st7;   " d=" M   331.44,   410.85  C   333.95    410.85    335.98    408.82    335.98    406.32  " /><text style="&st18;" transform="matrix(&st16;  329.26  399.22 )">B</text><text style="&st18;" transform="matrix(&st16;  322.75  364.09 )">4</text><text style="&st18;" transform="matrix(&st16;  319.65  373.16 )">15</text><text style="&st18;" transform="matrix(&st16;  329.14  373.16 )">A</text><text style="&st18;" transform="matrix(&st16;  329.26  364.09 )">B</text><path style="stroke-width: 1.42 ;&st7;   " d=" M   335.98,   362.12  C   335.98    359.62    333.95    357.59    331.44    357.59  " /><path style="stroke-width: 1.42 ;&st7;   " d=" M   331.44,   357.59  C   328.94    357.59    326.91    359.62    326.91    362.12  " /><path style="stroke-width: 1.42 ;&st7;   " d=" M   326.91,   362.12  C   326.91    364.63    328.94    366.66    331.44    366.66  " /><path style="stroke-width: 1.42 ;&st7;   " d=" M   331.44,   366.66  C   333.95    366.66    335.98    364.63    335.98    362.12  " /><path style="stroke-width: 1.42 ;&st7;   " d=" M   335.98,   371.19  C   335.98    368.69    333.95    366.66    331.44    366.66  " /><path style="stroke-width: 1.42 ;&st7;   " d=" M   331.44,   366.66  C   328.94    366.66    326.91    368.69    326.91    371.19  " /><path style="stroke-width: 1.42 ;&st7;   " d=" M   326.91,   371.19  C   326.91    373.69    328.94    375.72    331.44    375.72  " /><path style="stroke-width: 1.42 ;&st7;   " d=" M   331.44,   375.72  C   333.95    375.72    335.98    373.69    335.98    371.19  " /><g ewd:figtype="title"><text style="&st18;" transform="matrix(&st17;  310.47  395.63 )" ewd:textID="11">No. 33 Junction <tspan x="0 " dy="6.0">Connector</tspan></text><text style="&st18;" transform="matrix(&st17;  290.36  395.63 )" ewd:textID="7">No. 14 Junction <tspan x="0 " dy="6.0">Connector</tspan></text><text style="&st18;" transform="matrix(&st17;  283.53  395.62 )">G115(A)</text><text style="&st18;" transform="matrix(&st17;  303.64  395.62 )">G152(B)</text></g><g ewd:code="" ewd:figID="43" ewd:comment="" ewd:figtype="commref"><text style="&st18;" transform="matrix(&st16;  336.54  399.22 )">(LHD)</text></g><g ewd:code="" ewd:figID="44" ewd:comment="" ewd:figtype="commref"><text style="&st18;" transform="matrix(&st16;  336.54  408.29 )">(RHD)</text></g><g ewd:code="" ewd:figID="45" ewd:comment="" ewd:figtype="commref"><text style="&st18;" transform="matrix(&st16;  336.54  373.16 )">(RHD)</text></g><g ewd:code="" ewd:figID="46" ewd:comment="" ewd:figtype="commref"><text style="&st18;" transform="matrix(&st16;  336.54  364.09 )">(LHD)</text></g></g><g ewd:figtype="conn" ewd:figID="12" ewd:code="G127"><path style="stroke-width: 1.42 ;&st7;  " d=" M    50.99,   273.74  L    50.99,   316.23  L   475.92,   316.23  L   475.92,   273.74  L    50.99,   273.74  " /><g ewd:lineID="1"><text style="&st18;" transform="matrix(&st16;  61.8  324.43 )">5</text><text style="&st18;" transform="matrix(&st16;  61.34  312.54 )">GND</text></g><g ewd:lineID="13,14"><text style="&st18;" transform="matrix(&st16;  155.29  324.43 )">3</text><text style="&st18;" transform="matrix(&st16;  154.9  312.54 )">KSW</text></g><g ewd:lineID="17"><text style="&st18;" transform="matrix(&st16;  223.28  324.43 )">7</text><text style="&st18;" transform="matrix(&st16;  223.16  312.54 )">CTY</text></g><g ewd:lineID="18"><text style="&st18;" transform="matrix(&st16;  248.77  270.05 )">2</text><text style="&st18;" transform="matrix(&st16;  251.61  281.37 )">IG</text></g><g ewd:lineID="2,3,7"><text style="&st18;" transform="matrix(&st16;  61.8  270.05 )">9</text><text style="&st18;" transform="matrix(&st16;  65.61  281.37 )">D</text></g><g ewd:lineID="26"><text style="&st18;" transform="matrix(&st16;  325.26  324.43 )">8</text><text style="&st18;" transform="matrix(&st16;  326.12  312.54 )">IND</text></g><g ewd:lineID="27"><text style="&st18;" transform="matrix(&st16;  398.65  324.43 )">12</text><text style="&st18;" transform="matrix(&st16;  402.18  312.54 )">EFII</text></g><g ewd:lineID="28"><text style="&st18;" transform="matrix(&st16;  418.74  270.05 )">4</text><text style="&st18;" transform="matrix(&st16;  417.08  281.37 )">ANT1</text></g><g ewd:lineID="29"><text style="&st18;" transform="matrix(&st16;  449.64  324.43 )">13</text><text style="&st18;" transform="matrix(&st16;  451.69  312.54 )">EFIO</text></g><g ewd:lineID="30"><text style="&st18;" transform="matrix(&st16;  449.64  270.05 )">15</text><text style="&st18;" transform="matrix(&st16;  451.07  281.37 )">ANT2</text></g><g ewd:lineID="8"><text style="&st18;" transform="matrix(&st16;  146.79  270.05 )">1</text><text style="&st18;" transform="matrix(&st16;  149.24  281.37 )">+B</text></g><g ewd:figtype="title"><text style="&st18;" transform="matrix(&st16;  285.55  270.04 )" ewd:textID="15">Transponder Key ECU Assembly</text><text style="&st18;" transform="matrix(&st16;  285.54  263.22 )">G127</text></g></g><g ewd:figtype="conn" ewd:figID="13" ewd:code="G112"><path style="stroke-width: 1.42 ;&st7;  " d=" M    84.99,   375.72  L   101.98,   375.72  L   101.98,   392.72  L    84.99,   392.72  L    84.99,   375.72  " /><path style="stroke-width: 0.85 ;&st7;  " d=" M    93.48,   375.72  L    93.48,   392.72  " /><text style="&st18;" transform="matrix(&st16;  84.2  372.03 )">13</text><text style="&st18;" transform="matrix(&st16;  84.2  400.91 )">14</text><g ewd:figtype="title"><text style="&st18;" transform="matrix(&st17;  116.7  395.63 )" ewd:textID="6">No. 11 <tspan x="0 " dy="6.0">Junction </tspan><tspan x="0 " dy="6.0">Connector</tspan></text><text style="&st18;" transform="matrix(&st17;  109.88  395.62 )">G112</text></g></g><g ewd:figtype="jb" ewd:figID="15" ewd:code="2"><path style="stroke-width: 0.85 ;&st7;  " d=" M   254.96,    69.77  L   254.96,    78.27  " /><path style="stroke-width: 1.42 ;&st7;  " d=" M   257.08,    95.27  L   252.83,    95.27  " /><path style="stroke-width: 1.42 ;&st7;  " d=" M   257.08,   103.77  L   252.83,   103.77  " /><path style="stroke-width: 0.85 ;&st7;  " d=" M   254.96,    78.27  L   254.96,    95.27  " /><path style="stroke-width: 1.42 ;&st7;   " d=" M   254.96,    47.11  C   252.22     48.72    251.31     52.25    252.92     54.99  " /><path style="stroke-width: 1.42 ;&st7;   " d=" M   252.92,    54.99  C   253.44     55.87    254.08     56.51    254.96     57.03  " /><path style="stroke-width: 1.42 ;&st7;   " d=" M   254.96,    66.94  C   257.70     65.33    258.61     61.80    256.99     59.06  " /><path style="stroke-width: 1.42 ;&st7;   " d=" M   256.99,    59.06  C   256.47     58.18    255.84     57.55    254.96     57.03  " /><path style="stroke-width: 0.85 ;&st7;   " d=" M   256.37,    45.69  C   256.37     44.91    255.74     44.28    254.96     44.28  " /><path style="stroke-width: 0.85 ;&st7;   " d=" M   254.96,    44.28  C   254.18     44.28    253.54     44.91    253.54     45.69  " /><path style="stroke-width: 0.85 ;&st7;   " d=" M   253.54,    45.69  C   253.54     46.48    254.18     47.11    254.96     47.11  " /><path style="stroke-width: 0.85 ;&st7;   " d=" M   254.96,    47.11  C   255.74     47.11    256.37     46.48    256.37     45.69  " /><path style="stroke-width: 0.85 ;&st7;   " d=" M   256.37,    68.36  C   256.37     67.57    255.74     66.94    254.96     66.94  " /><path style="stroke-width: 0.85 ;&st7;   " d=" M   254.96,    66.94  C   254.18     66.94    253.54     67.57    253.54     68.36  " /><path style="stroke-width: 0.85 ;&st7;   " d=" M   253.54,    68.36  C   253.54     69.14    254.18     69.77    254.96     69.77  " /><path style="stroke-width: 0.85 ;&st7;   " d=" M   254.96,    69.77  C   255.74     69.77    256.37     69.14    256.37     68.36  " /><path style="stroke-width: 1.42 ;&st7;   " d=" M   252.83,    95.27  C   250.49     95.27    248.58     97.17    248.58     99.52  " /><path style="stroke-width: 1.42 ;&st7;   " d=" M   248.58,    99.52  C   248.58    101.87    250.49    103.77    252.83    103.77  " /><path style="stroke-width: 1.42 ;&st7;   " d=" M   257.08,   103.77  C   259.43    103.77    261.33    101.87    261.33     99.52  " /><path style="stroke-width: 1.42 ;&st7;   " d=" M   261.33,    99.52  C   261.33     97.17    259.43     95.27    257.08     95.27  " /><path style="stroke-width: 0.28 ;&st9;  " d=" M   254.96,    90.37  L   252.12,    87.54  L   252.12,    91.79  L   254.96,    94.62  L   257.79,    91.79  L   257.79,    87.54  L   254.96,    90.37  " /><path style="stroke-width: 1.42 ;&st7;  " d=" M   242.21,    35.78  L   242.21,    78.27  L   267.71,    78.27  L   267.71,    35.78  L   242.21,    35.78  " /><text style="&st18;" transform="matrix(&st16;  248.77  86.47 )">2</text><text style="&st18;" transform="matrix(&st16;  249.74  32.08 )">(IG)</text><text style="&st18;" transform="matrix(&st16;  271.38  53.34 )">5A <tspan x="0 " dy="6.0">IG2 </tspan><tspan x="0 " dy="6.0">NO.3</tspan></text><text style="&st18;" transform="matrix(&st16;  251.02  101.49 )">2D</text><text style="&st18;" transform="matrix(&st16;  244.45  101.49 )">1</text></g><g ewd:figtype="jb" ewd:figID="16" ewd:code="2"><path style="stroke-width: 1.42 ;&st7;  " d=" M   231.59,   452.21  L   227.34,   452.21  " /><path style="stroke-width: 1.42 ;&st7;  " d=" M   231.59,   460.71  L   227.34,   460.71  " /><path style="stroke-width: 1.42 ;&st7;  " d=" M   231.59,   494.70  L   227.34,   494.70  " /><path style="stroke-width: 1.42 ;&st7;  " d=" M   231.59,   503.20  L   227.34,   503.20  " /><path style="stroke-width: 1.42 ;&st7;   " d=" M   227.34,   452.21  C   224.99    452.21    223.09    454.11    223.09    456.46  " /><path style="stroke-width: 1.42 ;&st7;   " d=" M   223.09,   456.46  C   223.09    458.81    224.99    460.71    227.34    460.71  " /><path style="stroke-width: 1.42 ;&st7;   " d=" M   231.59,   460.71  C   233.93    460.71    235.84    458.81    235.84    456.46  " /><path style="stroke-width: 1.42 ;&st7;   " d=" M   235.84,   456.46  C   235.84    454.11    233.93    452.21    231.59    452.21  " /><path style="stroke-width: 1.42 ;&st7;   " d=" M   227.34,   494.70  C   224.99    494.70    223.09    496.61    223.09    498.95  " /><path style="stroke-width: 1.42 ;&st7;   " d=" M   223.09,   498.95  C   223.09    501.30    224.99    503.20    227.34    503.20  " /><path style="stroke-width: 1.42 ;&st7;   " d=" M   231.59,   503.20  C   233.93    503.20    235.84    501.30    235.84    498.95  " /><path style="stroke-width: 1.42 ;&st7;   " d=" M   235.84,   498.95  C   235.84    496.61    233.93    494.70    231.59    494.70  " /><path style="stroke-width: 0.28 ;&st9;  " d=" M   229.46,   465.60  L   232.29,   468.44  L   232.29,   464.19  L   229.46,   461.35  L   226.63,   464.19  L   226.63,   468.44  L   229.46,   465.60  " /><path style="stroke-width: 0.28 ;&st9;  " d=" M   229.46,   489.81  L   226.63,   486.97  L   226.63,   491.22  L   229.46,   494.06  L   232.29,   491.22  L   232.29,   486.97  L   229.46,   489.81  " /><path style="stroke-width: 0.85 ;&st7;  " d=" M   229.46,   494.70  L   229.46,   460.71  " /><text style="&st18;" transform="matrix(&st16;  225.3  458.43 )">2Q</text><text style="&st18;" transform="matrix(&st16;  218.95  458.43 )">1</text><text style="&st18;" transform="matrix(&st16;  225.84  500.92 )">2L</text><text style="&st18;" transform="matrix(&st16;  218.95  500.92 )">4</text></g><g ewd:figtype="w2w" ewd:figID="17" ewd:code="AG2"><path style="stroke-width: 1.42 ;&st7;  " d=" M   157.22,   151.93  L   152.97,   147.68  L   148.73,   151.93  " /><path style="stroke-width: 1.42 ;&st7;  " d=" M   157.22,   155.33  L   152.97,   151.08  L   148.73,   155.33  " /><text style="&st18;" transform="matrix(&st16;  140.34  143.98 )">2</text></g><g ewd:figtype="w2w" ewd:figID="18" ewd:code="AG1"><path style="stroke-width: 1.42 ;&st7;  " d=" M   259.21,   151.93  L   254.96,   147.68  L   250.71,   151.93  " /><path style="stroke-width: 1.42 ;&st7;  " d=" M   259.21,   155.33  L   254.96,   151.08  L   250.71,   155.33  " /><text style="&st18;" transform="matrix(&st16;  242.33  143.98 )">7</text></g><g ewd:figtype="w2w" ewd:figID="19" ewd:code="GH1"><path style="stroke-width: 1.42 ;&st7;  " d=" M   335.69,   616.52  L   331.44,   620.76  L   327.20,   616.52  " /><path style="stroke-width: 1.42 ;&st7;  " d=" M   327.20,   613.12  L   331.44,   617.37  L   335.69,   613.12  " /><text style="&st18;" transform="matrix(&st16;  315.71  628.4 )">12</text></g><g ewd:figtype="w2w" ewd:figID="20" ewd:code="GH1"><path style="stroke-width: 1.42 ;&st7;  " d=" M   335.69,   452.78  L   331.44,   448.53  L   327.20,   452.78  " /><path style="stroke-width: 1.42 ;&st7;  " d=" M   335.69,   449.38  L   331.44,   445.13  L   327.20,   449.38  " /><text style="&st18;" transform="matrix(&st16;  318.81  441.43 )">7</text></g><g ewd:figtype="gp" ewd:figID="21" ewd:code="GD"><path style="stroke-width: 0.85 ;&st7;  " d=" M    66.57,   710.00  L    69.41,   710.00  " /><path style="stroke-width: 0.85 ;&st7;  " d=" M    65.16,   707.17  L    70.82,   707.17  " /><path style="stroke-width: 0.85 ;&st7;  " d=" M    63.74,   704.33  L    72.24,   704.33  " /><path style="stroke-width: 0.85 ;&st7;  " d=" M    59.49,   701.50  L    76.49,   701.50  " /><path style="stroke-width: 0.85 ;&st7;  " d=" M    67.99,   697.25  L    67.99,   701.50  " /></g><g ewd:figtype="gp" ewd:figID="22" ewd:code="GA"><path style="stroke-width: 0.85 ;&st7;  " d=" M   186.97,   697.25  L   186.97,   701.50  " /><path style="stroke-width: 0.85 ;&st7;  " d=" M   178.47,   701.50  L   195.47,   701.50  " /><path style="stroke-width: 0.85 ;&st7;  " d=" M   182.72,   704.33  L   191.22,   704.33  " /><path style="stroke-width: 0.85 ;&st7;  " d=" M   184.14,   707.17  L   189.80,   707.17  " /><path style="stroke-width: 0.85 ;&st7;  " d=" M   185.55,   710.00  L   188.39,   710.00  " /></g><g ewd:figtype="gp" ewd:figID="23" ewd:code="GE"><path style="stroke-width: 0.85 ;&st7;  " d=" M   284.70,   704.33  L   293.20,   704.33  " /><path style="stroke-width: 0.85 ;&st7;  " d=" M   286.12,   707.17  L   291.78,   707.17  " /><path style="stroke-width: 0.85 ;&st7;  " d=" M   288.95,   697.25  L   288.95,   701.50  " /><path style="stroke-width: 0.85 ;&st7;  " d=" M   287.54,   710.00  L   290.37,   710.00  " /><path style="stroke-width: 0.85 ;&st7;  " d=" M   280.45,   701.50  L   297.45,   701.50  " /></g><g ewd:figtype="gp" ewd:figID="24" ewd:code="GC"><path style="stroke-width: 0.85 ;&st7;  " d=" M   331.44,   697.25  L   331.44,   701.50  " /><path style="stroke-width: 0.85 ;&st7;  " d=" M   322.95,   701.50  L   339.94,   701.50  " /><path style="stroke-width: 0.85 ;&st7;  " d=" M   327.20,   704.33  L   335.69,   704.33  " /><path style="stroke-width: 0.85 ;&st7;  " d=" M   328.61,   707.17  L   334.28,   707.17  " /><path style="stroke-width: 0.85 ;&st7;  " d=" M   330.03,   710.00  L   332.86,   710.00  " /></g><g ewd:figtype="annex" ewd:figID="28" ewd:code=" "><path style="stroke-width: 0.85 ;&st7;  " d=" M   225.21,   616.52  L   233.71,   616.52  " /><path style="stroke-width: 0.85 ;&st7;  " d=" M   228.05,   622.18  L   230.88,   622.18  " /><path style="stroke-width: 0.85 ;&st7;  " d=" M   220.96,   613.68  L   237.96,   613.68  " /><path style="stroke-width: 0.85 ;&st7;  " d=" M   229.46,   605.18  L   229.46,   613.68  " /><path style="stroke-width: 0.85 ;&st7;  " d=" M   226.63,   619.35  L   232.29,   619.35  " /></g><g ewd:code="" ewd:figID="31" ewd:comment="5" ewd:figtype="commref"><text style="&st18;" transform="matrix(&st16;  464.02  500.64 )">(*5)</text></g><g ewd:code="" ewd:figID="32" ewd:comment="4" ewd:figtype="commref"><text style="&st18;" transform="matrix(&st16;  464.02  491.57 )">(*4)</text></g><g ewd:code="" ewd:figID="34" ewd:comment="3" ewd:figtype="commref"><text style="&st18;" transform="matrix(&st16;  464.02  482.51 )">(*3)</text></g><g ewd:code="" ewd:figID="47" ewd:comment="2" ewd:figtype="commref"><text style="&st18;" transform="matrix(&st16;  464.02  473.44 )">(*2)</text></g><g ewd:code="" ewd:figID="48" ewd:comment="1" ewd:figtype="commref"><text style="&st18;" transform="matrix(&st16;  464.02  464.38 )">(*1)</text></g><g ewd:code="2" ewd:figID="33" ewd:comment="" ewd:figtype="comment"><text style="&st18;" transform="matrix(&st16;  345.04  54.75 )">* 2 :1GD-FTV, 2GD-FTV</text></g><g ewd:code="5" ewd:figID="29" ewd:comment="" ewd:figtype="comment"><text style="&st18;" transform="matrix(&st16;  345.04  80.24 )">* 5 :5L-E</text></g><g ewd:code="4" ewd:figID="36" ewd:comment="" ewd:figtype="comment"><text style="&st18;" transform="matrix(&st16;  345.04  71.74 )">* 4 :1GR-FE</text></g><g ewd:code="7" ewd:figID="38" ewd:comment="" ewd:figtype="comment"><text style="&st18;" transform="matrix(&st16;  345.04  97.24 )" ewd:textID="2">* 7 :From Jan. 2016 Production</text></g><g ewd:code="1" ewd:figID="30" ewd:comment="" ewd:figtype="comment"><text style="&st18;" transform="matrix(&st16;  345.04  46.25 )">* 1 :2TR-FE</text></g><g ewd:code="6" ewd:figID="37" ewd:comment="" ewd:figtype="comment"><text style="&st18;" transform="matrix(&st16;  345.04  88.74 )" ewd:textID="1">* 6 :Before Jan. 2016 Production</text></g><g ewd:code="3" ewd:figID="35" ewd:comment="" ewd:figtype="comment"><text style="&st18;" transform="matrix(&st16;  345.04  63.24 )">* 3 :1KD-FTV, 2KD-FTV</text></g></svg>