﻿<?xml version="1.0" encoding="utf-8"?>
<!DOCTYPE svg PUBLIC "-//W3C//DTD SVG 1.0//EN" "http://www.w3.org/TR/2001/REC-SVG-20010904/DTD/svg10.dtd"[
	<!ENTITY ns_flows "http://ns.adobe.com/Flows/1.0/">
	<!ENTITY ns_svg "http://www.w3.org/2000/svg">
	<!ENTITY ns_xlink "http://www.w3.org/1999/xlink">
	<!ENTITY st0 "font-size:7px;font-family:'MS-PGothic';adobe-font-script:japanese;">
	<!ENTITY st1 "font-size:6px;font-family:'ArialMT';">
	<!-- White fill  -->
	<!ENTITY st2 "fill:#FFFFFF;stroke:#000000; stroke-width:1.41;stroke-linecap:round;stroke-linejoin:round;">
	<!-- Yellow fill  -->
	<!ENTITY st3 "fill:#FFFFCC;stroke:#FFFFCC; stroke-width:0.1;stroke-linecap:round;stroke-linejoin:round;">
	<!-- Gray fill  -->
	<!ENTITY st4 "fill:#CCCCCC;stroke:#CCCCCC; stroke-width:0.1;stroke-linecap:round;stroke-linejoin:round;">
	<!-- Light-blue fill -->
	<!ENTITY st5 "fill:#CCECF4;stroke:#000000; stroke-width:1.133;stroke-linecap:round;stroke-linejoin:round;">
	<!ENTITY st6 "fill:none;stroke-linecap:butt; stroke-linejoin:round;">
	<!ENTITY st7 "fill:none;stroke:#000000;stroke-linecap:round;stroke-linejoin:round;">
	<!ENTITY st8 "enable-background:new    ;">
	<!-- Black fill -->
	<!ENTITY st9 "fill:#000000;stroke:#000000; stroke-linecap:round;stroke-linejoin:round;">
	<!-- SRS note   -->
	<!ENTITY st10 "font-size:9px;font-family:'ArialMT';">
	<!ENTITY st11 "font-size:9px;font-family:'Svg Symbol';">
	<!ENTITY st12 "font-size:6px;font-family:'Svg Symbol';">
	<!ENTITY st13 "fill:none;stroke:#ff0000;stroke-linecap:round;stroke-linejoin:round;">
	<!-- Yellow fill  -->
	<!ENTITY st14 "fill:#FFFF00;stroke:#FFFF00; stroke-width:0.1;stroke-linecap:round;stroke-linejoin:round;">
	<!ENTITY st15 "font-size:6px;font-family:'MS-PGothic';adobe-font-script:japanese;">
	<!ENTITY st16 "1.00 0.00 0.00 1.00">
	<!ENTITY st17 "0.00 -1.00 1.00 0.00">
	<!ENTITY st18 "font-size:6px;font-family:'Arial';">
	<!ENTITY st19 "font-size:9px;font-family:'Arial';">
	<!ENTITY st20 "font-size:6px;font-family:'MS-PGothic','MS PGothic';adobe-font-script:japanese;">
	<!ENTITY st21 "font-size:7px;font-family:'MS-PGothic','MS PGothic';adobe-font-script:japanese;">
	<!ATTLIST svg
		xmlns:ewd CDATA #FIXED "http://shcl.co.jp/ewd"
		xmlns:a CDATA #FIXED "http://ns.adobe.com/AdobeSVGViewerExtensions/3.0/"
		ewd:ver CDATA #IMPLIED
	>
	<!ATTLIST a
		ewd:lineID CDATA #IMPLIED
		ewd:groupID CDATA #IMPLIED
		ewd:figtype CDATA #IMPLIED
		ewd:code CDATA #IMPLIED
		ewd:figID CDATA #IMPLIED
		ewd:pinNo CDATA #IMPLIED
		ewd:comment CDATA #IMPLIED >
	<!ATTLIST g
		ewd:lineID CDATA #IMPLIED
		ewd:groupID CDATA #IMPLIED
		ewd:figtype CDATA #IMPLIED
		ewd:code CDATA #IMPLIED
		ewd:figID CDATA #IMPLIED
		ewd:pinNo CDATA #IMPLIED
		ewd:comment CDATA #IMPLIED >
	<!ATTLIST text
		ewd:textID CDATA #IMPLIED >
	<!ATTLIST title
		ewd:textID CDATA #IMPLIED >
]>
<!-- Generator: Shintec Hozumi YS   -->
<svg onload="call_execInitLoadProc_svg('system')" style="overflow:visible;  enable-background:new 0 0 7255.338 710.000" viewBox="0 0 7255.338 710.000" height="710.000" width="7255.338" xml:space="preserve" ewd:ver="2.1.2.9" xmlns="&ns_svg;" xmlns:a="http://ns.adobe.com/AdobeSVGViewerExtensions/3.0/" xmlns:ewd="http://shcl.co.jp/ewd" xmlns:xlink="&ns_xlink;">
<text style="&st18;" transform="matrix(&st16;  6087.03  185.06 )">W-B</text><text style="&st18;" transform="matrix(&st16;  6087.03  108.57 )">W-B</text><text style="&st18;" transform="matrix(&st17;  6013.3  347.68 )">W-B</text><path style="stroke-width: 1.42 ;&st7;  " d=" M  6373.94,   600.93  L  6373.94,   605.18  " /><path style="stroke-width: 1.42 ;&st7;  " d=" M  6110.48,   664.67  L  6110.48,   668.92  " /><text style="&st18;" transform="matrix(&st16;  6388.73  601.49 )">W-B</text><text style="&st18;" transform="matrix(&st16;  6329.24  601.49 )">W-B</text><text style="&st18;" transform="matrix(&st16;  6087.03  151.06 )">W-B</text><path style="stroke-width: 1.42 ;&st7;  " d=" M  6373.94,   184.50  L  6373.94,   188.75  " /><path style="stroke-width: 1.42 ;&st7;  " d=" M  6450.42,   270.21  L  6445.45,   265.24  " /><path style="stroke-width: 1.42 ;&st7;  " d=" M  6433.43,   277.27  L  6438.39,   282.24  " /><path style="stroke-width: 1.42 ;&st7;  " d=" M  6445.45,   282.24  L  6450.42,   277.27  " /><path style="stroke-width: 1.42 ;&st7;  " d=" M  6438.39,   265.24  L  6433.43,   270.21  " /><path style="stroke-width: 1.42 ;&st7;  " d=" M  6433.43,   338.20  L  6428.45,   333.23  " /><path style="stroke-width: 1.42 ;&st7;  " d=" M  6416.43,   345.26  L  6421.40,   350.23  " /><path style="stroke-width: 1.42 ;&st7;  " d=" M  6428.45,   350.23  L  6433.43,   345.26  " /><path style="stroke-width: 1.42 ;&st7;  " d=" M  6421.40,   333.23  L  6416.43,   338.20  " /><path style="stroke-width: 1.42 ;&st7;  " d=" M  6365.44,   464.96  L  6365.44,   469.21  " /><text style="&st18;" transform="matrix(&st16;  6342.85  227.55 )">W-B(*30 *7 *31)</text><text style="&st18;" transform="matrix(&st16;  6358.98  406.02 )">W-B</text><text style="&st18;" transform="matrix(&st16;  6324.99  465.51 )">W-B</text><text style="&st18;" transform="matrix(&st16;  6324.68  476.84 )">(*35)</text><text style="&st18;" transform="matrix(&st16;  6384.48  465.51 )">W-B</text><text style="&st18;" transform="matrix(&st16;  6384.17  476.84 )">(*35)</text><text style="&st18;" transform="matrix(&st16;  6086.72  119.9 )">(*12)</text><text style="&st18;" transform="matrix(&st16;  6086.72  162.39 )">(*12)</text><text style="&st18;" transform="matrix(&st16;  6336.98  185.06 )">W</text><text style="&st18;" transform="matrix(&st16;  6392.98  185.06 )">W-B</text><text style="&st18;" transform="matrix(&st16;  6358.98  304.04 )">W-B</text><text style="&st18;" transform="matrix(&st16;  6358.98  372.03 )">W-B</text><text style="&st18;" transform="matrix(&st17;  6421.23  390.18 )">W-B</text><text style="&st18;" transform="matrix(&st17;  6497.72  560.15 )">W-B</text><text style="&st18;" transform="matrix(&st16;  6070.03  660.98 )">W-B</text><text style="&st18;" transform="matrix(&st16;  6069.72  672.31 )">(*35)</text><text style="&st18;" transform="matrix(&st16;  6146.52  660.98 )">W-B</text><text style="&st18;" transform="matrix(&st16;  6146.21  672.31 )">(*35)</text><text style="&st18;" transform="matrix(&st16;  6388.73  567.49 )">W-B</text><text style="&st18;" transform="matrix(&st17;  6438.23  390.18 )">W-B</text><text style="&st18;" transform="matrix(&st16;  6358.98  338.03 )">W-B</text><path style="stroke-width: 1.42 ;&st7;  " d=" M  6365.44,   269.49  L  6365.44,   273.74  " /><text style="&st18;" transform="matrix(&st16;  6336.98  270.04 )">W</text><text style="&st18;" transform="matrix(&st16;  6384.48  270.04 )">W-B</text><text style="&st18;" transform="matrix(&st16;  6087.03  74.58 )">W-B</text><text style="&st18;" transform="matrix(&st16;  6086.72  85.91 )">(*28)</text><path style="stroke-width: 1.42 ;&st7;  " d=" M  6450.42,   185.23  L  6445.45,   180.26  " /><path style="stroke-width: 1.42 ;&st7;  " d=" M  6433.43,   192.28  L  6438.39,   197.25  " /><path style="stroke-width: 1.42 ;&st7;  " d=" M  6445.45,   197.25  L  6450.42,   192.28  " /><path style="stroke-width: 1.42 ;&st7;  " d=" M  6438.39,   180.26  L  6433.43,   185.23  " /><text style="&st18;" transform="matrix(&st16;  6333.18  196.39 )">(*30)</text><text style="&st18;" transform="matrix(&st16;  6392.67  196.39 )">(*30)</text><text style="&st18;" transform="matrix(&st17;  6438.23  228.7 )">W-B</text><text style="&st18;" transform="matrix(&st16;  6358.98  151.06 )">W-B</text><path style="stroke-width: 1.42 ;&st7;  " d=" M  6356.94,   537.20  L  6356.94,   541.44  " /><path style="stroke-width: 1.42 ;&st7;  " d=" M  6433.43,   532.95  L  6433.43,   537.20  " /><text style="&st18;" transform="matrix(&st16;  6329.24  533.5 )">W-B</text><text style="&st18;" transform="matrix(&st16;  6328.93  544.83 )">(*47)</text><text style="&st18;" transform="matrix(&st16;  6392.22  533.5 )">W</text><text style="&st18;" transform="matrix(&st16;  6388.42  544.83 )">(*47)</text><text style="&st18;" transform="matrix(&st16;  6452.47  533.5 )">W-B</text><text style="&st18;" transform="matrix(&st16;  6452.16  544.83 )">(*47)</text><text style="&st18;" transform="matrix(&st16;  6070.03  601.49 )">W-B</text><text style="&st18;" transform="matrix(&st16;  6069.72  612.82 )">(*11)</text><text style="&st18;" transform="matrix(&st16;  6358.67  162.39 )">(*56)</text><text style="&st18;" transform="matrix(&st16;  6358.98  244.55 )">W-B</text><text style="&st18;" transform="matrix(&st16;  6349.06  255.88 )">(*29 *8 *55)</text><g ewd:figtype="rb" ewd:figID="48" ewd:code="6"><path style="stroke-width: 0.85 ;&st7;  " d=" M  6314.44,   375.72  L  6335.69,   375.72  " /><path style="stroke-width: 0.85 ;&st7;  " d=" M  6314.44,   307.73  L  6335.69,   307.73  " /><text style="&st18;" transform="matrix(&st16;  6317.03  304.04 )">1</text><text style="&st18;" transform="matrix(&st16;  6317.03  372.03 )">4</text><path style="stroke-width: 1.42 ;&st7;  " d=" M  6344.19,   311.98  L  6339.94,   311.98  " /><path style="stroke-width: 1.42 ;&st7;  " d=" M  6344.19,   303.48  L  6339.94,   303.48  " /><path style="stroke-width: 1.42 ;&st7;   " d=" M  6348.44,   307.73  C  6348.44    305.39   6346.54    303.48   6344.19    303.48  " /><path style="stroke-width: 1.42 ;&st7;   " d=" M  6344.19,   311.98  C  6346.54    311.98   6348.44    310.08   6348.44    307.73  " /><path style="stroke-width: 1.42 ;&st7;   " d=" M  6335.69,   307.73  C  6335.69    310.08   6337.59    311.98   6339.94    311.98  " /><path style="stroke-width: 1.42 ;&st7;   " d=" M  6339.94,   303.48  C  6337.59    303.48   6335.69    305.39   6335.69    307.73  " /><path style="stroke-width: 0.28 ;&st9;  " d=" M  6330.79,   307.73  L  6327.96,   304.90  L  6332.21,   304.90  L  6335.04,   307.73  L  6332.21,   310.57  L  6327.96,   310.57  L  6330.79,   307.73  " /><text style="&st18;" transform="matrix(&st16;  6340.26  309.7 )">6</text><path style="stroke-width: 1.42 ;&st7;  " d=" M  6344.19,   371.47  L  6339.94,   371.47  " /><path style="stroke-width: 1.42 ;&st7;  " d=" M  6344.19,   379.97  L  6339.94,   379.97  " /><path style="stroke-width: 1.42 ;&st7;   " d=" M  6339.94,   371.47  C  6337.59    371.47   6335.69    373.38   6335.69    375.72  " /><path style="stroke-width: 1.42 ;&st7;   " d=" M  6335.69,   375.72  C  6335.69    378.07   6337.59    379.97   6339.94    379.97  " /><path style="stroke-width: 1.42 ;&st7;   " d=" M  6344.19,   379.97  C  6346.54    379.97   6348.44    378.07   6348.44    375.72  " /><path style="stroke-width: 1.42 ;&st7;   " d=" M  6348.44,   375.72  C  6348.44    373.38   6346.54    371.47   6344.19    371.47  " /><path style="stroke-width: 0.28 ;&st9;  " d=" M  6330.79,   375.72  L  6327.96,   372.89  L  6332.21,   372.89  L  6335.04,   375.72  L  6332.21,   378.56  L  6327.96,   378.56  L  6330.79,   375.72  " /><text style="&st18;" transform="matrix(&st16;  6340.26  377.69 )">6</text><path style="stroke-width: 0.85 ;&st7;  " d=" M  6314.44,   341.73  L  6335.69,   341.73  " /><text style="&st18;" transform="matrix(&st16;  6317.03  338.04 )">2</text><path style="stroke-width: 1.42 ;&st7;  " d=" M  6344.19,   345.98  L  6339.94,   345.98  " /><path style="stroke-width: 1.42 ;&st7;  " d=" M  6344.19,   337.48  L  6339.94,   337.48  " /><path style="stroke-width: 1.42 ;&st7;   " d=" M  6348.44,   341.73  C  6348.44    339.38   6346.54    337.48   6344.19    337.48  " /><path style="stroke-width: 1.42 ;&st7;   " d=" M  6344.19,   345.98  C  6346.54    345.98   6348.44    344.07   6348.44    341.73  " /><path style="stroke-width: 1.42 ;&st7;   " d=" M  6335.69,   341.73  C  6335.69    344.07   6337.59    345.98   6339.94    345.98  " /><path style="stroke-width: 1.42 ;&st7;   " d=" M  6339.94,   337.48  C  6337.59    337.48   6335.69    339.38   6335.69    341.73  " /><path style="stroke-width: 0.28 ;&st9;  " d=" M  6330.79,   341.73  L  6327.96,   338.90  L  6332.21,   338.90  L  6335.04,   341.73  L  6332.21,   344.56  L  6327.96,   344.56  L  6330.79,   341.73  " /><text style="&st18;" transform="matrix(&st16;  6340.26  343.7 )">6</text><text style="&st18;" transform="matrix(&st16;  6230.3  315.37 )" ewd:textID="124">INV Relay</text><text style="&st18;" transform="matrix(&st16;  6306.01  309.7 )">-S</text><path style="stroke-width: 1.42 ;&st7;  " d=" M  6229.46,   299.24  L  6229.46,   324.73  L  6314.44,   324.73  L  6314.44,   299.24  L  6229.46,   299.24  " /></g><g ewd:figtype="rb" ewd:figID="49" ewd:code="6"><text style="&st18;" transform="matrix(&st16;  6230.3  383.36 )" ewd:textID="85">DEF Relay</text><text style="&st18;" transform="matrix(&st16;  6308.49  377.69 )">E</text><path style="stroke-width: 1.42 ;&st7;  " d=" M  6229.46,   367.22  L  6229.46,   392.72  L  6314.44,   392.72  L  6314.44,   367.22  L  6229.46,   367.22  " /></g><g ewd:figtype="conn" ewd:figID="53" ewd:code="N17"><text style="&st18;" transform="matrix(&st16;  6308.49  233.22 )">E</text><path style="stroke-width: 1.42 ;&st7;  " d=" M  6229.46,   222.75  L  6229.46,   248.24  L  6314.44,   248.24  L  6314.44,   222.75  L  6229.46,   222.75  " /><text style="&st18;" transform="matrix(&st16;  6317.03  227.56 )">2</text><g ewd:figtype="title"><text style="&st18;" transform="matrix(&st16;  6230.3  238.88 )" ewd:textID="107">Front Seat Inner <tspan x="0 " dy="6.0">Belt Assembly LH</tspan></text><text style="&st18;" transform="matrix(&st16;  6230.3  231.78 )">N17</text></g></g><g ewd:figtype="conn" ewd:figID="55" ewd:code="N36"><text style="&st18;" transform="matrix(&st16;  6308.49  411.69 )">E</text><path style="stroke-width: 1.42 ;&st7;  " d=" M  6229.46,   401.22  L  6229.46,   426.71  L  6314.44,   426.71  L  6314.44,   401.22  L  6229.46,   401.22  " /><text style="&st18;" transform="matrix(&st16;  6317.03  406.03 )">2</text><g ewd:figtype="title"><text style="&st18;" transform="matrix(&st16;  6230.3  417.35 )" ewd:textID="146">No. 2 Power Outlet <tspan x="0 " dy="6.0">Socket Assembly</tspan></text><text style="&st18;" transform="matrix(&st16;  6230.3  410.25 )">N36</text></g></g><g ewd:figtype="conn" ewd:figID="59" ewd:code="M4"><text style="&st18;" transform="matrix(&st16;  6299.42  607.15 )">GND</text><path style="stroke-width: 1.42 ;&st7;  " d=" M  6229.46,   596.69  L  6229.46,   622.18  L  6314.44,   622.18  L  6314.44,   596.69  L  6229.46,   596.69  " /><text style="&st18;" transform="matrix(&st16;  6317.03  601.49 )">1</text><g ewd:figtype="title"><text style="&st18;" transform="matrix(&st16;  6230.3  612.82 )" ewd:textID="184">Rear Power Window <tspan x="0 " dy="6.0">Regulator Motor Assembly LH</tspan></text><text style="&st18;" transform="matrix(&st16;  6230.3  605.71 )">M4</text></g></g><g ewd:figtype="conn" ewd:figID="64" ewd:code="N32"><text style="&st18;" transform="matrix(&st16;  6129.21  190.72 )">E</text><path style="stroke-width: 1.42 ;&st7;  " d=" M  6127.47,   180.26  L  6127.47,   222.75  L  6212.46,   222.75  L  6212.46,   180.26  L  6127.47,   180.26  " /><text style="&st18;" transform="matrix(&st16;  6121.29  185.06 )">5</text><g ewd:figtype="title"><text style="&st18;" transform="matrix(&st16;  6153.81  189.28 )">N32</text><text style="&st18;" transform="matrix(&st16;  6153.82  196.39 )" ewd:textID="172">Rear Combination <tspan x="0 " dy="6.0">Light </tspan><tspan x="0 " dy="6.0">Assembly RH</tspan></text></g></g><g ewd:figtype="conn" ewd:figID="68" ewd:code="M6"><text style="&st18;" transform="matrix(&st16;  6299.42  190.72 )">GND</text><path style="stroke-width: 1.42 ;&st7;  " d=" M  6229.46,   180.26  L  6229.46,   214.25  L  6314.44,   214.25  L  6314.44,   180.26  L  6229.46,   180.26  " /><text style="&st18;" transform="matrix(&st16;  6317.03  185.06 )">7</text><g ewd:figtype="title"><text style="&st18;" transform="matrix(&st16;  6230.3  196.39 )" ewd:textID="186">Rear Power Window <tspan x="0 " dy="6.0">Regulator Switch </tspan><tspan x="0 " dy="6.0">Assembly LH</tspan></text><text style="&st18;" transform="matrix(&st16;  6230.3  189.28 )">M6</text></g></g><g ewd:figtype="rb" ewd:figID="72" ewd:code="6"><text style="&st18;" transform="matrix(&st16;  6230.3  349.36 )" ewd:textID="161">P/OUTLET <tspan x="0 " dy="6.0">Relay</tspan></text><text style="&st18;" transform="matrix(&st16;  6306.01  343.7 )">-S</text><path style="stroke-width: 1.42 ;&st7;  " d=" M  6229.46,   333.23  L  6229.46,   358.73  L  6314.44,   358.73  L  6314.44,   333.23  L  6229.46,   333.23  " /></g><g ewd:figtype="conn" ewd:figID="73" ewd:code="M1"><text style="&st18;" transform="matrix(&st16;  6308.49  275.71 )">E</text><path style="stroke-width: 1.42 ;&st7;  " d=" M  6229.46,   265.24  L  6229.46,   290.74  L  6314.44,   290.74  L  6314.44,   265.24  L  6229.46,   265.24  " /><text style="&st18;" transform="matrix(&st16;  6317.03  270.05 )">9</text><g ewd:figtype="title"><text style="&st18;" transform="matrix(&st16;  6230.3  281.37 )" ewd:textID="176">Rear Door <tspan x="0 " dy="6.0">Lock Assembly LH</tspan></text><text style="&st18;" transform="matrix(&st16;  6230.3  274.27 )">M1</text></g></g><g ewd:figtype="conn" ewd:figID="84" ewd:code="e2"><path style="stroke-width: 1.42 ;&st7;  " d=" M  6229.46,   528.70  L  6229.46,   554.19  L  6314.44,   554.19  L  6314.44,   528.70  L  6229.46,   528.70  " /><text style="&st18;" transform="matrix(&st16;  6299.42  539.16 )">GND</text><text style="&st18;" transform="matrix(&st16;  6317.03  533.51 )">1</text><g ewd:figtype="title"><text style="&st18;" transform="matrix(&st16;  6230.3  537.72 )">e2</text><text style="&st18;" transform="matrix(&st16;  6230.3  544.83 )" ewd:textID="144">No. 1 Transfer <tspan x="0 " dy="6.0">Indicator Switch</tspan></text></g></g><g ewd:figtype="conn" ewd:figID="97" ewd:code="N33"><path style="stroke-width: 1.42 ;&st7;  " d=" M  6229.46,   562.69  L  6229.46,   588.19  L  6314.44,   588.19  L  6314.44,   562.69  L  6229.46,   562.69  " /><text style="&st18;" transform="matrix(&st16;  6308.49  573.16 )">E</text><text style="&st18;" transform="matrix(&st16;  6317.03  567.5 )">5</text><g ewd:figtype="title"><text style="&st18;" transform="matrix(&st16;  6230.3  578.82 )" ewd:textID="171">Rear Combination <tspan x="0 " dy="6.0">Light Assembly LH</tspan></text><text style="&st18;" transform="matrix(&st16;  6230.3  571.72 )">N33</text></g></g><g ewd:figtype="conn" ewd:figID="100" ewd:code="N42"><path style="stroke-width: 1.42 ;&st7;  " d=" M  6127.47,   146.26  L  6127.47,   171.76  L  6212.46,   171.76  L  6212.46,   146.26  L  6127.47,   146.26  " /><text style="&st18;" transform="matrix(&st16;  6129.21  156.73 )">E</text><text style="&st18;" transform="matrix(&st16;  6121.29  151.07 )">4</text><g ewd:figtype="title"><text style="&st18;" transform="matrix(&st16;  6153.82  162.39 )" ewd:textID="173">Rear Cooler <tspan x="0 " dy="6.0">Relay</tspan></text><text style="&st18;" transform="matrix(&st16;  6153.81  155.29 )">N42</text></g></g><g ewd:figtype="conn" ewd:figID="205" ewd:code="N52"><text style="&st18;" transform="matrix(&st16;  6129.21  80.24 )">GND</text><path style="stroke-width: 1.42 ;&st7;  " d=" M  6127.47,    69.77  L  6127.47,    95.27  L  6212.46,    95.27  L  6212.46,    69.77  L  6127.47,    69.77  " /><text style="&st18;" transform="matrix(&st16;  6121.29  74.58 )">1</text><g ewd:figtype="title"><text style="&st18;" transform="matrix(&st16;  6153.82  85.91 )" ewd:textID="199">Theft Warning <tspan x="0 " dy="6.0">Siren Assembly</tspan></text><text style="&st18;" transform="matrix(&st16;  6153.81  78.8 )">N52</text></g></g><g ewd:figtype="conn" ewd:figID="209" ewd:code="N44"><text style="&st18;" transform="matrix(&st16;  6297.87  156.73 )">LBR-</text><path style="stroke-width: 1.42 ;&st7;  " d=" M  6229.46,   146.26  L  6229.46,   171.76  L  6314.44,   171.76  L  6314.44,   146.26  L  6229.46,   146.26  " /><text style="&st18;" transform="matrix(&st16;  6317.03  151.07 )">2</text><g ewd:figtype="title"><text style="&st18;" transform="matrix(&st16;  6230.3  162.39 )" ewd:textID="182">Rear No. 1 Seat Inner <tspan x="0 " dy="6.0">Belt Assembly LH</tspan></text><text style="&st18;" transform="matrix(&st16;  6230.3  155.29 )">N44</text></g></g><g ewd:figtype="conn" ewd:figID="241" ewd:code="N34"><text style="&st18;" transform="matrix(&st16;  6120.71  607.15 )">GND</text><path style="stroke-width: 1.42 ;&st7;  " d=" M  6118.98,   596.69  L  6118.98,   622.18  L  6203.96,   622.18  L  6203.96,   596.69  L  6118.98,   596.69  " /><text style="&st18;" transform="matrix(&st16;  6112.79  601.49 )">5</text><g ewd:figtype="title"><text style="&st18;" transform="matrix(&st16;  6145.32  612.82 )" ewd:textID="169">Rear A/C Control <tspan x="0 " dy="6.0">Assembly</tspan></text><text style="&st18;" transform="matrix(&st16;  6145.31  605.71 )">N34</text></g></g><g ewd:figtype="conn" ewd:figID="251" ewd:code="N41"><text style="&st18;" transform="matrix(&st16;  6129.21  114.24 )">LO</text><path style="stroke-width: 1.42 ;&st7;  " d=" M  6127.47,   103.77  L  6127.47,   129.26  L  6212.46,   129.26  L  6212.46,   103.77  L  6127.47,   103.77  " /><text style="&st18;" transform="matrix(&st16;  6121.29  108.58 )">1</text><g ewd:figtype="title"><text style="&st18;" transform="matrix(&st16;  6153.81  112.8 )">N41</text><text style="&st18;" transform="matrix(&st16;  6153.82  119.9 )" ewd:textID="175">Rear Cooling <tspan x="0 " dy="6.0">Unit Assembly</tspan></text></g></g><g ewd:figtype="w2w" ewd:figID="315" ewd:code="JN1"><path style="stroke-width: 1.42 ;&st7;  " d=" M  6104.81,   660.42  L  6109.06,   664.67  L  6104.81,   668.92  " /><path style="stroke-width: 1.42 ;&st7;  " d=" M  6101.41,   660.42  L  6105.66,   664.67  L  6101.41,   668.92  " /><text style="&st18;" transform="matrix(&st16;  6117.18  657.44 )">9</text></g><g ewd:figtype="w2w" ewd:figID="316" ewd:code="KN1"><path style="stroke-width: 1.42 ;&st7;  " d=" M  6371.10,   473.46  L  6366.85,   469.21  L  6371.10,   464.96  " /><path style="stroke-width: 1.42 ;&st7;  " d=" M  6374.50,   473.46  L  6370.25,   469.21  L  6374.50,   464.96  " /><text style="&st18;" transform="matrix(&st16;  6355.14  461.97 )">9</text></g><g ewd:figtype="w2w" ewd:figID="317" ewd:code="MN1"><path style="stroke-width: 1.42 ;&st7;  " d=" M  6374.50,   277.99  L  6370.25,   273.74  L  6374.50,   269.49  " /><path style="stroke-width: 1.42 ;&st7;  " d=" M  6371.10,   277.99  L  6366.85,   273.74  L  6371.10,   269.49  " /><text style="&st18;" transform="matrix(&st16;  6353.59  266.5 )">20</text></g><g ewd:figtype="w2w" ewd:figID="318" ewd:code="MN1"><path style="stroke-width: 1.42 ;&st7;  " d=" M  6383.00,   609.43  L  6378.75,   605.18  L  6383.00,   600.93  " /><path style="stroke-width: 1.42 ;&st7;  " d=" M  6379.60,   609.43  L  6375.35,   605.18  L  6379.60,   600.93  " /><text style="&st18;" transform="matrix(&st16;  6362.09  597.95 )">16</text></g><g ewd:figtype="w2w" ewd:figID="319" ewd:code="Oe1"><path style="stroke-width: 1.42 ;&st7;  " d=" M  6351.27,   532.95  L  6355.52,   537.20  L  6351.27,   541.44  " /><path style="stroke-width: 1.42 ;&st7;  " d=" M  6347.87,   532.95  L  6352.12,   537.20  L  6347.87,   541.44  " /><text style="&st18;" transform="matrix(&st16;  6363.64  529.96 )">1</text></g><g ewd:figtype="w2w" ewd:figID="320" ewd:code="MN1"><path style="stroke-width: 1.42 ;&st7;  " d=" M  6383.00,   193.00  L  6378.75,   188.75  L  6383.00,   184.50  " /><path style="stroke-width: 1.42 ;&st7;  " d=" M  6379.60,   193.00  L  6375.35,   188.75  L  6379.60,   184.50  " /><text style="&st18;" transform="matrix(&st16;  6362.09  181.52 )">19</text></g><g ewd:figtype="w2w" ewd:figID="321" ewd:code="ON1"><path style="stroke-width: 1.42 ;&st7;  " d=" M  6442.49,   541.44  L  6438.24,   537.20  L  6442.49,   532.95  " /><path style="stroke-width: 1.42 ;&st7;  " d=" M  6439.09,   541.44  L  6434.84,   537.20  L  6439.09,   532.95  " /><text style="&st18;" transform="matrix(&st16;  6423.13  529.96 )">5</text></g><g ewd:figtype="gp" ewd:figID="355" ewd:code="JA"><path style="stroke-width: 0.85 ;&st7;  " d=" M  6178.47,   697.25  L  6178.47,   701.50  " /><path style="stroke-width: 0.85 ;&st7;  " d=" M  6169.97,   701.50  L  6186.96,   701.50  " /><path style="stroke-width: 0.85 ;&st7;  " d=" M  6174.22,   704.33  L  6182.71,   704.33  " /><path style="stroke-width: 0.85 ;&st7;  " d=" M  6175.63,   707.17  L  6181.30,   707.17  " /><path style="stroke-width: 0.85 ;&st7;  " d=" M  6177.05,   710.00  L  6179.88,   710.00  " /></g><g ewd:figtype="gp" ewd:figID="356" ewd:code="KA"><path style="stroke-width: 0.85 ;&st7;  " d=" M  6305.94,   501.78  L  6305.94,   506.03  " /><path style="stroke-width: 0.85 ;&st7;  " d=" M  6297.45,   506.03  L  6314.44,   506.03  " /><path style="stroke-width: 0.85 ;&st7;  " d=" M  6301.69,   508.87  L  6310.19,   508.87  " /><path style="stroke-width: 0.85 ;&st7;  " d=" M  6303.11,   511.70  L  6308.78,   511.70  " /><path style="stroke-width: 0.85 ;&st7;  " d=" M  6304.53,   514.53  L  6307.36,   514.53  " /></g><g ewd:figtype="gp" ewd:figID="357" ewd:code="NA"><path style="stroke-width: 0.85 ;&st7;  " d=" M  6457.50,   514.53  L  6460.33,   514.53  " /><path style="stroke-width: 0.85 ;&st7;  " d=" M  6456.09,   511.70  L  6461.75,   511.70  " /><path style="stroke-width: 0.85 ;&st7;  " d=" M  6454.67,   508.87  L  6463.17,   508.87  " /><path style="stroke-width: 0.85 ;&st7;  " d=" M  6450.42,   506.03  L  6467.42,   506.03  " /><path style="stroke-width: 0.85 ;&st7;  " d=" M  6458.92,   501.78  L  6458.92,   506.03  " /></g><g ewd:figtype="gp" ewd:figID="358" ewd:code="NB"><path style="stroke-width: 0.85 ;&st7;  " d=" M  6484.41,   697.25  L  6484.41,   701.50  " /><path style="stroke-width: 0.85 ;&st7;  " d=" M  6475.92,   701.50  L  6492.91,   701.50  " /><path style="stroke-width: 0.85 ;&st7;  " d=" M  6480.16,   704.33  L  6488.66,   704.33  " /><path style="stroke-width: 0.85 ;&st7;  " d=" M  6481.58,   707.17  L  6487.25,   707.17  " /><path style="stroke-width: 0.85 ;&st7;  " d=" M  6483.00,   710.00  L  6485.83,   710.00  " /></g><g ewd:code="12" ewd:figID="407" ewd:comment="" ewd:figtype="comment"><text style="&st18;" transform="matrix(&st16;  6455.52  54.75 )" ewd:textID="12">*12 :Manual A/C</text></g><g ewd:code="35" ewd:figID="403" ewd:comment="" ewd:figtype="comment"><text style="&st18;" transform="matrix(&st16;  6455.52  105.74 )" ewd:textID="32">*35 :w/ Curtain Shield Airbag</text></g><g ewd:code="39" ewd:figID="409" ewd:comment="" ewd:figtype="comment"><text style="&st18;" transform="matrix(&st16;  6455.52  114.24 )" ewd:textID="34">*39 :w/ Power Back Door</text></g><g ewd:code="31" ewd:figID="507" ewd:comment="" ewd:figtype="comment"><text style="&st18;" transform="matrix(&st16;  6455.52  88.74 )" ewd:textID="28">*31 :w/ Door Control Battery</text></g><g ewd:code="29" ewd:figID="469" ewd:comment="" ewd:figtype="comment"><text style="&st18;" transform="matrix(&st16;  6455.52  71.74 )" ewd:textID="26">*29 :w/ Power Window (Driver's Door Only Jam Protection)</text></g><g ewd:code="47" ewd:figID="471" ewd:comment="" ewd:figtype="comment"><text style="&st18;" transform="matrix(&st16;  6455.52  131.23 )" ewd:textID="41">*47 :w/ Rear Differential Lock</text></g><g ewd:code="7" ewd:figID="505" ewd:comment="" ewd:figtype="comment"><text style="&st18;" transform="matrix(&st16;  6455.52  29.25 )" ewd:textID="7">* 7 :w/ Smart Entry &amp; Start System</text></g><g ewd:code="30" ewd:figID="470" ewd:comment="" ewd:figtype="comment"><text style="&st18;" transform="matrix(&st16;  6455.52  80.24 )" ewd:textID="27">*30 :w/ Power Window (All Door Jam Protection)</text></g><g ewd:code="8" ewd:figID="506" ewd:comment="" ewd:figtype="comment"><text style="&st18;" transform="matrix(&st16;  6455.52  37.75 )" ewd:textID="8">* 8 :w/o Smart Entry &amp; Start System</text></g><g ewd:code="1" ewd:figID="405" ewd:comment="" ewd:figtype="comment"><text style="&st18;" transform="matrix(&st16;  6455.52  12.25 )">* 1 :2TR-FE</text></g><g ewd:code="40" ewd:figID="408" ewd:comment="" ewd:figtype="comment"><text style="&st18;" transform="matrix(&st16;  6455.52  122.73 )" ewd:textID="35">*40 :w/o Power Back Door</text></g><g ewd:code="56" ewd:figID="508" ewd:comment="" ewd:figtype="comment"><text style="&st18;" transform="matrix(&st16;  6455.52  148.23 )" ewd:textID="47">*56 :w/ Seat Belt Warning (Rear Passenger's Seat)</text></g><g ewd:code="26" ewd:figID="404" ewd:comment="" ewd:figtype="comment"><text style="&st18;" transform="matrix(&st16;  6455.52  63.24 )" ewd:textID="23">*26 :w/ Outer Foot Light</text></g><g ewd:code="5" ewd:figID="466" ewd:comment="" ewd:figtype="comment"><text style="&st18;" transform="matrix(&st16;  6455.52  20.75 )">* 5 :1GR-FE</text></g><g ewd:code="34" ewd:figID="468" ewd:comment="" ewd:figtype="comment"><text style="&st18;" transform="matrix(&st16;  6455.52  97.24 )" ewd:textID="31">*34 :w/ Back Door Closer (w/o Power Back Door)</text></g><g ewd:code="55" ewd:figID="509" ewd:comment="" ewd:figtype="comment"><text style="&st18;" transform="matrix(&st16;  6455.52  139.73 )" ewd:textID="46">*55 :w/o Door Control Battery</text></g><g ewd:code="11" ewd:figID="406" ewd:comment="" ewd:figtype="comment"><text style="&st18;" transform="matrix(&st16;  6455.52  46.25 )" ewd:textID="11">*11 :Automatic A/C</text></g></svg>