﻿<?xml version="1.0" encoding="utf-8"?>
<!DOCTYPE svg PUBLIC "-//W3C//DTD SVG 1.0//EN" "http://www.w3.org/TR/2001/REC-SVG-20010904/DTD/svg10.dtd"[
	<!ENTITY ns_flows "http://ns.adobe.com/Flows/1.0/">
	<!ENTITY ns_svg "http://www.w3.org/2000/svg">
	<!ENTITY ns_xlink "http://www.w3.org/1999/xlink">
	<!ENTITY st0 "font-size:7px;font-family:'MS-PGothic';adobe-font-script:japanese;">
	<!ENTITY st1 "font-size:6px;font-family:'ArialMT';">
	<!-- White fill  -->
	<!ENTITY st2 "fill:#FFFFFF;stroke:#000000; stroke-width:1.41;stroke-linecap:round;stroke-linejoin:round;">
	<!-- Yellow fill  -->
	<!ENTITY st3 "fill:#FFFFCC;stroke:#FFFFCC; stroke-width:0.1;stroke-linecap:round;stroke-linejoin:round;">
	<!-- Gray fill  -->
	<!ENTITY st4 "fill:#CCCCCC;stroke:#CCCCCC; stroke-width:0.1;stroke-linecap:round;stroke-linejoin:round;">
	<!-- Light-blue fill -->
	<!ENTITY st5 "fill:#CCECF4;stroke:#000000; stroke-width:1.133;stroke-linecap:round;stroke-linejoin:round;">
	<!ENTITY st6 "fill:none;stroke-linecap:butt; stroke-linejoin:round;">
	<!ENTITY st7 "fill:none;stroke:#000000;stroke-linecap:round;stroke-linejoin:round;">
	<!ENTITY st8 "enable-background:new    ;">
	<!-- Black fill -->
	<!ENTITY st9 "fill:#000000;stroke:#000000; stroke-linecap:round;stroke-linejoin:round;">
	<!-- SRS note   -->
	<!ENTITY st10 "font-size:9px;font-family:'ArialMT';">
	<!ENTITY st11 "font-size:9px;font-family:'Svg Symbol';">
	<!ENTITY st12 "font-size:6px;font-family:'Svg Symbol';">
	<!ENTITY st13 "fill:none;stroke:#ff0000;stroke-linecap:round;stroke-linejoin:round;">
	<!-- Yellow fill  -->
	<!ENTITY st14 "fill:#FFFF00;stroke:#FFFF00; stroke-width:0.1;stroke-linecap:round;stroke-linejoin:round;">
	<!ENTITY st15 "font-size:6px;font-family:'MS-PGothic';adobe-font-script:japanese;">
	<!ENTITY st16 "1.00 0.00 0.00 1.00">
	<!ENTITY st17 "0.00 -1.00 1.00 0.00">
	<!ENTITY st18 "font-size:6px;font-family:'Arial';">
	<!ENTITY st19 "font-size:9px;font-family:'Arial';">
	<!ENTITY st20 "font-size:6px;font-family:'MS-PGothic','MS PGothic';adobe-font-script:japanese;">
	<!ENTITY st21 "font-size:7px;font-family:'MS-PGothic','MS PGothic';adobe-font-script:japanese;">
	<!ATTLIST svg
		xmlns:ewd CDATA #FIXED "http://shcl.co.jp/ewd"
		xmlns:a CDATA #FIXED "http://ns.adobe.com/AdobeSVGViewerExtensions/3.0/"
		ewd:ver CDATA #IMPLIED
	>
	<!ATTLIST a
		ewd:lineID CDATA #IMPLIED
		ewd:groupID CDATA #IMPLIED
		ewd:figtype CDATA #IMPLIED
		ewd:code CDATA #IMPLIED
		ewd:figID CDATA #IMPLIED
		ewd:pinNo CDATA #IMPLIED
		ewd:comment CDATA #IMPLIED >
	<!ATTLIST g
		ewd:lineID CDATA #IMPLIED
		ewd:groupID CDATA #IMPLIED
		ewd:figtype CDATA #IMPLIED
		ewd:code CDATA #IMPLIED
		ewd:figID CDATA #IMPLIED
		ewd:pinNo CDATA #IMPLIED
		ewd:comment CDATA #IMPLIED >
	<!ATTLIST text
		ewd:textID CDATA #IMPLIED >
	<!ATTLIST title
		ewd:textID CDATA #IMPLIED >
]>
<!-- Generator: Shintec Hozumi YS   -->
<svg onload="call_execInitLoadProc_svg('system')" style="overflow:visible;  enable-background:new 0 0 7773.751 710.000" viewBox="0 0 7773.751 710.000" height="710.000" width="7773.751" xml:space="preserve" ewd:ver="2.1.2.9" xmlns="&ns_svg;" xmlns:a="http://ns.adobe.com/AdobeSVGViewerExtensions/3.0/" xmlns:ewd="http://shcl.co.jp/ewd" xmlns:xlink="&ns_xlink;">
<path style="stroke-width: 1.42 ;&st7;  " d=" M  2430.59,   592.44  L  2430.59,   596.69  " /><path style="stroke-width: 1.42 ;&st7;  " d=" M  2430.59,   303.48  L  2430.59,   307.73  " /><path style="stroke-width: 1.42 ;&st7;  " d=" M  2345.61,   219.22  L  2340.64,   214.25  " /><path style="stroke-width: 1.42 ;&st7;  " d=" M  2328.61,   226.28  L  2333.58,   231.25  " /><path style="stroke-width: 1.42 ;&st7;  " d=" M  2340.64,   231.25  L  2345.61,   226.28  " /><path style="stroke-width: 1.42 ;&st7;  " d=" M  2333.58,   214.25  L  2328.61,   219.22  " /><path style="stroke-width: 1.42 ;&st7;  " d=" M  2277.62,   346.70  L  2272.65,   341.73  " /><path style="stroke-width: 1.42 ;&st7;  " d=" M  2260.62,   353.76  L  2265.59,   358.73  " /><path style="stroke-width: 1.42 ;&st7;  " d=" M  2272.65,   358.73  L  2277.62,   353.76  " /><path style="stroke-width: 1.42 ;&st7;  " d=" M  2265.59,   341.73  L  2260.62,   346.70  " /><path style="stroke-width: 1.42 ;&st7;  " d=" M  2277.62,   278.71  L  2272.65,   273.74  " /><path style="stroke-width: 1.42 ;&st7;  " d=" M  2260.62,   285.77  L  2265.59,   290.74  " /><path style="stroke-width: 1.42 ;&st7;  " d=" M  2272.65,   290.74  L  2277.62,   285.77  " /><path style="stroke-width: 1.42 ;&st7;  " d=" M  2265.59,   273.74  L  2260.62,   278.71  " /><path style="stroke-width: 1.42 ;&st7;  " d=" M  2277.62,   210.72  L  2272.65,   205.75  " /><path style="stroke-width: 1.42 ;&st7;  " d=" M  2260.62,   217.78  L  2265.59,   222.75  " /><path style="stroke-width: 1.42 ;&st7;  " d=" M  2272.65,   222.75  L  2277.62,   217.78  " /><path style="stroke-width: 1.42 ;&st7;  " d=" M  2265.59,   205.75  L  2260.62,   210.72  " /><path style="stroke-width: 1.42 ;&st7;   " d=" M  2422.24,   521.21  C  2420.33    523.35   2420.27    526.49   2422.10    528.70  " /><path style="stroke-width: 1.42 ;&st7;   " d=" M  2422.24,   555.21  C  2420.33    557.35   2420.27    560.48   2422.10    562.69  " /><path style="stroke-width: 1.42 ;&st7;   " d=" M  2260.76,   453.22  C  2258.86    455.36   2258.80    458.50   2260.62    460.71  " /><path style="stroke-width: 1.42 ;&st7;   " d=" M  2260.76,   487.22  C  2258.86    489.36   2258.80    492.49   2260.62    494.70  " /><path style="stroke-width: 1.42 ;&st7;   " d=" M  2260.76,   521.21  C  2258.86    523.35   2258.80    526.49   2260.62    528.70  " /><path style="stroke-width: 1.42 ;&st7;   " d=" M  2260.76,   555.21  C  2258.86    557.35   2258.80    560.48   2260.62    562.69  " /><path style="stroke-width: 1.42 ;&st7;   " d=" M  2260.76,   589.20  C  2258.86    591.34   2258.80    594.47   2260.62    596.69  " /><text style="&st18;" transform="matrix(&st16;  2413.59  230.38 )">(4WD)</text><text style="&st18;" transform="matrix(&st16;  2415.64  660.98 )">W-B</text><text style="&st18;" transform="matrix(&st16;  2415.64  626.98 )">W-B</text><text style="&st18;" transform="matrix(&st16;  2237.17  660.98 )">W-B</text><text style="&st18;" transform="matrix(&st16;  2460.54  592.99 )">BR</text><text style="&st18;" transform="matrix(&st16;  2384.05  592.99 )">BR</text><text style="&st18;" transform="matrix(&st16;  2375.37  558.99 )" ewd:textID="2">(Shielded)</text><text style="&st18;" transform="matrix(&st16;  2375.37  525.0 )" ewd:textID="2">(Shielded)</text><text style="&st18;" transform="matrix(&st16;  2415.64  491.01 )">W-B</text><text style="&st18;" transform="matrix(&st16;  2418.05  457.01 )">BR</text><text style="&st18;" transform="matrix(&st16;  2281.88  457.01 )" ewd:textID="2">(Shielded)</text><text style="&st18;" transform="matrix(&st16;  2281.88  491.01 )" ewd:textID="2">(Shielded)</text><text style="&st18;" transform="matrix(&st16;  2281.88  525.0 )" ewd:textID="2">(Shielded)</text><text style="&st18;" transform="matrix(&st16;  2281.88  558.99 )" ewd:textID="2">(Shielded)</text><text style="&st18;" transform="matrix(&st16;  2281.88  592.99 )" ewd:textID="2">(Shielded)</text><text style="&st18;" transform="matrix(&st17;  2333.41  642.73 )">BR</text><text style="&st18;" transform="matrix(&st16;  2415.64  346.53 )">W-B</text><text style="&st18;" transform="matrix(&st16;  2462.59  304.04 )">P</text><text style="&st18;" transform="matrix(&st16;  2384.05  304.04 )">BR</text><text style="&st18;" transform="matrix(&st16;  2415.64  219.05 )">W-B</text><text style="&st18;" transform="matrix(&st16;  2415.64  253.05 )">W-B</text><text style="&st18;" transform="matrix(&st16;  2415.64  176.56 )">W-B</text><text style="&st18;" transform="matrix(&st16;  2413.59  187.89 )">(4WD)</text><text style="&st18;" transform="matrix(&st17;  2333.41  288.19 )">W-B</text><text style="&st18;" transform="matrix(&st16;  2205.58  346.53 )">BR</text><text style="&st18;" transform="matrix(&st16;  2203.18  312.54 )">W-B</text><text style="&st18;" transform="matrix(&st16;  2203.18  278.54 )">W-B</text><text style="&st18;" transform="matrix(&st16;  2203.18  244.55 )">W-B</text><text style="&st18;" transform="matrix(&st16;  2203.18  210.55 )">W-B</text><text style="&st18;" transform="matrix(&st16;  2203.18  176.56 )">W-B</text><text style="&st18;" transform="matrix(&st16;  2296.66  346.53 )">W-B</text><text style="&st18;" transform="matrix(&st17;  2265.43  322.19 )">W-B</text><text style="&st18;" transform="matrix(&st17;  2265.43  254.2 )">W-B</text><text style="&st18;" transform="matrix(&st16;  2413.59  264.38 )">(4WD)</text><text style="&st18;" transform="matrix(&st16;  2349.99  686.47 )">(*5)</text><text style="&st18;" transform="matrix(&st16;  2349.99  372.03 )">(*5)</text><g ewd:figtype="conn" ewd:figID="156" ewd:code="C83"><path style="stroke-width: 1.42 ;&st7;   " d=" M  2498.58,   460.71  C  2498.58    458.21   2496.55    456.18   2494.05    456.18  " /><path style="stroke-width: 1.42 ;&st7;   " d=" M  2494.05,   456.18  C  2491.55    456.18   2489.52    458.21   2489.52    460.71  " /><path style="stroke-width: 1.42 ;&st7;   " d=" M  2489.52,   460.71  C  2489.52    463.21   2491.55    465.24   2494.05    465.24  " /><path style="stroke-width: 1.42 ;&st7;   " d=" M  2494.05,   465.24  C  2496.55    465.24   2498.58    463.21   2498.58    460.71  " /><path style="stroke-width: 1.42 ;&st7;  " d=" M  2498.58,   452.21  L  2498.58,   477.71  L  2583.57,   477.71  L  2583.57,   452.21  L  2498.58,   452.21  " /><text style="&st18;" transform="matrix(&st16;  2500.32  462.68 )">E1</text><text style="&st18;" transform="matrix(&st16;  2490.7  454.18 )">12</text><path style="stroke-width: 1.42 ;&st7;   " d=" M  2498.58,   460.71  C  2498.58    458.21   2496.55    456.18   2494.05    456.18  " /><path style="stroke-width: 1.42 ;&st7;   " d=" M  2494.05,   456.18  C  2491.55    456.18   2489.52    458.21   2489.52    460.71  " /><path style="stroke-width: 1.42 ;&st7;   " d=" M  2489.52,   460.71  C  2489.52    463.21   2491.55    465.24   2494.05    465.24  " /><path style="stroke-width: 1.42 ;&st7;   " d=" M  2494.05,   465.24  C  2496.55    465.24   2498.58    463.21   2498.58    460.71  " /><text style="&st18;" transform="matrix(&st16;  2491.86  462.68 )">B</text><g ewd:figtype="title"><text style="&st18;" transform="matrix(&st16;  2524.91  461.24 )">C83(B)</text><text style="&st18;" transform="matrix(&st16;  2524.92  468.34 )">ECM</text></g></g><g ewd:figtype="conn" ewd:figID="157" ewd:code="C82"><path style="stroke-width: 1.42 ;&st7;   " d=" M  2498.58,   494.70  C  2498.58    492.20   2496.55    490.17   2494.05    490.17  " /><path style="stroke-width: 1.42 ;&st7;   " d=" M  2494.05,   490.17  C  2491.55    490.17   2489.52    492.20   2489.52    494.70  " /><path style="stroke-width: 1.42 ;&st7;   " d=" M  2489.52,   494.70  C  2489.52    497.21   2491.55    499.24   2494.05    499.24  " /><path style="stroke-width: 1.42 ;&st7;   " d=" M  2494.05,   499.24  C  2496.55    499.24   2498.58    497.21   2498.58    494.70  " /><path style="stroke-width: 1.42 ;&st7;  " d=" M  2498.58,   486.20  L  2498.58,   511.70  L  2583.57,   511.70  L  2583.57,   486.20  L  2498.58,   486.20  " /><text style="&st18;" transform="matrix(&st16;  2500.32  496.67 )">E02</text><text style="&st18;" transform="matrix(&st16;  2490.7  488.17 )">14</text><path style="stroke-width: 1.42 ;&st7;   " d=" M  2498.58,   494.70  C  2498.58    492.20   2496.55    490.17   2494.05    490.17  " /><path style="stroke-width: 1.42 ;&st7;   " d=" M  2494.05,   490.17  C  2491.55    490.17   2489.52    492.20   2489.52    494.70  " /><path style="stroke-width: 1.42 ;&st7;   " d=" M  2489.52,   494.70  C  2489.52    497.21   2491.55    499.24   2494.05    499.24  " /><path style="stroke-width: 1.42 ;&st7;   " d=" M  2494.05,   499.24  C  2496.55    499.24   2498.58    497.21   2498.58    494.70  " /><text style="&st18;" transform="matrix(&st16;  2491.75  496.67 )">A</text><g ewd:figtype="title"><text style="&st18;" transform="matrix(&st16;  2524.91  495.23 )">C82(A)</text><text style="&st18;" transform="matrix(&st16;  2524.92  502.34 )">ECM</text></g></g><g ewd:figtype="conn" ewd:figID="158" ewd:code="G4"><path style="stroke-width: 1.42 ;&st7;   " d=" M  2498.58,   596.69  C  2498.58    594.18   2496.55    592.15   2494.05    592.15  " /><path style="stroke-width: 1.42 ;&st7;   " d=" M  2494.05,   592.15  C  2491.55    592.15   2489.52    594.18   2489.52    596.69  " /><path style="stroke-width: 1.42 ;&st7;   " d=" M  2489.52,   596.69  C  2489.52    599.19   2491.55    601.22   2494.05    601.22  " /><path style="stroke-width: 1.42 ;&st7;   " d=" M  2494.05,   601.22  C  2496.55    601.22   2498.58    599.19   2498.58    596.69  " /><path style="stroke-width: 1.42 ;&st7;  " d=" M  2498.58,   588.19  L  2498.58,   613.68  L  2583.57,   613.68  L  2583.57,   588.19  L  2498.58,   588.19  " /><text style="&st18;" transform="matrix(&st16;  2500.32  598.65 )">ECC</text><text style="&st18;" transform="matrix(&st16;  2492.25  590.16 )">2</text><path style="stroke-width: 1.42 ;&st7;   " d=" M  2498.58,   596.69  C  2498.58    594.18   2496.55    592.15   2494.05    592.15  " /><path style="stroke-width: 1.42 ;&st7;   " d=" M  2494.05,   592.15  C  2491.55    592.15   2489.52    594.18   2489.52    596.69  " /><path style="stroke-width: 1.42 ;&st7;   " d=" M  2489.52,   596.69  C  2489.52    599.19   2491.55    601.22   2494.05    601.22  " /><path style="stroke-width: 1.42 ;&st7;   " d=" M  2494.05,   601.22  C  2496.55    601.22   2498.58    599.19   2498.58    596.69  " /><text style="&st18;" transform="matrix(&st16;  2491.75  598.65 )">A</text><g ewd:figtype="title"><text style="&st18;" transform="matrix(&st16;  2524.92  604.32 )" ewd:textID="200">Spiral Cable <tspan x="0 " dy="6.0">Sub-Assembly</tspan></text><text style="&st18;" transform="matrix(&st16;  2524.91  597.21 )">G4(A)</text></g></g><g ewd:figtype="conn" ewd:figID="159" ewd:code="C82"><path style="stroke-width: 1.42 ;&st7;   " d=" M  2498.58,   630.68  C  2498.58    628.18   2496.55    626.15   2494.05    626.15  " /><path style="stroke-width: 1.42 ;&st7;   " d=" M  2494.05,   626.15  C  2491.55    626.15   2489.52    628.18   2489.52    630.68  " /><path style="stroke-width: 1.42 ;&st7;   " d=" M  2489.52,   630.68  C  2489.52    633.18   2491.55    635.21   2494.05    635.21  " /><path style="stroke-width: 1.42 ;&st7;   " d=" M  2494.05,   635.21  C  2496.55    635.21   2498.58    633.18   2498.58    630.68  " /><path style="stroke-width: 1.42 ;&st7;   " d=" M  2498.58,   664.67  C  2498.58    662.17   2496.55    660.14   2494.05    660.14  " /><path style="stroke-width: 1.42 ;&st7;   " d=" M  2494.05,   660.14  C  2491.55    660.14   2489.52    662.17   2489.52    664.67  " /><path style="stroke-width: 1.42 ;&st7;   " d=" M  2489.52,   664.67  C  2489.52    667.18   2491.55    669.21   2494.05    669.21  " /><path style="stroke-width: 1.42 ;&st7;   " d=" M  2494.05,   669.21  C  2496.55    669.21   2498.58    667.18   2498.58    664.67  " /><path style="stroke-width: 1.42 ;&st7;  " d=" M  2498.58,   622.18  L  2498.58,   681.67  L  2583.57,   681.67  L  2583.57,   622.18  L  2498.58,   622.18  " /><text style="&st18;" transform="matrix(&st16;  2500.32  632.65 )">E04</text><text style="&st18;" transform="matrix(&st16;  2500.32  666.64 )">E05</text><text style="&st18;" transform="matrix(&st16;  2490.7  658.14 )">11</text><path style="stroke-width: 1.42 ;&st7;   " d=" M  2498.58,   664.67  C  2498.58    662.17   2496.55    660.14   2494.05    660.14  " /><path style="stroke-width: 1.42 ;&st7;   " d=" M  2494.05,   660.14  C  2491.55    660.14   2489.52    662.17   2489.52    664.67  " /><path style="stroke-width: 1.42 ;&st7;   " d=" M  2489.52,   664.67  C  2489.52    667.18   2491.55    669.21   2494.05    669.21  " /><path style="stroke-width: 1.42 ;&st7;   " d=" M  2494.05,   669.21  C  2496.55    669.21   2498.58    667.18   2498.58    664.67  " /><text style="&st18;" transform="matrix(&st16;  2491.75  666.64 )">A</text><text style="&st18;" transform="matrix(&st16;  2490.7  624.15 )">16</text><path style="stroke-width: 1.42 ;&st7;   " d=" M  2498.58,   630.68  C  2498.58    628.18   2496.55    626.15   2494.05    626.15  " /><path style="stroke-width: 1.42 ;&st7;   " d=" M  2494.05,   626.15  C  2491.55    626.15   2489.52    628.18   2489.52    630.68  " /><path style="stroke-width: 1.42 ;&st7;   " d=" M  2489.52,   630.68  C  2489.52    633.18   2491.55    635.21   2494.05    635.21  " /><path style="stroke-width: 1.42 ;&st7;   " d=" M  2494.05,   635.21  C  2496.55    635.21   2498.58    633.18   2498.58    630.68  " /><text style="&st18;" transform="matrix(&st16;  2491.75  632.65 )">A</text><g ewd:figtype="title"><text style="&st18;" transform="matrix(&st16;  2524.91  631.21 )">C82(A)</text><text style="&st18;" transform="matrix(&st16;  2524.92  638.31 )">ECM</text></g></g><g ewd:figtype="conn" ewd:figID="160" ewd:code="C108"><path style="stroke-width: 1.42 ;&st7;  " d=" M  2328.61,   452.21  L  2345.61,   452.21  L  2345.61,   605.18  L  2328.61,   605.18  L  2328.61,   452.21  " /><path style="stroke-width: 0.85 ;&st7;  " d=" M  2328.61,   460.71  L  2345.61,   460.71  " /><path style="stroke-width: 0.85 ;&st7;  " d=" M  2328.61,   494.70  L  2345.61,   494.70  " /><path style="stroke-width: 0.85 ;&st7;  " d=" M  2328.61,   528.70  L  2345.61,   528.70  " /><path style="stroke-width: 0.85 ;&st7;  " d=" M  2328.61,   562.69  L  2345.61,   562.69  " /><path style="stroke-width: 0.85 ;&st7;  " d=" M  2328.61,   596.69  L  2345.61,   596.69  " /><path style="stroke-width: 0.85 ;&st7;  " d=" M  2337.11,   460.71  L  2337.11,   605.18  " /><path style="stroke-width: 0.85 ;&st7;  " d=" M  2335.92,   459.71  L  2335.64,   460.18  L  2335.55,   460.71  L  2335.64,   461.24  L  2335.92,   461.71  L  2336.33,   462.06  L  2336.84,   462.24  L  2337.38,   462.24  L  2337.89,   462.06  L  2338.30,   461.71  L  2338.57,   461.24  L  2338.67,   460.71  L  2338.57,   460.18  L  2338.30,   459.71  L  2337.89,   459.36  L  2337.38,   459.17  L  2336.84,   459.17  L  2336.33,   459.36  L  2335.92,   459.71  L  2336.31,   460.42  L  2336.31,   461.00  L  2336.68,   461.44  L  2337.26,   461.54  L  2337.76,   461.26  L  2337.96,   460.71  L  2337.76,   460.16  L  2337.26,   459.87  L  2336.68,   459.97  L  2337.11,   460.71  " /><path style="stroke-width: 0.85 ;&st7;  " d=" M  2335.92,   493.70  L  2335.64,   494.17  L  2335.55,   494.70  L  2335.64,   495.24  L  2335.92,   495.71  L  2336.33,   496.05  L  2336.84,   496.24  L  2337.38,   496.24  L  2337.89,   496.05  L  2338.30,   495.71  L  2338.57,   495.24  L  2338.67,   494.70  L  2338.57,   494.17  L  2338.30,   493.70  L  2337.89,   493.35  L  2337.38,   493.17  L  2336.84,   493.17  L  2336.33,   493.35  L  2335.92,   493.70  L  2336.31,   494.41  L  2336.31,   494.99  L  2336.68,   495.44  L  2337.26,   495.54  L  2337.76,   495.25  L  2337.96,   494.70  L  2337.76,   494.16  L  2337.26,   493.87  L  2336.68,   493.97  L  2337.11,   494.70  " /><path style="stroke-width: 0.85 ;&st7;  " d=" M  2335.92,   527.69  L  2335.64,   528.16  L  2335.55,   528.70  L  2335.64,   529.23  L  2335.92,   529.70  L  2336.33,   530.05  L  2336.84,   530.23  L  2337.38,   530.23  L  2337.89,   530.05  L  2338.30,   529.70  L  2338.57,   529.23  L  2338.67,   528.70  L  2338.57,   528.16  L  2338.30,   527.69  L  2337.89,   527.35  L  2337.38,   527.16  L  2336.84,   527.16  L  2336.33,   527.35  L  2335.92,   527.69  L  2336.31,   528.41  L  2336.31,   528.99  L  2336.68,   529.43  L  2337.26,   529.53  L  2337.76,   529.24  L  2337.96,   528.70  L  2337.76,   528.15  L  2337.26,   527.86  L  2336.68,   527.96  L  2337.11,   528.70  " /><path style="stroke-width: 0.85 ;&st7;  " d=" M  2335.92,   561.69  L  2335.64,   562.16  L  2335.55,   562.69  L  2335.64,   563.22  L  2335.92,   563.69  L  2336.33,   564.04  L  2336.84,   564.23  L  2337.38,   564.23  L  2337.89,   564.04  L  2338.30,   563.69  L  2338.57,   563.22  L  2338.67,   562.69  L  2338.57,   562.16  L  2338.30,   561.69  L  2337.89,   561.34  L  2337.38,   561.16  L  2336.84,   561.16  L  2336.33,   561.34  L  2335.92,   561.69  L  2336.31,   562.40  L  2336.31,   562.98  L  2336.68,   563.43  L  2337.26,   563.53  L  2337.76,   563.24  L  2337.96,   562.69  L  2337.76,   562.14  L  2337.26,   561.86  L  2336.68,   561.95  L  2337.11,   562.69  " /><path style="stroke-width: 0.85 ;&st7;  " d=" M  2335.92,   595.68  L  2335.64,   596.15  L  2335.55,   596.69  L  2335.64,   597.22  L  2335.92,   597.69  L  2336.33,   598.03  L  2336.84,   598.22  L  2337.38,   598.22  L  2337.89,   598.03  L  2338.30,   597.69  L  2338.57,   597.22  L  2338.67,   596.69  L  2338.57,   596.15  L  2338.30,   595.68  L  2337.89,   595.34  L  2337.38,   595.15  L  2336.84,   595.15  L  2336.33,   595.34  L  2335.92,   595.68  L  2336.31,   596.39  L  2336.31,   596.98  L  2336.68,   597.42  L  2337.26,   597.52  L  2337.76,   597.23  L  2337.96,   596.69  L  2337.76,   596.14  L  2337.26,   595.85  L  2336.68,   595.95  L  2337.11,   596.69  " /><text style="&st18;" transform="matrix(&st16;  2348.19  457.02 )">10</text><text style="&st18;" transform="matrix(&st16;  2348.19  525.01 )">8</text><text style="&st18;" transform="matrix(&st16;  2348.19  559.0 )">7</text><text style="&st18;" transform="matrix(&st16;  2322.43  457.02 )">5</text><text style="&st18;" transform="matrix(&st16;  2322.43  491.01 )">4</text><text style="&st18;" transform="matrix(&st16;  2322.43  525.01 )">3</text><text style="&st18;" transform="matrix(&st16;  2322.43  559.0 )">2</text><text style="&st18;" transform="matrix(&st16;  2322.43  593.0 )">1</text><text style="&st18;" transform="matrix(&st16;  2327.82  613.38 )">13</text><text style="&st18;" transform="matrix(&st16;  2348.19  593.0 )">12</text><text style="&st18;" transform="matrix(&st16;  2348.19  491.01 )">6</text><g ewd:figtype="title"><text style="&st18;" transform="matrix(&st16;  2325.2  441.69 )">C108</text><text style="&st18;" transform="matrix(&st16;  2325.21  448.51 )" ewd:textID="160">No. 26 Junction Connector</text></g></g><g ewd:figtype="conn" ewd:figID="161" ewd:code="C83"><path style="stroke-width: 1.42 ;&st7;  " d=" M  2082.15,   656.18  L  2082.15,   681.67  L  2167.14,   681.67  L  2167.14,   656.18  L  2082.15,   656.18  " /><text style="&st18;" transform="matrix(&st16;  2150.02  666.64 )">ME01</text><text style="&st18;" transform="matrix(&st16;  2168.32  658.14 )">29</text><path style="stroke-width: 1.42 ;&st7;   " d=" M  2176.20,   664.67  C  2176.20    662.17   2174.17    660.14   2171.67    660.14  " /><path style="stroke-width: 1.42 ;&st7;   " d=" M  2171.67,   660.14  C  2169.17    660.14   2167.14    662.17   2167.14    664.67  " /><path style="stroke-width: 1.42 ;&st7;   " d=" M  2167.14,   664.67  C  2167.14    667.18   2169.17    669.21   2171.67    669.21  " /><path style="stroke-width: 1.42 ;&st7;   " d=" M  2171.67,   669.21  C  2174.17    669.21   2176.20    667.18   2176.20    664.67  " /><text style="&st18;" transform="matrix(&st16;  2169.48  666.64 )">B</text><g ewd:figtype="title"><text style="&st18;" transform="matrix(&st16;  2082.99  665.2 )">C83(B)</text><text style="&st18;" transform="matrix(&st16;  2083.0  672.31 )">ECM</text></g></g><g ewd:figtype="conn" ewd:figID="162" ewd:code="C83"><path style="stroke-width: 1.42 ;&st7;   " d=" M  2498.58,   350.23  C  2498.58    347.72   2496.55    345.69   2494.05    345.69  " /><path style="stroke-width: 1.42 ;&st7;   " d=" M  2494.05,   345.69  C  2491.55    345.69   2489.52    347.72   2489.52    350.23  " /><path style="stroke-width: 1.42 ;&st7;   " d=" M  2489.52,   350.23  C  2489.52    352.73   2491.55    354.76   2494.05    354.76  " /><path style="stroke-width: 1.42 ;&st7;   " d=" M  2494.05,   354.76  C  2496.55    354.76   2498.58    352.73   2498.58    350.23  " /><path style="stroke-width: 1.42 ;&st7;  " d=" M  2498.58,   341.73  L  2498.58,   367.22  L  2583.57,   367.22  L  2583.57,   341.73  L  2498.58,   341.73  " /><text style="&st18;" transform="matrix(&st16;  2500.32  352.2 )">E01</text><text style="&st18;" transform="matrix(&st16;  2490.7  343.7 )">23</text><path style="stroke-width: 1.42 ;&st7;   " d=" M  2498.58,   350.23  C  2498.58    347.72   2496.55    345.69   2494.05    345.69  " /><path style="stroke-width: 1.42 ;&st7;   " d=" M  2494.05,   345.69  C  2491.55    345.69   2489.52    347.72   2489.52    350.23  " /><path style="stroke-width: 1.42 ;&st7;   " d=" M  2489.52,   350.23  C  2489.52    352.73   2491.55    354.76   2494.05    354.76  " /><path style="stroke-width: 1.42 ;&st7;   " d=" M  2494.05,   354.76  C  2496.55    354.76   2498.58    352.73   2498.58    350.23  " /><text style="&st18;" transform="matrix(&st16;  2491.86  352.2 )">B</text><g ewd:figtype="title"><text style="&st18;" transform="matrix(&st16;  2524.91  350.76 )">C83(B)</text><text style="&st18;" transform="matrix(&st16;  2524.92  357.86 )">ECM</text></g></g><g ewd:figtype="conn" ewd:figID="163" ewd:code="G7"><path style="stroke-width: 1.42 ;&st7;  " d=" M  2498.58,   299.24  L  2498.58,   324.73  L  2583.57,   324.73  L  2583.57,   299.24  L  2498.58,   299.24  " /><text style="&st18;" transform="matrix(&st16;  2500.32  309.7 )">SG</text><text style="&st18;" transform="matrix(&st16;  2492.4  304.04 )">5</text><g ewd:figtype="title"><text style="&st18;" transform="matrix(&st16;  2524.92  315.37 )">DLC3</text><text style="&st18;" transform="matrix(&st16;  2524.91  308.26 )">G7</text></g></g><g ewd:figtype="conn" ewd:figID="164" ewd:code="C74"><path style="stroke-width: 1.42 ;&st7;  " d=" M  2498.58,   214.25  L  2498.58,   273.74  L  2583.57,   273.74  L  2583.57,   214.25  L  2498.58,   214.25  " /><text style="&st18;" transform="matrix(&st16;  2500.32  224.72 )">GND1</text><text style="&st18;" transform="matrix(&st16;  2500.32  258.71 )">GND</text><text style="&st18;" transform="matrix(&st16;  2489.3  253.05 )">10</text><text style="&st18;" transform="matrix(&st16;  2492.4  219.06 )">6</text><g ewd:figtype="title"><text style="&st18;" transform="matrix(&st16;  2524.91  223.28 )">C74</text><text style="&st18;" transform="matrix(&st16;  2524.92  230.38 )" ewd:textID="208">Transfer Shift <tspan x="0 " dy="6.0">Actuator </tspan><tspan x="0 " dy="6.0">Assembly</tspan></text></g></g><g ewd:figtype="conn" ewd:figID="166" ewd:code="C105"><path style="stroke-width: 1.42 ;&st7;  " d=" M  2082.15,   341.73  L  2082.15,   367.22  L  2167.14,   367.22  L  2167.14,   341.73  L  2082.15,   341.73  " /><text style="&st18;" transform="matrix(&st16;  2152.11  352.2 )">GND</text><text style="&st18;" transform="matrix(&st16;  2169.72  346.54 )">4</text><g ewd:figtype="title"><text style="&st18;" transform="matrix(&st16;  2083.0  357.86 )" ewd:textID="138">Ignition Coil <tspan x="0 " dy="6.0">Assembly No. 6</tspan></text><text style="&st18;" transform="matrix(&st16;  2082.99  350.76 )">C105</text></g></g><g ewd:figtype="conn" ewd:figID="167" ewd:code="C104"><path style="stroke-width: 1.42 ;&st7;  " d=" M  2082.15,   307.73  L  2082.15,   333.23  L  2167.14,   333.23  L  2167.14,   307.73  L  2082.15,   307.73  " /><text style="&st18;" transform="matrix(&st16;  2152.11  318.2 )">GND</text><text style="&st18;" transform="matrix(&st16;  2169.72  312.54 )">4</text><g ewd:figtype="title"><text style="&st18;" transform="matrix(&st16;  2082.99  316.76 )">C104</text><text style="&st18;" transform="matrix(&st16;  2083.0  323.87 )" ewd:textID="137">Ignition Coil <tspan x="0 " dy="6.0">Assembly No. 5</tspan></text></g></g><g ewd:figtype="conn" ewd:figID="168" ewd:code="C103"><path style="stroke-width: 1.42 ;&st7;  " d=" M  2082.15,   273.74  L  2082.15,   299.24  L  2167.14,   299.24  L  2167.14,   273.74  L  2082.15,   273.74  " /><text style="&st18;" transform="matrix(&st16;  2152.11  284.21 )">GND</text><text style="&st18;" transform="matrix(&st16;  2169.72  278.55 )">4</text><g ewd:figtype="title"><text style="&st18;" transform="matrix(&st16;  2083.0  289.87 )" ewd:textID="136">Ignition Coil <tspan x="0 " dy="6.0">Assembly No. 4</tspan></text><text style="&st18;" transform="matrix(&st16;  2082.99  282.77 )">C103</text></g></g><g ewd:figtype="conn" ewd:figID="169" ewd:code="C102"><path style="stroke-width: 1.42 ;&st7;  " d=" M  2082.15,   239.75  L  2082.15,   265.24  L  2167.14,   265.24  L  2167.14,   239.75  L  2082.15,   239.75  " /><text style="&st18;" transform="matrix(&st16;  2152.11  250.21 )">GND</text><text style="&st18;" transform="matrix(&st16;  2169.72  244.55 )">4</text><g ewd:figtype="title"><text style="&st18;" transform="matrix(&st16;  2082.99  248.77 )">C102</text><text style="&st18;" transform="matrix(&st16;  2083.0  255.88 )" ewd:textID="135">Ignition Coil <tspan x="0 " dy="6.0">Assembly No. 3</tspan></text></g></g><g ewd:figtype="conn" ewd:figID="170" ewd:code="C101"><path style="stroke-width: 1.42 ;&st7;  " d=" M  2082.15,   205.75  L  2082.15,   231.25  L  2167.14,   231.25  L  2167.14,   205.75  L  2082.15,   205.75  " /><text style="&st18;" transform="matrix(&st16;  2152.11  216.22 )">GND</text><text style="&st18;" transform="matrix(&st16;  2169.72  210.56 )">4</text><g ewd:figtype="title"><text style="&st18;" transform="matrix(&st16;  2082.99  214.78 )">C101</text><text style="&st18;" transform="matrix(&st16;  2083.0  221.88 )" ewd:textID="134">Ignition Coil <tspan x="0 " dy="6.0">Assembly No. 2</tspan></text></g></g><g ewd:figtype="conn" ewd:figID="171" ewd:code="C100"><path style="stroke-width: 1.42 ;&st7;  " d=" M  2082.15,   171.76  L  2082.15,   197.25  L  2167.14,   197.25  L  2167.14,   171.76  L  2082.15,   171.76  " /><text style="&st18;" transform="matrix(&st16;  2152.11  182.22 )">GND</text><text style="&st18;" transform="matrix(&st16;  2169.72  176.56 )">4</text><g ewd:figtype="title"><text style="&st18;" transform="matrix(&st16;  2082.99  180.78 )">C100</text><text style="&st18;" transform="matrix(&st16;  2083.0  187.89 )" ewd:textID="133">Ignition Coil <tspan x="0 " dy="6.0">Assembly No. 1</tspan></text></g></g><g ewd:figtype="conn" ewd:figID="248" ewd:code="C57"><path style="stroke-width: 1.42 ;&st7;  " d=" M  2498.58,   171.76  L  2498.58,   205.75  L  2583.57,   205.75  L  2583.57,   171.76  L  2498.58,   171.76  " /><text style="&st18;" transform="matrix(&st16;  2500.32  182.22 )">GND</text><text style="&st18;" transform="matrix(&st16;  2492.4  176.57 )">4</text><g ewd:figtype="title"><text style="&st18;" transform="matrix(&st16;  2524.91  180.78 )">C57</text><text style="&st18;" transform="matrix(&st16;  2524.92  187.89 )" ewd:textID="92">Differential <tspan x="0 " dy="6.0">Vacuum Actuator </tspan><tspan x="0 " dy="6.0">Assembly</tspan></text></g></g><g ewd:figtype="w2w" ewd:figID="273" ewd:code="CG2"><path style="stroke-width: 1.42 ;&st7;  " d=" M  2439.66,   600.93  L  2435.41,   596.69  L  2439.66,   592.44  " /><path style="stroke-width: 1.42 ;&st7;  " d=" M  2436.26,   600.93  L  2432.01,   596.69  L  2436.26,   592.44  " /><text style="&st18;" transform="matrix(&st16;  2418.74  589.45 )">14</text></g><g ewd:figtype="w2w" ewd:figID="274" ewd:code="CG2"><path style="stroke-width: 1.42 ;&st7;  " d=" M  2439.66,   311.98  L  2435.41,   307.73  L  2439.66,   303.48  " /><path style="stroke-width: 1.42 ;&st7;  " d=" M  2436.26,   311.98  L  2432.01,   307.73  L  2436.26,   303.48  " /><text style="&st18;" transform="matrix(&st16;  2420.29  300.5 )">4</text></g><g ewd:figtype="gp" ewd:figID="344" ewd:code="CD"><path style="stroke-width: 0.85 ;&st7;  " d=" M  2335.69,   710.00  L  2338.52,   710.00  " /><path style="stroke-width: 0.85 ;&st7;  " d=" M  2334.28,   707.17  L  2339.94,   707.17  " /><path style="stroke-width: 0.85 ;&st7;  " d=" M  2332.86,   704.33  L  2341.36,   704.33  " /><path style="stroke-width: 0.85 ;&st7;  " d=" M  2328.61,   701.50  L  2345.61,   701.50  " /><path style="stroke-width: 0.85 ;&st7;  " d=" M  2337.11,   697.25  L  2337.11,   701.50  " /></g><g ewd:figtype="gp" ewd:figID="345" ewd:code="CC"><path style="stroke-width: 0.85 ;&st7;  " d=" M  2335.69,   395.55  L  2338.52,   395.55  " /><path style="stroke-width: 0.85 ;&st7;  " d=" M  2334.28,   392.72  L  2339.94,   392.72  " /><path style="stroke-width: 0.85 ;&st7;  " d=" M  2332.86,   389.89  L  2341.36,   389.89  " /><path style="stroke-width: 0.85 ;&st7;  " d=" M  2328.61,   387.05  L  2345.61,   387.05  " /><path style="stroke-width: 0.85 ;&st7;  " d=" M  2337.11,   382.80  L  2337.11,   387.05  " /></g><g ewd:figtype="annex" ewd:figID="424" ewd:code=" "><path style="stroke-width: 1.42 ;&st7;   " d=" M  2422.24,   521.21  C  2420.33    523.35   2420.27    526.49   2422.10    528.70  " /><path style="stroke-width: 1.42 ;&st7;   " d=" M  2421.95,   536.18  C  2423.86    534.04   2423.92    530.91   2422.09    528.70  " /></g><g ewd:figtype="annex" ewd:figID="425" ewd:code=" "><path style="stroke-width: 1.42 ;&st7;   " d=" M  2422.24,   555.21  C  2420.33    557.35   2420.27    560.48   2422.10    562.69  " /><path style="stroke-width: 1.42 ;&st7;   " d=" M  2421.95,   570.18  C  2423.86    568.03   2423.92    564.90   2422.09    562.69  " /></g><g ewd:figtype="annex" ewd:figID="426" ewd:code=" "><path style="stroke-width: 1.42 ;&st7;   " d=" M  2260.76,   453.22  C  2258.86    455.36   2258.80    458.50   2260.62    460.71  " /><path style="stroke-width: 1.42 ;&st7;   " d=" M  2260.48,   468.19  C  2262.38    466.05   2262.44    462.92   2260.62    460.71  " /></g><g ewd:figtype="annex" ewd:figID="427" ewd:code=" "><path style="stroke-width: 1.42 ;&st7;   " d=" M  2260.76,   487.22  C  2258.86    489.36   2258.80    492.49   2260.62    494.70  " /><path style="stroke-width: 1.42 ;&st7;   " d=" M  2260.48,   502.19  C  2262.38    500.05   2262.44    496.91   2260.62    494.70  " /></g><g ewd:figtype="annex" ewd:figID="428" ewd:code=" "><path style="stroke-width: 1.42 ;&st7;   " d=" M  2260.76,   521.21  C  2258.86    523.35   2258.80    526.49   2260.62    528.70  " /><path style="stroke-width: 1.42 ;&st7;   " d=" M  2260.48,   536.18  C  2262.38    534.04   2262.44    530.91   2260.62    528.70  " /></g><g ewd:figtype="annex" ewd:figID="429" ewd:code=" "><path style="stroke-width: 1.42 ;&st7;   " d=" M  2260.76,   555.21  C  2258.86    557.35   2258.80    560.48   2260.62    562.69  " /><path style="stroke-width: 1.42 ;&st7;   " d=" M  2260.48,   570.18  C  2262.38    568.03   2262.44    564.90   2260.62    562.69  " /></g><g ewd:figtype="annex" ewd:figID="430" ewd:code=" "><path style="stroke-width: 1.42 ;&st7;   " d=" M  2260.76,   589.20  C  2258.86    591.34   2258.80    594.47   2260.62    596.69  " /><path style="stroke-width: 1.42 ;&st7;   " d=" M  2260.48,   604.17  C  2262.38    602.03   2262.44    598.90   2260.62    596.69  " /></g><g ewd:code="6" ewd:figID="452" ewd:comment="" ewd:figtype="comment"><text style="&st18;" transform="matrix(&st16;  2325.21  46.25 )">* 6 :1KD-FTV</text></g><g ewd:code="9" ewd:figID="453" ewd:comment="" ewd:figtype="comment"><text style="&st18;" transform="matrix(&st16;  2325.21  54.75 )" ewd:textID="9">* 9 :w/ Cruise Control</text></g><g ewd:code="13" ewd:figID="454" ewd:comment="" ewd:figtype="comment"><text style="&st18;" transform="matrix(&st16;  2325.21  63.24 )" ewd:textID="13">*13 :w/ Paddle Shift</text></g><g ewd:code="5" ewd:figID="451" ewd:comment="" ewd:figtype="comment"><text style="&st18;" transform="matrix(&st16;  2325.21  37.75 )">* 5 :1GR-FE</text></g></svg>