﻿<?xml version="1.0" encoding="utf-8"?>
<!DOCTYPE svg PUBLIC "-//W3C//DTD SVG 1.0//EN" "http://www.w3.org/TR/2001/REC-SVG-20010904/DTD/svg10.dtd"[
	<!ENTITY ns_flows "http://ns.adobe.com/Flows/1.0/">
	<!ENTITY ns_svg "http://www.w3.org/2000/svg">
	<!ENTITY ns_xlink "http://www.w3.org/1999/xlink">
	<!ENTITY st0 "font-size:7px;font-family:'MS-PGothic';adobe-font-script:japanese;">
	<!ENTITY st1 "font-size:6px;font-family:'ArialMT';">
	<!-- White fill  -->
	<!ENTITY st2 "fill:#FFFFFF;stroke:#000000; stroke-width:1.41;stroke-linecap:round;stroke-linejoin:round;">
	<!-- Yellow fill  -->
	<!ENTITY st3 "fill:#FFFFCC;stroke:#FFFFCC; stroke-width:0.1;stroke-linecap:round;stroke-linejoin:round;">
	<!-- Gray fill  -->
	<!ENTITY st4 "fill:#CCCCCC;stroke:#CCCCCC; stroke-width:0.1;stroke-linecap:round;stroke-linejoin:round;">
	<!-- Light-blue fill -->
	<!ENTITY st5 "fill:#CCECF4;stroke:#000000; stroke-width:1.133;stroke-linecap:round;stroke-linejoin:round;">
	<!ENTITY st6 "fill:none;stroke-linecap:butt; stroke-linejoin:round;">
	<!ENTITY st7 "fill:none;stroke:#000000;stroke-linecap:round;stroke-linejoin:round;">
	<!ENTITY st8 "enable-background:new    ;">
	<!-- Black fill -->
	<!ENTITY st9 "fill:#000000;stroke:#000000; stroke-linecap:round;stroke-linejoin:round;">
	<!-- SRS note   -->
	<!ENTITY st10 "font-size:9px;font-family:'ArialMT';">
	<!ENTITY st11 "font-size:9px;font-family:'Svg Symbol';">
	<!ENTITY st12 "font-size:6px;font-family:'Svg Symbol';">
	<!ENTITY st13 "fill:none;stroke:#ff0000;stroke-linecap:round;stroke-linejoin:round;">
	<!-- Yellow fill  -->
	<!ENTITY st14 "fill:#FFFF00;stroke:#FFFF00; stroke-width:0.1;stroke-linecap:round;stroke-linejoin:round;">
	<!ENTITY st15 "font-size:6px;font-family:'MS-PGothic';adobe-font-script:japanese;">
	<!ENTITY st16 "1.00 0.00 0.00 1.00">
	<!ENTITY st17 "0.00 -1.00 1.00 0.00">
	<!ENTITY st18 "font-size:6px;font-family:'Arial';">
	<!ENTITY st19 "font-size:9px;font-family:'Arial';">
	<!ENTITY st20 "font-size:6px;font-family:'MS-PGothic','MS PGothic';adobe-font-script:japanese;">
	<!ENTITY st21 "font-size:7px;font-family:'MS-PGothic','MS PGothic';adobe-font-script:japanese;">
	<!ATTLIST svg
		xmlns:ewd CDATA #FIXED "http://shcl.co.jp/ewd"
		xmlns:a CDATA #FIXED "http://ns.adobe.com/AdobeSVGViewerExtensions/3.0/"
		ewd:ver CDATA #IMPLIED
	>
	<!ATTLIST a
		ewd:lineID CDATA #IMPLIED
		ewd:groupID CDATA #IMPLIED
		ewd:figtype CDATA #IMPLIED
		ewd:code CDATA #IMPLIED
		ewd:figID CDATA #IMPLIED
		ewd:pinNo CDATA #IMPLIED
		ewd:comment CDATA #IMPLIED >
	<!ATTLIST g
		ewd:lineID CDATA #IMPLIED
		ewd:groupID CDATA #IMPLIED
		ewd:figtype CDATA #IMPLIED
		ewd:code CDATA #IMPLIED
		ewd:figID CDATA #IMPLIED
		ewd:pinNo CDATA #IMPLIED
		ewd:comment CDATA #IMPLIED >
	<!ATTLIST text
		ewd:textID CDATA #IMPLIED >
	<!ATTLIST title
		ewd:textID CDATA #IMPLIED >
]>
<!-- Generator: Shintec Hozumi YS   -->
<svg onload="call_execInitLoadProc_svg('system')" style="overflow:visible;  enable-background:new 0 0 4550.112 710.000" viewBox="0 0 4550.112 710.000" height="710.000" width="4550.112" xml:space="preserve" ewd:ver="2.1.2.9" xmlns="&ns_svg;" xmlns:a="http://ns.adobe.com/AdobeSVGViewerExtensions/3.0/" xmlns:ewd="http://shcl.co.jp/ewd" xmlns:xlink="&ns_xlink;">
<path style="stroke-width: 1.42 ;&st7;  " d=" M  3331.44,   239.75  L  3322.94,   239.75  " /><text style="&st18;" transform="matrix(&st16;  3337.64  278.54 )">V</text><text style="&st18;" transform="matrix(&st17;  3404.23  181.83 )">L</text><text style="&st18;" transform="matrix(&st17;  3319.25  267.05 )">V</text><text style="&st18;" transform="matrix(&st17;  3319.25  216.05 )">V</text><text style="&st18;" transform="matrix(&st17;  3492.05  186.52 )">(*14)</text><text style="&st18;" transform="matrix(&st16;  3311.03  25.26 )">G33(A)</text><text style="&st18;" transform="matrix(&st17;  3319.25  402.83 )">R</text><text style="&st18;" transform="matrix(&st17;  3344.74  402.79 )">L</text><text style="&st18;" transform="matrix(&st17;  3446.73  181.94 )">B</text><text style="&st18;" transform="matrix(&st16;  3077.83  609.99 )">B(*7)</text><text style="&st18;" transform="matrix(&st16;  3077.56  626.98 )">G(*7)</text><text style="&st18;" transform="matrix(&st16;  3082.68  643.98 )">V</text><text style="&st18;" transform="matrix(&st16;  3080.7  660.98 )">LG</text><text style="&st18;" transform="matrix(&st16;  3131.69  660.98 )">LG</text><text style="&st18;" transform="matrix(&st16;  3133.67  643.98 )">V</text><text style="&st18;" transform="matrix(&st16;  3128.55  626.98 )">G(*7)</text><text style="&st18;" transform="matrix(&st16;  3128.82  609.99 )">B(*7)</text><text style="&st18;" transform="matrix(&st16;  3127.27  558.99 )">B(*13)</text><text style="&st18;" transform="matrix(&st16;  3076.28  558.99 )">B(*13)</text><text style="&st18;" transform="matrix(&st16;  3082.87  117.07 )">R</text><text style="&st18;" transform="matrix(&st16;  3133.87  117.07 )">R</text><text style="&st18;" transform="matrix(&st16;  3311.04  32.08 )" ewd:textID="22">Body ECU</text><text style="&st18;" transform="matrix(&st17;  3458.06  186.52 )">(*13)</text><text style="&st18;" transform="matrix(&st16;  3127.27  592.99 )">B(*14)</text><text style="&st18;" transform="matrix(&st16;  3076.28  592.99 )">B(*14)</text><text style="&st18;" transform="matrix(&st17;  3480.72  181.94 )">B</text><g ewd:figtype="rb" ewd:figID="14" ewd:code="FUSE8"><path style="stroke-width: 1.42 ;&st7;  " d=" M  3325.07,   188.75  L  3320.82,   188.75  " /><path style="stroke-width: 1.42 ;&st7;  " d=" M  3325.07,   197.25  L  3320.82,   197.25  " /><path style="stroke-width: 0.85 ;&st7;  " d=" M  3322.94,   171.76  L  3322.94,   188.75  " /><path style="stroke-width: 1.42 ;&st7;   " d=" M  3320.82,   188.75  C  3318.47    188.75   3316.57    190.66   3316.57    193.00  " /><path style="stroke-width: 1.42 ;&st7;   " d=" M  3316.57,   193.00  C  3316.57    195.35   3318.47    197.25   3320.82    197.25  " /><path style="stroke-width: 1.42 ;&st7;   " d=" M  3325.07,   197.25  C  3327.42    197.25   3329.32    195.35   3329.32    193.00  " /><path style="stroke-width: 1.42 ;&st7;   " d=" M  3329.32,   193.00  C  3329.32    190.66   3327.42    188.75   3325.07    188.75  " /><path style="stroke-width: 0.28 ;&st9;  " d=" M  3322.94,   183.86  L  3320.11,   181.03  L  3320.11,   185.28  L  3322.94,   188.11  L  3325.78,   185.28  L  3325.78,   181.03  L  3322.94,   183.86  " /><text style="&st18;" transform="matrix(&st16;  3339.37  149.65 )">10A <tspan x="0 " dy="6.0">DOME</tspan></text><text style="&st18;" transform="matrix(&st16;  3321.14  194.97 )">1</text><text style="&st18;" transform="matrix(&st16;  3316.76  179.95 )">2</text><text style="&st18;" transform="matrix(&st16;  3314.9  125.57 )">(BAT)</text><path style="stroke-width: 0.85 ;&st7;  " d=" M  3322.94,   163.26  L  3322.94,   171.76  " /><path style="stroke-width: 1.42 ;&st7;   " d=" M  3322.94,   140.60  C  3320.21    142.21   3319.29    145.74   3320.91    148.47  " /><path style="stroke-width: 1.42 ;&st7;   " d=" M  3320.91,   148.47  C  3321.43    149.36   3322.06    149.99   3322.94    150.51  " /><path style="stroke-width: 1.42 ;&st7;   " d=" M  3322.94,   160.43  C  3325.68    158.81   3326.59    155.28   3324.98    152.55  " /><path style="stroke-width: 1.42 ;&st7;   " d=" M  3324.98,   152.55  C  3324.46    151.67   3323.83    151.03   3322.94    150.51  " /><path style="stroke-width: 0.85 ;&st7;   " d=" M  3324.36,   139.18  C  3324.36    138.40   3323.73    137.76   3322.94    137.76  " /><path style="stroke-width: 0.85 ;&st7;   " d=" M  3322.94,   137.76  C  3322.16    137.76   3321.53    138.40   3321.53    139.18  " /><path style="stroke-width: 0.85 ;&st7;   " d=" M  3321.53,   139.18  C  3321.53    139.96   3322.16    140.60   3322.94    140.60  " /><path style="stroke-width: 0.85 ;&st7;   " d=" M  3322.94,   140.60  C  3323.73    140.60   3324.36    139.96   3324.36    139.18  " /><path style="stroke-width: 0.85 ;&st7;   " d=" M  3324.36,   161.84  C  3324.36    161.06   3323.73    160.43   3322.94    160.43  " /><path style="stroke-width: 0.85 ;&st7;   " d=" M  3322.94,   160.43  C  3322.16    160.43   3321.53    161.06   3321.53    161.84  " /><path style="stroke-width: 0.85 ;&st7;   " d=" M  3321.53,   161.84  C  3321.53    162.62   3322.16    163.26   3322.94    163.26  " /><path style="stroke-width: 0.85 ;&st7;   " d=" M  3322.94,   163.26  C  3323.73    163.26   3324.36    162.62   3324.36    161.84  " /><path style="stroke-width: 1.42 ;&st7;  " d=" M  3310.20,   129.26  L  3310.20,   171.76  L  3335.69,   171.76  L  3335.69,   129.26  L  3310.20,   129.26  " /></g><g ewd:figtype="rb" ewd:figID="15" ewd:code="3"><path style="stroke-width: 1.42 ;&st7;  " d=" M  3325.07,   299.24  L  3320.82,   299.24  " /><path style="stroke-width: 1.42 ;&st7;  " d=" M  3325.07,   307.73  L  3320.82,   307.73  " /><path style="stroke-width: 1.42 ;&st7;  " d=" M  3350.57,   299.24  L  3346.32,   299.24  " /><path style="stroke-width: 1.42 ;&st7;  " d=" M  3350.57,   307.73  L  3346.32,   307.73  " /><path style="stroke-width: 1.42 ;&st7;  " d=" M  3325.07,   375.72  L  3320.82,   375.72  " /><path style="stroke-width: 1.42 ;&st7;  " d=" M  3325.07,   384.22  L  3320.82,   384.22  " /><path style="stroke-width: 1.42 ;&st7;  " d=" M  3350.57,   375.72  L  3346.32,   375.72  " /><path style="stroke-width: 1.42 ;&st7;  " d=" M  3350.57,   384.22  L  3346.32,   384.22  " /><path style="stroke-width: 1.42 ;&st7;   " d=" M  3320.82,   299.24  C  3318.47    299.24   3316.57    301.14   3316.57    303.48  " /><path style="stroke-width: 1.42 ;&st7;   " d=" M  3316.57,   303.48  C  3316.57    305.83   3318.47    307.73   3320.82    307.73  " /><path style="stroke-width: 1.42 ;&st7;   " d=" M  3325.07,   307.73  C  3327.42    307.73   3329.32    305.83   3329.32    303.48  " /><path style="stroke-width: 1.42 ;&st7;   " d=" M  3329.32,   303.48  C  3329.32    301.14   3327.42    299.24   3325.07    299.24  " /><path style="stroke-width: 1.42 ;&st7;   " d=" M  3346.32,   299.24  C  3343.97    299.24   3342.07    301.14   3342.07    303.48  " /><path style="stroke-width: 1.42 ;&st7;   " d=" M  3342.07,   303.48  C  3342.07    305.83   3343.97    307.73   3346.32    307.73  " /><path style="stroke-width: 1.42 ;&st7;   " d=" M  3350.57,   307.73  C  3352.91    307.73   3354.81    305.83   3354.81    303.48  " /><path style="stroke-width: 1.42 ;&st7;   " d=" M  3354.81,   303.48  C  3354.81    301.14   3352.91    299.24   3350.57    299.24  " /><path style="stroke-width: 1.42 ;&st7;   " d=" M  3320.82,   375.72  C  3318.47    375.72   3316.57    377.63   3316.57    379.97  " /><path style="stroke-width: 1.42 ;&st7;   " d=" M  3316.57,   379.97  C  3316.57    382.32   3318.47    384.22   3320.82    384.22  " /><path style="stroke-width: 1.42 ;&st7;   " d=" M  3325.07,   384.22  C  3327.42    384.22   3329.32    382.32   3329.32    379.97  " /><path style="stroke-width: 1.42 ;&st7;   " d=" M  3329.32,   379.97  C  3329.32    377.63   3327.42    375.72   3325.07    375.72  " /><path style="stroke-width: 1.42 ;&st7;   " d=" M  3346.32,   375.72  C  3343.97    375.72   3342.07    377.63   3342.07    379.97  " /><path style="stroke-width: 1.42 ;&st7;   " d=" M  3342.07,   379.97  C  3342.07    382.32   3343.97    384.22   3346.32    384.22  " /><path style="stroke-width: 1.42 ;&st7;   " d=" M  3350.57,   384.22  C  3352.91    384.22   3354.81    382.32   3354.81    379.97  " /><path style="stroke-width: 1.42 ;&st7;   " d=" M  3354.81,   379.97  C  3354.81    377.63   3352.91    375.72   3350.57    375.72  " /><path style="stroke-width: 0.28 ;&st9;  " d=" M  3322.94,   312.63  L  3325.78,   315.46  L  3325.78,   311.21  L  3322.94,   308.38  L  3320.11,   311.21  L  3320.11,   315.46  L  3322.94,   312.63  " /><path style="stroke-width: 0.28 ;&st9;  " d=" M  3348.44,   312.63  L  3351.27,   315.46  L  3351.27,   311.21  L  3348.44,   308.38  L  3345.61,   311.21  L  3345.61,   315.46  L  3348.44,   312.63  " /><path style="stroke-width: 0.28 ;&st9;  " d=" M  3322.94,   370.83  L  3320.11,   367.99  L  3320.11,   372.24  L  3322.94,   375.08  L  3325.78,   372.24  L  3325.78,   367.99  L  3322.94,   370.83  " /><path style="stroke-width: 0.28 ;&st9;  " d=" M  3348.44,   370.83  L  3345.61,   367.99  L  3345.61,   372.24  L  3348.44,   375.08  L  3351.27,   372.24  L  3351.27,   367.99  L  3348.44,   370.83  " /><path style="stroke-width: 0.85 ;&st7;  " d=" M  3322.94,   324.73  L  3322.94,   307.73  " /><path style="stroke-width: 0.85 ;&st7;  " d=" M  3348.44,   324.73  L  3348.44,   307.73  " /><path style="stroke-width: 0.85 ;&st7;  " d=" M  3322.94,   375.72  L  3322.94,   358.73  " /><path style="stroke-width: 0.85 ;&st7;  " d=" M  3348.44,   375.72  L  3348.44,   358.73  " /><text style="&st18;" transform="matrix(&st16;  3321.14  305.45 )">3</text><text style="&st18;" transform="matrix(&st16;  3346.64  305.45 )">3</text><text style="&st18;" transform="matrix(&st16;  3321.14  381.94 )">3</text><text style="&st18;" transform="matrix(&st16;  3346.64  381.94 )">3</text><text style="&st18;" transform="matrix(&st16;  3316.76  366.92 )">3</text><text style="&st18;" transform="matrix(&st16;  3342.26  366.92 )">1</text><text style="&st18;" transform="matrix(&st16;  3316.76  321.04 )">5</text><text style="&st18;" transform="matrix(&st16;  3342.26  321.04 )">2</text><text style="&st18;" transform="matrix(&st16;  3359.2  343.7 )" ewd:textID="27">DOME CUT <tspan x="0 " dy="6.0">Relay</tspan></text><path style="stroke-width: 1.42 ;&st7;  " d=" M  3322.94,   351.64  L  3317.28,   328.98  " /><path style="stroke-width: 0.85 ;&st7;  " d=" M  3322.94,   358.73  L  3322.94,   354.48  " /><path style="stroke-width: 0.85 ;&st7;  " d=" M  3322.94,   328.98  L  3322.94,   324.73  " /><path style="stroke-width: 0.85 ;&st7;  " d=" M  3348.44,   324.73  L  3348.44,   333.23  " /><path style="stroke-width: 0.85 ;&st7;  " d=" M  3348.44,   350.23  L  3348.44,   358.73  " /><path style="stroke-width: 0.85 ;&st7;   " d=" M  3324.36,   353.06  C  3324.36    352.28   3323.73    351.64   3322.94    351.64  " /><path style="stroke-width: 0.85 ;&st7;   " d=" M  3322.94,   351.64  C  3322.16    351.64   3321.53    352.28   3321.53    353.06  " /><path style="stroke-width: 0.85 ;&st7;   " d=" M  3321.53,   353.06  C  3321.53    353.84   3322.16    354.48   3322.94    354.48  " /><path style="stroke-width: 0.85 ;&st7;   " d=" M  3322.94,   354.48  C  3323.73    354.48   3324.36    353.84   3324.36    353.06  " /><path style="stroke-width: 0.85 ;&st7;   " d=" M  3324.36,   330.40  C  3324.36    329.61   3323.73    328.98   3322.94    328.98  " /><path style="stroke-width: 0.85 ;&st7;   " d=" M  3322.94,   328.98  C  3322.16    328.98   3321.53    329.61   3321.53    330.40  " /><path style="stroke-width: 0.85 ;&st7;   " d=" M  3321.53,   330.40  C  3321.53    331.18   3322.16    331.81   3322.94    331.81  " /><path style="stroke-width: 0.85 ;&st7;   " d=" M  3322.94,   331.81  C  3323.73    331.81   3324.36    331.18   3324.36    330.40  " /><path style="stroke-width: 0.85 ;&st7;   " d=" M  3345.91,   339.25  C  3347.28    340.65   3349.52    340.67   3350.92    339.30  " /><path style="stroke-width: 0.85 ;&st7;   " d=" M  3350.92,   339.30  C  3352.32    337.93   3352.34    335.69   3350.97    334.29  " /><path style="stroke-width: 0.85 ;&st7;   " d=" M  3350.97,   334.29  C  3350.28    333.58   3349.43    333.23   3348.44    333.23  " /><path style="stroke-width: 0.85 ;&st7;   " d=" M  3345.91,   344.21  C  3347.28    345.60   3349.52    345.63   3350.92    344.26  " /><path style="stroke-width: 0.85 ;&st7;   " d=" M  3350.92,   344.26  C  3352.32    342.89   3352.34    340.65   3350.97    339.25  " /><path style="stroke-width: 0.85 ;&st7;   " d=" M  3350.97,   339.25  C  3349.60    337.85   3347.36    337.83   3345.96    339.20  " /><path style="stroke-width: 0.85 ;&st7;   " d=" M  3345.96,   339.20  C  3345.94    339.22   3345.93    339.23   3345.91    339.25  " /><path style="stroke-width: 0.85 ;&st7;   " d=" M  3348.44,   350.23  C  3350.40    350.23   3351.98    348.64   3351.98    346.69  " /><path style="stroke-width: 0.85 ;&st7;   " d=" M  3351.98,   346.69  C  3351.98    344.73   3350.40    343.14   3348.44    343.14  " /><path style="stroke-width: 0.85 ;&st7;   " d=" M  3348.44,   343.14  C  3347.45    343.14   3346.60    343.50   3345.91    344.21  " /><path style="stroke-width: 1.42 ;&st7;  " d=" M  3356.94,   324.73  L  3314.44,   324.73  L  3314.44,   358.73  L  3356.94,   358.73  L  3356.94,   324.73  " /></g><g ewd:figtype="conn" ewd:figID="26" ewd:code="G33"><g ewd:lineID="113"><text style="&st18;" transform="matrix(&st16;  3498.12  93.27 )">14</text></g><g ewd:lineID="153"><text style="&st18;" transform="matrix(&st16;  3398.84  83.07 )">DOMR</text><text style="&st18;" transform="matrix(&st16;  3445.6  83.07 )">ILE</text></g></g><g ewd:figtype="jb" ewd:figID="68" ewd:code="2"><path style="stroke-width: 1.42 ;&st7;  " d=" M  3410.06,   120.77  L  3405.81,   120.77  " /><path style="stroke-width: 1.42 ;&st7;  " d=" M  3410.06,   129.26  L  3405.81,   129.26  " /><path style="stroke-width: 1.42 ;&st7;  " d=" M  3452.55,   129.26  L  3448.30,   129.26  " /><path style="stroke-width: 1.42 ;&st7;  " d=" M  3452.55,   120.77  L  3448.30,   120.77  " /><path style="stroke-width: 1.42 ;&st7;   " d=" M  3405.81,   120.77  C  3403.46    120.77   3401.56    122.67   3401.56    125.01  " /><path style="stroke-width: 1.42 ;&st7;   " d=" M  3401.56,   125.01  C  3401.56    127.36   3403.46    129.26   3405.81    129.26  " /><path style="stroke-width: 1.42 ;&st7;   " d=" M  3410.06,   129.26  C  3412.40    129.26   3414.30    127.36   3414.30    125.01  " /><path style="stroke-width: 1.42 ;&st7;   " d=" M  3414.30,   125.01  C  3414.30    122.67   3412.40    120.77   3410.06    120.77  " /><path style="stroke-width: 1.42 ;&st7;   " d=" M  3456.80,   125.01  C  3456.80    122.67   3454.89    120.77   3452.55    120.77  " /><path style="stroke-width: 1.42 ;&st7;   " d=" M  3452.55,   129.26  C  3454.89    129.26   3456.80    127.36   3456.80    125.01  " /><path style="stroke-width: 1.42 ;&st7;   " d=" M  3444.05,   125.01  C  3444.05    127.36   3445.95    129.26   3448.30    129.26  " /><path style="stroke-width: 1.42 ;&st7;   " d=" M  3448.30,   120.77  C  3445.95    120.77   3444.05    122.67   3444.05    125.01  " /><path style="stroke-width: 0.28 ;&st9;  " d=" M  3407.93,   115.87  L  3405.10,   113.04  L  3405.10,   117.29  L  3407.93,   120.12  L  3410.76,   117.29  L  3410.76,   113.04  L  3407.93,   115.87  " /><path style="stroke-width: 0.28 ;&st9;  " d=" M  3450.42,   115.87  L  3447.59,   113.04  L  3447.59,   117.29  L  3450.42,   120.12  L  3453.25,   117.29  L  3453.25,   113.04  L  3450.42,   115.87  " /><path style="stroke-width: 0.85 ;&st7;  " d=" M  3450.42,    86.77  L  3450.42,   120.77  " /><path style="stroke-width: 0.85 ;&st7;  " d=" M  3407.93,    86.77  L  3407.93,   120.77  " /><text style="&st18;" transform="matrix(&st16;  3398.64  94.96 )">13</text><text style="&st18;" transform="matrix(&st16;  3444.24  94.96 )">8</text><text style="&st18;" transform="matrix(&st16;  3404.39  126.98 )">2P</text><text style="&st18;" transform="matrix(&st16;  3394.32  126.98 )">13</text><text style="&st18;" transform="matrix(&st16;  3439.92  126.98 )">9</text><text style="&st18;" transform="matrix(&st16;  3446.26  126.98 )">2Q</text></g><g ewd:figtype="w2w" ewd:figID="99" ewd:code="AG1"><path style="stroke-width: 1.42 ;&st7;  " d=" M  3327.19,   245.41  L  3322.94,   241.16  L  3318.69,   245.41  " /><path style="stroke-width: 1.42 ;&st7;  " d=" M  3327.19,   248.81  L  3322.94,   244.56  L  3318.69,   248.81  " /><text style="&st18;" transform="matrix(&st16;  3310.31  237.47 )">9</text></g><g ewd:code="7" ewd:figID="134" ewd:comment="" ewd:figtype="comment"><text style="&st18;" transform="matrix(&st16;  3234.55  479.67 )" ewd:textID="7">* 7 :w/ Courtesy Light</text></g><g ewd:code="13" ewd:figID="133" ewd:comment="" ewd:figtype="comment"><text style="&st18;" transform="matrix(&st16;  3234.55  488.17 )" ewd:textID="11">*13 :w/ Smart Entry &amp; Start System</text></g><g ewd:code="14" ewd:figID="137" ewd:comment="" ewd:figtype="comment"><text style="&st18;" transform="matrix(&st16;  3234.55  496.67 )" ewd:textID="12">*14 :w/o Smart Entry &amp; Start System</text></g></svg>