﻿<?xml version="1.0" encoding="utf-8"?>
<!DOCTYPE svg PUBLIC "-//W3C//DTD SVG 1.0//EN" "http://www.w3.org/TR/2001/REC-SVG-20010904/DTD/svg10.dtd"[
	<!ENTITY ns_flows "http://ns.adobe.com/Flows/1.0/">
	<!ENTITY ns_svg "http://www.w3.org/2000/svg">
	<!ENTITY ns_xlink "http://www.w3.org/1999/xlink">
	<!ENTITY st0 "font-size:7px;font-family:'MS-PGothic';adobe-font-script:japanese;">
	<!ENTITY st1 "font-size:6px;font-family:'ArialMT';">
	<!-- White fill  -->
	<!ENTITY st2 "fill:#FFFFFF;stroke:#000000; stroke-width:1.41;stroke-linecap:round;stroke-linejoin:round;">
	<!-- Yellow fill  -->
	<!ENTITY st3 "fill:#FFFFCC;stroke:#FFFFCC; stroke-width:0.1;stroke-linecap:round;stroke-linejoin:round;">
	<!-- Gray fill  -->
	<!ENTITY st4 "fill:#CCCCCC;stroke:#CCCCCC; stroke-width:0.1;stroke-linecap:round;stroke-linejoin:round;">
	<!-- Light-blue fill -->
	<!ENTITY st5 "fill:#CCECF4;stroke:#000000; stroke-width:1.133;stroke-linecap:round;stroke-linejoin:round;">
	<!ENTITY st6 "fill:none;stroke-linecap:butt; stroke-linejoin:round;">
	<!ENTITY st7 "fill:none;stroke:#000000;stroke-linecap:round;stroke-linejoin:round;">
	<!ENTITY st8 "enable-background:new    ;">
	<!-- Black fill -->
	<!ENTITY st9 "fill:#000000;stroke:#000000; stroke-linecap:round;stroke-linejoin:round;">
	<!-- SRS note   -->
	<!ENTITY st10 "font-size:9px;font-family:'ArialMT';">
	<!ENTITY st11 "font-size:9px;font-family:'Svg Symbol';">
	<!ENTITY st12 "font-size:6px;font-family:'Svg Symbol';">
	<!ENTITY st13 "fill:none;stroke:#ff0000;stroke-linecap:round;stroke-linejoin:round;">
	<!-- Yellow fill  -->
	<!ENTITY st14 "fill:#FFFF00;stroke:#FFFF00; stroke-width:0.1;stroke-linecap:round;stroke-linejoin:round;">
	<!ENTITY st15 "font-size:6px;font-family:'MS-PGothic';adobe-font-script:japanese;">
	<!ENTITY st16 "1.00 0.00 0.00 1.00">
	<!ENTITY st17 "0.00 -1.00 1.00 0.00">
	<!ENTITY st18 "font-size:6px;font-family:'Arial';">
	<!ENTITY st19 "font-size:9px;font-family:'Arial';">
	<!ENTITY st20 "font-size:6px;font-family:'MS-PGothic','MS PGothic';adobe-font-script:japanese;">
	<!ENTITY st21 "font-size:7px;font-family:'MS-PGothic','MS PGothic';adobe-font-script:japanese;">
	<!ATTLIST svg
		xmlns:ewd CDATA #FIXED "http://shcl.co.jp/ewd"
		xmlns:a CDATA #FIXED "http://ns.adobe.com/AdobeSVGViewerExtensions/3.0/"
		ewd:ver CDATA #IMPLIED
	>
	<!ATTLIST a
		ewd:lineID CDATA #IMPLIED
		ewd:groupID CDATA #IMPLIED
		ewd:figtype CDATA #IMPLIED
		ewd:code CDATA #IMPLIED
		ewd:figID CDATA #IMPLIED
		ewd:pinNo CDATA #IMPLIED
		ewd:comment CDATA #IMPLIED >
	<!ATTLIST g
		ewd:lineID CDATA #IMPLIED
		ewd:groupID CDATA #IMPLIED
		ewd:figtype CDATA #IMPLIED
		ewd:code CDATA #IMPLIED
		ewd:figID CDATA #IMPLIED
		ewd:pinNo CDATA #IMPLIED
		ewd:comment CDATA #IMPLIED >
	<!ATTLIST text
		ewd:textID CDATA #IMPLIED >
	<!ATTLIST title
		ewd:textID CDATA #IMPLIED >
]>
<!-- Generator: Shintec Hozumi YS   -->
<svg onload="call_execInitLoadProc_svg('system')" style="overflow:visible;  enable-background:new 0 0 4592.605 710.000" viewBox="0 0 4592.605 710.000" height="710.000" width="4592.605" xml:space="preserve" ewd:ver="2.1.2.9" xmlns="&ns_svg;" xmlns:a="http://ns.adobe.com/AdobeSVGViewerExtensions/3.0/" xmlns:ewd="http://shcl.co.jp/ewd" xmlns:xlink="&ns_xlink;">
<text style="&st18;" transform="matrix(&st16;  2603.28  525.0 )">B(*14,*15)</text><text style="&st18;" transform="matrix(&st16;  2610.41  567.49 )">B(*4)</text><text style="&st18;" transform="matrix(&st16;  2611.11  584.49 )">W-B</text><text style="&st18;" transform="matrix(&st16;  2610.53  609.99 )">L(*8)</text><text style="&st18;" transform="matrix(&st16;  2610.41  626.98 )">B(*8)</text><text style="&st18;" transform="matrix(&st16;  2615.26  643.98 )">V</text><text style="&st18;" transform="matrix(&st16;  2613.28  660.98 )">LG</text><text style="&st18;" transform="matrix(&st16;  2562.29  660.98 )">LG</text><text style="&st18;" transform="matrix(&st16;  2564.27  643.98 )">V</text><text style="&st18;" transform="matrix(&st16;  2559.42  626.98 )">B(*8)</text><text style="&st18;" transform="matrix(&st16;  2559.54  609.99 )">L(*8)</text><text style="&st18;" transform="matrix(&st16;  2560.12  584.49 )">W-B</text><text style="&st18;" transform="matrix(&st16;  2559.42  567.49 )">B(*4)</text><text style="&st18;" transform="matrix(&st16;  2552.29  525.0 )">B(*14,*15)</text><text style="&st18;" transform="matrix(&st16;  2564.46  117.07 )">R</text><text style="&st18;" transform="matrix(&st16;  2564.46  168.06 )">R</text><text style="&st18;" transform="matrix(&st17;  2894.32  207.36 )">R</text><text style="&st18;" transform="matrix(&st16;  2615.45  168.06 )">R</text><text style="&st18;" transform="matrix(&st16;  2615.45  117.07 )">R</text><text style="&st18;" transform="matrix(&st17;  2905.65  221.63 )">(*9 *14,*15)</text><text style="&st18;" transform="matrix(&st17;  2931.15  527.58 )">(*9 *14,*15)</text><text style="&st18;" transform="matrix(&st17;  2919.82  517.65 )">W-B</text><text style="&st18;" transform="matrix(&st16;  2792.62  25.26 )">G33(A)</text><text style="&st18;" transform="matrix(&st16;  2792.63  32.08 )" ewd:textID="24">Body ECU</text><text style="&st18;" transform="matrix(&st16;  2559.42  550.5 )">B(*3)</text><text style="&st18;" transform="matrix(&st16;  2610.41  550.5 )">B(*3)</text><text style="&st18;" transform="matrix(&st16;  2554.22  153.9 )">(*10 *14)</text><text style="&st18;" transform="matrix(&st16;  2615.45  142.56 )">R</text><text style="&st18;" transform="matrix(&st16;  2605.22  153.9 )">(*10 *14)</text><text style="&st18;" transform="matrix(&st16;  2564.46  142.56 )">R</text><text style="&st18;" transform="matrix(&st16;  2601.18  179.39 )">(*9 *14,*15)</text><text style="&st18;" transform="matrix(&st16;  2550.19  179.39 )">(*9 *14,*15)</text><text style="&st18;" transform="matrix(&st16;  2550.19  595.82 )">(*9 *14,*15)</text><text style="&st18;" transform="matrix(&st16;  2560.12  465.51 )">W-B</text><text style="&st18;" transform="matrix(&st16;  2554.22  476.84 )">(*10 *14)</text><text style="&st18;" transform="matrix(&st16;  2601.18  595.82 )">(*9 *14,*15)</text><text style="&st18;" transform="matrix(&st16;  2611.11  465.51 )">W-B</text><text style="&st18;" transform="matrix(&st16;  2605.22  476.84 )">(*10 *14)</text><g ewd:code="Q2" ewd:figID="41" ewd:comment="2,1" ewd:figtype="conn"><path style="stroke-width: 1.42 ;&st7;  " d=" M  2651.56,   408.30  L  2645.89,   430.96  " /><path style="stroke-width: 0.85 ;&st7;  " d=" M  2651.56,   452.21  L  2651.56,   430.96  " /><path style="stroke-width: 0.85 ;&st7;  " d=" M  2651.56,   405.47  L  2651.56,   401.22  " /><path style="stroke-width: 0.85 ;&st7;  " d=" M  2915.01,   337.48  L  2915.01,   341.73  " /><path style="stroke-width: 0.85 ;&st7;  " d=" M  2915.01,   324.73  L  2915.01,   328.98  " /><path style="stroke-width: 0.85 ;&st7;  " d=" M  2847.02,   337.48  L  2847.02,   341.73  " /><path style="stroke-width: 0.85 ;&st7;  " d=" M  2847.02,   324.73  L  2847.02,   328.98  " /><path style="stroke-width: 0.85 ;&st7;  " d=" M  2774.79,   341.73  L  2766.29,   341.73  " /><path style="stroke-width: 0.85 ;&st7;  " d=" M  2783.27,   332.07  L  2775.91,   336.31  " /><path style="stroke-width: 0.85 ;&st7;  " d=" M  2777.91,   339.78  L  2785.27,   335.53  " /><path style="stroke-width: 0.85 ;&st7;  " d=" M  2709.93,   339.78  L  2717.28,   335.53  " /><path style="stroke-width: 0.85 ;&st7;  " d=" M  2715.28,   332.07  L  2707.92,   336.31  " /><path style="stroke-width: 0.85 ;&st7;  " d=" M  2706.80,   341.73  L  2698.30,   341.73  " /><path style="stroke-width: 0.85 ;&st7;  " d=" M  2728.04,   350.23  L  2728.04,   339.60  " /><path style="stroke-width: 0.85 ;&st7;  " d=" M  2728.04,   335.35  L  2728.04,   324.73  " /><path style="stroke-width: 1.42 ;&st7;  " d=" M  2732.29,   335.35  L  2723.79,   335.35  " /><path style="stroke-width: 1.42 ;&st7;  " d=" M  2732.29,   339.60  L  2723.79,   339.60  " /><path style="stroke-width: 0.85 ;&st7;  " d=" M  2796.03,   350.23  L  2796.03,   339.60  " /><path style="stroke-width: 0.85 ;&st7;  " d=" M  2796.03,   335.35  L  2796.03,   324.73  " /><path style="stroke-width: 1.42 ;&st7;  " d=" M  2800.28,   335.35  L  2791.78,   335.35  " /><path style="stroke-width: 1.42 ;&st7;  " d=" M  2800.28,   339.60  L  2791.78,   339.60  " /><path style="stroke-width: 0.85 ;&st7;  " d=" M  2677.05,   358.73  L  2677.05,   348.10  " /><path style="stroke-width: 0.85 ;&st7;  " d=" M  2677.05,   343.85  L  2677.05,   333.23  " /><path style="stroke-width: 1.42 ;&st7;  " d=" M  2681.30,   343.85  L  2672.80,   343.85  " /><path style="stroke-width: 1.42 ;&st7;  " d=" M  2681.30,   348.10  L  2672.80,   348.10  " /><path style="stroke-width: 0.85 ;&st7;  " d=" M  2702.55,   350.23  L  2702.55,   358.73  " /><path style="stroke-width: 0.85 ;&st7;  " d=" M  2711.05,   375.72  L  2711.05,   384.22  " /><path style="stroke-width: 0.85 ;&st7;  " d=" M  2694.05,   375.72  L  2694.05,   384.22  " /><path style="stroke-width: 1.42 ;&st7;  " d=" M  2694.57,   376.57  L  2702.55,   361.56  " /><path style="stroke-width: 0.85 ;&st7;  " d=" M  2770.54,   350.23  L  2770.54,   358.73  " /><path style="stroke-width: 0.85 ;&st7;  " d=" M  2779.04,   375.72  L  2779.04,   384.22  " /><path style="stroke-width: 0.85 ;&st7;  " d=" M  2762.04,   375.72  L  2762.04,   384.22  " /><path style="stroke-width: 1.42 ;&st7;  " d=" M  2762.56,   376.57  L  2770.54,   361.56  " /><path style="stroke-width: 0.85 ;&st7;  " d=" M  2847.02,   350.23  L  2847.02,   358.73  " /><path style="stroke-width: 0.85 ;&st7;  " d=" M  2855.52,   375.72  L  2855.52,   384.22  " /><path style="stroke-width: 0.85 ;&st7;  " d=" M  2838.53,   375.72  L  2838.53,   384.22  " /><path style="stroke-width: 1.42 ;&st7;  " d=" M  2839.04,   376.57  L  2847.02,   361.56  " /><path style="stroke-width: 0.85 ;&st7;  " d=" M  2915.01,   350.23  L  2915.01,   358.73  " /><path style="stroke-width: 0.85 ;&st7;  " d=" M  2923.51,   375.72  L  2923.51,   384.22  " /><path style="stroke-width: 0.85 ;&st7;  " d=" M  2906.51,   375.72  L  2906.51,   384.22  " /><path style="stroke-width: 1.42 ;&st7;  " d=" M  2907.03,   376.57  L  2915.01,   361.56  " /><path style="stroke-width: 0.85 ;&st7;   " d=" M  2652.97,   429.55  C  2652.97    428.76   2652.34    428.13   2651.56    428.13  " /><path style="stroke-width: 0.85 ;&st7;   " d=" M  2651.56,   428.13  C  2650.77    428.13   2650.14    428.76   2650.14    429.55  " /><path style="stroke-width: 0.85 ;&st7;   " d=" M  2650.14,   429.55  C  2650.14    430.33   2650.77    430.96   2651.56    430.96  " /><path style="stroke-width: 0.85 ;&st7;   " d=" M  2651.56,   430.96  C  2652.34    430.96   2652.97    430.33   2652.97    429.55  " /><path style="stroke-width: 0.85 ;&st7;   " d=" M  2652.97,   406.88  C  2652.97    406.10   2652.34    405.47   2651.56    405.47  " /><path style="stroke-width: 0.85 ;&st7;   " d=" M  2651.56,   405.47  C  2650.77    405.47   2650.14    406.10   2650.14    406.88  " /><path style="stroke-width: 0.85 ;&st7;   " d=" M  2650.14,   406.88  C  2650.14    407.67   2650.77    408.30   2651.56    408.30  " /><path style="stroke-width: 0.85 ;&st7;   " d=" M  2651.56,   408.30  C  2652.34    408.30   2652.97    407.67   2652.97    406.88  " /><path style="stroke-width: 1.42 ;&st7;   " d=" M  2923.51,   333.23  C  2923.51    328.54   2919.71    324.73   2915.01    324.73  " /><path style="stroke-width: 1.42 ;&st7;   " d=" M  2915.01,   324.73  C  2910.32    324.73   2906.51    328.54   2906.51    333.23  " /><path style="stroke-width: 1.42 ;&st7;   " d=" M  2906.51,   333.23  C  2906.51    337.92   2910.32    341.73   2915.01    341.73  " /><path style="stroke-width: 1.42 ;&st7;   " d=" M  2915.01,   341.73  C  2919.71    341.73   2923.51    337.92   2923.51    333.23  " /><path style="stroke-width: 0.85 ;&st7;   " d=" M  2912.61,   333.23  C  2913.40    334.57   2915.12    335.01   2916.46    334.22  " /><path style="stroke-width: 0.85 ;&st7;   " d=" M  2916.46,   334.22  C  2917.80    333.43   2918.25    331.70   2917.45    330.36  " /><path style="stroke-width: 0.85 ;&st7;   " d=" M  2917.45,   330.36  C  2916.93    329.47   2916.05    328.97   2915.01    328.98  " /><path style="stroke-width: 0.85 ;&st7;   " d=" M  2915.01,   337.48  C  2916.57    337.49   2917.84    336.24   2917.85    334.68  " /><path style="stroke-width: 0.85 ;&st7;   " d=" M  2917.85,   334.68  C  2917.86    333.12   2916.60    331.86   2915.05    331.85  " /><path style="stroke-width: 0.85 ;&st7;   " d=" M  2915.05,   331.85  C  2914.01    331.84   2913.13    332.34   2912.61    333.23  " /><path style="stroke-width: 1.42 ;&st7;   " d=" M  2855.52,   333.23  C  2855.52    328.54   2851.72    324.73   2847.02    324.73  " /><path style="stroke-width: 1.42 ;&st7;   " d=" M  2847.02,   324.73  C  2842.33    324.73   2838.53    328.54   2838.53    333.23  " /><path style="stroke-width: 1.42 ;&st7;   " d=" M  2838.53,   333.23  C  2838.53    337.92   2842.33    341.73   2847.02    341.73  " /><path style="stroke-width: 1.42 ;&st7;   " d=" M  2847.02,   341.73  C  2851.72    341.73   2855.52    337.92   2855.52    333.23  " /><path style="stroke-width: 0.85 ;&st7;   " d=" M  2844.62,   333.23  C  2845.41    334.57   2847.14    335.01   2848.47    334.22  " /><path style="stroke-width: 0.85 ;&st7;   " d=" M  2848.47,   334.22  C  2849.81    333.43   2850.26    331.70   2849.47    330.36  " /><path style="stroke-width: 0.85 ;&st7;   " d=" M  2849.47,   330.36  C  2848.94    329.47   2848.06    328.97   2847.02    328.98  " /><path style="stroke-width: 0.85 ;&st7;   " d=" M  2847.02,   337.48  C  2848.58    337.49   2849.85    336.24   2849.86    334.68  " /><path style="stroke-width: 0.85 ;&st7;   " d=" M  2849.86,   334.68  C  2849.87    333.12   2848.61    331.86   2847.06    331.85  " /><path style="stroke-width: 0.85 ;&st7;   " d=" M  2847.06,   331.85  C  2846.03    331.84   2845.14    332.34   2844.62    333.23  " /><path style="stroke-width: 0.85 ;&st7;   " d=" M  2695.47,   374.31  C  2695.47    373.52   2694.83    372.89   2694.05    372.89  " /><path style="stroke-width: 0.85 ;&st7;   " d=" M  2694.05,   372.89  C  2693.27    372.89   2692.63    373.52   2692.63    374.31  " /><path style="stroke-width: 0.85 ;&st7;   " d=" M  2692.63,   374.31  C  2692.63    375.09   2693.27    375.72   2694.05    375.72  " /><path style="stroke-width: 0.85 ;&st7;   " d=" M  2694.05,   375.72  C  2694.83    375.72   2695.47    375.09   2695.47    374.31  " /><path style="stroke-width: 0.85 ;&st7;   " d=" M  2712.46,   374.31  C  2712.46    373.52   2711.83    372.89   2711.05    372.89  " /><path style="stroke-width: 0.85 ;&st7;   " d=" M  2711.05,   372.89  C  2710.26    372.89   2709.63    373.52   2709.63    374.31  " /><path style="stroke-width: 0.85 ;&st7;   " d=" M  2709.63,   374.31  C  2709.63    375.09   2710.26    375.72   2711.05    375.72  " /><path style="stroke-width: 0.85 ;&st7;   " d=" M  2711.05,   375.72  C  2711.83    375.72   2712.46    375.09   2712.46    374.31  " /><path style="stroke-width: 0.85 ;&st7;   " d=" M  2703.96,   360.14  C  2703.96    359.36   2703.33    358.73   2702.55    358.73  " /><path style="stroke-width: 0.85 ;&st7;   " d=" M  2702.55,   358.73  C  2701.77    358.73   2701.13    359.36   2701.13    360.14  " /><path style="stroke-width: 0.85 ;&st7;   " d=" M  2701.13,   360.14  C  2701.13    360.92   2701.77    361.56   2702.55    361.56  " /><path style="stroke-width: 0.85 ;&st7;   " d=" M  2702.55,   361.56  C  2703.33    361.56   2703.96    360.92   2703.96    360.14  " /><path style="stroke-width: 0.85 ;&st7;   " d=" M  2763.45,   374.31  C  2763.45    373.52   2762.82    372.89   2762.04    372.89  " /><path style="stroke-width: 0.85 ;&st7;   " d=" M  2762.04,   372.89  C  2761.26    372.89   2760.62    373.52   2760.62    374.31  " /><path style="stroke-width: 0.85 ;&st7;   " d=" M  2760.62,   374.31  C  2760.62    375.09   2761.26    375.72   2762.04    375.72  " /><path style="stroke-width: 0.85 ;&st7;   " d=" M  2762.04,   375.72  C  2762.82    375.72   2763.45    375.09   2763.45    374.31  " /><path style="stroke-width: 0.85 ;&st7;   " d=" M  2780.45,   374.31  C  2780.45    373.52   2779.82    372.89   2779.04    372.89  " /><path style="stroke-width: 0.85 ;&st7;   " d=" M  2779.04,   372.89  C  2778.25    372.89   2777.62    373.52   2777.62    374.31  " /><path style="stroke-width: 0.85 ;&st7;   " d=" M  2777.62,   374.31  C  2777.62    375.09   2778.25    375.72   2779.04    375.72  " /><path style="stroke-width: 0.85 ;&st7;   " d=" M  2779.04,   375.72  C  2779.82    375.72   2780.45    375.09   2780.45    374.31  " /><path style="stroke-width: 0.85 ;&st7;   " d=" M  2771.95,   360.14  C  2771.95    359.36   2771.32    358.73   2770.54    358.73  " /><path style="stroke-width: 0.85 ;&st7;   " d=" M  2770.54,   358.73  C  2769.75    358.73   2769.12    359.36   2769.12    360.14  " /><path style="stroke-width: 0.85 ;&st7;   " d=" M  2769.12,   360.14  C  2769.12    360.92   2769.75    361.56   2770.54    361.56  " /><path style="stroke-width: 0.85 ;&st7;   " d=" M  2770.54,   361.56  C  2771.32    361.56   2771.95    360.92   2771.95    360.14  " /><path style="stroke-width: 0.85 ;&st7;   " d=" M  2839.94,   374.31  C  2839.94    373.52   2839.31    372.89   2838.53    372.89  " /><path style="stroke-width: 0.85 ;&st7;   " d=" M  2838.53,   372.89  C  2837.74    372.89   2837.11    373.52   2837.11    374.31  " /><path style="stroke-width: 0.85 ;&st7;   " d=" M  2837.11,   374.31  C  2837.11    375.09   2837.74    375.72   2838.53    375.72  " /><path style="stroke-width: 0.85 ;&st7;   " d=" M  2838.53,   375.72  C  2839.31    375.72   2839.94    375.09   2839.94    374.31  " /><path style="stroke-width: 0.85 ;&st7;   " d=" M  2856.94,   374.31  C  2856.94    373.52   2856.31    372.89   2855.52    372.89  " /><path style="stroke-width: 0.85 ;&st7;   " d=" M  2855.52,   372.89  C  2854.74    372.89   2854.11    373.52   2854.11    374.31  " /><path style="stroke-width: 0.85 ;&st7;   " d=" M  2854.11,   374.31  C  2854.11    375.09   2854.74    375.72   2855.52    375.72  " /><path style="stroke-width: 0.85 ;&st7;   " d=" M  2855.52,   375.72  C  2856.31    375.72   2856.94    375.09   2856.94    374.31  " /><path style="stroke-width: 0.85 ;&st7;   " d=" M  2848.44,   360.14  C  2848.44    359.36   2847.81    358.73   2847.02    358.73  " /><path style="stroke-width: 0.85 ;&st7;   " d=" M  2847.02,   358.73  C  2846.24    358.73   2845.61    359.36   2845.61    360.14  " /><path style="stroke-width: 0.85 ;&st7;   " d=" M  2845.61,   360.14  C  2845.61    360.92   2846.24    361.56   2847.02    361.56  " /><path style="stroke-width: 0.85 ;&st7;   " d=" M  2847.02,   361.56  C  2847.81    361.56   2848.44    360.92   2848.44    360.14  " /><path style="stroke-width: 0.85 ;&st7;   " d=" M  2907.93,   374.31  C  2907.93    373.52   2907.30    372.89   2906.51    372.89  " /><path style="stroke-width: 0.85 ;&st7;   " d=" M  2906.51,   372.89  C  2905.73    372.89   2905.10    373.52   2905.10    374.31  " /><path style="stroke-width: 0.85 ;&st7;   " d=" M  2905.10,   374.31  C  2905.10    375.09   2905.73    375.72   2906.51    375.72  " /><path style="stroke-width: 0.85 ;&st7;   " d=" M  2906.51,   375.72  C  2907.30    375.72   2907.93    375.09   2907.93    374.31  " /><path style="stroke-width: 0.85 ;&st7;   " d=" M  2924.93,   374.31  C  2924.93    373.52   2924.29    372.89   2923.51    372.89  " /><path style="stroke-width: 0.85 ;&st7;   " d=" M  2923.51,   372.89  C  2922.73    372.89   2922.10    373.52   2922.10    374.31  " /><path style="stroke-width: 0.85 ;&st7;   " d=" M  2922.10,   374.31  C  2922.10    375.09   2922.73    375.72   2923.51    375.72  " /><path style="stroke-width: 0.85 ;&st7;   " d=" M  2923.51,   375.72  C  2924.29    375.72   2924.93    375.09   2924.93    374.31  " /><path style="stroke-width: 0.85 ;&st7;   " d=" M  2916.43,   360.14  C  2916.43    359.36   2915.80    358.73   2915.01    358.73  " /><path style="stroke-width: 0.85 ;&st7;   " d=" M  2915.01,   358.73  C  2914.23    358.73   2913.60    359.36   2913.60    360.14  " /><path style="stroke-width: 0.85 ;&st7;   " d=" M  2913.60,   360.14  C  2913.60    360.92   2914.23    361.56   2915.01    361.56  " /><path style="stroke-width: 0.85 ;&st7;   " d=" M  2915.01,   361.56  C  2915.80    361.56   2916.43    360.92   2916.43    360.14  " /><path style="stroke-width: 1.42 ;&st7;  " d=" M  2626.06,   256.74  L  2626.06,   452.21  L  2949.01,   452.21  L  2949.01,   256.74  L  2626.06,   256.74  " /><path style="stroke-width: 0.85 ;&st7;  " d=" M  2770.54,   324.73  L  2770.54,   350.23  " /><path style="stroke-width: 0.28 ;&st9;  " d=" M  2770.54,   341.73  L  2764.87,   333.23  L  2776.20,   333.23  L  2770.54,   341.73  " /><path style="stroke-width: 0.85 ;&st7;  " d=" M  2783.27,   332.07  L  2780.94,   335.11  L  2779.47,   332.56  L  2783.27,   332.07  L  2781.99,   332.80  L  2781.00,   334.09  L  2780.38,   333.01  L  2781.99,   332.80  L  2781.35,   333.18  L  2781.03,   333.58  L  2780.84,   333.24  L  2781.35,   333.18  " /><path style="stroke-width: 0.85 ;&st7;  " d=" M  2785.27,   335.53  L  2782.94,   338.58  L  2781.47,   336.03  L  2785.27,   335.53  L  2783.99,   336.28  L  2783.01,   337.56  L  2782.39,   336.48  L  2783.99,   336.28  L  2783.35,   336.64  L  2783.04,   337.05  L  2782.84,   336.71  L  2783.35,   336.64  " /><path style="stroke-width: 0.85 ;&st7;  " d=" M  2717.28,   335.53  L  2714.95,   338.58  L  2713.48,   336.03  L  2717.28,   335.53  L  2716.00,   336.28  L  2715.02,   337.56  L  2714.40,   336.48  L  2716.00,   336.28  L  2715.36,   336.64  L  2715.05,   337.05  L  2714.86,   336.71  L  2715.36,   336.64  " /><path style="stroke-width: 0.85 ;&st7;  " d=" M  2715.28,   332.07  L  2712.95,   335.11  L  2711.48,   332.56  L  2715.28,   332.07  L  2714.00,   332.80  L  2713.01,   334.09  L  2712.39,   333.01  L  2714.00,   332.80  L  2713.36,   333.18  L  2713.05,   333.58  L  2712.85,   333.24  L  2713.36,   333.18  " /><path style="stroke-width: 0.28 ;&st9;  " d=" M  2702.55,   341.73  L  2696.88,   333.23  L  2708.21,   333.23  L  2702.55,   341.73  " /><path style="stroke-width: 0.85 ;&st7;  " d=" M  2702.55,   324.73  L  2702.55,   350.23  " /><path style="stroke-width: 0.85 ;&st7;  " d=" M  2677.05,   358.73  L  2677.05,   418.22  L  2779.03,   418.22  " /><path style="stroke-width: 0.85 ;&st7;  " d=" M  2847.02,   324.73  L  2847.02,   299.24  L  2915.01,   299.24  " /><path style="stroke-width: 0.85 ;&st7;  " d=" M  2915.01,   256.74  L  2906.51,   265.24  L  2677.05,   265.24  L  2677.05,   333.23  " /><path style="stroke-width: 0.85 ;&st7;  " d=" M  2702.55,   324.73  L  2702.55,   316.23  L  2699.71,   314.82  L  2705.38,   311.98  L  2699.71,   309.15  L  2705.38,   306.32  L  2699.71,   303.48  L  2705.38,   300.65  L  2702.55,   299.24  L  2702.55,   290.74  " /><path style="stroke-width: 0.85 ;&st7;  " d=" M  2770.54,   324.73  L  2770.54,   316.23  L  2767.70,   314.82  L  2773.37,   311.98  L  2767.70,   309.15  L  2773.37,   306.32  L  2767.70,   303.48  L  2773.37,   300.65  L  2770.54,   299.24  L  2770.54,   290.74  " /><path style="stroke-width: 0.85 ;&st7;  " d=" M  2847.02,   350.23  L  2847.02,   341.73  " /><path style="stroke-width: 0.85 ;&st7;  " d=" M  2915.01,   350.23  L  2915.01,   341.73  " /><path style="stroke-width: 0.85 ;&st7;  " d=" M  2770.54,   265.24  L  2770.54,   290.74  " /><path style="stroke-width: 0.85 ;&st7;  " d=" M  2770.54,   282.24  L  2702.55,   282.24  L  2702.55,   290.74  " /><path style="stroke-width: 0.85 ;&st7;  " d=" M  2728.04,   324.73  L  2702.55,   324.73  " /><path style="stroke-width: 0.85 ;&st7;  " d=" M  2728.04,   350.23  L  2702.55,   350.23  " /><path style="stroke-width: 0.85 ;&st7;  " d=" M  2796.03,   324.73  L  2770.54,   324.73  " /><path style="stroke-width: 0.85 ;&st7;  " d=" M  2796.03,   350.23  L  2770.54,   350.23  " /><path style="stroke-width: 0.85 ;&st7;  " d=" M  2906.51,   384.22  L  2906.51,   401.22  " /><path style="stroke-width: 0.85 ;&st7;  " d=" M  2923.51,   384.22  L  2923.51,   452.21  " /><path style="stroke-width: 0.85 ;&st7;  " d=" M  2915.01,   324.73  L  2915.01,   256.74  " /><path style="stroke-width: 0.85 ;&st7;  " d=" M  2923.51,   452.21  L  2906.51,   435.21  L  2779.03,   435.21  L  2779.03,   384.22  " /><path style="stroke-width: 0.85 ;&st7;  " d=" M  2711.05,   384.22  L  2711.05,   418.22  " /><path style="stroke-width: 0.85 ;&st7;  " d=" M  2855.52,   384.22  L  2855.52,   418.22  L  2923.51,   418.22  " /><path style="stroke-width: 0.85 ;&st7;  " d=" M  2838.52,   384.22  L  2838.52,   401.22  " /><path style="stroke-width: 0.85 ;&st7;  " d=" M  2762.04,   384.22  L  2762.04,   401.22  " /><path style="stroke-width: 0.85 ;&st7;  " d=" M  2694.05,   384.22  L  2694.05,   401.22  " /><path style="stroke-width: 0.85 ;&st7;  " d=" M  2692.86,   400.22  L  2692.58,   400.69  L  2692.49,   401.22  L  2692.58,   401.75  L  2692.86,   402.22  L  2693.27,   402.57  L  2693.78,   402.75  L  2694.32,   402.75  L  2694.83,   402.57  L  2695.24,   402.22  L  2695.51,   401.75  L  2695.61,   401.22  L  2695.51,   400.69  L  2695.24,   400.22  L  2694.83,   399.87  L  2694.32,   399.68  L  2693.78,   399.68  L  2693.27,   399.87  L  2692.86,   400.22  L  2693.25,   400.93  L  2693.25,   401.51  L  2693.62,   401.95  L  2694.20,   402.05  L  2694.70,   401.77  L  2694.90,   401.22  L  2694.70,   400.67  L  2694.20,   400.38  L  2693.62,   400.48  L  2694.05,   401.22  " /><path style="stroke-width: 0.85 ;&st7;  " d=" M  2777.84,   417.21  L  2777.57,   417.68  L  2777.48,   418.22  L  2777.57,   418.75  L  2777.84,   419.22  L  2778.26,   419.56  L  2778.76,   419.75  L  2779.31,   419.75  L  2779.81,   419.56  L  2780.23,   419.22  L  2780.50,   418.75  L  2780.59,   418.22  L  2780.50,   417.68  L  2780.23,   417.21  L  2779.81,   416.87  L  2779.31,   416.68  L  2778.76,   416.68  L  2778.26,   416.87  L  2777.84,   417.21  L  2778.24,   417.92  L  2778.24,   418.51  L  2778.61,   418.95  L  2779.18,   419.05  L  2779.69,   418.76  L  2779.88,   418.22  L  2779.69,   417.67  L  2779.18,   417.38  L  2778.61,   417.48  L  2779.03,   418.22  " /><path style="stroke-width: 0.85 ;&st7;  " d=" M  2760.84,   400.22  L  2760.57,   400.69  L  2760.48,   401.22  L  2760.57,   401.75  L  2760.84,   402.22  L  2761.26,   402.57  L  2761.77,   402.75  L  2762.31,   402.75  L  2762.82,   402.57  L  2763.23,   402.22  L  2763.50,   401.75  L  2763.60,   401.22  L  2763.50,   400.69  L  2763.23,   400.22  L  2762.82,   399.87  L  2762.31,   399.68  L  2761.77,   399.68  L  2761.26,   399.87  L  2760.84,   400.22  L  2761.24,   400.93  L  2761.24,   401.51  L  2761.61,   401.95  L  2762.18,   402.05  L  2762.69,   401.77  L  2762.89,   401.22  L  2762.69,   400.67  L  2762.18,   400.38  L  2761.61,   400.48  L  2762.04,   401.22  " /><path style="stroke-width: 0.85 ;&st7;  " d=" M  2709.85,   417.21  L  2709.58,   417.68  L  2709.49,   418.22  L  2709.58,   418.75  L  2709.85,   419.22  L  2710.27,   419.56  L  2710.77,   419.75  L  2711.32,   419.75  L  2711.82,   419.56  L  2712.24,   419.22  L  2712.51,   418.75  L  2712.60,   418.22  L  2712.51,   417.68  L  2712.24,   417.21  L  2711.82,   416.87  L  2711.32,   416.68  L  2710.77,   416.68  L  2710.27,   416.87  L  2709.85,   417.21  L  2710.25,   417.92  L  2710.25,   418.51  L  2710.62,   418.95  L  2711.19,   419.05  L  2711.70,   418.76  L  2711.90,   418.22  L  2711.70,   417.67  L  2711.19,   417.38  L  2710.62,   417.48  L  2711.05,   418.22  " /><path style="stroke-width: 0.85 ;&st7;  " d=" M  2922.32,   417.21  L  2922.05,   417.68  L  2921.95,   418.22  L  2922.05,   418.75  L  2922.32,   419.22  L  2922.73,   419.56  L  2923.24,   419.75  L  2923.78,   419.75  L  2924.29,   419.56  L  2924.70,   419.22  L  2924.97,   418.75  L  2925.07,   418.22  L  2924.97,   417.68  L  2924.70,   417.21  L  2924.29,   416.87  L  2923.78,   416.68  L  2923.24,   416.68  L  2922.73,   416.87  L  2922.32,   417.21  L  2922.71,   417.92  L  2922.71,   418.51  L  2923.09,   418.95  L  2923.66,   419.05  L  2924.16,   418.76  L  2924.36,   418.22  L  2924.16,   417.67  L  2923.66,   417.38  L  2923.09,   417.48  L  2923.51,   418.22  " /><path style="stroke-width: 0.85 ;&st7;  " d=" M  2837.33,   400.22  L  2837.06,   400.69  L  2836.97,   401.22  L  2837.06,   401.75  L  2837.33,   402.22  L  2837.75,   402.57  L  2838.25,   402.75  L  2838.80,   402.75  L  2839.30,   402.57  L  2839.72,   402.22  L  2839.99,   401.75  L  2840.08,   401.22  L  2839.99,   400.69  L  2839.72,   400.22  L  2839.30,   399.87  L  2838.80,   399.68  L  2838.25,   399.68  L  2837.75,   399.87  L  2837.33,   400.22  L  2837.73,   400.93  L  2837.73,   401.51  L  2838.10,   401.95  L  2838.67,   402.05  L  2839.18,   401.77  L  2839.37,   401.22  L  2839.18,   400.67  L  2838.67,   400.38  L  2838.10,   400.48  L  2838.52,   401.22  " /><path style="stroke-width: 0.85 ;&st7;  " d=" M  2651.56,   401.22  L  2906.51,   401.22  " /><path style="stroke-width: 0.85 ;&st7;  " d=" M  2769.34,   281.24  L  2769.07,   281.71  L  2768.98,   282.24  L  2769.07,   282.77  L  2769.34,   283.24  L  2769.76,   283.59  L  2770.26,   283.77  L  2770.81,   283.77  L  2771.31,   283.59  L  2771.73,   283.24  L  2772.00,   282.77  L  2772.09,   282.24  L  2772.00,   281.71  L  2771.73,   281.24  L  2771.31,   280.89  L  2770.81,   280.70  L  2770.26,   280.70  L  2769.76,   280.89  L  2769.34,   281.24  L  2769.74,   281.95  L  2769.74,   282.53  L  2770.11,   282.97  L  2770.68,   283.07  L  2771.19,   282.79  L  2771.39,   282.24  L  2771.19,   281.69  L  2770.68,   281.40  L  2770.11,   281.50  L  2770.54,   282.24  " /><path style="stroke-width: 0.85 ;&st7;  " d=" M  2769.34,   264.24  L  2769.07,   264.71  L  2768.98,   265.24  L  2769.07,   265.77  L  2769.34,   266.24  L  2769.76,   266.59  L  2770.26,   266.78  L  2770.81,   266.78  L  2771.31,   266.59  L  2771.73,   266.24  L  2772.00,   265.77  L  2772.09,   265.24  L  2772.00,   264.71  L  2771.73,   264.24  L  2771.31,   263.89  L  2770.81,   263.71  L  2770.26,   263.71  L  2769.76,   263.89  L  2769.34,   264.24  L  2769.74,   264.95  L  2769.74,   265.53  L  2770.11,   265.98  L  2770.68,   266.08  L  2771.19,   265.79  L  2771.39,   265.24  L  2771.19,   264.69  L  2770.68,   264.41  L  2770.11,   264.50  L  2770.54,   265.24  " /><path style="stroke-width: 0.85 ;&st7;  " d=" M  2701.35,   323.73  L  2701.08,   324.20  L  2700.99,   324.73  L  2701.08,   325.26  L  2701.35,   325.73  L  2701.77,   326.08  L  2702.28,   326.27  L  2702.82,   326.27  L  2703.33,   326.08  L  2703.74,   325.73  L  2704.01,   325.26  L  2704.11,   324.73  L  2704.01,   324.20  L  2703.74,   323.73  L  2703.33,   323.38  L  2702.82,   323.20  L  2702.28,   323.20  L  2701.77,   323.38  L  2701.35,   323.73  L  2701.75,   324.44  L  2701.75,   325.02  L  2702.12,   325.47  L  2702.69,   325.57  L  2703.20,   325.28  L  2703.40,   324.73  L  2703.20,   324.18  L  2702.69,   323.90  L  2702.12,   323.99  L  2702.55,   324.73  " /><path style="stroke-width: 0.85 ;&st7;  " d=" M  2701.35,   349.22  L  2701.08,   349.69  L  2700.99,   350.23  L  2701.08,   350.76  L  2701.35,   351.23  L  2701.77,   351.58  L  2702.28,   351.76  L  2702.82,   351.76  L  2703.33,   351.58  L  2703.74,   351.23  L  2704.01,   350.76  L  2704.11,   350.23  L  2704.01,   349.69  L  2703.74,   349.22  L  2703.33,   348.88  L  2702.82,   348.69  L  2702.28,   348.69  L  2701.77,   348.88  L  2701.35,   349.22  L  2701.75,   349.94  L  2701.75,   350.52  L  2702.12,   350.96  L  2702.69,   351.06  L  2703.20,   350.77  L  2703.40,   350.23  L  2703.20,   349.68  L  2702.69,   349.39  L  2702.12,   349.49  L  2702.55,   350.23  " /><path style="stroke-width: 0.85 ;&st7;  " d=" M  2769.34,   349.22  L  2769.07,   349.69  L  2768.98,   350.23  L  2769.07,   350.76  L  2769.34,   351.23  L  2769.76,   351.58  L  2770.26,   351.76  L  2770.81,   351.76  L  2771.31,   351.58  L  2771.73,   351.23  L  2772.00,   350.76  L  2772.09,   350.23  L  2772.00,   349.69  L  2771.73,   349.22  L  2771.31,   348.88  L  2770.81,   348.69  L  2770.26,   348.69  L  2769.76,   348.88  L  2769.34,   349.22  L  2769.74,   349.94  L  2769.74,   350.52  L  2770.11,   350.96  L  2770.68,   351.06  L  2771.19,   350.77  L  2771.39,   350.23  L  2771.19,   349.68  L  2770.68,   349.39  L  2770.11,   349.49  L  2770.54,   350.23  " /><path style="stroke-width: 0.85 ;&st7;  " d=" M  2769.34,   323.73  L  2769.07,   324.20  L  2768.98,   324.73  L  2769.07,   325.26  L  2769.34,   325.73  L  2769.76,   326.08  L  2770.26,   326.27  L  2770.81,   326.27  L  2771.31,   326.08  L  2771.73,   325.73  L  2772.00,   325.26  L  2772.09,   324.73  L  2772.00,   324.20  L  2771.73,   323.73  L  2771.31,   323.38  L  2770.81,   323.20  L  2770.26,   323.20  L  2769.76,   323.38  L  2769.34,   323.73  L  2769.74,   324.44  L  2769.74,   325.02  L  2770.11,   325.47  L  2770.68,   325.57  L  2771.19,   325.28  L  2771.39,   324.73  L  2771.19,   324.18  L  2770.68,   323.90  L  2770.11,   323.99  L  2770.54,   324.73  " /><path style="stroke-width: 0.85 ;&st7;  " d=" M  2913.82,   298.23  L  2913.55,   298.70  L  2913.45,   299.24  L  2913.55,   299.77  L  2913.82,   300.24  L  2914.23,   300.58  L  2914.74,   300.77  L  2915.28,   300.77  L  2915.79,   300.58  L  2916.20,   300.24  L  2916.48,   299.77  L  2916.57,   299.24  L  2916.48,   298.70  L  2916.20,   298.23  L  2915.79,   297.89  L  2915.28,   297.70  L  2914.74,   297.70  L  2914.23,   297.89  L  2913.82,   298.23  L  2914.21,   298.94  L  2914.21,   299.53  L  2914.59,   299.97  L  2915.16,   300.07  L  2915.66,   299.78  L  2915.86,   299.24  L  2915.66,   298.69  L  2915.16,   298.40  L  2914.59,   298.50  L  2915.01,   299.24  " /><text style="&st18;" transform="matrix(&st17;  2642.2  429.68 )" ewd:textID="28">Courtesy</text><text style="&st18;" transform="matrix(&st16;  2917.6  264.94 )">B</text><g ewd:code="" ewd:figID="192" ewd:comment="2" ewd:figtype="commref"><text style="&st18;" transform="matrix(&st16;  2841.81  442.85 )">(*2)</text></g><g ewd:code="" ewd:figID="185" ewd:comment="2" ewd:figtype="commref"><text style="&st18;" transform="matrix(&st16;  2739.83  425.85 )">(*2)</text></g><g ewd:code="" ewd:figID="190" ewd:comment="2" ewd:figtype="commref"><text style="&st18;" transform="matrix(&st16;  2841.81  272.88 )">(*2)</text></g><g ewd:code="" ewd:figID="181" ewd:comment="1" ewd:figtype="commref"><text style="&st18;" transform="matrix(&st16;  2875.81  408.85 )">(*1)</text></g><g ewd:code="" ewd:figID="174" ewd:comment="1" ewd:figtype="commref"><text style="&st18;" transform="matrix(&st16;  2884.3  425.85 )">(*1)</text></g><g ewd:code="" ewd:figID="186" ewd:comment="2" ewd:figtype="commref"><text style="&st18;" transform="matrix(&st17;  2684.69  380.44 )">(*2)</text></g><g ewd:code="" ewd:figID="182" ewd:comment="2" ewd:figtype="commref"><text style="&st18;" transform="matrix(&st17;  2684.69  312.45 )">(*2)</text></g><g ewd:code="" ewd:figID="183" ewd:comment="2" ewd:figtype="commref"><text style="&st18;" transform="matrix(&st17;  2701.69  397.43 )">(*2)</text></g><g ewd:code="" ewd:figID="175" ewd:comment="2" ewd:figtype="commref"><text style="&st18;" transform="matrix(&st17;  2718.68  397.43 )">(*2)</text></g><g ewd:code="" ewd:figID="187" ewd:comment="2" ewd:figtype="commref"><text style="&st18;" transform="matrix(&st17;  2769.67  397.43 )">(*2)</text></g><g ewd:code="" ewd:figID="193" ewd:comment="2" ewd:figtype="commref"><text style="&st18;" transform="matrix(&st17;  2786.67  397.43 )">(*2)</text></g><g ewd:code="" ewd:figID="179" ewd:comment="1" ewd:figtype="commref"><text style="&st18;" transform="matrix(&st17;  2846.16  397.43 )">(*1)</text></g><g ewd:code="" ewd:figID="194" ewd:comment="1" ewd:figtype="commref"><text style="&st18;" transform="matrix(&st17;  2931.15  405.93 )">(*1)</text></g><g ewd:code="" ewd:figID="184" ewd:comment="1" ewd:figtype="commref"><text style="&st18;" transform="matrix(&st17;  2931.15  439.93 )">(*1)</text></g><g ewd:code="" ewd:figID="176" ewd:comment="1" ewd:figtype="commref"><text style="&st18;" transform="matrix(&st17;  2922.65  286.95 )">(*1)</text></g><g ewd:code="" ewd:figID="188" ewd:comment="1" ewd:figtype="commref"><text style="&st18;" transform="matrix(&st17;  2922.65  320.95 )">(*1)</text></g><g ewd:code="" ewd:figID="195" ewd:comment="1" ewd:figtype="commref"><text style="&st18;" transform="matrix(&st17;  2854.66  320.95 )">(*1)</text></g><g ewd:code="" ewd:figID="177" ewd:comment="2" ewd:figtype="commref"><text style="&st18;" transform="matrix(&st17;  2778.17  278.45 )">(*2)</text></g><g ewd:code="" ewd:figID="180" ewd:comment="2" ewd:figtype="commref"><text style="&st18;" transform="matrix(&st16;  2731.33  289.87 )">(*2)</text></g><g ewd:code="" ewd:figID="196" ewd:comment="1" ewd:figtype="commref"><text style="&st18;" transform="matrix(&st17;  2922.65  354.94 )">(*1)</text></g><g ewd:code="" ewd:figID="191" ewd:comment="1" ewd:figtype="commref"><text style="&st18;" transform="matrix(&st17;  2854.66  354.94 )">(*1)</text></g><text style="&st18;" transform="matrix(&st16;  2654.14  448.52 )">CTY</text><text style="&st18;" transform="matrix(&st17;  2696.02  366.64 )" ewd:textID="57">Off</text><text style="&st18;" transform="matrix(&st17;  2713.02  370.89 )" ewd:textID="58">On</text><text style="&st18;" transform="matrix(&st17;  2764.01  366.64 )" ewd:textID="57">Off</text><text style="&st18;" transform="matrix(&st17;  2781.01  370.89 )" ewd:textID="58">On</text><text style="&st18;" transform="matrix(&st17;  2840.5  366.64 )" ewd:textID="57">Off</text><text style="&st18;" transform="matrix(&st17;  2857.49  370.89 )" ewd:textID="58">On</text><text style="&st18;" transform="matrix(&st17;  2908.48  366.64 )" ewd:textID="57">Off</text><text style="&st18;" transform="matrix(&st17;  2925.48  371.39 )">ON</text><text style="&st18;" transform="matrix(&st16;  2926.09  448.52 )">GND</text><g ewd:code="" ewd:figID="178" ewd:comment="2" ewd:figtype="commref"><text style="&st18;" transform="matrix(&st17;  2778.17  295.45 )">(*2)</text></g><g ewd:code="" ewd:figID="189" ewd:comment="1" ewd:figtype="commref"><text style="&st18;" transform="matrix(&st16;  2799.32  408.85 )">(*1)</text></g><text style="&st18;" transform="matrix(&st16;  2908.83  253.05 )">5</text><text style="&st18;" transform="matrix(&st16;  2917.33  460.4 )">3</text><text style="&st18;" transform="matrix(&st16;  2645.37  460.4 )">1</text><g ewd:figtype="title"><text style="&st18;" transform="matrix(&st17;  2963.73  455.12 )" ewd:textID="43">Map Light Assembly</text><text style="&st18;" transform="matrix(&st17;  2956.9  455.11 )">Q2</text></g></g><g ewd:code="4" ewd:figID="130" ewd:comment="" ewd:figtype="comment"><text style="&st18;" transform="matrix(&st16;  2937.1  173.73 )" ewd:textID="4">* 4 :w/ Smart Entry &amp; Start System</text></g><g ewd:code="15" ewd:figID="163" ewd:comment="" ewd:figtype="comment"><text style="&st18;" transform="matrix(&st16;  2937.1  224.72 )" ewd:textID="15">*15 :w/ Map Light Assembly <tspan x="14.17" dy="8.5">(LED Type)</tspan></text></g><g ewd:code="1" ewd:figID="128" ewd:comment="" ewd:figtype="comment"><text style="&st18;" transform="matrix(&st16;  2937.1  148.23 )" ewd:textID="1">* 1 :Bulb Type</text></g><g ewd:code="8" ewd:figID="159" ewd:comment="" ewd:figtype="comment"><text style="&st18;" transform="matrix(&st16;  2937.1  182.22 )" ewd:textID="8">* 8 :w/ Courtesy Light</text></g><g ewd:code="9" ewd:figID="161" ewd:comment="" ewd:figtype="comment"><text style="&st18;" transform="matrix(&st16;  2937.1  190.72 )" ewd:textID="9">* 9 :w/ Vanity Light Assembly</text></g><g ewd:code="3" ewd:figID="164" ewd:comment="" ewd:figtype="comment"><text style="&st18;" transform="matrix(&st16;  2937.1  165.23 )" ewd:textID="3">* 3 :w/o Smart Entry &amp; Start System</text></g><g ewd:code="10" ewd:figID="160" ewd:comment="" ewd:figtype="comment"><text style="&st18;" transform="matrix(&st16;  2937.1  199.22 )" ewd:textID="10">*10 :w/o Vanity Light Assembly</text></g><g ewd:code="14" ewd:figID="162" ewd:comment="" ewd:figtype="comment"><text style="&st18;" transform="matrix(&st16;  2937.1  207.72 )" ewd:textID="14">*14 :w/ Map Light Assembly (Bulb Type) <tspan x="14.17" dy="8.5">w/ Microphone Amplifier</tspan></text></g><g ewd:code="2" ewd:figID="129" ewd:comment="" ewd:figtype="comment"><text style="&st18;" transform="matrix(&st16;  2937.1  156.73 )" ewd:textID="2">* 2 :LED Type</text></g></svg>