﻿<?xml version="1.0" encoding="utf-8"?>
<!DOCTYPE svg PUBLIC "-//W3C//DTD SVG 1.0//EN" "http://www.w3.org/TR/2001/REC-SVG-20010904/DTD/svg10.dtd"[
	<!ENTITY ns_flows "http://ns.adobe.com/Flows/1.0/">
	<!ENTITY ns_svg "http://www.w3.org/2000/svg">
	<!ENTITY ns_xlink "http://www.w3.org/1999/xlink">
	<!ENTITY st0 "font-size:7px;font-family:'MS-PGothic';adobe-font-script:japanese;">
	<!ENTITY st1 "font-size:6px;font-family:'ArialMT';">
	<!-- White fill  -->
	<!ENTITY st2 "fill:#FFFFFF;stroke:#000000; stroke-width:1.41;stroke-linecap:round;stroke-linejoin:round;">
	<!-- Yellow fill  -->
	<!ENTITY st3 "fill:#FFFFCC;stroke:#FFFFCC; stroke-width:0.1;stroke-linecap:round;stroke-linejoin:round;">
	<!-- Gray fill  -->
	<!ENTITY st4 "fill:#CCCCCC;stroke:#CCCCCC; stroke-width:0.1;stroke-linecap:round;stroke-linejoin:round;">
	<!-- Light-blue fill -->
	<!ENTITY st5 "fill:#CCECF4;stroke:#000000; stroke-width:1.133;stroke-linecap:round;stroke-linejoin:round;">
	<!ENTITY st6 "fill:none;stroke-linecap:butt; stroke-linejoin:round;">
	<!ENTITY st7 "fill:none;stroke:#000000;stroke-linecap:round;stroke-linejoin:round;">
	<!ENTITY st8 "enable-background:new    ;">
	<!-- Black fill -->
	<!ENTITY st9 "fill:#000000;stroke:#000000; stroke-linecap:round;stroke-linejoin:round;">
	<!-- SRS note   -->
	<!ENTITY st10 "font-size:9px;font-family:'ArialMT';">
	<!ENTITY st11 "font-size:9px;font-family:'Svg Symbol';">
	<!ENTITY st12 "font-size:6px;font-family:'Svg Symbol';">
	<!ENTITY st13 "fill:none;stroke:#ff0000;stroke-linecap:round;stroke-linejoin:round;">
	<!-- Yellow fill  -->
	<!ENTITY st14 "fill:#FFFF00;stroke:#FFFF00; stroke-width:0.1;stroke-linecap:round;stroke-linejoin:round;">
	<!ENTITY st15 "font-size:6px;font-family:'MS-PGothic';adobe-font-script:japanese;">
	<!ENTITY st16 "1.00 0.00 0.00 1.00">
	<!ENTITY st17 "0.00 -1.00 1.00 0.00">
	<!ENTITY st18 "font-size:6px;font-family:'Arial';">
	<!ENTITY st19 "font-size:9px;font-family:'Arial';">
	<!ENTITY st20 "font-size:6px;font-family:'MS-PGothic','MS PGothic';adobe-font-script:japanese;">
	<!ENTITY st21 "font-size:7px;font-family:'MS-PGothic','MS PGothic';adobe-font-script:japanese;">
	<!ATTLIST svg
		xmlns:ewd CDATA #FIXED "http://shcl.co.jp/ewd"
		xmlns:a CDATA #FIXED "http://ns.adobe.com/AdobeSVGViewerExtensions/3.0/"
		ewd:ver CDATA #IMPLIED
	>
	<!ATTLIST a
		ewd:lineID CDATA #IMPLIED
		ewd:groupID CDATA #IMPLIED
		ewd:figtype CDATA #IMPLIED
		ewd:code CDATA #IMPLIED
		ewd:figID CDATA #IMPLIED
		ewd:pinNo CDATA #IMPLIED
		ewd:comment CDATA #IMPLIED >
	<!ATTLIST g
		ewd:lineID CDATA #IMPLIED
		ewd:groupID CDATA #IMPLIED
		ewd:figtype CDATA #IMPLIED
		ewd:code CDATA #IMPLIED
		ewd:figID CDATA #IMPLIED
		ewd:pinNo CDATA #IMPLIED
		ewd:comment CDATA #IMPLIED >
	<!ATTLIST text
		ewd:textID CDATA #IMPLIED >
	<!ATTLIST title
		ewd:textID CDATA #IMPLIED >
]>
<!-- Generator: Shintec Hozumi YS   -->
<svg onload="call_execInitLoadProc_svg('system')" style="overflow:visible;  enable-background:new 0 0 4592.605 710.000" viewBox="0 0 4592.605 710.000" height="710.000" width="4592.605" xml:space="preserve" ewd:ver="2.1.2.9" xmlns="&ns_svg;" xmlns:a="http://ns.adobe.com/AdobeSVGViewerExtensions/3.0/" xmlns:ewd="http://shcl.co.jp/ewd" xmlns:xlink="&ns_xlink;">
<text style="&st18;" transform="matrix(&st17;  4356.08  415.67 )">W-B</text><text style="&st18;" transform="matrix(&st17;  4407.07  415.67 )">W-B</text><text style="&st18;" transform="matrix(&st17;  4058.63  156.45 )">Y</text><text style="&st18;" transform="matrix(&st17;  4356.08  199.72 )">W</text><text style="&st18;" transform="matrix(&st17;  4322.08  198.75 )">P</text><text style="&st18;" transform="matrix(&st17;  4067.12  405.0 )">LG</text><text style="&st18;" transform="matrix(&st17;  4024.63  403.02 )">V</text><text style="&st18;" transform="matrix(&st17;  4450.98  361.63 )" ewd:textID="27">Combination <tspan x="0 " dy="6.0">Meter Assembly</tspan></text><text style="&st18;" transform="matrix(&st17;  4444.15  361.62 )">G8(A),G9(B)</text><path style="stroke-width: 1.42 ;&st7;  " d=" M  4198.30,   401.22  L  4206.80,   401.22  " /><path style="stroke-width: 1.42 ;&st7;  " d=" M  4215.30,   435.21  L  4206.80,   435.21  " /><text style="&st18;" transform="matrix(&st17;  4203.1  381.66 )">B</text><text style="&st18;" transform="matrix(&st17;  4203.1  419.9 )">B</text><text style="&st18;" transform="matrix(&st17;  4279.59  487.89 )">B</text><text style="&st18;" transform="matrix(&st17;  4279.59  653.63 )">W-B</text><text style="&st18;" transform="matrix(&st17;  4203.1  487.89 )">B</text><text style="&st18;" transform="matrix(&st17;  4279.59  560.91 )">W</text><text style="&st18;" transform="matrix(&st17;  4290.92  570.29 )">(*20,*21)</text><text style="&st18;" transform="matrix(&st17;  4290.92  498.05 )">(*20,*21)</text><text style="&st18;" transform="matrix(&st17;  4290.92  659.52 )">(*20,*21)</text><text style="&st18;" transform="matrix(&st17;  4418.4  415.98 )">(*22)</text><text style="&st18;" transform="matrix(&st17;  4214.43  492.47 )">(*29)</text><text style="&st18;" transform="matrix(&st17;  4203.1  653.63 )">W-B</text><text style="&st18;" transform="matrix(&st17;  4214.43  653.94 )">(*29)</text><g ewd:figtype="conn" ewd:figID="9" ewd:code="G45"><path style="stroke-width: 0.85 ;&st7;  " d=" M  4520.12,   594.74  L  4527.48,   590.49  " /><path style="stroke-width: 0.85 ;&st7;  " d=" M  4525.48,   587.02  L  4518.12,   591.27  " /><path style="stroke-width: 0.85 ;&st7;  " d=" M  4517.00,   596.69  L  4508.50,   596.69  " /><path style="stroke-width: 0.85 ;&st7;  " d=" M  4520.12,   569.24  L  4527.48,   564.99  " /><path style="stroke-width: 0.85 ;&st7;  " d=" M  4525.48,   561.53  L  4518.12,   565.78  " /><path style="stroke-width: 0.85 ;&st7;  " d=" M  4517.00,   571.19  L  4508.50,   571.19  " /><path style="stroke-width: 0.85 ;&st7;  " d=" M  4555.24,   511.70  L  4555.24,   528.70  " /><path style="stroke-width: 0.85 ;&st7;  " d=" M  4512.74,   511.70  L  4512.74,   528.70  " /><path style="stroke-width: 1.42 ;&st7;  " d=" M  4478.75,   511.70  L  4478.75,   647.68  L  4589.23,   647.68  L  4589.23,   511.70  L  4478.75,   511.70  " /><path style="stroke-width: 1.42 ;&st7;  " d=" M  4495.75,   528.70  L  4495.75,   630.68  L  4572.23,   630.68  L  4572.23,   528.70  L  4495.75,   528.70  " /><path style="stroke-width: 0.85 ;&st7;  " d=" M  4527.48,   590.49  L  4525.15,   593.53  L  4523.68,   590.99  L  4527.48,   590.49  L  4526.20,   591.23  L  4525.21,   592.51  L  4524.59,   591.44  L  4526.20,   591.23  L  4525.56,   591.60  L  4525.25,   592.01  L  4525.05,   591.67  L  4525.56,   591.60  " /><path style="stroke-width: 0.85 ;&st7;  " d=" M  4525.48,   587.02  L  4523.14,   590.06  L  4521.68,   587.52  L  4525.48,   587.02  L  4524.19,   587.76  L  4523.21,   589.05  L  4522.59,   587.97  L  4524.19,   587.76  L  4523.55,   588.13  L  4523.24,   588.54  L  4523.05,   588.20  L  4523.55,   588.13  " /><path style="stroke-width: 0.28 ;&st9;  " d=" M  4512.74,   596.69  L  4507.08,   588.19  L  4518.41,   588.19  L  4512.74,   596.69  " /><path style="stroke-width: 0.85 ;&st7;  " d=" M  4527.48,   564.99  L  4525.15,   568.04  L  4523.68,   565.50  L  4527.48,   564.99  L  4526.20,   565.74  L  4525.21,   567.02  L  4524.59,   565.95  L  4526.20,   565.74  L  4525.56,   566.10  L  4525.25,   566.51  L  4525.05,   566.17  L  4525.56,   566.10  " /><path style="stroke-width: 0.85 ;&st7;  " d=" M  4525.48,   561.53  L  4523.14,   564.57  L  4521.68,   562.03  L  4525.48,   561.53  L  4524.19,   562.27  L  4523.21,   563.55  L  4522.59,   562.48  L  4524.19,   562.27  L  4523.55,   562.64  L  4523.24,   563.04  L  4523.05,   562.70  L  4523.55,   562.64  " /><path style="stroke-width: 0.28 ;&st9;  " d=" M  4512.74,   571.19  L  4507.08,   562.69  L  4518.41,   562.69  L  4512.74,   571.19  " /><path style="stroke-width: 0.85 ;&st7;  " d=" M  4512.74,   528.70  L  4512.74,   537.20  L  4515.58,   538.61  L  4509.91,   541.44  L  4515.58,   544.28  L  4509.91,   547.11  L  4515.58,   549.94  L  4509.91,   552.78  L  4512.74,   554.19  L  4512.74,   613.68  L  4555.24,   613.68  L  4555.24,   528.70  " /><text style="&st18;" transform="matrix(&st16;  4557.82  519.89 )">AGND</text><text style="&st18;" transform="matrix(&st16;  4515.33  519.89 )">SWIL</text><text style="&st18;" transform="matrix(&st16;  4506.56  508.01 )">9</text><text style="&st18;" transform="matrix(&st16;  4549.05  508.01 )">6</text><g ewd:figtype="title"><text style="&st18;" transform="matrix(&st16;  4475.35  662.39 )" ewd:textID="36">Engine Switch</text><text style="&st18;" transform="matrix(&st16;  4475.34  655.57 )">G45</text></g></g><g ewd:figtype="conn" ewd:figID="10" ewd:code="G16,G17"><path style="stroke-width: 1.42 ;&st7;  " d=" M  4495.75,   392.72  L  4495.75,   426.71  L  4572.23,   426.71  L  4572.23,   392.72  L  4495.75,   392.72  " /></g><g ewd:figtype="conn" ewd:figID="40" ewd:code="V23"><path style="stroke-width: 1.42 ;&st7;  " d=" M  4266.29,   588.19  L  4266.29,   622.18  L  4300.28,   622.18  L  4300.28,   588.19  L  4266.29,   588.19  " /><g ewd:lineID="130"><text style="&st18;" transform="matrix(&st16;  4274.59  628.68 )">1</text><path style="stroke-width: 1.42 ;&st7;   " d=" M  4287.82,   626.71  C  4287.82    624.21   4285.79    622.18   4283.28    622.18  " /><path style="stroke-width: 1.42 ;&st7;   " d=" M  4283.28,   622.18  C  4280.78    622.18   4278.75    624.21   4278.75    626.71  " /><path style="stroke-width: 1.42 ;&st7;   " d=" M  4278.75,   626.71  C  4278.75    629.22   4280.78    631.25   4283.28    631.25  " /><path style="stroke-width: 1.42 ;&st7;   " d=" M  4283.28,   631.25  C  4285.79    631.25   4287.82    629.22   4287.82    626.71  " /><text style="&st18;" transform="matrix(&st16;  4280.98  628.68 )">A</text><text style="&st18;" transform="matrix(&st16;  4281.17  618.48 )">E</text></g><g ewd:lineID="131"><text style="&st18;" transform="matrix(&st16;  4274.59  585.62 )">4</text><path style="stroke-width: 1.42 ;&st7;   " d=" M  4287.82,   583.65  C  4287.82    581.15   4285.79    579.12   4283.28    579.12  " /><path style="stroke-width: 1.42 ;&st7;   " d=" M  4283.28,   579.12  C  4280.78    579.12   4278.75    581.15   4278.75    583.65  " /><path style="stroke-width: 1.42 ;&st7;   " d=" M  4278.75,   583.65  C  4278.75    586.16   4280.78    588.19   4283.28    588.19  " /><path style="stroke-width: 1.42 ;&st7;   " d=" M  4283.28,   588.19  C  4285.79    588.19   4287.82    586.16   4287.82    583.65  " /><text style="&st18;" transform="matrix(&st16;  4280.98  585.62 )">A</text><text style="&st18;" transform="matrix(&st16;  4276.99  595.82 )">CTY</text></g><g ewd:figtype="title"><text style="&st18;" transform="matrix(&st17;  4315.0  625.09 )" ewd:textID="23">Back Door Lock <tspan x="0 " dy="6.0">Assembly</tspan></text><text style="&st18;" transform="matrix(&st17;  4308.18  625.08 )">V23(A)</text></g></g><g ewd:figtype="conn" ewd:figID="51" ewd:code="V22"><path style="stroke-width: 1.42 ;&st7;  " d=" M  4274.78,   511.70  L  4291.78,   511.70  L  4291.78,   528.70  L  4274.78,   528.70  L  4274.78,   511.70  " /><path style="stroke-width: 0.85 ;&st7;  " d=" M  4283.28,   511.70  L  4283.28,   528.70  " /><text style="&st18;" transform="matrix(&st16;  4274.0  536.89 )">14</text><text style="&st18;" transform="matrix(&st16;  4274.0  508.01 )">12</text><g ewd:figtype="title"><text style="&st18;" transform="matrix(&st17;  4306.5  531.6 )" ewd:textID="56">No. 25 Junction <tspan x="0 " dy="6.0">Connector</tspan></text><text style="&st18;" transform="matrix(&st17;  4299.68  531.6 )">V22</text></g></g><g ewd:figtype="conn" ewd:figID="53" ewd:code="V2"><path style="stroke-width: 0.85 ;&st7;  " d=" M  4206.80,   554.19  L  4206.80,   558.44  " /><path style="stroke-width: 0.85 ;&st7;  " d=" M  4206.80,   566.94  L  4206.80,   571.19  " /><path style="stroke-width: 1.42 ;&st7;  " d=" M  4206.80,   606.60  L  4212.46,   583.94  " /><path style="stroke-width: 0.85 ;&st7;  " d=" M  4206.80,   613.68  L  4206.80,   609.43  " /><path style="stroke-width: 0.85 ;&st7;  " d=" M  4206.80,   583.94  L  4206.80,   579.69  " /><path style="stroke-width: 1.42 ;&st7;   " d=" M  4215.30,   562.69  C  4215.30    558.00   4211.49    554.19   4206.80    554.19  " /><path style="stroke-width: 1.42 ;&st7;   " d=" M  4206.80,   554.19  C  4202.10    554.19   4198.30    558.00   4198.30    562.69  " /><path style="stroke-width: 1.42 ;&st7;   " d=" M  4198.30,   562.69  C  4198.30    567.38   4202.10    571.19   4206.80    571.19  " /><path style="stroke-width: 1.42 ;&st7;   " d=" M  4206.80,   571.19  C  4211.49    571.19   4215.30    567.38   4215.30    562.69  " /><path style="stroke-width: 0.85 ;&st7;   " d=" M  4204.39,   562.69  C  4205.18    564.03   4206.91    564.47   4208.25    563.68  " /><path style="stroke-width: 0.85 ;&st7;   " d=" M  4208.25,   563.68  C  4209.59    562.89   4210.03    561.16   4209.24    559.82  " /><path style="stroke-width: 0.85 ;&st7;   " d=" M  4209.24,   559.82  C  4208.71    558.94   4207.83    558.43   4206.80    558.44  " /><path style="stroke-width: 0.85 ;&st7;   " d=" M  4206.80,   566.94  C  4208.35    566.95   4209.62    565.70   4209.63    564.14  " /><path style="stroke-width: 0.85 ;&st7;   " d=" M  4209.63,   564.14  C  4209.64    562.59   4208.39    561.32   4206.83    561.31  " /><path style="stroke-width: 0.85 ;&st7;   " d=" M  4206.83,   561.31  C  4205.80    561.30   4204.92    561.80   4204.39    562.69  " /><path style="stroke-width: 0.85 ;&st7;   " d=" M  4208.21,   608.02  C  4208.21    607.23   4207.58    606.60   4206.80    606.60  " /><path style="stroke-width: 0.85 ;&st7;   " d=" M  4206.80,   606.60  C  4206.01    606.60   4205.38    607.23   4205.38    608.02  " /><path style="stroke-width: 0.85 ;&st7;   " d=" M  4205.38,   608.02  C  4205.38    608.80   4206.01    609.43   4206.80    609.43  " /><path style="stroke-width: 0.85 ;&st7;   " d=" M  4206.80,   609.43  C  4207.58    609.43   4208.21    608.80   4208.21    608.02  " /><path style="stroke-width: 0.85 ;&st7;   " d=" M  4208.21,   585.35  C  4208.21    584.57   4207.58    583.94   4206.80    583.94  " /><path style="stroke-width: 0.85 ;&st7;   " d=" M  4206.80,   583.94  C  4206.01    583.94   4205.38    584.57   4205.38    585.35  " /><path style="stroke-width: 0.85 ;&st7;   " d=" M  4205.38,   585.35  C  4205.38    586.14   4206.01    586.77   4206.80    586.77  " /><path style="stroke-width: 0.85 ;&st7;   " d=" M  4206.80,   586.77  C  4207.58    586.77   4208.21    586.14   4208.21    585.35  " /><path style="stroke-width: 1.42 ;&st7;  " d=" M  4189.80,   537.20  L  4189.80,   622.18  L  4232.29,   622.18  L  4232.29,   537.20  L  4189.80,   537.20  " /><path style="stroke-width: 0.85 ;&st7;  " d=" M  4206.80,   537.20  L  4206.80,   554.19  " /><path style="stroke-width: 0.85 ;&st7;  " d=" M  4206.80,   571.19  L  4206.80,   579.69  " /><path style="stroke-width: 0.85 ;&st7;  " d=" M  4206.80,   622.18  L  4206.80,   613.68  " /><text style="&st18;" transform="matrix(&st16;  4209.38  545.39 )">D+</text><text style="&st18;" transform="matrix(&st16;  4209.38  618.49 )">ACT-</text><text style="&st18;" transform="matrix(&st16;  4200.61  630.37 )">2</text><text style="&st18;" transform="matrix(&st16;  4200.61  533.51 )">3</text><g ewd:figtype="title"><text style="&st18;" transform="matrix(&st17;  4247.01  625.09 )" ewd:textID="23">Back Door Lock Assembly</text><text style="&st18;" transform="matrix(&st17;  4240.19  625.08 )">V2</text></g></g><g ewd:figtype="jb" ewd:figID="62" ewd:code="2"><path style="stroke-width: 0.28 ;&st9;  " d=" M  4062.32,    90.37  L  4059.49,    87.54  L  4059.49,    91.79  L  4062.32,    94.62  L  4065.15,    91.79  L  4065.15,    87.54  L  4062.32,    90.37  " /><path style="stroke-width: 1.42 ;&st7;  " d=" M  4049.57,    35.78  L  4049.57,    78.27  L  4075.07,    78.27  L  4075.07,    35.78  L  4049.57,    35.78  " /><path style="stroke-width: 1.42 ;&st7;   " d=" M  4062.32,    47.11  C  4059.58     48.72   4058.67     52.25   4060.28     54.99  " /><path style="stroke-width: 1.42 ;&st7;   " d=" M  4060.28,    54.99  C  4060.80     55.87   4061.44     56.51   4062.32     57.03  " /><path style="stroke-width: 1.42 ;&st7;   " d=" M  4062.32,    66.94  C  4065.06     65.33   4065.97     61.80   4064.36     59.06  " /><path style="stroke-width: 1.42 ;&st7;   " d=" M  4064.36,    59.06  C  4063.84     58.18   4063.20     57.55   4062.32     57.03  " /><path style="stroke-width: 0.85 ;&st7;   " d=" M  4063.74,    45.69  C  4063.74     44.91   4063.10     44.28   4062.32     44.28  " /><path style="stroke-width: 0.85 ;&st7;   " d=" M  4062.32,    44.28  C  4061.54     44.28   4060.90     44.91   4060.90     45.69  " /><path style="stroke-width: 0.85 ;&st7;   " d=" M  4060.90,    45.69  C  4060.90     46.48   4061.54     47.11   4062.32     47.11  " /><path style="stroke-width: 0.85 ;&st7;   " d=" M  4062.32,    47.11  C  4063.10     47.11   4063.74     46.48   4063.74     45.69  " /><path style="stroke-width: 0.85 ;&st7;   " d=" M  4063.74,    68.36  C  4063.74     67.57   4063.10     66.94   4062.32     66.94  " /><path style="stroke-width: 0.85 ;&st7;   " d=" M  4062.32,    66.94  C  4061.54     66.94   4060.90     67.57   4060.90     68.36  " /><path style="stroke-width: 0.85 ;&st7;   " d=" M  4060.90,    68.36  C  4060.90     69.14   4061.54     69.77   4062.32     69.77  " /><path style="stroke-width: 0.85 ;&st7;   " d=" M  4062.32,    69.77  C  4063.10     69.77   4063.74     69.14   4063.74     68.36  " /><path style="stroke-width: 1.42 ;&st7;   " d=" M  4060.20,    95.27  C  4057.85     95.27   4055.95     97.17   4055.95     99.52  " /><path style="stroke-width: 1.42 ;&st7;   " d=" M  4055.95,    99.52  C  4055.95    101.87   4057.85    103.77   4060.20    103.77  " /><path style="stroke-width: 1.42 ;&st7;   " d=" M  4064.45,   103.77  C  4066.79    103.77   4068.70    101.87   4068.70     99.52  " /><path style="stroke-width: 1.42 ;&st7;   " d=" M  4068.70,    99.52  C  4068.70     97.17   4066.79     95.27   4064.45     95.27  " /><path style="stroke-width: 0.85 ;&st7;  " d=" M  4062.32,    69.77  L  4062.32,    78.27  " /><path style="stroke-width: 1.42 ;&st7;  " d=" M  4064.45,    95.27  L  4060.20,    95.27  " /><path style="stroke-width: 1.42 ;&st7;  " d=" M  4064.45,   103.77  L  4060.20,   103.77  " /><path style="stroke-width: 0.85 ;&st7;  " d=" M  4062.32,    78.27  L  4062.32,    95.27  " /><text style="&st18;" transform="matrix(&st16;  4057.11  32.08 )">(IG)</text><text style="&st18;" transform="matrix(&st16;  4056.14  86.47 )">2</text><text style="&st18;" transform="matrix(&st16;  4051.81  101.49 )">6</text><text style="&st18;" transform="matrix(&st16;  4058.78  101.49 )">2P</text><text style="&st18;" transform="matrix(&st16;  4078.75  56.17 )">5A <tspan x="0 " dy="6.0">METER</tspan></text></g><g ewd:figtype="w2w" ewd:figID="101" ewd:code="VN1"><path style="stroke-width: 1.42 ;&st7;  " d=" M  4211.04,   426.15  L  4206.80,   430.40  L  4202.55,   426.15  " /><path style="stroke-width: 1.42 ;&st7;  " d=" M  4211.04,   429.55  L  4206.80,   433.80  L  4202.55,   429.55  " /><text style="&st18;" transform="matrix(&st16;  4194.17  441.43 )">4</text></g><g ewd:figtype="w2w" ewd:figID="102" ewd:code="GN3"><path style="stroke-width: 1.42 ;&st7;  " d=" M  4202.55,   410.28  L  4206.80,   406.03  L  4211.04,   410.28  " /><path style="stroke-width: 1.42 ;&st7;  " d=" M  4211.04,   406.88  L  4206.80,   402.63  L  4202.55,   406.88  " /><text style="&st18;" transform="matrix(&st16;  4194.17  398.94 )">6</text></g><g ewd:figtype="gp" ewd:figID="111" ewd:code="VA"><path style="stroke-width: 0.85 ;&st7;  " d=" M  4206.80,   697.25  L  4206.80,   701.50  " /><path style="stroke-width: 0.85 ;&st7;  " d=" M  4198.30,   701.50  L  4215.29,   701.50  " /><path style="stroke-width: 0.85 ;&st7;  " d=" M  4202.55,   704.33  L  4211.04,   704.33  " /><path style="stroke-width: 0.85 ;&st7;  " d=" M  4203.96,   707.17  L  4209.63,   707.17  " /><path style="stroke-width: 0.85 ;&st7;  " d=" M  4205.38,   710.00  L  4208.21,   710.00  " /></g><g ewd:figtype="gp" ewd:figID="112" ewd:code="GD"><path style="stroke-width: 0.85 ;&st7;  " d=" M  4351.27,   701.50  L  4368.27,   701.50  " /><path style="stroke-width: 0.85 ;&st7;  " d=" M  4359.77,   697.25  L  4359.77,   701.50  " /><path style="stroke-width: 0.85 ;&st7;  " d=" M  4358.35,   710.00  L  4361.19,   710.00  " /><path style="stroke-width: 0.85 ;&st7;  " d=" M  4356.94,   707.17  L  4362.60,   707.17  " /><path style="stroke-width: 0.85 ;&st7;  " d=" M  4355.52,   704.33  L  4364.02,   704.33  " /></g><g ewd:code="29" ewd:figID="139" ewd:comment="" ewd:figtype="comment"><text style="&st18;" transform="matrix(&st16;  4322.37  80.24 )" ewd:textID="22">*29 :w/o Power Back Door w/o Back Door Closer</text></g><g ewd:code="21" ewd:figID="171" ewd:comment="" ewd:figtype="comment"><text style="&st18;" transform="matrix(&st16;  4322.37  63.24 )" ewd:textID="20">*21 :w/o Power Back Door w/ Back Door Closer</text></g><g ewd:code="20" ewd:figID="170" ewd:comment="" ewd:figtype="comment"><text style="&st18;" transform="matrix(&st16;  4322.37  54.75 )" ewd:textID="19">*20 :w/ Power Back Door</text></g><g ewd:code="22" ewd:figID="172" ewd:comment="" ewd:figtype="comment"><text style="&st18;" transform="matrix(&st16;  4322.37  71.74 )" ewd:textID="21">*22 :w/ TFT Display</text></g></svg>