﻿<?xml version="1.0" encoding="utf-8"?>
<!DOCTYPE svg PUBLIC "-//W3C//DTD SVG 1.0//EN" "http://www.w3.org/TR/2001/REC-SVG-20010904/DTD/svg10.dtd"[
	<!ENTITY ns_flows "http://ns.adobe.com/Flows/1.0/">
	<!ENTITY ns_svg "http://www.w3.org/2000/svg">
	<!ENTITY ns_xlink "http://www.w3.org/1999/xlink">
	<!ENTITY st0 "font-size:7px;font-family:'MS-PGothic';adobe-font-script:japanese;">
	<!ENTITY st1 "font-size:6px;font-family:'ArialMT';">
	<!-- White fill  -->
	<!ENTITY st2 "fill:#FFFFFF;stroke:#000000; stroke-width:1.41;stroke-linecap:round;stroke-linejoin:round;">
	<!-- Yellow fill  -->
	<!ENTITY st3 "fill:#FFFFCC;stroke:#FFFFCC; stroke-width:0.1;stroke-linecap:round;stroke-linejoin:round;">
	<!-- Gray fill  -->
	<!ENTITY st4 "fill:#CCCCCC;stroke:#CCCCCC; stroke-width:0.1;stroke-linecap:round;stroke-linejoin:round;">
	<!-- Light-blue fill -->
	<!ENTITY st5 "fill:#CCECF4;stroke:#000000; stroke-width:1.133;stroke-linecap:round;stroke-linejoin:round;">
	<!ENTITY st6 "fill:none;stroke-linecap:butt; stroke-linejoin:round;">
	<!ENTITY st7 "fill:none;stroke:#000000;stroke-linecap:round;stroke-linejoin:round;">
	<!ENTITY st8 "enable-background:new    ;">
	<!-- Black fill -->
	<!ENTITY st9 "fill:#000000;stroke:#000000; stroke-linecap:round;stroke-linejoin:round;">
	<!-- SRS note   -->
	<!ENTITY st10 "font-size:9px;font-family:'ArialMT';">
	<!ENTITY st11 "font-size:9px;font-family:'Svg Symbol';">
	<!ENTITY st12 "font-size:6px;font-family:'Svg Symbol';">
	<!ENTITY st13 "fill:none;stroke:#ff0000;stroke-linecap:round;stroke-linejoin:round;">
	<!-- Yellow fill  -->
	<!ENTITY st14 "fill:#FFFF00;stroke:#FFFF00; stroke-width:0.1;stroke-linecap:round;stroke-linejoin:round;">
	<!ENTITY st15 "font-size:6px;font-family:'MS-PGothic';adobe-font-script:japanese;">
	<!ENTITY st16 "1.00 0.00 0.00 1.00">
	<!ENTITY st17 "0.00 -1.00 1.00 0.00">
	<!ENTITY st18 "font-size:6px;font-family:'Arial';">
	<!ENTITY st19 "font-size:9px;font-family:'Arial';">
	<!ENTITY st20 "font-size:6px;font-family:'MS-PGothic','MS PGothic';adobe-font-script:japanese;">
	<!ENTITY st21 "font-size:7px;font-family:'MS-PGothic','MS PGothic';adobe-font-script:japanese;">
	<!ATTLIST svg
		xmlns:ewd CDATA #FIXED "http://shcl.co.jp/ewd"
		xmlns:a CDATA #FIXED "http://ns.adobe.com/AdobeSVGViewerExtensions/3.0/"
		ewd:ver CDATA #IMPLIED
	>
	<!ATTLIST a
		ewd:lineID CDATA #IMPLIED
		ewd:groupID CDATA #IMPLIED
		ewd:figtype CDATA #IMPLIED
		ewd:code CDATA #IMPLIED
		ewd:figID CDATA #IMPLIED
		ewd:pinNo CDATA #IMPLIED
		ewd:comment CDATA #IMPLIED >
	<!ATTLIST g
		ewd:lineID CDATA #IMPLIED
		ewd:groupID CDATA #IMPLIED
		ewd:figtype CDATA #IMPLIED
		ewd:code CDATA #IMPLIED
		ewd:figID CDATA #IMPLIED
		ewd:pinNo CDATA #IMPLIED
		ewd:comment CDATA #IMPLIED >
	<!ATTLIST text
		ewd:textID CDATA #IMPLIED >
	<!ATTLIST title
		ewd:textID CDATA #IMPLIED >
]>
<!-- Generator: Shintec Hozumi YS   -->
<svg onload="call_execInitLoadProc_svg('system')" style="overflow:visible;  enable-background:new 0 0 865.439 710.000" viewBox="0 0 865.439 710.000" height="710.000" width="865.439" xml:space="preserve" ewd:ver="2.1.2.9" xmlns="&ns_svg;" xmlns:a="http://ns.adobe.com/AdobeSVGViewerExtensions/3.0/" xmlns:ewd="http://shcl.co.jp/ewd" xmlns:xlink="&ns_xlink;">
<text style="&st18;" transform="matrix(&st17;  582.71  352.19 )">G</text><text style="&st18;" transform="matrix(&st17;  650.7  356.18 )">W-B</text><text style="&st18;" transform="matrix(&st17;  727.18  352.19 )">G</text><text style="&st18;" transform="matrix(&st17;  795.17  356.18 )">W-B</text><text style="&st18;" transform="matrix(&st17;  846.16  356.18 )">W-B</text><text style="&st18;" transform="matrix(&st17;  582.71  479.39 )">B</text><text style="&st18;" transform="matrix(&st17;  650.7  481.53 )">GR</text><text style="&st18;" transform="matrix(&st17;  727.18  479.67 )">G</text><text style="&st18;" transform="matrix(&st17;  795.17  481.53 )">GR</text><text style="&st18;" transform="matrix(&st17;  650.7  566.51 )">GR</text><path style="stroke-width: 1.42 ;&st7;  " d=" M   662.89,   312.71  L   657.92,   307.73  " /><path style="stroke-width: 1.42 ;&st7;  " d=" M   645.89,   319.76  L   650.86,   324.73  " /><path style="stroke-width: 1.42 ;&st7;  " d=" M   657.92,   324.73  L   662.89,   319.76  " /><path style="stroke-width: 1.42 ;&st7;  " d=" M   650.86,   307.73  L   645.89,   312.71  " /><path style="stroke-width: 1.42 ;&st7;  " d=" M   662.89,   525.17  L   657.92,   520.20  " /><path style="stroke-width: 1.42 ;&st7;  " d=" M   645.89,   532.23  L   650.86,   537.20  " /><path style="stroke-width: 1.42 ;&st7;  " d=" M   657.92,   537.20  L   662.89,   532.23  " /><path style="stroke-width: 1.42 ;&st7;  " d=" M   650.86,   520.20  L   645.89,   525.17  " /><text style="&st18;" transform="matrix(&st16;  583.0  653.9 )">ECM</text><text style="&st18;" transform="matrix(&st16;  582.99  647.07 )">C146(A)</text><text style="&st18;" transform="matrix(&st16;  541.45  261.54 )">G</text><text style="&st18;" transform="matrix(&st16;  541.45  278.54 )">G</text><text style="&st18;" transform="matrix(&st16;  537.46  312.54 )">W-B</text><text style="&st18;" transform="matrix(&st16;  537.46  329.53 )">W-B</text><text style="&st18;" transform="matrix(&st16;  539.59  508.0 )">GR</text><text style="&st18;" transform="matrix(&st16;  539.59  525.0 )">GR</text><g ewd:figtype="conn" ewd:figID="5" ewd:code="C102"><path style="stroke-width: 1.42 ;&st7;  " d=" M   569.40,   401.22  L   569.40,   443.71  L   671.39,   443.71  L   671.39,   401.22  L   569.40,   401.22  " /><g ewd:lineID="12"><text style="&st18;" transform="matrix(&st16;  580.22  451.9 )">3</text><text style="&st18;" transform="matrix(&st16;  579.56  440.01 )">IGT3</text></g><g ewd:lineID="13"><text style="&st18;" transform="matrix(&st16;  580.22  397.53 )">1</text><text style="&st18;" transform="matrix(&st16;  582.66  408.85 )">+B</text></g><g ewd:lineID="15"><text style="&st18;" transform="matrix(&st16;  648.21  451.9 )">2</text><text style="&st18;" transform="matrix(&st16;  649.18  440.01 )">IGF</text></g><g ewd:lineID="16"><text style="&st18;" transform="matrix(&st16;  648.21  397.53 )">4</text><text style="&st18;" transform="matrix(&st16;  647.74  408.85 )">GND</text></g><g ewd:figtype="title"><text style="&st18;" transform="matrix(&st17;  686.11  446.62 )" ewd:textID="4">Ignition Coil <tspan x="0 " dy="6.0">Assembly No. 3</tspan></text><text style="&st18;" transform="matrix(&st17;  679.28  446.61 )">C102</text></g></g><g ewd:figtype="conn" ewd:figID="6" ewd:code="C103"><path style="stroke-width: 1.42 ;&st7;  " d=" M   713.88,   401.22  L   713.88,   443.71  L   815.86,   443.71  L   815.86,   401.22  L   713.88,   401.22  " /><g ewd:lineID="17"><text style="&st18;" transform="matrix(&st16;  724.69  451.9 )">3</text><text style="&st18;" transform="matrix(&st16;  724.04  440.01 )">IGT4</text></g><g ewd:lineID="18"><text style="&st18;" transform="matrix(&st16;  724.69  397.53 )">1</text><text style="&st18;" transform="matrix(&st16;  727.14  408.85 )">+B</text></g><g ewd:lineID="19"><text style="&st18;" transform="matrix(&st16;  792.68  451.9 )">2</text><text style="&st18;" transform="matrix(&st16;  793.65  440.01 )">IGF</text></g><g ewd:lineID="20"><text style="&st18;" transform="matrix(&st16;  792.68  397.53 )">4</text><text style="&st18;" transform="matrix(&st16;  792.22  408.85 )">GND</text></g><g ewd:figtype="title"><text style="&st18;" transform="matrix(&st17;  830.58  446.62 )" ewd:textID="5">Ignition Coil <tspan x="0 " dy="6.0">Assembly No. 4</tspan></text><text style="&st18;" transform="matrix(&st17;  823.76  446.61 )">C103</text></g></g><g ewd:figtype="conn" ewd:figID="7" ewd:code="C146"><g ewd:lineID="12"><text style="&st18;" transform="matrix(&st16;  574.61  594.12 )">14</text><path style="stroke-width: 1.42 ;&st7;   " d=" M   590.93,   592.15  C   590.93    589.65    588.91    587.62    586.40    587.62  " /><path style="stroke-width: 1.42 ;&st7;   " d=" M   586.40,   587.62  C   583.90    587.62    581.87    589.65    581.87    592.15  " /><path style="stroke-width: 1.42 ;&st7;   " d=" M   581.87,   592.15  C   581.87    594.66    583.90    596.69    586.40    596.69  " /><path style="stroke-width: 1.42 ;&st7;   " d=" M   586.40,   596.69  C   588.91    596.69    590.93    594.66    590.93    592.15  " /><text style="&st18;" transform="matrix(&st16;  584.1  594.12 )">A</text><text style="&st18;" transform="matrix(&st16;  579.56  604.32 )">IGT3</text></g><g ewd:lineID="14"><text style="&st18;" transform="matrix(&st16;  642.59  594.12 )">12</text><path style="stroke-width: 1.42 ;&st7;   " d=" M   658.92,   592.15  C   658.92    589.65    656.89    587.62    654.39    587.62  " /><path style="stroke-width: 1.42 ;&st7;   " d=" M   654.39,   587.62  C   651.89    587.62    649.86    589.65    649.86    592.15  " /><path style="stroke-width: 1.42 ;&st7;   " d=" M   649.86,   592.15  C   649.86    594.66    651.89    596.69    654.39    596.69  " /><path style="stroke-width: 1.42 ;&st7;   " d=" M   654.39,   596.69  C   656.89    596.69    658.92    594.66    658.92    592.15  " /><text style="&st18;" transform="matrix(&st16;  652.09  594.12 )">A</text><text style="&st18;" transform="matrix(&st16;  647.63  604.32 )">IGF1</text></g><g ewd:lineID="17"><text style="&st18;" transform="matrix(&st16;  719.08  594.12 )">13</text><path style="stroke-width: 1.42 ;&st7;   " d=" M   735.41,   592.15  C   735.41    589.65    733.38    587.62    730.88    587.62  " /><path style="stroke-width: 1.42 ;&st7;   " d=" M   730.88,   587.62  C   728.37    587.62    726.35    589.65    726.35    592.15  " /><path style="stroke-width: 1.42 ;&st7;   " d=" M   726.35,   592.15  C   726.35    594.66    728.37    596.69    730.88    596.69  " /><path style="stroke-width: 1.42 ;&st7;   " d=" M   730.88,   596.69  C   733.38    596.69    735.41    594.66    735.41    592.15  " /><text style="&st18;" transform="matrix(&st16;  728.57  594.12 )">A</text><text style="&st18;" transform="matrix(&st16;  724.04  604.32 )">IGT4</text></g></g><g ewd:figtype="gp" ewd:figID="11" ewd:code="CH"><path style="stroke-width: 0.85 ;&st7;  " d=" M   849.86,   697.25  L   849.86,   701.50  " /><path style="stroke-width: 0.85 ;&st7;  " d=" M   841.36,   701.50  L   858.36,   701.50  " /><path style="stroke-width: 0.85 ;&st7;  " d=" M   845.61,   704.33  L   854.11,   704.33  " /><path style="stroke-width: 0.85 ;&st7;  " d=" M   847.02,   707.17  L   852.69,   707.17  " /><path style="stroke-width: 0.85 ;&st7;  " d=" M   848.44,   710.00  L   851.27,   710.00  " /></g></svg>