﻿<?xml version="1.0" encoding="utf-8"?>
<!DOCTYPE svg PUBLIC "-//W3C//DTD SVG 1.0//EN" "http://www.w3.org/TR/2001/REC-SVG-20010904/DTD/svg10.dtd"[
	<!ENTITY ns_flows "http://ns.adobe.com/Flows/1.0/">
	<!ENTITY ns_svg "http://www.w3.org/2000/svg">
	<!ENTITY ns_xlink "http://www.w3.org/1999/xlink">
	<!ENTITY st0 "font-size:7px;font-family:'MS-PGothic';adobe-font-script:japanese;">
	<!ENTITY st1 "font-size:6px;font-family:'ArialMT';">
	<!-- White fill  -->
	<!ENTITY st2 "fill:#FFFFFF;stroke:#000000; stroke-width:1.41;stroke-linecap:round;stroke-linejoin:round;">
	<!-- Yellow fill  -->
	<!ENTITY st3 "fill:#FFFFCC;stroke:#FFFFCC; stroke-width:0.1;stroke-linecap:round;stroke-linejoin:round;">
	<!-- Gray fill  -->
	<!ENTITY st4 "fill:#CCCCCC;stroke:#CCCCCC; stroke-width:0.1;stroke-linecap:round;stroke-linejoin:round;">
	<!-- Light-blue fill -->
	<!ENTITY st5 "fill:#CCECF4;stroke:#000000; stroke-width:1.133;stroke-linecap:round;stroke-linejoin:round;">
	<!ENTITY st6 "fill:none;stroke-linecap:butt; stroke-linejoin:round;">
	<!ENTITY st7 "fill:none;stroke:#000000;stroke-linecap:round;stroke-linejoin:round;">
	<!ENTITY st8 "enable-background:new    ;">
	<!-- Black fill -->
	<!ENTITY st9 "fill:#000000;stroke:#000000; stroke-linecap:round;stroke-linejoin:round;">
	<!-- SRS note   -->
	<!ENTITY st10 "font-size:9px;font-family:'ArialMT';">
	<!ENTITY st11 "font-size:9px;font-family:'Svg Symbol';">
	<!ENTITY st12 "font-size:6px;font-family:'Svg Symbol';">
	<!ENTITY st13 "fill:none;stroke:#ff0000;stroke-linecap:round;stroke-linejoin:round;">
	<!-- Yellow fill  -->
	<!ENTITY st14 "fill:#FFFF00;stroke:#FFFF00; stroke-width:0.1;stroke-linecap:round;stroke-linejoin:round;">
	<!ENTITY st15 "font-size:6px;font-family:'MS-PGothic';adobe-font-script:japanese;">
	<!ENTITY st16 "1.00 0.00 0.00 1.00">
	<!ENTITY st17 "0.00 -1.00 1.00 0.00">
	<!ENTITY st18 "font-size:6px;font-family:'Arial';">
	<!ENTITY st19 "font-size:9px;font-family:'Arial';">
	<!ENTITY st20 "font-size:6px;font-family:'MS-PGothic','MS PGothic';adobe-font-script:japanese;">
	<!ENTITY st21 "font-size:7px;font-family:'MS-PGothic','MS PGothic';adobe-font-script:japanese;">
	<!ATTLIST svg
		xmlns:ewd CDATA #FIXED "http://shcl.co.jp/ewd"
		xmlns:a CDATA #FIXED "http://ns.adobe.com/AdobeSVGViewerExtensions/3.0/"
		ewd:ver CDATA #IMPLIED
	>
	<!ATTLIST a
		ewd:lineID CDATA #IMPLIED
		ewd:groupID CDATA #IMPLIED
		ewd:figtype CDATA #IMPLIED
		ewd:code CDATA #IMPLIED
		ewd:figID CDATA #IMPLIED
		ewd:pinNo CDATA #IMPLIED
		ewd:comment CDATA #IMPLIED >
	<!ATTLIST g
		ewd:lineID CDATA #IMPLIED
		ewd:groupID CDATA #IMPLIED
		ewd:figtype CDATA #IMPLIED
		ewd:code CDATA #IMPLIED
		ewd:figID CDATA #IMPLIED
		ewd:pinNo CDATA #IMPLIED
		ewd:comment CDATA #IMPLIED >
	<!ATTLIST text
		ewd:textID CDATA #IMPLIED >
	<!ATTLIST title
		ewd:textID CDATA #IMPLIED >
]>
<!-- Generator: Shintec Hozumi YS   -->
<svg onload="call_execInitLoadProc_svg('system')" style="overflow:visible;  enable-background:new 0 0 2561.445 710.000" viewBox="0 0 2561.445 710.000" height="710.000" width="2561.445" xml:space="preserve" ewd:ver="2.1.2.9" xmlns="&ns_svg;" xmlns:a="http://ns.adobe.com/AdobeSVGViewerExtensions/3.0/" xmlns:ewd="http://shcl.co.jp/ewd" xmlns:xlink="&ns_xlink;">
<path style="stroke-width: 1.42 ;&st7;  " d=" M    33.99,   358.73  L    25.50,   358.73  " /><path style="stroke-width: 1.42 ;&st7;  " d=" M   152.97,   239.75  L   161.47,   239.75  " /><path style="stroke-width: 1.42 ;&st7;  " d=" M   271.95,   171.76  L   263.46,   171.76  " /><path style="stroke-width: 1.42 ;&st7;  " d=" M   331.44,   171.76  L   322.95,   171.76  " /><path style="stroke-width: 1.42 ;&st7;  " d=" M   373.94,   171.76  L   365.44,   171.76  " /><path style="stroke-width: 1.42 ;&st7;  " d=" M   441.93,   171.76  L   433.43,   171.76  " /><path style="stroke-width: 1.42 ;&st7;  " d=" M   356.94,   239.75  L   365.44,   239.75  " /><path style="stroke-width: 1.42 ;&st7;  " d=" M   424.93,   239.75  L   433.43,   239.75  " /><path style="stroke-width: 1.42 ;&st7;  " d=" M   314.45,   239.75  L   322.95,   239.75  " /><text style="&st18;" transform="matrix(&st17;  217.27  131.22 )">G</text><text style="&st18;" transform="matrix(&st17;  157.78  207.71 )">G</text><text style="&st18;" transform="matrix(&st17;  157.78  284.2 )">G</text><text style="&st18;" transform="matrix(&st17;  157.78  131.07 )">V</text><text style="&st18;" transform="matrix(&st17;  58.63  217.64 )">(RHD *1)</text><text style="&st18;" transform="matrix(&st17;  47.3  208.22 )">W</text><text style="&st18;" transform="matrix(&st17;  259.76  131.07 )">V</text><text style="&st18;" transform="matrix(&st17;  319.25  403.68 )">W</text><text style="&st18;" transform="matrix(&st17;  319.25  276.2 )">W</text><text style="&st18;" transform="matrix(&st17;  259.76  207.56 )">V</text><text style="&st18;" transform="matrix(&st17;  319.25  131.73 )">W</text><text style="&st18;" transform="matrix(&st17;  319.25  208.22 )">W</text><text style="&st18;" transform="matrix(&st17;  361.74  131.22 )">G</text><text style="&st18;" transform="matrix(&st17;  429.73  130.88 )">R</text><text style="&st18;" transform="matrix(&st17;  361.74  275.7 )">G</text><text style="&st18;" transform="matrix(&st17;  429.73  275.35 )">R</text><text style="&st18;" transform="matrix(&st17;  361.74  449.67 )">W-B</text><text style="&st18;" transform="matrix(&st17;  429.73  449.67 )">W-B</text><text style="&st18;" transform="matrix(&st17;  361.74  619.64 )">W-B</text><text style="&st18;" transform="matrix(&st17;  361.74  207.71 )">G</text><text style="&st18;" transform="matrix(&st17;  429.73  207.36 )">R</text><text style="&st18;" transform="matrix(&st17;  21.8  209.57 )">GR</text><text style="&st18;" transform="matrix(&st17;  373.08  451.57 )">(RHD)</text><path style="stroke-width: 1.42 ;&st7;  " d=" M   254.96,   239.75  L   263.46,   239.75  " /><path style="stroke-width: 1.42 ;&st7;  " d=" M   169.97,   171.76  L   161.47,   171.76  " /><text style="&st18;" transform="matrix(&st17;  441.06  451.57 )">(RHD)</text><text style="&st18;" transform="matrix(&st17;  373.08  621.54 )">(RHD)</text><text style="&st18;" transform="matrix(&st17;  463.73  619.64 )">W-B</text><text style="&st18;" transform="matrix(&st17;  475.06  621.5 )">(LHD)</text><text style="&st18;" transform="matrix(&st17;  489.22  619.64 )">W-B</text><text style="&st18;" transform="matrix(&st17;  33.13  210.46 )">(*2)</text><text style="&st18;" transform="matrix(&st17;  89.79  207.56 )">V</text><g ewd:code="G84,G174" ewd:figID="3" ewd:comment="3,4" ewd:figtype="conn"><path style="stroke-width: 0.85 ;&st7;  " d=" M   433.43,   320.48  L   433.43,   307.73  " /><path style="stroke-width: 0.85 ;&st7;  " d=" M   433.43,   358.73  L   433.43,   345.98  " /><path style="stroke-width: 1.42 ;&st7;  " d=" M   433.43,   343.14  L   439.09,   320.48  " /><path style="stroke-width: 0.85 ;&st7;   " d=" M   434.84,   344.56  C   434.84    343.78    434.21    343.14    433.43    343.14  " /><path style="stroke-width: 0.85 ;&st7;   " d=" M   433.43,   343.14  C   432.65    343.14    432.01    343.78    432.01    344.56  " /><path style="stroke-width: 0.85 ;&st7;   " d=" M   432.01,   344.56  C   432.01    345.34    432.65    345.98    433.43    345.98  " /><path style="stroke-width: 0.85 ;&st7;   " d=" M   433.43,   345.98  C   434.21    345.98    434.84    345.34    434.84    344.56  " /><path style="stroke-width: 0.85 ;&st7;   " d=" M   434.84,   321.90  C   434.84    321.12    434.21    320.48    433.43    320.48  " /><path style="stroke-width: 0.85 ;&st7;   " d=" M   433.43,   320.48  C   432.65    320.48    432.01    321.12    432.01    321.90  " /><path style="stroke-width: 0.85 ;&st7;   " d=" M   432.01,   321.90  C   432.01    322.68    432.65    323.31    433.43    323.31  " /><path style="stroke-width: 0.85 ;&st7;   " d=" M   433.43,   323.31  C   434.21    323.31    434.84    322.68    434.84    321.90  " /><path style="stroke-width: 1.42 ;&st7;  " d=" M   458.92,   358.73  L   458.92,   307.73  L   424.93,   307.73  L   424.93,   358.73  L   458.92,   358.73  " /><text style="&st18;" transform="matrix(&st16;  436.01  315.93 )">CSW</text><text style="&st18;" transform="matrix(&st16;  436.01  355.03 )">E</text><text style="&st18;" transform="matrix(&st16;  424.73  365.23 )">1</text><text style="&st18;" transform="matrix(&st16;  424.73  374.29 )">1</text><path style="stroke-width: 1.42 ;&st7;   " d=" M   437.96,   363.26  C   437.96    360.75    435.93    358.73    433.43    358.73  " /><path style="stroke-width: 1.42 ;&st7;   " d=" M   433.43,   358.73  C   430.92    358.73    428.90    360.75    428.90    363.26  " /><path style="stroke-width: 1.42 ;&st7;   " d=" M   428.90,   363.26  C   428.90    365.76    430.92    367.79    433.43    367.79  " /><path style="stroke-width: 1.42 ;&st7;   " d=" M   433.43,   367.79  C   435.93    367.79    437.96    365.76    437.96    363.26  " /><path style="stroke-width: 1.42 ;&st7;   " d=" M   437.96,   372.32  C   437.96    369.82    435.93    367.79    433.43    367.79  " /><path style="stroke-width: 1.42 ;&st7;   " d=" M   433.43,   367.79  C   430.92    367.79    428.90    369.82    428.90    372.32  " /><path style="stroke-width: 1.42 ;&st7;   " d=" M   428.90,   372.32  C   428.90    374.83    430.92    376.86    433.43    376.86  " /><path style="stroke-width: 1.42 ;&st7;   " d=" M   433.43,   376.86  C   435.93    376.86    437.96    374.83    437.96    372.32  " /><text style="&st18;" transform="matrix(&st16;  431.12  365.23 )">A</text><text style="&st18;" transform="matrix(&st16;  431.24  374.29 )">B</text><text style="&st18;" transform="matrix(&st16;  424.73  296.11 )">4</text><text style="&st18;" transform="matrix(&st16;  424.73  305.17 )">4</text><path style="stroke-width: 1.42 ;&st7;   " d=" M   437.96,   294.14  C   437.96    291.63    435.93    289.60    433.43    289.60  " /><path style="stroke-width: 1.42 ;&st7;   " d=" M   433.43,   289.60  C   430.92    289.60    428.90    291.63    428.90    294.14  " /><path style="stroke-width: 1.42 ;&st7;   " d=" M   428.90,   294.14  C   428.90    296.64    430.92    298.67    433.43    298.67  " /><path style="stroke-width: 1.42 ;&st7;   " d=" M   433.43,   298.67  C   435.93    298.67    437.96    296.64    437.96    294.14  " /><path style="stroke-width: 1.42 ;&st7;   " d=" M   437.96,   303.20  C   437.96    300.70    435.93    298.67    433.43    298.67  " /><path style="stroke-width: 1.42 ;&st7;   " d=" M   433.43,   298.67  C   430.92    298.67    428.90    300.70    428.90    303.20  " /><path style="stroke-width: 1.42 ;&st7;   " d=" M   428.90,   303.20  C   428.90    305.70    430.92    307.73    433.43    307.73  " /><path style="stroke-width: 1.42 ;&st7;   " d=" M   433.43,   307.73  C   435.93    307.73    437.96    305.70    437.96    303.20  " /><text style="&st18;" transform="matrix(&st16;  431.24  305.17 )">B</text><text style="&st18;" transform="matrix(&st16;  431.12  296.11 )">A</text><g ewd:figtype="title"><text style="&st18;" transform="matrix(&st17;  466.53  361.62 )">G84(A),G174(B)</text><text style="&st18;" transform="matrix(&st17;  473.64  361.63 )" ewd:textID="11">Door Control Switch Assembly</text></g><g ewd:code="" ewd:figID="97" ewd:comment="4" ewd:figtype="commref"><text style="&st18;" transform="matrix(&st16;  438.52  305.17 )">(*4)</text></g><g ewd:code="" ewd:figID="98" ewd:comment="3" ewd:figtype="commref"><text style="&st18;" transform="matrix(&st16;  438.52  296.11 )">(*3)</text></g><g ewd:code="" ewd:figID="99" ewd:comment="3" ewd:figtype="commref"><text style="&st18;" transform="matrix(&st16;  438.52  365.23 )">(*3)</text></g><g ewd:code="" ewd:figID="100" ewd:comment="4" ewd:figtype="commref"><text style="&st18;" transform="matrix(&st16;  438.52  374.29 )">(*4)</text></g></g><g ewd:figtype="conn" ewd:figID="13" ewd:code="G119"><path style="stroke-width: 1.42 ;&st7;  " d=" M   356.94,   503.20  L   373.94,   503.20  L   373.94,   520.20  L   356.94,   520.20  L   356.94,   503.20  " /><path style="stroke-width: 0.85 ;&st7;  " d=" M   365.44,   503.20  L   365.44,   520.20  " /><path style="stroke-width: 0.85 ;&st7;  " d=" M   373.94,   511.70  L   365.44,   511.70  " /><path style="stroke-width: 0.85 ;&st7;  " d=" M   364.25,   510.70  L   363.97,   511.17  L   363.88,   511.70  L   363.97,   512.23  L   364.25,   512.70  L   364.66,   513.05  L   365.17,   513.24  L   365.71,   513.24  L   366.22,   513.05  L   366.63,   512.70  L   366.90,   512.23  L   367.00,   511.70  L   366.90,   511.17  L   366.63,   510.70  L   366.22,   510.35  L   365.71,   510.16  L   365.17,   510.16  L   364.66,   510.35  L   364.25,   510.70  L   364.64,   511.41  L   364.64,   511.99  L   365.01,   512.44  L   365.59,   512.54  L   366.09,   512.25  L   366.29,   511.70  L   366.09,   511.15  L   365.59,   510.86  L   365.01,   510.96  L   365.44,   511.70  " /><text style="&st18;" transform="matrix(&st16;  356.15  528.39 )">16</text><text style="&st18;" transform="matrix(&st16;  356.15  499.51 )">19</text><text style="&st18;" transform="matrix(&st16;  376.52  508.01 )">18</text><g ewd:figtype="title"><text style="&st18;" transform="matrix(&st17;  340.47  523.1 )">G119</text><text style="&st18;" transform="matrix(&st17;  347.3  523.1 )" ewd:textID="20">No. 18 Junction <tspan x="0 " dy="6.0">Connector</tspan></text></g></g><g ewd:figtype="rb" ewd:figID="16" ewd:code="FUSE31"><path style="stroke-width: 1.42 ;&st7;  " d=" M   163.60,   103.77  L   159.35,   103.77  " /><path style="stroke-width: 1.42 ;&st7;  " d=" M   163.60,    95.27  L   159.35,    95.27  " /><path style="stroke-width: 1.42 ;&st7;   " d=" M   167.85,    99.52  C   167.85     97.17    165.94     95.27    163.60     95.27  " /><path style="stroke-width: 1.42 ;&st7;   " d=" M   163.60,   103.77  C   165.94    103.77    167.85    101.87    167.85     99.52  " /><path style="stroke-width: 1.42 ;&st7;   " d=" M   155.10,    99.52  C   155.10    101.87    157.00    103.77    159.35    103.77  " /><path style="stroke-width: 1.42 ;&st7;   " d=" M   159.35,    95.27  C   157.00     95.27    155.10     97.17    155.10     99.52  " /><path style="stroke-width: 0.28 ;&st9;  " d=" M   161.47,    90.37  L   158.64,    87.54  L   158.64,    91.79  L   161.47,    94.62  L   164.31,    91.79  L   164.31,    87.54  L   161.47,    90.37  " /><text style="&st18;" transform="matrix(&st16;  153.43  32.08 )">(BAT)</text><text style="&st18;" transform="matrix(&st16;  155.29  86.47 )">2</text><text style="&st18;" transform="matrix(&st16;  159.67  101.49 )">1</text><text style="&st18;" transform="matrix(&st16;  177.9  56.17 )">30A <tspan x="0 " dy="6.0">PBD</tspan></text><path style="stroke-width: 0.85 ;&st7;  " d=" M   161.47,    78.27  L   161.47,    95.27  " /><path style="stroke-width: 0.85 ;&st7;  " d=" M   161.47,    69.77  L   161.47,    78.27  " /><path style="stroke-width: 0.85 ;&st7;   " d=" M   162.89,    68.36  C   162.89     67.57    162.26     66.94    161.47     66.94  " /><path style="stroke-width: 0.85 ;&st7;   " d=" M   161.47,    66.94  C   160.69     66.94    160.06     67.57    160.06     68.36  " /><path style="stroke-width: 0.85 ;&st7;   " d=" M   160.06,    68.36  C   160.06     69.14    160.69     69.77    161.47     69.77  " /><path style="stroke-width: 0.85 ;&st7;   " d=" M   161.47,    69.77  C   162.26     69.77    162.89     69.14    162.89     68.36  " /><path style="stroke-width: 0.85 ;&st7;   " d=" M   162.89,    45.69  C   162.89     44.91    162.26     44.28    161.47     44.28  " /><path style="stroke-width: 0.85 ;&st7;   " d=" M   161.47,    44.28  C   160.69     44.28    160.06     44.91    160.06     45.69  " /><path style="stroke-width: 0.85 ;&st7;   " d=" M   160.06,    45.69  C   160.06     46.48    160.69     47.11    161.47     47.11  " /><path style="stroke-width: 0.85 ;&st7;   " d=" M   161.47,    47.11  C   162.26     47.11    162.89     46.48    162.89     45.69  " /><path style="stroke-width: 1.42 ;&st7;   " d=" M   161.47,    66.94  C   164.21     65.33    165.12     61.80    163.51     59.06  " /><path style="stroke-width: 1.42 ;&st7;   " d=" M   163.51,    59.06  C   162.99     58.18    162.35     57.55    161.47     57.03  " /><path style="stroke-width: 1.42 ;&st7;   " d=" M   161.47,    47.11  C   158.74     48.72    157.82     52.25    159.44     54.99  " /><path style="stroke-width: 1.42 ;&st7;   " d=" M   159.44,    54.99  C   159.96     55.87    160.59     56.51    161.47     57.03  " /><path style="stroke-width: 1.42 ;&st7;  " d=" M   148.73,    35.78  L   148.73,    78.27  L   174.22,    78.27  L   174.22,    35.78  L   148.73,    35.78  " /></g><g ewd:figtype="rb" ewd:figID="17" ewd:code="FUSE79"><path style="stroke-width: 1.42 ;&st7;  " d=" M    95.61,   103.77  L    91.36,   103.77  " /><path style="stroke-width: 1.42 ;&st7;  " d=" M    95.61,    95.27  L    91.36,    95.27  " /><path style="stroke-width: 1.42 ;&st7;   " d=" M    99.86,    99.52  C    99.86     97.17     97.96     95.27     95.61     95.27  " /><path style="stroke-width: 1.42 ;&st7;   " d=" M    95.61,   103.77  C    97.96    103.77     99.86    101.87     99.86     99.52  " /><path style="stroke-width: 1.42 ;&st7;   " d=" M    87.11,    99.52  C    87.11    101.87     89.01    103.77     91.36    103.77  " /><path style="stroke-width: 1.42 ;&st7;   " d=" M    91.36,    95.27  C    89.01     95.27     87.11     97.17     87.11     99.52  " /><path style="stroke-width: 0.28 ;&st9;  " d=" M    93.48,    90.37  L    90.65,    87.54  L    90.65,    91.79  L    93.48,    94.62  L    96.32,    91.79  L    96.32,    87.54  L    93.48,    90.37  " /><text style="&st18;" transform="matrix(&st16;  88.27  32.08 )">(IG)</text><text style="&st18;" transform="matrix(&st16;  87.3  86.47 )">2</text><text style="&st18;" transform="matrix(&st16;  91.68  101.49 )">4</text><text style="&st18;" transform="matrix(&st16;  109.91  53.34 )">10A <tspan x="0 " dy="6.0">IG1 </tspan><tspan x="0 " dy="6.0">NO.5</tspan></text><path style="stroke-width: 0.85 ;&st7;  " d=" M    93.48,    78.27  L    93.48,    95.27  " /><path style="stroke-width: 0.85 ;&st7;  " d=" M    93.48,    69.77  L    93.48,    78.27  " /><path style="stroke-width: 0.85 ;&st7;   " d=" M    94.90,    68.36  C    94.90     67.57     94.27     66.94     93.48     66.94  " /><path style="stroke-width: 0.85 ;&st7;   " d=" M    93.48,    66.94  C    92.70     66.94     92.07     67.57     92.07     68.36  " /><path style="stroke-width: 0.85 ;&st7;   " d=" M    92.07,    68.36  C    92.07     69.14     92.70     69.77     93.48     69.77  " /><path style="stroke-width: 0.85 ;&st7;   " d=" M    93.48,    69.77  C    94.27     69.77     94.90     69.14     94.90     68.36  " /><path style="stroke-width: 0.85 ;&st7;   " d=" M    94.90,    45.69  C    94.90     44.91     94.27     44.28     93.48     44.28  " /><path style="stroke-width: 0.85 ;&st7;   " d=" M    93.48,    44.28  C    92.70     44.28     92.07     44.91     92.07     45.69  " /><path style="stroke-width: 0.85 ;&st7;   " d=" M    92.07,    45.69  C    92.07     46.48     92.70     47.11     93.48     47.11  " /><path style="stroke-width: 0.85 ;&st7;   " d=" M    93.48,    47.11  C    94.27     47.11     94.90     46.48     94.90     45.69  " /><path style="stroke-width: 1.42 ;&st7;   " d=" M    93.48,    66.94  C    96.22     65.33     97.13     61.80     95.52     59.06  " /><path style="stroke-width: 1.42 ;&st7;   " d=" M    95.52,    59.06  C    95.00     58.18     94.37     57.55     93.48     57.03  " /><path style="stroke-width: 1.42 ;&st7;   " d=" M    93.48,    47.11  C    90.75     48.72     89.83     52.25     91.45     54.99  " /><path style="stroke-width: 1.42 ;&st7;   " d=" M    91.45,    54.99  C    91.97     55.87     92.60     56.51     93.48     57.03  " /><path style="stroke-width: 1.42 ;&st7;  " d=" M    80.74,    35.78  L    80.74,    78.27  L   106.23,    78.27  L   106.23,    35.78  L    80.74,    35.78  " /></g><g ewd:figtype="rb" ewd:figID="19" ewd:code="FUSE10"><path style="stroke-width: 1.42 ;&st7;  " d=" M    27.62,   103.77  L    23.37,   103.77  " /><path style="stroke-width: 1.42 ;&st7;  " d=" M    27.62,    95.27  L    23.37,    95.27  " /><path style="stroke-width: 1.42 ;&st7;   " d=" M    31.87,    99.52  C    31.87     97.17     29.97     95.27     27.62     95.27  " /><path style="stroke-width: 1.42 ;&st7;   " d=" M    27.62,   103.77  C    29.97    103.77     31.87    101.87     31.87     99.52  " /><path style="stroke-width: 1.42 ;&st7;   " d=" M    19.12,    99.52  C    19.12    101.87     21.02    103.77     23.37    103.77  " /><path style="stroke-width: 1.42 ;&st7;   " d=" M    23.37,    95.27  C    21.02     95.27     19.12     97.17     19.12     99.52  " /><path style="stroke-width: 0.28 ;&st9;  " d=" M    25.50,    90.37  L    22.66,    87.54  L    22.66,    91.79  L    25.50,    94.62  L    28.33,    91.79  L    28.33,    87.54  L    25.50,    90.37  " /><text style="&st18;" transform="matrix(&st16;  17.45  32.08 )">(BAT)</text><text style="&st18;" transform="matrix(&st16;  19.31  86.47 )">2</text><text style="&st18;" transform="matrix(&st16;  23.7  101.49 )">1</text><text style="&st18;" transform="matrix(&st16;  41.92  53.34 )">10A <tspan x="0 " dy="6.0">ECU-B </tspan><tspan x="0 " dy="6.0">NO.1</tspan></text><path style="stroke-width: 0.85 ;&st7;  " d=" M    25.50,    78.27  L    25.50,    95.27  " /><path style="stroke-width: 0.85 ;&st7;  " d=" M    25.50,    69.77  L    25.50,    78.27  " /><path style="stroke-width: 0.85 ;&st7;   " d=" M    26.91,    68.36  C    26.91     67.57     26.28     66.94     25.50     66.94  " /><path style="stroke-width: 0.85 ;&st7;   " d=" M    25.50,    66.94  C    24.71     66.94     24.08     67.57     24.08     68.36  " /><path style="stroke-width: 0.85 ;&st7;   " d=" M    24.08,    68.36  C    24.08     69.14     24.71     69.77     25.50     69.77  " /><path style="stroke-width: 0.85 ;&st7;   " d=" M    25.50,    69.77  C    26.28     69.77     26.91     69.14     26.91     68.36  " /><path style="stroke-width: 0.85 ;&st7;   " d=" M    26.91,    45.69  C    26.91     44.91     26.28     44.28     25.50     44.28  " /><path style="stroke-width: 0.85 ;&st7;   " d=" M    25.50,    44.28  C    24.71     44.28     24.08     44.91     24.08     45.69  " /><path style="stroke-width: 0.85 ;&st7;   " d=" M    24.08,    45.69  C    24.08     46.48     24.71     47.11     25.50     47.11  " /><path style="stroke-width: 0.85 ;&st7;   " d=" M    25.50,    47.11  C    26.28     47.11     26.91     46.48     26.91     45.69  " /><path style="stroke-width: 1.42 ;&st7;   " d=" M    25.50,    66.94  C    28.23     65.33     29.15     61.80     27.53     59.06  " /><path style="stroke-width: 1.42 ;&st7;   " d=" M    27.53,    59.06  C    27.01     58.18     26.38     57.55     25.50     57.03  " /><path style="stroke-width: 1.42 ;&st7;   " d=" M    25.50,    47.11  C    22.76     48.72     21.85     52.25     23.46     54.99  " /><path style="stroke-width: 1.42 ;&st7;   " d=" M    23.46,    54.99  C    23.98     55.87     24.61     56.51     25.50     57.03  " /><path style="stroke-width: 1.42 ;&st7;  " d=" M    12.75,    35.78  L    12.75,    78.27  L    38.24,    78.27  L    38.24,    35.78  L    12.75,    35.78  " /></g><g ewd:figtype="conn" ewd:figID="27" ewd:code="G111,G166"><path style="stroke-width: 1.42 ;&st7;  " d=" M   314.45,   341.73  L   331.44,   341.73  L   331.44,   358.73  L   314.45,   358.73  L   314.45,   341.73  " /><path style="stroke-width: 0.85 ;&st7;  " d=" M   322.95,   341.73  L   322.95,   358.73  " /><text style="&st18;" transform="matrix(&st16;  311.15  374.29 )">17</text><text style="&st18;" transform="matrix(&st16;  314.25  365.23 )">8</text><path style="stroke-width: 1.42 ;&st7;   " d=" M   327.48,   372.32  C   327.48    369.82    325.45    367.79    322.95    367.79  " /><path style="stroke-width: 1.42 ;&st7;   " d=" M   322.95,   367.79  C   320.44    367.79    318.41    369.82    318.41    372.32  " /><path style="stroke-width: 1.42 ;&st7;   " d=" M   318.41,   372.32  C   318.41    374.83    320.44    376.86    322.95    376.86  " /><path style="stroke-width: 1.42 ;&st7;   " d=" M   322.95,   376.86  C   325.45    376.86    327.48    374.83    327.48    372.32  " /><path style="stroke-width: 1.42 ;&st7;   " d=" M   327.48,   363.26  C   327.48    360.75    325.45    358.73    322.95    358.73  " /><path style="stroke-width: 1.42 ;&st7;   " d=" M   322.95,   358.73  C   320.44    358.73    318.41    360.75    318.41    363.26  " /><path style="stroke-width: 1.42 ;&st7;   " d=" M   318.41,   363.26  C   318.41    365.76    320.44    367.79    322.95    367.79  " /><path style="stroke-width: 1.42 ;&st7;   " d=" M   322.95,   367.79  C   325.45    367.79    327.48    365.76    327.48    363.26  " /><text style="&st18;" transform="matrix(&st16;  320.64  374.29 )">A</text><text style="&st18;" transform="matrix(&st16;  320.76  365.23 )">B</text><text style="&st18;" transform="matrix(&st16;  311.15  339.16 )">16</text><text style="&st18;" transform="matrix(&st16;  311.15  330.1 )">11</text><path style="stroke-width: 1.42 ;&st7;   " d=" M   327.48,   337.20  C   327.48    334.69    325.45    332.66    322.95    332.66  " /><path style="stroke-width: 1.42 ;&st7;   " d=" M   322.95,   332.66  C   320.44    332.66    318.41    334.69    318.41    337.20  " /><path style="stroke-width: 1.42 ;&st7;   " d=" M   318.41,   337.20  C   318.41    339.70    320.44    341.73    322.95    341.73  " /><path style="stroke-width: 1.42 ;&st7;   " d=" M   322.95,   341.73  C   325.45    341.73    327.48    339.70    327.48    337.20  " /><path style="stroke-width: 1.42 ;&st7;   " d=" M   327.48,   328.13  C   327.48    325.63    325.45    323.60    322.95    323.60  " /><path style="stroke-width: 1.42 ;&st7;   " d=" M   322.95,   323.60  C   320.44    323.60    318.41    325.63    318.41    328.13  " /><path style="stroke-width: 1.42 ;&st7;   " d=" M   318.41,   328.13  C   318.41    330.63    320.44    332.66    322.95    332.66  " /><path style="stroke-width: 1.42 ;&st7;   " d=" M   322.95,   332.66  C   325.45    332.66    327.48    330.63    327.48    328.13  " /><text style="&st18;" transform="matrix(&st16;  320.64  339.16 )">A</text><text style="&st18;" transform="matrix(&st16;  320.76  330.1 )">B</text><g ewd:figtype="title"><text style="&st18;" transform="matrix(&st17;  293.75  361.63 )" ewd:textID="17">No. 10 Junction Connector</text><text style="&st18;" transform="matrix(&st17;  286.93  361.62 )">G111(A)</text><text style="&st18;" transform="matrix(&st17;  301.09  361.62 )">G166(B)</text><text style="&st18;" transform="matrix(&st17;  307.92  361.63 )" ewd:textID="23">No. 40 Junction Connector</text></g><g ewd:code="" ewd:figID="89" ewd:comment="" ewd:figtype="commref"><text style="&st18;" transform="matrix(&st16;  328.04  339.16 )">(RHD)</text></g><g ewd:code="" ewd:figID="90" ewd:comment="" ewd:figtype="commref"><text style="&st18;" transform="matrix(&st16;  328.04  330.1 )">(LHD)</text></g><g ewd:code="" ewd:figID="91" ewd:comment="" ewd:figtype="commref"><text style="&st18;" transform="matrix(&st16;  328.04  374.29 )">(RHD)</text></g><g ewd:code="" ewd:figID="92" ewd:comment="" ewd:figtype="commref"><text style="&st18;" transform="matrix(&st16;  328.04  365.23 )">(LHD)</text></g></g><g ewd:figtype="conn" ewd:figID="29" ewd:code="V12,V13"><path style="stroke-width: 1.42 ;&st7;  " d=" M   203.97,    35.78  L   203.97,    86.77  L  2558.07,    86.77  L  2558.07,    35.78  L   203.97,    35.78  " /><g ewd:lineID="12"><text style="&st18;" transform="matrix(&st16;  314.25  93.27 )">1</text><path style="stroke-width: 1.42 ;&st7;   " d=" M   327.48,    91.30  C   327.48     88.80    325.45     86.77    322.95     86.77  " /><path style="stroke-width: 1.42 ;&st7;   " d=" M   322.95,    86.77  C   320.44     86.77    318.41     88.80    318.41     91.30  " /><path style="stroke-width: 1.42 ;&st7;   " d=" M   318.41,    91.30  C   318.41     93.81    320.44     95.84    322.95     95.84  " /><path style="stroke-width: 1.42 ;&st7;   " d=" M   322.95,    95.84  C   325.45     95.84    327.48     93.81    327.48     91.30  " /><text style="&st18;" transform="matrix(&st16;  320.64  93.27 )">A</text><text style="&st18;" transform="matrix(&st16;  314.59  83.07 )">ECUB</text></g><g ewd:lineID="17"><text style="&st18;" transform="matrix(&st16;  353.64  93.27 )">19</text><path style="stroke-width: 1.42 ;&st7;   " d=" M   369.97,    91.30  C   369.97     88.80    367.94     86.77    365.44     86.77  " /><path style="stroke-width: 1.42 ;&st7;   " d=" M   365.44,    86.77  C   362.94     86.77    360.91     88.80    360.91     91.30  " /><path style="stroke-width: 1.42 ;&st7;   " d=" M   360.91,    91.30  C   360.91     93.81    362.94     95.84    365.44     95.84  " /><path style="stroke-width: 1.42 ;&st7;   " d=" M   365.44,    95.84  C   367.94     95.84    369.97     93.81    369.97     91.30  " /><text style="&st18;" transform="matrix(&st16;  363.13  93.27 )">A</text><text style="&st18;" transform="matrix(&st16;  358.44  83.07 )">MSW</text></g><g ewd:lineID="21"><text style="&st18;" transform="matrix(&st16;  424.73  93.27 )">8</text><path style="stroke-width: 1.42 ;&st7;   " d=" M   437.96,    91.30  C   437.96     88.80    435.93     86.77    433.43     86.77  " /><path style="stroke-width: 1.42 ;&st7;   " d=" M   433.43,    86.77  C   430.92     86.77    428.90     88.80    428.90     91.30  " /><path style="stroke-width: 1.42 ;&st7;   " d=" M   428.90,    91.30  C   428.90     93.81    430.92     95.84    433.43     95.84  " /><path style="stroke-width: 1.42 ;&st7;   " d=" M   433.43,    95.84  C   435.93     95.84    437.96     93.81    437.96     91.30  " /><text style="&st18;" transform="matrix(&st16;  431.12  93.27 )">A</text><text style="&st18;" transform="matrix(&st16;  425.81  83.07 )">PBDS</text></g><g ewd:lineID="7"><text style="&st18;" transform="matrix(&st16;  212.27  93.27 )">8</text><path style="stroke-width: 1.42 ;&st7;   " d=" M   225.50,    91.30  C   225.50     88.80    223.47     86.77    220.96     86.77  " /><path style="stroke-width: 1.42 ;&st7;   " d=" M   220.96,    86.77  C   218.46     86.77    216.43     88.80    216.43     91.30  " /><path style="stroke-width: 1.42 ;&st7;   " d=" M   216.43,    91.30  C   216.43     93.81    218.46     95.84    220.96     95.84  " /><path style="stroke-width: 1.42 ;&st7;   " d=" M   220.96,    95.84  C   223.47     95.84    225.50     93.81    225.50     91.30  " /><text style="&st18;" transform="matrix(&st16;  218.77  93.27 )">B</text><text style="&st18;" transform="matrix(&st16;  218.77  83.07 )">B</text></g><g ewd:lineID="9"><text style="&st18;" transform="matrix(&st16;  254.76  93.27 )">7</text><path style="stroke-width: 1.42 ;&st7;   " d=" M   267.99,    91.30  C   267.99     88.80    265.96     86.77    263.46     86.77  " /><path style="stroke-width: 1.42 ;&st7;   " d=" M   263.46,    86.77  C   260.95     86.77    258.92     88.80    258.92     91.30  " /><path style="stroke-width: 1.42 ;&st7;   " d=" M   258.92,    91.30  C   258.92     93.81    260.95     95.84    263.46     95.84  " /><path style="stroke-width: 1.42 ;&st7;   " d=" M   263.46,    95.84  C   265.96     95.84    267.99     93.81    267.99     91.30  " /><text style="&st18;" transform="matrix(&st16;  261.15  93.27 )">A</text><text style="&st18;" transform="matrix(&st16;  260.1  83.07 )">IG</text></g><g ewd:figtype="title"><text style="&st18;" transform="matrix(&st16;  200.55  25.26 )">V12(A),V13(B)</text><text style="&st18;" transform="matrix(&st16;  200.56  32.08 )" ewd:textID="14">Multiplex Network Door ECU</text></g></g><g ewd:figtype="conn" ewd:figID="30" ewd:code="G83"><path style="stroke-width: 0.85 ;&st7;   " d=" M   366.86,   344.56  C   366.86    343.78    366.22    343.14    365.44    343.14  " /><path style="stroke-width: 0.85 ;&st7;   " d=" M   365.44,   343.14  C   364.66    343.14    364.02    343.78    364.02    344.56  " /><path style="stroke-width: 0.85 ;&st7;   " d=" M   364.02,   344.56  C   364.02    345.34    364.66    345.98    365.44    345.98  " /><path style="stroke-width: 0.85 ;&st7;   " d=" M   365.44,   345.98  C   366.22    345.98    366.86    345.34    366.86    344.56  " /><path style="stroke-width: 0.85 ;&st7;  " d=" M   365.44,   320.48  L   365.44,   307.73  " /><path style="stroke-width: 0.85 ;&st7;  " d=" M   365.44,   358.73  L   365.44,   345.98  " /><path style="stroke-width: 1.42 ;&st7;  " d=" M   365.44,   343.14  L   371.10,   320.48  " /><path style="stroke-width: 0.85 ;&st7;   " d=" M   366.86,   321.90  C   366.86    321.12    366.22    320.48    365.44    320.48  " /><path style="stroke-width: 0.85 ;&st7;   " d=" M   365.44,   320.48  C   364.66    320.48    364.02    321.12    364.02    321.90  " /><path style="stroke-width: 0.85 ;&st7;   " d=" M   364.02,   321.90  C   364.02    322.68    364.66    323.31    365.44    323.31  " /><path style="stroke-width: 0.85 ;&st7;   " d=" M   365.44,   323.31  C   366.22    323.31    366.86    322.68    366.86    321.90  " /><path style="stroke-width: 1.42 ;&st7;  " d=" M   390.93,   358.73  L   390.93,   307.73  L   356.94,   307.73  L   356.94,   358.73  L   390.93,   358.73  " /><text style="&st18;" transform="matrix(&st16;  368.02  315.93 )">MSW</text><text style="&st18;" transform="matrix(&st16;  368.02  355.03 )">MSE</text><text style="&st18;" transform="matrix(&st16;  359.25  366.92 )">6</text><text style="&st18;" transform="matrix(&st16;  359.25  304.04 )">9</text><g ewd:figtype="title"><text style="&st18;" transform="matrix(&st17;  398.55  361.62 )">G83</text><text style="&st18;" transform="matrix(&st17;  405.65  361.63 )" ewd:textID="25">Power Back Door Main Switch</text></g></g><g ewd:figtype="w2w" ewd:figID="40" ewd:code="AG1"><path style="stroke-width: 1.42 ;&st7;  " d=" M    29.75,   364.39  L    25.50,   360.14  L    21.25,   364.39  " /><path style="stroke-width: 1.42 ;&st7;  " d=" M    29.75,   367.79  L    25.50,   363.54  L    21.25,   367.79  " /><text style="&st18;" transform="matrix(&st16;  9.76  356.45 )">24</text></g><g ewd:figtype="w2w" ewd:figID="41" ewd:code="VN1"><path style="stroke-width: 1.42 ;&st7;  " d=" M   165.72,   234.08  L   161.47,   238.33  L   157.22,   234.08  " /><path style="stroke-width: 1.42 ;&st7;  " d=" M   157.22,   230.68  L   161.47,   234.93  L   165.72,   230.68  " /><text style="&st18;" transform="matrix(&st16;  145.74  245.96 )">18</text></g><g ewd:figtype="w2w" ewd:figID="42" ewd:code="AN1"><path style="stroke-width: 1.42 ;&st7;  " d=" M   165.72,   180.82  L   161.47,   176.57  L   157.22,   180.82  " /><path style="stroke-width: 1.42 ;&st7;  " d=" M   165.72,   177.42  L   161.47,   173.17  L   157.22,   177.42  " /><text style="&st18;" transform="matrix(&st16;  145.74  169.48 )">11</text></g><g ewd:figtype="w2w" ewd:figID="43" ewd:code="GN3"><path style="stroke-width: 1.42 ;&st7;  " d=" M   267.71,   234.08  L   263.46,   238.33  L   259.21,   234.08  " /><text style="&st18;" transform="matrix(&st16;  247.72  245.96 )">23</text><path style="stroke-width: 1.42 ;&st7;  " d=" M   259.21,   230.68  L   263.46,   234.93  L   267.71,   230.68  " /></g><g ewd:figtype="w2w" ewd:figID="44" ewd:code="VN1"><path style="stroke-width: 1.42 ;&st7;  " d=" M   267.71,   180.82  L   263.46,   176.57  L   259.21,   180.82  " /><path style="stroke-width: 1.42 ;&st7;  " d=" M   267.71,   177.42  L   263.46,   173.17  L   259.21,   177.42  " /><text style="&st18;" transform="matrix(&st16;  247.72  169.48 )">15</text></g><g ewd:figtype="w2w" ewd:figID="45" ewd:code="GN3"><path style="stroke-width: 1.42 ;&st7;  " d=" M   327.20,   234.08  L   322.95,   238.33  L   318.70,   234.08  " /><path style="stroke-width: 1.42 ;&st7;  " d=" M   318.70,   230.68  L   322.95,   234.93  L   327.20,   230.68  " /><text style="&st18;" transform="matrix(&st16;  307.21  245.96 )">24</text></g><g ewd:figtype="w2w" ewd:figID="46" ewd:code="VN1"><path style="stroke-width: 1.42 ;&st7;  " d=" M   327.20,   180.82  L   322.95,   176.57  L   318.70,   180.82  " /><path style="stroke-width: 1.42 ;&st7;  " d=" M   327.20,   177.42  L   322.95,   173.17  L   318.70,   177.42  " /><text style="&st18;" transform="matrix(&st16;  310.31  169.48 )">7</text></g><g ewd:figtype="w2w" ewd:figID="47" ewd:code="GN3"><path style="stroke-width: 1.42 ;&st7;  " d=" M   361.19,   230.68  L   365.44,   234.93  L   369.69,   230.68  " /><path style="stroke-width: 1.42 ;&st7;  " d=" M   369.69,   234.08  L   365.44,   238.33  L   361.19,   234.08  " /><text style="&st18;" transform="matrix(&st16;  352.81  245.96 )">7</text></g><g ewd:figtype="w2w" ewd:figID="48" ewd:code="VN1"><path style="stroke-width: 1.42 ;&st7;  " d=" M   369.69,   180.82  L   365.44,   176.57  L   361.19,   180.82  " /><path style="stroke-width: 1.42 ;&st7;  " d=" M   369.69,   177.42  L   365.44,   173.17  L   361.19,   177.42  " /><text style="&st18;" transform="matrix(&st16;  349.71  169.48 )">12</text></g><g ewd:figtype="w2w" ewd:figID="49" ewd:code="GN3"><path style="stroke-width: 1.42 ;&st7;  " d=" M   429.18,   230.68  L   433.43,   234.93  L   437.68,   230.68  " /><path style="stroke-width: 1.42 ;&st7;  " d=" M   437.68,   234.08  L   433.43,   238.33  L   429.18,   234.08  " /><text style="&st18;" transform="matrix(&st16;  420.8  245.96 )">8</text></g><g ewd:figtype="w2w" ewd:figID="50" ewd:code="VN1"><path style="stroke-width: 1.42 ;&st7;  " d=" M   437.68,   180.82  L   433.43,   176.57  L   429.18,   180.82  " /><path style="stroke-width: 1.42 ;&st7;  " d=" M   437.68,   177.42  L   433.43,   173.17  L   429.18,   177.42  " /><text style="&st18;" transform="matrix(&st16;  420.8  169.48 )">5</text></g><g ewd:figtype="gp" ewd:figID="62" ewd:code="GC"><path style="stroke-width: 0.85 ;&st7;  " d=" M   365.44,   697.25  L   365.44,   701.50  " /><path style="stroke-width: 0.85 ;&st7;  " d=" M   356.94,   701.50  L   373.94,   701.50  " /><path style="stroke-width: 0.85 ;&st7;  " d=" M   361.19,   704.33  L   369.69,   704.33  " /><path style="stroke-width: 0.85 ;&st7;  " d=" M   362.61,   707.17  L   368.27,   707.17  " /><path style="stroke-width: 0.85 ;&st7;  " d=" M   364.02,   710.00  L   366.86,   710.00  " /></g><g ewd:figtype="gp" ewd:figID="63" ewd:code="GD"><path style="stroke-width: 0.85 ;&st7;  " d=" M   467.42,   697.25  L   467.42,   701.50  " /><path style="stroke-width: 0.85 ;&st7;  " d=" M   458.92,   701.50  L   475.92,   701.50  " /><path style="stroke-width: 0.85 ;&st7;  " d=" M   463.17,   704.33  L   471.67,   704.33  " /><path style="stroke-width: 0.85 ;&st7;  " d=" M   464.59,   707.17  L   470.25,   707.17  " /><path style="stroke-width: 0.85 ;&st7;  " d=" M   466.01,   710.00  L   468.84,   710.00  " /></g><g ewd:code="4" ewd:figID="101" ewd:comment="3" ewd:figtype="comment"><text style="&st18;" transform="matrix(&st16;  81.58  564.66 )" ewd:textID="3">* 4 :Except *3</text></g><g ewd:code="2" ewd:figID="104" ewd:comment="1" ewd:figtype="comment"><text style="&st18;" transform="matrix(&st16;  81.58  547.66 )" ewd:textID="1">* 2 :Except RHD *1</text></g><g ewd:code="3" ewd:figID="102" ewd:comment="" ewd:figtype="comment"><text style="&st18;" transform="matrix(&st16;  81.58  556.16 )" ewd:textID="2">* 3 :Australia Before Jan. 2016 Production</text></g><g ewd:code="1" ewd:figID="103" ewd:comment="" ewd:figtype="comment"><text style="&st18;" transform="matrix(&st16;  81.58  539.16 )">* 1 :1GD-FTV</text></g></svg>