﻿<?xml version="1.0" encoding="utf-8"?>
<!DOCTYPE svg PUBLIC "-//W3C//DTD SVG 1.0//EN" "http://www.w3.org/TR/2001/REC-SVG-20010904/DTD/svg10.dtd"[
	<!ENTITY ns_flows "http://ns.adobe.com/Flows/1.0/">
	<!ENTITY ns_svg "http://www.w3.org/2000/svg">
	<!ENTITY ns_xlink "http://www.w3.org/1999/xlink">
	<!ENTITY st0 "font-size:7px;font-family:'MS-PGothic';adobe-font-script:japanese;">
	<!ENTITY st1 "font-size:6px;font-family:'ArialMT';">
	<!-- White fill  -->
	<!ENTITY st2 "fill:#FFFFFF;stroke:#000000; stroke-width:1.41;stroke-linecap:round;stroke-linejoin:round;">
	<!-- Yellow fill  -->
	<!ENTITY st3 "fill:#FFFFCC;stroke:#FFFFCC; stroke-width:0.1;stroke-linecap:round;stroke-linejoin:round;">
	<!-- Gray fill  -->
	<!ENTITY st4 "fill:#CCCCCC;stroke:#CCCCCC; stroke-width:0.1;stroke-linecap:round;stroke-linejoin:round;">
	<!-- Light-blue fill -->
	<!ENTITY st5 "fill:#CCECF4;stroke:#000000; stroke-width:1.133;stroke-linecap:round;stroke-linejoin:round;">
	<!ENTITY st6 "fill:none;stroke-linecap:butt; stroke-linejoin:round;">
	<!ENTITY st7 "fill:none;stroke:#000000;stroke-linecap:round;stroke-linejoin:round;">
	<!ENTITY st8 "enable-background:new    ;">
	<!-- Black fill -->
	<!ENTITY st9 "fill:#000000;stroke:#000000; stroke-linecap:round;stroke-linejoin:round;">
	<!-- SRS note   -->
	<!ENTITY st10 "font-size:9px;font-family:'ArialMT';">
	<!ENTITY st11 "font-size:9px;font-family:'Svg Symbol';">
	<!ENTITY st12 "font-size:6px;font-family:'Svg Symbol';">
	<!ENTITY st13 "fill:none;stroke:#ff0000;stroke-linecap:round;stroke-linejoin:round;">
	<!-- Yellow fill  -->
	<!ENTITY st14 "fill:#FFFF00;stroke:#FFFF00; stroke-width:0.1;stroke-linecap:round;stroke-linejoin:round;">
	<!ENTITY st15 "font-size:6px;font-family:'MS-PGothic';adobe-font-script:japanese;">
	<!ENTITY st16 "1.00 0.00 0.00 1.00">
	<!ENTITY st17 "0.00 -1.00 1.00 0.00">
	<!ENTITY st18 "font-size:6px;font-family:'Arial';">
	<!ENTITY st19 "font-size:9px;font-family:'Arial';">
	<!ENTITY st20 "font-size:6px;font-family:'MS-PGothic','MS PGothic';adobe-font-script:japanese;">
	<!ENTITY st21 "font-size:7px;font-family:'MS-PGothic','MS PGothic';adobe-font-script:japanese;">
	<!ATTLIST svg
		xmlns:ewd CDATA #FIXED "http://shcl.co.jp/ewd"
		xmlns:a CDATA #FIXED "http://ns.adobe.com/AdobeSVGViewerExtensions/3.0/"
		ewd:ver CDATA #IMPLIED
	>
	<!ATTLIST a
		ewd:lineID CDATA #IMPLIED
		ewd:groupID CDATA #IMPLIED
		ewd:figtype CDATA #IMPLIED
		ewd:code CDATA #IMPLIED
		ewd:figID CDATA #IMPLIED
		ewd:pinNo CDATA #IMPLIED
		ewd:comment CDATA #IMPLIED >
	<!ATTLIST g
		ewd:lineID CDATA #IMPLIED
		ewd:groupID CDATA #IMPLIED
		ewd:figtype CDATA #IMPLIED
		ewd:code CDATA #IMPLIED
		ewd:figID CDATA #IMPLIED
		ewd:pinNo CDATA #IMPLIED
		ewd:comment CDATA #IMPLIED >
	<!ATTLIST text
		ewd:textID CDATA #IMPLIED >
	<!ATTLIST title
		ewd:textID CDATA #IMPLIED >
]>
<!-- Generator: Shintec Hozumi YS   -->
<svg onload="call_execInitLoadProc_svg('system')" style="overflow:visible;  enable-background:new 0 0 3087.817 710.000" viewBox="0 0 3087.817 710.000" height="710.000" width="3087.817" xml:space="preserve" ewd:ver="2.1.2.9" xmlns="&ns_svg;" xmlns:a="http://ns.adobe.com/AdobeSVGViewerExtensions/3.0/" xmlns:ewd="http://shcl.co.jp/ewd" xmlns:xlink="&ns_xlink;">
<text style="&st18;" transform="matrix(&st16;  2852.56  516.5 )">W</text><text style="&st18;" transform="matrix(&st16;  2615.49  542.0 )">L</text><text style="&st18;" transform="matrix(&st17;  2667.69  267.04 )">(*7 *16)</text><text style="&st18;" transform="matrix(&st17;  2656.36  260.56 )">GR</text><text style="&st18;" transform="matrix(&st17;  2769.68  173.55 )">(*7 *17)</text><text style="&st18;" transform="matrix(&st17;  2758.34  167.08 )">GR</text><text style="&st18;" transform="matrix(&st16;  2564.5  423.02 )">L</text><text style="&st18;" transform="matrix(&st16;  2615.49  423.02 )">L</text><text style="&st18;" transform="matrix(&st16;  2608.32  434.35 )">(*7 *3)</text><text style="&st18;" transform="matrix(&st16;  2732.22  210.55 )">GR</text><text style="&st18;" transform="matrix(&st16;  2731.33  221.88 )">(*3)</text><text style="&st18;" transform="matrix(&st16;  2608.32  230.38 )">(*6 *3)</text><text style="&st18;" transform="matrix(&st16;  2551.7  125.57 )">GR(*7 *17)</text><text style="&st18;" transform="matrix(&st16;  2557.33  434.35 )">(*7 *3)</text><text style="&st18;" transform="matrix(&st16;  2603.04  516.5 )">W-B(LHD)</text><text style="&st18;" transform="matrix(&st16;  2603.01  499.5 )">W-B(RHD)</text><text style="&st18;" transform="matrix(&st16;  2853.33  542.0 )">B</text><text style="&st18;" transform="matrix(&st16;  2564.5  542.0 )">L</text><text style="&st18;" transform="matrix(&st16;  2552.01  499.5 )">W-B(RHD)</text><text style="&st18;" transform="matrix(&st16;  2552.05  516.5 )">W-B(LHD)</text><text style="&st18;" transform="matrix(&st16;  2557.33  230.38 )">(*6 *3)</text><text style="&st18;" transform="matrix(&st16;  2564.11  219.05 )">G</text><text style="&st18;" transform="matrix(&st16;  2615.1  219.05 )">G</text><text style="&st18;" transform="matrix(&st16;  2559.42  108.57 )">Y(*6)</text><text style="&st18;" transform="matrix(&st16;  2610.41  91.57 )">Y(*7)</text><text style="&st18;" transform="matrix(&st16;  2610.41  108.57 )">Y(*6)</text><text style="&st18;" transform="matrix(&st16;  2559.42  91.57 )">Y(*7)</text><text style="&st18;" transform="matrix(&st16;  2608.32  204.89 )">(*6 *8)</text><text style="&st18;" transform="matrix(&st16;  2615.1  193.56 )">G</text><text style="&st18;" transform="matrix(&st16;  2602.7  142.56 )">GR(*7 *16)</text><text style="&st18;" transform="matrix(&st16;  2602.7  125.57 )">GR(*7 *17)</text><text style="&st18;" transform="matrix(&st16;  2551.7  142.56 )">GR(*7 *16)</text><text style="&st18;" transform="matrix(&st16;  2564.11  193.56 )">G</text><text style="&st18;" transform="matrix(&st16;  2557.33  204.89 )">(*6 *8)</text><text style="&st18;" transform="matrix(&st17;  2650.69  363.44 )">(*3)</text><text style="&st18;" transform="matrix(&st17;  2639.36  362.55 )">GR</text><g ewd:code="G71-A,G72-B" ewd:figID="57" ewd:figtype="conn"><g ewd:lineID="45,48"><text style="&st18;" transform="matrix(&st16;  2634.36  305.17 )">1</text><path d=" M  2647.59,   303.20  C  2647.59    300.70   2645.56    298.67   2643.06    298.67  " style="stroke-width: 1.42 ;&st7;   " /><path d=" M  2643.06,   298.67  C  2640.56    298.67   2638.53    300.70   2638.53    303.20  " style="stroke-width: 1.42 ;&st7;   " /><path d=" M  2638.53,   303.20  C  2638.53    305.70   2640.56    307.73   2643.06    307.73  " style="stroke-width: 1.42 ;&st7;   " /><path d=" M  2643.06,   307.73  C  2645.56    307.73   2647.59    305.70   2647.59    303.20  " style="stroke-width: 1.42 ;&st7;   " /><text style="&st18;" transform="matrix(&st16;  2640.87  305.17 )">B</text></g><g ewd:lineID="54"><text style="&st18;" transform="matrix(&st16;  2634.36  340.3 )">5</text><text style="&st18;" transform="matrix(&st16;  2634.36  331.23 )">2</text><path d=" M  2647.59,   329.26  C  2647.59    326.76   2645.56    324.73   2643.06    324.73  " style="stroke-width: 1.42 ;&st7;   " /><path d=" M  2643.06,   324.73  C  2640.56    324.73   2638.53    326.76   2638.53    329.26  " style="stroke-width: 1.42 ;&st7;   " /><path d=" M  2638.53,   329.26  C  2638.53    331.77   2640.56    333.80   2643.06    333.80  " style="stroke-width: 1.42 ;&st7;   " /><path d=" M  2643.06,   333.80  C  2645.56    333.80   2647.59    331.77   2647.59    329.26  " style="stroke-width: 1.42 ;&st7;   " /><path d=" M  2647.59,   338.33  C  2647.59    335.83   2645.56    333.80   2643.06    333.80  " style="stroke-width: 1.42 ;&st7;   " /><path d=" M  2643.06,   333.80  C  2640.56    333.80   2638.53    335.83   2638.53    338.33  " style="stroke-width: 1.42 ;&st7;   " /><path d=" M  2638.53,   338.33  C  2638.53    340.83   2640.56    342.86   2643.06    342.86  " style="stroke-width: 1.42 ;&st7;   " /><path d=" M  2643.06,   342.86  C  2645.56    342.86   2647.59    340.83   2647.59    338.33  " style="stroke-width: 1.42 ;&st7;   " /><text style="&st18;" transform="matrix(&st16;  2640.87  331.23 )">B</text><text style="&st18;" transform="matrix(&st16;  2640.75  340.3 )">A</text></g><g ewd:lineID="57"><text style="&st18;" transform="matrix(&st16;  2676.86  296.11 )">5</text><text style="&st18;" transform="matrix(&st16;  2676.86  305.17 )">6</text><path d=" M  2690.08,   303.20  C  2690.08    300.70   2688.05    298.67   2685.55    298.67  " style="stroke-width: 1.42 ;&st7;   " /><path d=" M  2685.55,   298.67  C  2683.05    298.67   2681.02    300.70   2681.02    303.20  " style="stroke-width: 1.42 ;&st7;   " /><path d=" M  2681.02,   303.20  C  2681.02    305.70   2683.05    307.73   2685.55    307.73  " style="stroke-width: 1.42 ;&st7;   " /><path d=" M  2685.55,   307.73  C  2688.05    307.73   2690.08    305.70   2690.08    303.20  " style="stroke-width: 1.42 ;&st7;   " /><path d=" M  2690.08,   294.14  C  2690.08    291.63   2688.05    289.60   2685.55    289.60  " style="stroke-width: 1.42 ;&st7;   " /><path d=" M  2685.55,   289.60  C  2683.05    289.60   2681.02    291.63   2681.02    294.14  " style="stroke-width: 1.42 ;&st7;   " /><path d=" M  2681.02,   294.14  C  2681.02    296.64   2683.05    298.67   2685.55    298.67  " style="stroke-width: 1.42 ;&st7;   " /><path d=" M  2685.55,   298.67  C  2688.05    298.67   2690.08    296.64   2690.08    294.14  " style="stroke-width: 1.42 ;&st7;   " /><text style="&st18;" transform="matrix(&st16;  2683.25  305.17 )">A</text><text style="&st18;" transform="matrix(&st16;  2683.25  296.11 )">A</text></g><path d=" M  2651.56,   303.20  L  2672.80,   303.20  " style="stroke-width: 0.85 ;&st7; stroke-dasharray:3, 1.5;" /><path d=" M  2634.56,   307.73  L  2694.05,   307.73  L  2694.05,   324.73  L  2634.56,   324.73  L  2634.56,   307.73  " style="stroke-width: 1.42 ;&st7;  " /><path d=" M  2685.55,   307.73  L  2685.55,   316.23  L  2643.06,   316.23  " style="stroke-width: 0.85 ;&st7;  " /><path d=" M  2641.86,   315.23  L  2641.59,   315.70  L  2641.50,   316.23  L  2641.59,   316.77  L  2641.86,   317.24  L  2642.28,   317.58  L  2642.79,   317.77  L  2643.33,   317.77  L  2643.84,   317.58  L  2644.25,   317.24  L  2644.52,   316.77  L  2644.62,   316.23  L  2644.52,   315.70  L  2644.25,   315.23  L  2643.84,   314.88  L  2643.33,   314.70  L  2642.79,   314.70  L  2642.28,   314.88  L  2641.86,   315.23  L  2642.26,   315.94  L  2642.26,   316.52  L  2642.63,   316.97  L  2643.20,   317.07  L  2643.71,   316.78  L  2643.91,   316.23  L  2643.71,   315.69  L  2643.20,   315.40  L  2642.63,   315.50  L  2643.06,   316.23  " style="stroke-width: 0.85 ;&st7;  " /><path d=" M  2643.06,   307.73  L  2643.06,   324.73  " style="stroke-width: 0.85 ;&st7;  " /><g ewd:figtype="title"><text style="&st18;" transform="matrix(&st17;  2618.09  327.63 )">G71(A),G72(B)</text><text ewd:textID="24" style="&st18;" transform="matrix(&st17;  2624.91  327.64 )">No. 6 Junction <tspan dy="6.0" x="0 ">Connector</tspan></text></g></g><g ewd:code="FUSE78" ewd:figID="58" ewd:figtype="rb"><text style="&st18;" transform="matrix(&st16;  2687.87  423.02 )">1</text><text style="&st18;" transform="matrix(&st16;  2739.13  423.02 )">2</text><text style="&st18;" transform="matrix(&st16;  2688.76  409.14 )">7.5A STA/WIPER-S</text><text style="&st18;" transform="matrix(&st16;  2664.63  428.68 )">4</text><text style="&st18;" transform="matrix(&st16;  2687.87  372.03 )">1</text><text style="&st18;" transform="matrix(&st16;  2739.13  372.03 )">2</text><text style="&st18;" transform="matrix(&st16;  2671.04  358.14 )">10A C/OPN NO.2/ECU-IG NO.2</text><text style="&st18;" transform="matrix(&st16;  2664.63  377.69 )">4</text><path d=" M  2736.54,   426.71  L  2753.54,   426.71  " style="stroke-width: 0.85 ;&st7;  " /><path d=" M  2677.70,   426.71  L  2680.53,   423.88  L  2676.28,   423.88  L  2673.45,   426.71  L  2676.28,   429.55  L  2680.53,   429.55  L  2677.70,   426.71  " style="stroke-width: 0.28 ;&st9;  " /><path d=" M  2672.80,   426.71  L  2694.05,   426.71  " style="stroke-width: 0.85 ;&st7;  " /><path d=" M  2736.54,   375.72  L  2753.54,   375.72  " style="stroke-width: 0.85 ;&st7;  " /><path d=" M  2677.70,   375.72  L  2680.53,   372.89  L  2676.28,   372.89  L  2673.45,   375.72  L  2676.28,   378.56  L  2680.53,   378.56  L  2677.70,   375.72  " style="stroke-width: 0.28 ;&st9;  " /><path d=" M  2672.80,   375.72  L  2694.05,   375.72  " style="stroke-width: 0.85 ;&st7;  " /><path d=" M  2664.30,   422.46  C  2661.96    422.46   2660.06    424.37   2660.06    426.71  " style="stroke-width: 1.42 ;&st7;   " /><path d=" M  2660.06,   426.71  C  2660.06    429.06   2661.96    430.96   2664.30    430.96  " style="stroke-width: 1.42 ;&st7;   " /><path d=" M  2668.55,   430.96  C  2670.90    430.96   2672.80    429.06   2672.80    426.71  " style="stroke-width: 1.42 ;&st7;   " /><path d=" M  2672.80,   426.71  C  2672.80    424.37   2670.90    422.46   2668.55    422.46  " style="stroke-width: 1.42 ;&st7;   " /><path d=" M  2664.30,   371.47  C  2661.96    371.47   2660.06    373.38   2660.06    375.72  " style="stroke-width: 1.42 ;&st7;   " /><path d=" M  2660.06,   375.72  C  2660.06    378.07   2661.96    379.97   2664.30    379.97  " style="stroke-width: 1.42 ;&st7;   " /><path d=" M  2668.55,   379.97  C  2670.90    379.97   2672.80    378.07   2672.80    375.72  " style="stroke-width: 1.42 ;&st7;   " /><path d=" M  2672.80,   375.72  C  2672.80    373.38   2670.90    371.47   2668.55    371.47  " style="stroke-width: 1.42 ;&st7;   " /><path d=" M  2664.30,   422.46  L  2668.55,   422.46  " style="stroke-width: 1.42 ;&st7;  " /><path d=" M  2668.55,   430.96  L  2664.30,   430.96  " style="stroke-width: 1.42 ;&st7;  " /><path d=" M  2664.30,   371.47  L  2668.55,   371.47  " style="stroke-width: 1.42 ;&st7;  " /><path d=" M  2668.55,   379.97  L  2664.30,   379.97  " style="stroke-width: 1.42 ;&st7;  " /><path d=" M  2736.54,   375.72  L  2728.04,   375.72  " style="stroke-width: 0.85 ;&st7;  " /><path d=" M  2694.05,   362.97  L  2694.05,   388.47  L  2736.54,   388.47  L  2736.54,   362.97  L  2694.05,   362.97  " style="stroke-width: 1.42 ;&st7;  " /><path d=" M  2728.04,   375.72  C  2728.04    374.94   2727.41    374.31   2726.63    374.31  " style="stroke-width: 0.85 ;&st7;   " /><path d=" M  2726.63,   374.31  C  2725.85    374.31   2725.21    374.94   2725.21    375.72  " style="stroke-width: 0.85 ;&st7;   " /><path d=" M  2725.21,   375.72  C  2725.21    376.50   2725.85    377.14   2726.63    377.14  " style="stroke-width: 0.85 ;&st7;   " /><path d=" M  2726.63,   377.14  C  2727.41    377.14   2728.04    376.50   2728.04    375.72  " style="stroke-width: 0.85 ;&st7;   " /><path d=" M  2705.38,   375.72  C  2705.38    374.94   2704.75    374.31   2703.96    374.31  " style="stroke-width: 0.85 ;&st7;   " /><path d=" M  2703.96,   374.31  C  2703.18    374.31   2702.55    374.94   2702.55    375.72  " style="stroke-width: 0.85 ;&st7;   " /><path d=" M  2702.55,   375.72  C  2702.55    376.50   2703.18    377.14   2703.96    377.14  " style="stroke-width: 0.85 ;&st7;   " /><path d=" M  2703.96,   377.14  C  2704.75    377.14   2705.38    376.50   2705.38    375.72  " style="stroke-width: 0.85 ;&st7;   " /><path d=" M  2705.38,   375.72  C  2706.99    378.46   2710.52    379.37   2713.26    377.76  " style="stroke-width: 1.42 ;&st7;   " /><path d=" M  2713.26,   377.76  C  2714.14    377.24   2714.78    376.60   2715.30    375.72  " style="stroke-width: 1.42 ;&st7;   " /><path d=" M  2725.21,   375.72  C  2723.60    372.98   2720.07    372.07   2717.33    373.69  " style="stroke-width: 1.42 ;&st7;   " /><path d=" M  2717.33,   373.69  C  2716.45    374.21   2715.82    374.84   2715.30    375.72  " style="stroke-width: 1.42 ;&st7;   " /><path d=" M  2702.55,   375.72  L  2694.05,   375.72  " style="stroke-width: 0.85 ;&st7;  " /></g><g ewd:code="FUSE76" ewd:figID="59" ewd:figtype="rb"><path d=" M  2736.54,   426.71  L  2728.04,   426.71  " style="stroke-width: 0.85 ;&st7;  " /><path d=" M  2694.05,   413.97  L  2694.05,   439.46  L  2736.54,   439.46  L  2736.54,   413.97  L  2694.05,   413.97  " style="stroke-width: 1.42 ;&st7;  " /><path d=" M  2725.21,   426.71  C  2723.60    423.98   2720.07    423.06   2717.33    424.68  " style="stroke-width: 1.42 ;&st7;   " /><path d=" M  2717.33,   424.68  C  2716.45    425.20   2715.82    425.83   2715.30    426.71  " style="stroke-width: 1.42 ;&st7;   " /><path d=" M  2705.38,   426.71  C  2706.99    429.45   2710.52    430.36   2713.26    428.75  " style="stroke-width: 1.42 ;&st7;   " /><path d=" M  2713.26,   428.75  C  2714.14    428.23   2714.78    427.60   2715.30    426.71  " style="stroke-width: 1.42 ;&st7;   " /><path d=" M  2728.04,   426.71  C  2728.04    425.93   2727.41    425.30   2726.63    425.30  " style="stroke-width: 0.85 ;&st7;   " /><path d=" M  2726.63,   425.30  C  2725.85    425.30   2725.21    425.93   2725.21    426.71  " style="stroke-width: 0.85 ;&st7;   " /><path d=" M  2725.21,   426.71  C  2725.21    427.50   2725.85    428.13   2726.63    428.13  " style="stroke-width: 0.85 ;&st7;   " /><path d=" M  2726.63,   428.13  C  2727.41    428.13   2728.04    427.50   2728.04    426.71  " style="stroke-width: 0.85 ;&st7;   " /><path d=" M  2705.38,   426.71  C  2705.38    425.93   2704.75    425.30   2703.96    425.30  " style="stroke-width: 0.85 ;&st7;   " /><path d=" M  2703.96,   425.30  C  2703.18    425.30   2702.55    425.93   2702.55    426.71  " style="stroke-width: 0.85 ;&st7;   " /><path d=" M  2702.55,   426.71  C  2702.55    427.50   2703.18    428.13   2703.96    428.13  " style="stroke-width: 0.85 ;&st7;   " /><path d=" M  2703.96,   428.13  C  2704.75    428.13   2705.38    427.50   2705.38    426.71  " style="stroke-width: 0.85 ;&st7;   " /><path d=" M  2702.55,   426.71  L  2694.05,   426.71  " style="stroke-width: 0.85 ;&st7;  " /></g><g ewd:code="4" ewd:figID="60" ewd:figtype="rb"><text style="&st18;" transform="matrix(&st16;  2773.12  516.51 )">2</text><text style="&st18;" transform="matrix(&st16;  2773.12  542.0 )">3</text><text style="&st18;" transform="matrix(&st16;  2730.36  516.51 )">1</text><text style="&st18;" transform="matrix(&st16;  2730.36  542.0 )">5</text><text style="&st18;" transform="matrix(&st16;  2796.36  547.66 )">4</text><text style="&st18;" transform="matrix(&st16;  2707.12  547.66 )">4</text><text ewd:textID="21" style="&st18;" transform="matrix(&st16;  2740.81  561.83 )">IG1 NO.2 <tspan dy="6.0" x="0 ">Relay</tspan></text><text style="&st18;" transform="matrix(&st16;  2707.12  522.17 )">4</text><text style="&st18;" transform="matrix(&st16;  2796.36  522.17 )">4</text><path d=" M  2786.89,   545.69  L  2784.05,   542.86  L  2788.30,   542.86  L  2791.14,   545.69  L  2788.30,   548.53  L  2784.05,   548.53  L  2786.89,   545.69  " style="stroke-width: 0.28 ;&st9;  " /><path d=" M  2770.54,   545.69  L  2791.78,   545.69  " style="stroke-width: 0.85 ;&st7;  " /><path d=" M  2720.19,   545.69  L  2723.02,   542.86  L  2718.77,   542.86  L  2715.94,   545.69  L  2718.77,   548.53  L  2723.02,   548.53  L  2720.19,   545.69  " style="stroke-width: 0.28 ;&st9;  " /><path d=" M  2715.30,   545.69  L  2736.54,   545.69  " style="stroke-width: 0.85 ;&st7;  " /><path d=" M  2770.54,   520.20  L  2791.78,   520.20  " style="stroke-width: 0.85 ;&st7;  " /><path d=" M  2720.19,   520.20  L  2723.02,   517.37  L  2718.77,   517.37  L  2715.94,   520.20  L  2718.77,   523.03  L  2723.02,   523.03  L  2720.19,   520.20  " style="stroke-width: 0.28 ;&st9;  " /><path d=" M  2715.30,   520.20  L  2736.54,   520.20  " style="stroke-width: 0.85 ;&st7;  " /><path d=" M  2786.89,   520.20  L  2784.05,   517.37  L  2788.30,   517.37  L  2791.14,   520.20  L  2788.30,   523.03  L  2784.05,   523.03  L  2786.89,   520.20  " style="stroke-width: 0.28 ;&st9;  " /><path d=" M  2796.03,   541.44  C  2793.69    541.44   2791.78    543.35   2791.78    545.69  " style="stroke-width: 1.42 ;&st7;   " /><path d=" M  2791.78,   545.69  C  2791.78    548.04   2793.69    549.94   2796.03    549.94  " style="stroke-width: 1.42 ;&st7;   " /><path d=" M  2800.28,   549.94  C  2802.63    549.94   2804.53    548.04   2804.53    545.69  " style="stroke-width: 1.42 ;&st7;   " /><path d=" M  2804.53,   545.69  C  2804.53    543.35   2802.63    541.44   2800.28    541.44  " style="stroke-width: 1.42 ;&st7;   " /><path d=" M  2706.80,   541.44  C  2704.45    541.44   2702.55    543.35   2702.55    545.69  " style="stroke-width: 1.42 ;&st7;   " /><path d=" M  2702.55,   545.69  C  2702.55    548.04   2704.45    549.94   2706.80    549.94  " style="stroke-width: 1.42 ;&st7;   " /><path d=" M  2711.05,   549.94  C  2713.39    549.94   2715.30    548.04   2715.30    545.69  " style="stroke-width: 1.42 ;&st7;   " /><path d=" M  2715.30,   545.69  C  2715.30    543.35   2713.39    541.44   2711.05    541.44  " style="stroke-width: 1.42 ;&st7;   " /><path d=" M  2706.80,   515.95  C  2704.45    515.95   2702.55    517.85   2702.55    520.20  " style="stroke-width: 1.42 ;&st7;   " /><path d=" M  2702.55,   520.20  C  2702.55    522.55   2704.45    524.45   2706.80    524.45  " style="stroke-width: 1.42 ;&st7;   " /><path d=" M  2711.05,   524.45  C  2713.39    524.45   2715.30    522.55   2715.30    520.20  " style="stroke-width: 1.42 ;&st7;   " /><path d=" M  2715.30,   520.20  C  2715.30    517.85   2713.39    515.95   2711.05    515.95  " style="stroke-width: 1.42 ;&st7;   " /><path d=" M  2796.03,   515.95  C  2793.69    515.95   2791.78    517.85   2791.78    520.20  " style="stroke-width: 1.42 ;&st7;   " /><path d=" M  2791.78,   520.20  C  2791.78    522.55   2793.69    524.45   2796.03    524.45  " style="stroke-width: 1.42 ;&st7;   " /><path d=" M  2800.28,   524.45  C  2802.63    524.45   2804.53    522.55   2804.53    520.20  " style="stroke-width: 1.42 ;&st7;   " /><path d=" M  2804.53,   520.20  C  2804.53    517.85   2802.63    515.95   2800.28    515.95  " style="stroke-width: 1.42 ;&st7;   " /><path d=" M  2800.28,   541.44  L  2796.03,   541.44  " style="stroke-width: 1.42 ;&st7;  " /><path d=" M  2800.28,   524.45  L  2796.03,   524.45  " style="stroke-width: 1.42 ;&st7;  " /><path d=" M  2800.28,   549.94  L  2796.03,   549.94  " style="stroke-width: 1.42 ;&st7;  " /><path d=" M  2706.80,   541.44  L  2711.05,   541.44  " style="stroke-width: 1.42 ;&st7;  " /><path d=" M  2711.05,   549.94  L  2706.80,   549.94  " style="stroke-width: 1.42 ;&st7;  " /><path d=" M  2711.05,   524.45  L  2706.80,   524.45  " style="stroke-width: 1.42 ;&st7;  " /><path d=" M  2800.28,   515.95  L  2796.03,   515.95  " style="stroke-width: 1.42 ;&st7;  " /><path d=" M  2706.80,   515.95  L  2711.05,   515.95  " style="stroke-width: 1.42 ;&st7;  " /><path d=" M  2770.54,   554.19  L  2770.54,   511.70  L  2736.54,   511.70  L  2736.54,   554.19  L  2770.54,   554.19  " style="stroke-width: 1.42 ;&st7;  " /><path d=" M  2766.29,   545.69  C  2766.29    544.91   2765.65    544.28   2764.87    544.28  " style="stroke-width: 0.85 ;&st7;   " /><path d=" M  2764.87,   544.28  C  2764.09    544.28   2763.45    544.91   2763.45    545.69  " style="stroke-width: 0.85 ;&st7;   " /><path d=" M  2763.45,   545.69  C  2763.45    546.48   2764.09    547.11   2764.87    547.11  " style="stroke-width: 0.85 ;&st7;   " /><path d=" M  2764.87,   547.11  C  2765.65    547.11   2766.29    546.48   2766.29    545.69  " style="stroke-width: 0.85 ;&st7;   " /><path d=" M  2743.62,   545.69  C  2743.62    544.91   2742.99    544.28   2742.21    544.28  " style="stroke-width: 0.85 ;&st7;   " /><path d=" M  2742.21,   544.28  C  2741.43    544.28   2740.79    544.91   2740.79    545.69  " style="stroke-width: 0.85 ;&st7;   " /><path d=" M  2740.79,   545.69  C  2740.79    546.48   2741.43    547.11   2742.21    547.11  " style="stroke-width: 0.85 ;&st7;   " /><path d=" M  2742.21,   547.11  C  2742.99    547.11   2743.62    546.48   2743.62    545.69  " style="stroke-width: 0.85 ;&st7;   " /><path d=" M  2751.06,   522.73  C  2752.46    521.36   2752.48    519.12   2751.11    517.72  " style="stroke-width: 0.85 ;&st7;   " /><path d=" M  2751.11,   517.72  C  2749.74    516.32   2747.50    516.30   2746.10    517.67  " style="stroke-width: 0.85 ;&st7;   " /><path d=" M  2746.10,   517.67  C  2745.40    518.36   2745.04    519.21   2745.04    520.20  " style="stroke-width: 0.85 ;&st7;   " /><path d=" M  2756.02,   522.73  C  2757.42    521.36   2757.44    519.12   2756.07    517.72  " style="stroke-width: 0.85 ;&st7;   " /><path d=" M  2756.07,   517.72  C  2754.70    516.32   2752.46    516.30   2751.06    517.67  " style="stroke-width: 0.85 ;&st7;   " /><path d=" M  2751.06,   517.67  C  2749.66    519.04   2749.64    521.28   2751.01    522.68  " style="stroke-width: 0.85 ;&st7;   " /><path d=" M  2751.01,   522.68  C  2751.03    522.70   2751.04    522.71   2751.06    522.73  " style="stroke-width: 0.85 ;&st7;   " /><path d=" M  2762.04,   520.20  C  2762.04    518.24   2760.45    516.66   2758.50    516.66  " style="stroke-width: 0.85 ;&st7;   " /><path d=" M  2758.50,   516.66  C  2756.54    516.66   2754.96    518.24   2754.96    520.20  " style="stroke-width: 0.85 ;&st7;   " /><path d=" M  2754.96,   520.20  C  2754.96    521.19   2755.31    522.03   2756.02    522.73  " style="stroke-width: 0.85 ;&st7;   " /><path d=" M  2740.79,   545.69  L  2736.54,   545.69  " style="stroke-width: 0.85 ;&st7;  " /><path d=" M  2770.54,   545.69  L  2766.29,   545.69  " style="stroke-width: 0.85 ;&st7;  " /><path d=" M  2745.04,   520.20  L  2736.54,   520.20  " style="stroke-width: 0.85 ;&st7;  " /><path d=" M  2770.54,   520.20  L  2762.04,   520.20  " style="stroke-width: 0.85 ;&st7;  " /><path d=" M  2763.45,   545.69  L  2740.79,   551.36  " style="stroke-width: 1.42 ;&st7;  " /></g><g ewd:code="G113,G166" ewd:figID="61" ewd:figtype="conn"><g ewd:lineID="59"><text style="&st18;" transform="matrix(&st16;  2924.13  513.67 )">19</text><text style="&st18;" transform="matrix(&st16;  2916.61  513.67 )">3</text><text style="&st18;" transform="matrix(&st16;  2916.22  522.17 )">B</text><path d=" M  2922.94,   520.20  C  2922.94    517.70   2920.92    515.67   2918.41    515.67  " style="stroke-width: 1.42 ;&st7;   " /><path d=" M  2918.41,   515.67  C  2915.91    515.67   2913.88    517.70   2913.88    520.20  " style="stroke-width: 1.42 ;&st7;   " /><path d=" M  2913.88,   520.20  C  2913.88    522.70   2915.91    524.73   2918.41    524.73  " style="stroke-width: 1.42 ;&st7;   " /><path d=" M  2918.41,   524.73  C  2920.92    524.73   2922.94    522.70   2922.94    520.20  " style="stroke-width: 1.42 ;&st7;   " /><path d=" M  2932.01,   520.20  C  2932.01    517.70   2929.98    515.67   2927.48    515.67  " style="stroke-width: 1.42 ;&st7;   " /><path d=" M  2927.48,   515.67  C  2924.97    515.67   2922.94    517.70   2922.94    520.20  " style="stroke-width: 1.42 ;&st7;   " /><path d=" M  2922.94,   520.20  C  2922.94    522.70   2924.97    524.73   2927.48    524.73  " style="stroke-width: 1.42 ;&st7;   " /><path d=" M  2927.48,   524.73  C  2929.98    524.73   2932.01    522.70   2932.01    520.20  " style="stroke-width: 1.42 ;&st7;   " /><text style="&st18;" transform="matrix(&st16;  2925.17  522.17 )">A</text></g><g ewd:lineID="64"><text style="&st18;" transform="matrix(&st16;  2959.25  513.67 )">20</text><text style="&st18;" transform="matrix(&st16;  2951.74  513.67 )">2</text><text style="&st18;" transform="matrix(&st16;  2951.35  522.17 )">B</text><text style="&st18;" transform="matrix(&st16;  2960.3  522.17 )">A</text><path d=" M  2967.14,   520.20  C  2967.14    517.70   2965.11    515.67   2962.60    515.67  " style="stroke-width: 1.42 ;&st7;   " /><path d=" M  2962.60,   515.67  C  2960.10    515.67   2958.07    517.70   2958.07    520.20  " style="stroke-width: 1.42 ;&st7;   " /><path d=" M  2958.07,   520.20  C  2958.07    522.70   2960.10    524.73   2962.60    524.73  " style="stroke-width: 1.42 ;&st7;   " /><path d=" M  2962.60,   524.73  C  2965.11    524.73   2967.14    522.70   2967.14    520.20  " style="stroke-width: 1.42 ;&st7;   " /><path d=" M  2958.07,   520.20  C  2958.07    517.70   2956.04    515.67   2953.54    515.67  " style="stroke-width: 1.42 ;&st7;   " /><path d=" M  2953.54,   515.67  C  2951.04    515.67   2949.01    517.70   2949.01    520.20  " style="stroke-width: 1.42 ;&st7;   " /><path d=" M  2949.01,   520.20  C  2949.01    522.70   2951.04    524.73   2953.54    524.73  " style="stroke-width: 1.42 ;&st7;   " /><path d=" M  2953.54,   524.73  C  2956.04    524.73   2958.07    522.70   2958.07    520.20  " style="stroke-width: 1.42 ;&st7;   " /></g><path d=" M  2932.01,   511.70  L  2949.01,   511.70  L  2949.01,   528.70  L  2932.01,   528.70  L  2932.01,   511.70  " style="stroke-width: 1.42 ;&st7;  " /><path d=" M  2932.01,   520.20  L  2949.01,   520.20  " style="stroke-width: 0.85 ;&st7;  " /><path d=" M  2932.01,   520.20  C  2932.01    517.70   2929.98    515.67   2927.48    515.67  " style="stroke-width: 1.42 ;&st7;   " /><path d=" M  2927.48,   515.67  C  2924.97    515.67   2922.94    517.70   2922.94    520.20  " style="stroke-width: 1.42 ;&st7;   " /><path d=" M  2922.94,   520.20  C  2922.94    522.70   2924.97    524.73   2927.48    524.73  " style="stroke-width: 1.42 ;&st7;   " /><path d=" M  2927.48,   524.73  C  2929.98    524.73   2932.01    522.70   2932.01    520.20  " style="stroke-width: 1.42 ;&st7;   " /><g ewd:figtype="title"><text ewd:textID="30" style="&st18;" transform="matrix(&st16;  2928.6  502.05 )">No. 40 <tspan dy="6.0" x="0 ">Junction Connector</tspan></text><text ewd:textID="25" style="&st18;" transform="matrix(&st16;  2928.6  481.94 )">No. 12 <tspan dy="6.0" x="0 ">Junction Connector</tspan></text><text style="&st18;" transform="matrix(&st16;  2928.6  495.23 )">G166(B)</text><text style="&st18;" transform="matrix(&st16;  2928.6  475.12 )">G113(A)</text></g></g><g ewd:code="FUSE79" ewd:figID="62" ewd:figtype="rb"><text style="&st18;" transform="matrix(&st16;  2995.36  595.82 )">20A 4WD-IG</text><text style="&st18;" transform="matrix(&st16;  2985.32  609.99 )">1</text><text style="&st18;" transform="matrix(&st16;  3036.58  609.99 )">2</text><text style="&st18;" transform="matrix(&st16;  2936.58  615.65 )">4</text><text style="&st18;" transform="matrix(&st16;  2993.92  553.33 )">10A IG1 NO.5</text><text style="&st18;" transform="matrix(&st16;  2985.32  567.5 )">1</text><text style="&st18;" transform="matrix(&st16;  3036.58  567.5 )">2</text><path d=" M  3033.99,   613.68  L  3059.49,   613.68  " style="stroke-width: 0.85 ;&st7;  " /><path d=" M  2991.50,   613.68  L  2944.76,   613.68  " style="stroke-width: 0.85 ;&st7;  " /><path d=" M  2949.65,   613.68  L  2952.48,   610.85  L  2948.24,   610.85  L  2945.40,   613.68  L  2948.24,   616.52  L  2952.48,   616.52  L  2949.65,   613.68  " style="stroke-width: 0.28 ;&st9;  " /><path d=" M  3033.99,   571.19  L  3059.49,   571.19  " style="stroke-width: 0.85 ;&st7;  " /><path d=" M  2966.00,   613.68  L  2966.00,   571.19  L  2991.50,   571.19  " style="stroke-width: 0.85 ;&st7;  " /><path d=" M  2964.81,   612.68  L  2964.54,   613.15  L  2964.45,   613.68  L  2964.54,   614.22  L  2964.81,   614.69  L  2965.22,   615.03  L  2965.73,   615.22  L  2966.27,   615.22  L  2966.78,   615.03  L  2967.20,   614.69  L  2967.47,   614.22  L  2967.56,   613.68  L  2967.47,   613.15  L  2967.20,   612.68  L  2966.78,   612.33  L  2966.27,   612.15  L  2965.73,   612.15  L  2965.22,   612.33  L  2964.81,   612.68  L  2965.20,   613.39  L  2965.20,   613.97  L  2965.58,   614.42  L  2966.15,   614.52  L  2966.65,   614.23  L  2966.85,   613.68  L  2966.65,   613.14  L  2966.15,   612.85  L  2965.58,   612.95  L  2966.00,   613.68  " style="stroke-width: 0.85 ;&st7;  " /><path d=" M  2936.26,   609.43  C  2933.91    609.43   2932.01    611.34   2932.01    613.68  " style="stroke-width: 1.42 ;&st7;   " /><path d=" M  2932.01,   613.68  C  2932.01    616.03   2933.91    617.93   2936.26    617.93  " style="stroke-width: 1.42 ;&st7;   " /><path d=" M  2940.51,   617.93  C  2942.86    617.93   2944.76    616.03   2944.76    613.68  " style="stroke-width: 1.42 ;&st7;   " /><path d=" M  2944.76,   613.68  C  2944.76    611.34   2942.86    609.43   2940.51    609.43  " style="stroke-width: 1.42 ;&st7;   " /><path d=" M  2936.26,   609.43  L  2940.51,   609.43  " style="stroke-width: 1.42 ;&st7;  " /><path d=" M  2940.51,   617.93  L  2936.26,   617.93  " style="stroke-width: 1.42 ;&st7;  " /><path d=" M  3033.99,   571.19  L  3025.49,   571.19  " style="stroke-width: 0.85 ;&st7;  " /><path d=" M  2991.50,   558.44  L  2991.50,   583.94  L  3033.99,   583.94  L  3033.99,   558.44  L  2991.50,   558.44  " style="stroke-width: 1.42 ;&st7;  " /><path d=" M  3022.66,   571.19  C  3021.05    568.45   3017.52    567.54   3014.78    569.15  " style="stroke-width: 1.42 ;&st7;   " /><path d=" M  3014.78,   569.15  C  3013.90    569.67   3013.27    570.31   3012.75    571.19  " style="stroke-width: 1.42 ;&st7;   " /><path d=" M  3002.83,   571.19  C  3004.44    573.93   3007.97    574.84   3010.71    573.23  " style="stroke-width: 1.42 ;&st7;   " /><path d=" M  3010.71,   573.23  C  3011.59    572.71   3012.23    572.07   3012.75    571.19  " style="stroke-width: 1.42 ;&st7;   " /><path d=" M  3025.49,   571.19  C  3025.49    570.41   3024.86    569.77   3024.08    569.77  " style="stroke-width: 0.85 ;&st7;   " /><path d=" M  3024.08,   569.77  C  3023.30    569.77   3022.66    570.41   3022.66    571.19  " style="stroke-width: 0.85 ;&st7;   " /><path d=" M  3022.66,   571.19  C  3022.66    571.97   3023.30    572.61   3024.08    572.61  " style="stroke-width: 0.85 ;&st7;   " /><path d=" M  3024.08,   572.61  C  3024.86    572.61   3025.49    571.97   3025.49    571.19  " style="stroke-width: 0.85 ;&st7;   " /><path d=" M  3002.83,   571.19  C  3002.83    570.41   3002.20    569.77   3001.42    569.77  " style="stroke-width: 0.85 ;&st7;   " /><path d=" M  3001.42,   569.77  C  3000.63    569.77   3000.00    570.41   3000.00    571.19  " style="stroke-width: 0.85 ;&st7;   " /><path d=" M  3000.00,   571.19  C  3000.00    571.97   3000.63    572.61   3001.42    572.61  " style="stroke-width: 0.85 ;&st7;   " /><path d=" M  3001.42,   572.61  C  3002.20    572.61   3002.83    571.97   3002.83    571.19  " style="stroke-width: 0.85 ;&st7;   " /><path d=" M  3000.00,   571.19  L  2991.50,   571.19  " style="stroke-width: 0.85 ;&st7;  " /></g><g ewd:code="FUSE80" ewd:figID="63" ewd:figtype="rb"><path d=" M  3033.99,   613.68  L  3025.49,   613.68  " style="stroke-width: 0.85 ;&st7;  " /><path d=" M  2991.50,   600.93  L  2991.50,   626.43  L  3033.99,   626.43  L  3033.99,   600.93  L  2991.50,   600.93  " style="stroke-width: 1.42 ;&st7;  " /><path d=" M  3022.66,   613.68  C  3021.05    610.94   3017.52    610.03   3014.78    611.65  " style="stroke-width: 1.42 ;&st7;   " /><path d=" M  3014.78,   611.65  C  3013.90    612.17   3013.27    612.80   3012.75    613.68  " style="stroke-width: 1.42 ;&st7;   " /><path d=" M  3002.83,   613.68  C  3004.44    616.42   3007.97    617.33   3010.71    615.72  " style="stroke-width: 1.42 ;&st7;   " /><path d=" M  3010.71,   615.72  C  3011.59    615.20   3012.23    614.56   3012.75    613.68  " style="stroke-width: 1.42 ;&st7;   " /><path d=" M  3025.49,   613.68  C  3025.49    612.90   3024.86    612.27   3024.08    612.27  " style="stroke-width: 0.85 ;&st7;   " /><path d=" M  3024.08,   612.27  C  3023.30    612.27   3022.66    612.90   3022.66    613.68  " style="stroke-width: 0.85 ;&st7;   " /><path d=" M  3022.66,   613.68  C  3022.66    614.47   3023.30    615.10   3024.08    615.10  " style="stroke-width: 0.85 ;&st7;   " /><path d=" M  3024.08,   615.10  C  3024.86    615.10   3025.49    614.47   3025.49    613.68  " style="stroke-width: 0.85 ;&st7;   " /><path d=" M  3002.83,   613.68  C  3002.83    612.90   3002.20    612.27   3001.42    612.27  " style="stroke-width: 0.85 ;&st7;   " /><path d=" M  3001.42,   612.27  C  3000.63    612.27   3000.00    612.90   3000.00    613.68  " style="stroke-width: 0.85 ;&st7;   " /><path d=" M  3000.00,   613.68  C  3000.00    614.47   3000.63    615.10   3001.42    615.10  " style="stroke-width: 0.85 ;&st7;   " /><path d=" M  3001.42,   615.10  C  3002.20    615.10   3002.83    614.47   3002.83    613.68  " style="stroke-width: 0.85 ;&st7;   " /><path d=" M  3000.00,   613.68  L  2991.50,   613.68  " style="stroke-width: 0.85 ;&st7;  " /></g><g ewd:code="2" ewd:figID="87" ewd:figtype="jb"><text style="&st18;" transform="matrix(&st16;  3006.65  403.19 )">2C</text><text style="&st18;" transform="matrix(&st16;  3008.82  393.98 )">1</text><text style="&st18;" transform="matrix(&st16;  3008.82  292.0 )">3</text><text style="&st18;" transform="matrix(&st16;  3006.65  301.2 )">2C</text><text style="&st18;" transform="matrix(&st16;  2925.94  332.37 )">10A IG1 NO.4</text><text style="&st18;" transform="matrix(&st16;  2917.33  346.54 )">1</text><text style="&st18;" transform="matrix(&st16;  2968.59  346.54 )">2</text><g ewd:code="" ewd:comment="19" ewd:figID="231" ewd:figtype="commref"><text style="&st18;" transform="matrix(&st16;  2971.99  306.87 )">(*19)</text></g><text style="&st18;" transform="matrix(&st16;  2831.21  128.4 )">15A WIPER RR</text><text style="&st18;" transform="matrix(&st16;  2823.84  142.57 )">1</text><text style="&st18;" transform="matrix(&st16;  2875.1  142.57 )">2</text><g ewd:code="" ewd:comment="2" ewd:figID="232" ewd:figtype="commref"><text style="&st18;" transform="matrix(&st16;  2905.55  255.88 )">(*2)</text></g><g ewd:code="" ewd:comment="19" ewd:figID="229" ewd:figtype="commref"><text style="&st18;" transform="matrix(&st16;  2904.0  306.87 )">(*19)</text></g><g ewd:code="" ewd:comment="2" ewd:figID="230" ewd:figtype="commref"><text style="&st18;" transform="matrix(&st16;  2984.87  408.85 )">(*2)</text></g><g ewd:code="" ewd:comment="19" ewd:figID="233" ewd:figtype="commref"><text style="&st18;" transform="matrix(&st16;  2993.24  425.85 )">(*19)</text></g><path d=" M  2811.84,   349.22  L  2811.56,   349.69  L  2811.47,   350.23  L  2811.56,   350.76  L  2811.84,   351.23  L  2812.25,   351.58  L  2812.76,   351.76  L  2813.30,   351.76  L  2813.81,   351.58  L  2814.22,   351.23  L  2814.49,   350.76  L  2814.59,   350.23  L  2814.49,   349.69  L  2814.22,   349.22  L  2813.81,   348.88  L  2813.30,   348.69  L  2812.76,   348.69  L  2812.25,   348.88  L  2811.84,   349.22  L  2812.23,   349.94  L  2812.23,   350.52  L  2812.60,   350.96  L  2813.18,   351.06  L  2813.68,   350.77  L  2813.88,   350.23  L  2813.68,   349.68  L  2813.18,   349.39  L  2812.60,   349.49  L  2813.03,   350.23  " style="stroke-width: 0.85 ;&st7;  " /><path d=" M  2896.82,   196.25  L  2896.55,   196.72  L  2896.46,   197.25  L  2896.55,   197.79  L  2896.82,   198.26  L  2897.24,   198.60  L  2897.74,   198.79  L  2898.29,   198.79  L  2898.79,   198.60  L  2899.21,   198.26  L  2899.48,   197.79  L  2899.57,   197.25  L  2899.48,   196.72  L  2899.21,   196.25  L  2898.79,   195.90  L  2898.29,   195.72  L  2897.74,   195.72  L  2897.24,   195.90  L  2896.82,   196.25  L  2897.22,   196.96  L  2897.22,   197.54  L  2897.59,   197.99  L  2898.16,   198.09  L  2898.67,   197.80  L  2898.86,   197.25  L  2898.67,   196.71  L  2898.16,   196.42  L  2897.59,   196.52  L  2898.01,   197.25  " style="stroke-width: 0.85 ;&st7;  " /><path d=" M  2898.01,    95.27  L  2898.01,   197.25  " style="stroke-width: 0.85 ;&st7;  " /><path d=" M  2796.68,    95.27  L  2799.51,    92.44  L  2795.26,    92.44  L  2792.43,    95.27  L  2795.26,    98.10  L  2799.51,    98.10  L  2796.68,    95.27  " style="stroke-width: 0.28 ;&st9;  " /><path d=" M  2796.68,   197.25  L  2799.51,   194.42  L  2795.26,   194.42  L  2792.43,   197.25  L  2795.26,   200.09  L  2799.51,   200.09  L  2796.68,   197.25  " style="stroke-width: 0.28 ;&st9;  " /><path d=" M  2966.00,    95.27  L  2957.50,    95.27  " style="stroke-width: 0.85 ;&st7;  " /><path d=" M  2923.51,    82.52  L  2923.51,   108.02  L  2966.00,   108.02  L  2966.00,    82.52  L  2923.51,    82.52  " style="stroke-width: 1.42 ;&st7;  " /><path d=" M  2966.00,    95.27  L  2991.50,    95.27  " style="stroke-width: 0.85 ;&st7;  " /><path d=" M  2966.00,   146.26  L  2957.50,   146.26  " style="stroke-width: 0.85 ;&st7;  " /><path d=" M  2923.51,   133.51  L  2923.51,   159.01  L  2966.00,   159.01  L  2966.00,   133.51  L  2923.51,   133.51  " style="stroke-width: 1.42 ;&st7;  " /><path d=" M  2966.00,   146.26  L  2991.50,   146.26  " style="stroke-width: 0.85 ;&st7;  " /><path d=" M  2966.00,   197.25  L  2991.50,   197.25  " style="stroke-width: 0.85 ;&st7;  " /><path d=" M  2923.51,   184.50  L  2923.51,   210.00  L  2966.00,   210.00  L  2966.00,   184.50  L  2923.51,   184.50  " style="stroke-width: 1.42 ;&st7;  " /><path d=" M  2966.00,   197.25  L  2957.50,   197.25  " style="stroke-width: 0.85 ;&st7;  " /><path d=" M  2966.00,   248.24  L  2957.50,   248.24  " style="stroke-width: 0.85 ;&st7;  " /><path d=" M  2923.51,   235.50  L  2923.51,   260.99  L  2966.00,   260.99  L  2966.00,   235.50  L  2923.51,   235.50  " style="stroke-width: 1.42 ;&st7;  " /><path d=" M  2966.00,   248.24  L  2991.50,   248.24  " style="stroke-width: 0.85 ;&st7;  " /><path d=" M  2966.00,   299.24  L  2957.50,   299.24  " style="stroke-width: 0.85 ;&st7;  " /><path d=" M  2923.51,   286.49  L  2923.51,   311.98  L  2966.00,   311.98  L  2966.00,   286.49  L  2923.51,   286.49  " style="stroke-width: 1.42 ;&st7;  " /><path d=" M  2966.00,   299.24  L  3004.25,   299.24  " style="stroke-width: 0.85 ;&st7;  " /><path d=" M  2966.00,   401.22  L  2957.50,   401.22  " style="stroke-width: 0.85 ;&st7;  " /><path d=" M  2923.51,   388.47  L  2923.51,   413.97  L  2966.00,   413.97  L  2966.00,   388.47  L  2923.51,   388.47  " style="stroke-width: 1.42 ;&st7;  " /><path d=" M  2966.00,   401.22  L  3004.25,   401.22  " style="stroke-width: 0.85 ;&st7;  " /><path d=" M  2872.52,   197.25  L  2864.02,   197.25  " style="stroke-width: 0.85 ;&st7;  " /><path d=" M  2830.03,   184.50  L  2830.03,   210.00  L  2872.52,   210.00  L  2872.52,   184.50  L  2830.03,   184.50  " style="stroke-width: 1.42 ;&st7;  " /><path d=" M  2872.52,   197.25  L  2889.52,   197.25  " style="stroke-width: 0.85 ;&st7;  " /><path d=" M  2872.52,   248.24  L  2864.02,   248.24  " style="stroke-width: 0.85 ;&st7;  " /><path d=" M  2830.03,   235.50  L  2830.03,   260.99  L  2872.52,   260.99  L  2872.52,   235.50  L  2830.03,   235.50  " style="stroke-width: 1.42 ;&st7;  " /><path d=" M  2872.52,   248.24  L  2889.52,   248.24  " style="stroke-width: 0.85 ;&st7;  " /><path d=" M  2872.52,   299.24  L  2864.02,   299.24  " style="stroke-width: 0.85 ;&st7;  " /><path d=" M  2830.03,   286.49  L  2830.03,   311.98  L  2872.52,   311.98  L  2872.52,   286.49  L  2830.03,   286.49  " style="stroke-width: 1.42 ;&st7;  " /><path d=" M  2872.52,   299.24  L  2889.52,   299.24  " style="stroke-width: 0.85 ;&st7;  " /><path d=" M  2872.52,   350.23  L  2864.02,   350.23  " style="stroke-width: 0.85 ;&st7;  " /><path d=" M  2830.03,   337.48  L  2830.03,   362.97  L  2872.52,   362.97  L  2872.52,   337.48  L  2830.03,   337.48  " style="stroke-width: 1.42 ;&st7;  " /><path d=" M  2872.52,   350.23  L  2889.52,   350.23  " style="stroke-width: 0.85 ;&st7;  " /><path d=" M  2830.03,   401.22  L  2813.03,   401.22  L  2813.03,   350.23  " style="stroke-width: 0.85 ;&st7;  " /><path d=" M  2872.52,   401.22  L  2889.52,   401.22  " style="stroke-width: 0.85 ;&st7;  " /><path d=" M  2830.03,   388.47  L  2830.03,   413.97  L  2872.52,   413.97  L  2872.52,   388.47  L  2830.03,   388.47  " style="stroke-width: 1.42 ;&st7;  " /><path d=" M  2791.78,    95.27  L  2923.51,    95.27  " style="stroke-width: 0.85 ;&st7;  " /><path d=" M  2923.51,   146.26  L  2898.01,   146.26  " style="stroke-width: 0.85 ;&st7;  " /><path d=" M  2923.51,   248.24  L  2898.01,   248.24  " style="stroke-width: 0.85 ;&st7;  " /><path d=" M  2923.51,   197.25  L  2898.01,   197.25  L  2898.01,   401.22  L  2923.51,   401.22  " style="stroke-width: 0.85 ;&st7;  " /><path d=" M  2923.51,   299.24  L  2898.01,   299.24  " style="stroke-width: 0.85 ;&st7;  " /><path d=" M  2791.78,   197.25  L  2830.03,   197.25  " style="stroke-width: 0.85 ;&st7;  " /><path d=" M  2830.03,   350.23  L  2813.03,   350.23  L  2813.03,   197.25  " style="stroke-width: 0.85 ;&st7;  " /><path d=" M  2830.03,   248.24  L  2813.03,   248.24  " style="stroke-width: 0.85 ;&st7;  " /><path d=" M  2830.03,   299.24  L  2813.03,   299.24  " style="stroke-width: 0.85 ;&st7;  " /><path d=" M  2872.52,   401.22  L  2864.02,   401.22  " style="stroke-width: 0.85 ;&st7;  " /><path d=" M  2896.82,    94.27  L  2896.55,    94.74  L  2896.46,    95.27  L  2896.55,    95.80  L  2896.82,    96.27  L  2897.24,    96.62  L  2897.74,    96.81  L  2898.29,    96.81  L  2898.79,    96.62  L  2899.21,    96.27  L  2899.48,    95.80  L  2899.57,    95.27  L  2899.48,    94.74  L  2899.21,    94.27  L  2898.79,    93.92  L  2898.29,    93.73  L  2897.74,    93.73  L  2897.24,    93.92  L  2896.82,    94.27  L  2897.22,    94.98  L  2897.22,    95.56  L  2897.59,    96.01  L  2898.16,    96.11  L  2898.67,    95.82  L  2898.86,    95.27  L  2898.67,    94.72  L  2898.16,    94.43  L  2897.59,    94.53  L  2898.01,    95.27  " style="stroke-width: 0.85 ;&st7;  " /><path d=" M  2896.82,   145.26  L  2896.55,   145.73  L  2896.46,   146.26  L  2896.55,   146.79  L  2896.82,   147.26  L  2897.24,   147.61  L  2897.74,   147.80  L  2898.29,   147.80  L  2898.79,   147.61  L  2899.21,   147.26  L  2899.48,   146.79  L  2899.57,   146.26  L  2899.48,   145.73  L  2899.21,   145.26  L  2898.79,   144.91  L  2898.29,   144.73  L  2897.74,   144.73  L  2897.24,   144.91  L  2896.82,   145.26  L  2897.22,   145.97  L  2897.22,   146.55  L  2897.59,   147.00  L  2898.16,   147.10  L  2898.67,   146.81  L  2898.86,   146.26  L  2898.67,   145.71  L  2898.16,   145.43  L  2897.59,   145.52  L  2898.01,   146.26  " style="stroke-width: 0.85 ;&st7;  " /><path d=" M  2896.82,   298.23  L  2896.55,   298.70  L  2896.46,   299.24  L  2896.55,   299.77  L  2896.82,   300.24  L  2897.24,   300.58  L  2897.74,   300.77  L  2898.29,   300.77  L  2898.79,   300.58  L  2899.21,   300.24  L  2899.48,   299.77  L  2899.57,   299.24  L  2899.48,   298.70  L  2899.21,   298.23  L  2898.79,   297.89  L  2898.29,   297.70  L  2897.74,   297.70  L  2897.24,   297.89  L  2896.82,   298.23  L  2897.22,   298.94  L  2897.22,   299.53  L  2897.59,   299.97  L  2898.16,   300.07  L  2898.67,   299.78  L  2898.86,   299.24  L  2898.67,   298.69  L  2898.16,   298.40  L  2897.59,   298.50  L  2898.01,   299.24  " style="stroke-width: 0.85 ;&st7;  " /><path d=" M  2896.82,   247.24  L  2896.55,   247.71  L  2896.46,   248.24  L  2896.55,   248.78  L  2896.82,   249.25  L  2897.24,   249.59  L  2897.74,   249.78  L  2898.29,   249.78  L  2898.79,   249.59  L  2899.21,   249.25  L  2899.48,   248.78  L  2899.57,   248.24  L  2899.48,   247.71  L  2899.21,   247.24  L  2898.79,   246.90  L  2898.29,   246.71  L  2897.74,   246.71  L  2897.24,   246.90  L  2896.82,   247.24  L  2897.22,   247.95  L  2897.22,   248.54  L  2897.59,   248.98  L  2898.16,   249.08  L  2898.67,   248.79  L  2898.86,   248.24  L  2898.67,   247.70  L  2898.16,   247.41  L  2897.59,   247.51  L  2898.01,   248.24  " style="stroke-width: 0.85 ;&st7;  " /><path d=" M  2811.84,   196.25  L  2811.56,   196.72  L  2811.47,   197.25  L  2811.56,   197.79  L  2811.84,   198.26  L  2812.25,   198.60  L  2812.76,   198.79  L  2813.30,   198.79  L  2813.81,   198.60  L  2814.22,   198.26  L  2814.49,   197.79  L  2814.59,   197.25  L  2814.49,   196.72  L  2814.22,   196.25  L  2813.81,   195.90  L  2813.30,   195.72  L  2812.76,   195.72  L  2812.25,   195.90  L  2811.84,   196.25  L  2812.23,   196.96  L  2812.23,   197.54  L  2812.60,   197.99  L  2813.18,   198.09  L  2813.68,   197.80  L  2813.88,   197.25  L  2813.68,   196.71  L  2813.18,   196.42  L  2812.60,   196.52  L  2813.03,   197.25  " style="stroke-width: 0.85 ;&st7;  " /><path d=" M  2811.84,   247.24  L  2811.56,   247.71  L  2811.47,   248.24  L  2811.56,   248.78  L  2811.84,   249.25  L  2812.25,   249.59  L  2812.76,   249.78  L  2813.30,   249.78  L  2813.81,   249.59  L  2814.22,   249.25  L  2814.49,   248.78  L  2814.59,   248.24  L  2814.49,   247.71  L  2814.22,   247.24  L  2813.81,   246.90  L  2813.30,   246.71  L  2812.76,   246.71  L  2812.25,   246.90  L  2811.84,   247.24  L  2812.23,   247.95  L  2812.23,   248.54  L  2812.60,   248.98  L  2813.18,   249.08  L  2813.68,   248.79  L  2813.88,   248.24  L  2813.68,   247.70  L  2813.18,   247.41  L  2812.60,   247.51  L  2813.03,   248.24  " style="stroke-width: 0.85 ;&st7;  " /><path d=" M  2811.84,   298.23  L  2811.56,   298.70  L  2811.47,   299.24  L  2811.56,   299.77  L  2811.84,   300.24  L  2812.25,   300.58  L  2812.76,   300.77  L  2813.30,   300.77  L  2813.81,   300.58  L  2814.22,   300.24  L  2814.49,   299.77  L  2814.59,   299.24  L  2814.49,   298.70  L  2814.22,   298.23  L  2813.81,   297.89  L  2813.30,   297.70  L  2812.76,   297.70  L  2812.25,   297.89  L  2811.84,   298.23  L  2812.23,   298.94  L  2812.23,   299.53  L  2812.60,   299.97  L  2813.18,   300.07  L  2813.68,   299.78  L  2813.88,   299.24  L  2813.68,   298.69  L  2813.18,   298.40  L  2812.60,   298.50  L  2813.03,   299.24  " style="stroke-width: 0.85 ;&st7;  " /><path d=" M  2999.35,   401.22  L  2996.52,   398.39  L  3000.77,   398.39  L  3003.60,   401.22  L  3000.77,   404.05  L  2996.52,   404.05  L  2999.35,   401.22  " style="stroke-width: 0.28 ;&st9;  " /><path d=" M  2999.35,   299.24  L  2996.52,   296.40  L  3000.77,   296.40  L  3003.60,   299.24  L  3000.77,   302.07  L  2996.52,   302.07  L  2999.35,   299.24  " style="stroke-width: 0.28 ;&st9;  " /><path d=" M  2966.00,   350.23  L  2957.50,   350.23  " style="stroke-width: 0.85 ;&st7;  " /><path d=" M  2923.51,   337.48  L  2923.51,   362.97  L  2966.00,   362.97  L  2966.00,   337.48  L  2923.51,   337.48  " style="stroke-width: 1.42 ;&st7;  " /><path d=" M  2966.00,   350.23  L  2991.50,   350.23  " style="stroke-width: 0.85 ;&st7;  " /><path d=" M  2923.51,   350.23  L  2898.01,   350.23  " style="stroke-width: 0.85 ;&st7;  " /><path d=" M  2896.82,   349.22  L  2896.55,   349.69  L  2896.46,   350.23  L  2896.55,   350.76  L  2896.82,   351.23  L  2897.24,   351.58  L  2897.74,   351.76  L  2898.29,   351.76  L  2898.79,   351.58  L  2899.21,   351.23  L  2899.48,   350.76  L  2899.57,   350.23  L  2899.48,   349.69  L  2899.21,   349.22  L  2898.79,   348.88  L  2898.29,   348.69  L  2897.74,   348.69  L  2897.24,   348.88  L  2896.82,   349.22  L  2897.22,   349.94  L  2897.22,   350.52  L  2897.59,   350.96  L  2898.16,   351.06  L  2898.67,   350.77  L  2898.86,   350.23  L  2898.67,   349.68  L  2898.16,   349.39  L  2897.59,   349.49  L  2898.01,   350.23  " style="stroke-width: 0.85 ;&st7;  " /><path d=" M  2872.52,   146.26  L  2864.02,   146.26  " style="stroke-width: 0.85 ;&st7;  " /><path d=" M  2830.03,   133.51  L  2830.03,   159.01  L  2872.52,   159.01  L  2872.52,   133.51  L  2830.03,   133.51  " style="stroke-width: 1.42 ;&st7;  " /><path d=" M  2872.52,   146.26  L  2889.52,   146.26  " style="stroke-width: 0.85 ;&st7;  " /><path d=" M  2830.03,   146.26  L  2813.03,   146.26  " style="stroke-width: 0.85 ;&st7;  " /><path d=" M  2813.03,    95.27  L  2813.03,   146.26  " style="stroke-width: 0.85 ;&st7;  " /><path d=" M  2811.84,    94.27  L  2811.56,    94.74  L  2811.47,    95.27  L  2811.56,    95.80  L  2811.84,    96.27  L  2812.25,    96.62  L  2812.76,    96.81  L  2813.30,    96.81  L  2813.81,    96.62  L  2814.22,    96.27  L  2814.49,    95.80  L  2814.59,    95.27  L  2814.49,    94.74  L  2814.22,    94.27  L  2813.81,    93.92  L  2813.30,    93.73  L  2812.76,    93.73  L  2812.25,    93.92  L  2811.84,    94.27  L  2812.23,    94.98  L  2812.23,    95.56  L  2812.60,    96.01  L  2813.18,    96.11  L  2813.68,    95.82  L  2813.88,    95.27  L  2813.68,    94.72  L  2813.18,    94.43  L  2812.60,    94.53  L  2813.03,    95.27  " style="stroke-width: 0.85 ;&st7;  " /><path d=" M  2966.00,   401.22  L  2974.50,   401.22  L  2983.00,   409.72  L  2983.00,   418.22  L  3016.99,   418.22  " style="stroke-width: 0.85 ;&st7;  " /><path d=" M  2791.78,    95.27  C  2791.78     92.92   2789.88     91.02   2787.53     91.02  " style="stroke-width: 1.42 ;&st7;   " /><path d=" M  2787.53,    99.52  C  2789.88     99.52   2791.78     97.62   2791.78     95.27  " style="stroke-width: 1.42 ;&st7;   " /><path d=" M  2779.04,    95.27  C  2779.04     97.62   2780.94     99.52   2783.28     99.52  " style="stroke-width: 1.42 ;&st7;   " /><path d=" M  2783.28,    91.02  C  2780.94     91.02   2779.04     92.92   2779.04     95.27  " style="stroke-width: 1.42 ;&st7;   " /><path d=" M  2783.28,   193.00  C  2780.94    193.00   2779.04    194.91   2779.04    197.25  " style="stroke-width: 1.42 ;&st7;   " /><path d=" M  2779.04,   197.25  C  2779.04    199.60   2780.94    201.50   2783.28    201.50  " style="stroke-width: 1.42 ;&st7;   " /><path d=" M  2787.53,   201.50  C  2789.88    201.50   2791.78    199.60   2791.78    197.25  " style="stroke-width: 1.42 ;&st7;   " /><path d=" M  2791.78,   197.25  C  2791.78    194.91   2789.88    193.00   2787.53    193.00  " style="stroke-width: 1.42 ;&st7;   " /><path d=" M  2954.67,    95.27  C  2953.06     92.53   2949.53     91.62   2946.79     93.23  " style="stroke-width: 1.42 ;&st7;   " /><path d=" M  2946.79,    93.23  C  2945.91     93.75   2945.28     94.39   2944.76     95.27  " style="stroke-width: 1.42 ;&st7;   " /><path d=" M  2934.84,    95.27  C  2936.46     98.01   2939.98     98.92   2942.72     97.31  " style="stroke-width: 1.42 ;&st7;   " /><path d=" M  2942.72,    97.31  C  2943.60     96.79   2944.24     96.15   2944.76     95.27  " style="stroke-width: 1.42 ;&st7;   " /><path d=" M  2957.51,    95.27  C  2957.51     94.49   2956.87     93.85   2956.09     93.85  " style="stroke-width: 0.85 ;&st7;   " /><path d=" M  2956.09,    93.85  C  2955.31     93.85   2954.67     94.49   2954.67     95.27  " style="stroke-width: 0.85 ;&st7;   " /><path d=" M  2954.67,    95.27  C  2954.67     96.05   2955.31     96.69   2956.09     96.69  " style="stroke-width: 0.85 ;&st7;   " /><path d=" M  2956.09,    96.69  C  2956.87     96.69   2957.51     96.05   2957.51     95.27  " style="stroke-width: 0.85 ;&st7;   " /><path d=" M  2934.84,    95.27  C  2934.84     94.49   2934.21     93.85   2933.43     93.85  " style="stroke-width: 0.85 ;&st7;   " /><path d=" M  2933.43,    93.85  C  2932.64     93.85   2932.01     94.49   2932.01     95.27  " style="stroke-width: 0.85 ;&st7;   " /><path d=" M  2932.01,    95.27  C  2932.01     96.05   2932.64     96.69   2933.43     96.69  " style="stroke-width: 0.85 ;&st7;   " /><path d=" M  2933.43,    96.69  C  2934.21     96.69   2934.84     96.05   2934.84     95.27  " style="stroke-width: 0.85 ;&st7;   " /><path d=" M  2954.67,   146.26  C  2953.06    143.52   2949.53    142.61   2946.79    144.22  " style="stroke-width: 1.42 ;&st7;   " /><path d=" M  2946.79,   144.22  C  2945.91    144.74   2945.28    145.38   2944.76    146.26  " style="stroke-width: 1.42 ;&st7;   " /><path d=" M  2934.84,   146.26  C  2936.46    149.00   2939.98    149.91   2942.72    148.30  " style="stroke-width: 1.42 ;&st7;   " /><path d=" M  2942.72,   148.30  C  2943.60    147.78   2944.24    147.14   2944.76    146.26  " style="stroke-width: 1.42 ;&st7;   " /><path d=" M  2957.51,   146.26  C  2957.51    145.48   2956.87    144.84   2956.09    144.84  " style="stroke-width: 0.85 ;&st7;   " /><path d=" M  2956.09,   144.84  C  2955.31    144.84   2954.67    145.48   2954.67    146.26  " style="stroke-width: 0.85 ;&st7;   " /><path d=" M  2954.67,   146.26  C  2954.67    147.04   2955.31    147.68   2956.09    147.68  " style="stroke-width: 0.85 ;&st7;   " /><path d=" M  2956.09,   147.68  C  2956.87    147.68   2957.51    147.04   2957.51    146.26  " style="stroke-width: 0.85 ;&st7;   " /><path d=" M  2934.84,   146.26  C  2934.84    145.48   2934.21    144.84   2933.43    144.84  " style="stroke-width: 0.85 ;&st7;   " /><path d=" M  2933.43,   144.84  C  2932.64    144.84   2932.01    145.48   2932.01    146.26  " style="stroke-width: 0.85 ;&st7;   " /><path d=" M  2932.01,   146.26  C  2932.01    147.04   2932.64    147.68   2933.43    147.68  " style="stroke-width: 0.85 ;&st7;   " /><path d=" M  2933.43,   147.68  C  2934.21    147.68   2934.84    147.04   2934.84    146.26  " style="stroke-width: 0.85 ;&st7;   " /><path d=" M  2934.84,   197.25  C  2934.84    196.47   2934.21    195.84   2933.43    195.84  " style="stroke-width: 0.85 ;&st7;   " /><path d=" M  2933.43,   195.84  C  2932.64    195.84   2932.01    196.47   2932.01    197.25  " style="stroke-width: 0.85 ;&st7;   " /><path d=" M  2932.01,   197.25  C  2932.01    198.03   2932.64    198.67   2933.43    198.67  " style="stroke-width: 0.85 ;&st7;   " /><path d=" M  2933.43,   198.67  C  2934.21    198.67   2934.84    198.03   2934.84    197.25  " style="stroke-width: 0.85 ;&st7;   " /><path d=" M  2957.51,   197.25  C  2957.51    196.47   2956.87    195.84   2956.09    195.84  " style="stroke-width: 0.85 ;&st7;   " /><path d=" M  2956.09,   195.84  C  2955.31    195.84   2954.67    196.47   2954.67    197.25  " style="stroke-width: 0.85 ;&st7;   " /><path d=" M  2954.67,   197.25  C  2954.67    198.03   2955.31    198.67   2956.09    198.67  " style="stroke-width: 0.85 ;&st7;   " /><path d=" M  2956.09,   198.67  C  2956.87    198.67   2957.51    198.03   2957.51    197.25  " style="stroke-width: 0.85 ;&st7;   " /><path d=" M  2934.84,   197.25  C  2936.46    199.99   2939.98    200.90   2942.72    199.29  " style="stroke-width: 1.42 ;&st7;   " /><path d=" M  2942.72,   199.29  C  2943.60    198.77   2944.24    198.13   2944.76    197.25  " style="stroke-width: 1.42 ;&st7;   " /><path d=" M  2954.67,   197.25  C  2953.06    194.51   2949.53    193.60   2946.79    195.22  " style="stroke-width: 1.42 ;&st7;   " /><path d=" M  2946.79,   195.22  C  2945.91    195.74   2945.28    196.37   2944.76    197.25  " style="stroke-width: 1.42 ;&st7;   " /><path d=" M  2954.67,   248.24  C  2953.06    245.51   2949.53    244.59   2946.79    246.21  " style="stroke-width: 1.42 ;&st7;   " /><path d=" M  2946.79,   246.21  C  2945.91    246.73   2945.28    247.36   2944.76    248.24  " style="stroke-width: 1.42 ;&st7;   " /><path d=" M  2934.84,   248.24  C  2936.46    250.98   2939.98    251.89   2942.72    250.28  " style="stroke-width: 1.42 ;&st7;   " /><path d=" M  2942.72,   250.28  C  2943.60    249.76   2944.24    249.13   2944.76    248.24  " style="stroke-width: 1.42 ;&st7;   " /><path d=" M  2957.51,   248.24  C  2957.51    247.46   2956.87    246.83   2956.09    246.83  " style="stroke-width: 0.85 ;&st7;   " /><path d=" M  2956.09,   246.83  C  2955.31    246.83   2954.67    247.46   2954.67    248.24  " style="stroke-width: 0.85 ;&st7;   " /><path d=" M  2954.67,   248.24  C  2954.67    249.03   2955.31    249.66   2956.09    249.66  " style="stroke-width: 0.85 ;&st7;   " /><path d=" M  2956.09,   249.66  C  2956.87    249.66   2957.51    249.03   2957.51    248.24  " style="stroke-width: 0.85 ;&st7;   " /><path d=" M  2934.84,   248.24  C  2934.84    247.46   2934.21    246.83   2933.43    246.83  " style="stroke-width: 0.85 ;&st7;   " /><path d=" M  2933.43,   246.83  C  2932.64    246.83   2932.01    247.46   2932.01    248.24  " style="stroke-width: 0.85 ;&st7;   " /><path d=" M  2932.01,   248.24  C  2932.01    249.03   2932.64    249.66   2933.43    249.66  " style="stroke-width: 0.85 ;&st7;   " /><path d=" M  2933.43,   249.66  C  2934.21    249.66   2934.84    249.03   2934.84    248.24  " style="stroke-width: 0.85 ;&st7;   " /><path d=" M  2954.67,   299.24  C  2953.06    296.50   2949.53    295.59   2946.79    297.20  " style="stroke-width: 1.42 ;&st7;   " /><path d=" M  2946.79,   297.20  C  2945.91    297.72   2945.28    298.35   2944.76    299.24  " style="stroke-width: 1.42 ;&st7;   " /><path d=" M  2934.84,   299.24  C  2936.46    301.97   2939.98    302.89   2942.72    301.27  " style="stroke-width: 1.42 ;&st7;   " /><path d=" M  2942.72,   301.27  C  2943.60    300.75   2944.24    300.12   2944.76    299.24  " style="stroke-width: 1.42 ;&st7;   " /><path d=" M  2957.51,   299.24  C  2957.51    298.45   2956.87    297.82   2956.09    297.82  " style="stroke-width: 0.85 ;&st7;   " /><path d=" M  2956.09,   297.82  C  2955.31    297.82   2954.67    298.45   2954.67    299.24  " style="stroke-width: 0.85 ;&st7;   " /><path d=" M  2954.67,   299.24  C  2954.67    300.02   2955.31    300.65   2956.09    300.65  " style="stroke-width: 0.85 ;&st7;   " /><path d=" M  2956.09,   300.65  C  2956.87    300.65   2957.51    300.02   2957.51    299.24  " style="stroke-width: 0.85 ;&st7;   " /><path d=" M  2934.84,   299.24  C  2934.84    298.45   2934.21    297.82   2933.43    297.82  " style="stroke-width: 0.85 ;&st7;   " /><path d=" M  2933.43,   297.82  C  2932.64    297.82   2932.01    298.45   2932.01    299.24  " style="stroke-width: 0.85 ;&st7;   " /><path d=" M  2932.01,   299.24  C  2932.01    300.02   2932.64    300.65   2933.43    300.65  " style="stroke-width: 0.85 ;&st7;   " /><path d=" M  2933.43,   300.65  C  2934.21    300.65   2934.84    300.02   2934.84    299.24  " style="stroke-width: 0.85 ;&st7;   " /><path d=" M  2954.67,   401.22  C  2953.06    398.48   2949.53    397.57   2946.79    399.18  " style="stroke-width: 1.42 ;&st7;   " /><path d=" M  2946.79,   399.18  C  2945.91    399.70   2945.28    400.34   2944.76    401.22  " style="stroke-width: 1.42 ;&st7;   " /><path d=" M  2934.84,   401.22  C  2936.46    403.96   2939.98    404.87   2942.72    403.26  " style="stroke-width: 1.42 ;&st7;   " /><path d=" M  2942.72,   403.26  C  2943.60    402.74   2944.24    402.10   2944.76    401.22  " style="stroke-width: 1.42 ;&st7;   " /><path d=" M  2957.51,   401.22  C  2957.51    400.44   2956.87    399.80   2956.09    399.80  " style="stroke-width: 0.85 ;&st7;   " /><path d=" M  2956.09,   399.80  C  2955.31    399.80   2954.67    400.44   2954.67    401.22  " style="stroke-width: 0.85 ;&st7;   " /><path d=" M  2954.67,   401.22  C  2954.67    402.00   2955.31    402.63   2956.09    402.63  " style="stroke-width: 0.85 ;&st7;   " /><path d=" M  2956.09,   402.63  C  2956.87    402.63   2957.51    402.00   2957.51    401.22  " style="stroke-width: 0.85 ;&st7;   " /><path d=" M  2934.84,   401.22  C  2934.84    400.44   2934.21    399.80   2933.43    399.80  " style="stroke-width: 0.85 ;&st7;   " /><path d=" M  2933.43,   399.80  C  2932.64    399.80   2932.01    400.44   2932.01    401.22  " style="stroke-width: 0.85 ;&st7;   " /><path d=" M  2932.01,   401.22  C  2932.01    402.00   2932.64    402.63   2933.43    402.63  " style="stroke-width: 0.85 ;&st7;   " /><path d=" M  2933.43,   402.63  C  2934.21    402.63   2934.84    402.00   2934.84    401.22  " style="stroke-width: 0.85 ;&st7;   " /><path d=" M  2861.19,   197.25  C  2859.58    194.51   2856.05    193.60   2853.31    195.22  " style="stroke-width: 1.42 ;&st7;   " /><path d=" M  2853.31,   195.22  C  2852.43    195.74   2851.79    196.37   2851.27    197.25  " style="stroke-width: 1.42 ;&st7;   " /><path d=" M  2841.36,   197.25  C  2842.97    199.99   2846.50    200.90   2849.24    199.29  " style="stroke-width: 1.42 ;&st7;   " /><path d=" M  2849.24,   199.29  C  2850.12    198.77   2850.75    198.13   2851.27    197.25  " style="stroke-width: 1.42 ;&st7;   " /><path d=" M  2864.02,   197.25  C  2864.02    196.47   2863.39    195.84   2862.61    195.84  " style="stroke-width: 0.85 ;&st7;   " /><path d=" M  2862.61,   195.84  C  2861.82    195.84   2861.19    196.47   2861.19    197.25  " style="stroke-width: 0.85 ;&st7;   " /><path d=" M  2861.19,   197.25  C  2861.19    198.03   2861.82    198.67   2862.61    198.67  " style="stroke-width: 0.85 ;&st7;   " /><path d=" M  2862.61,   198.67  C  2863.39    198.67   2864.02    198.03   2864.02    197.25  " style="stroke-width: 0.85 ;&st7;   " /><path d=" M  2841.36,   197.25  C  2841.36    196.47   2840.72    195.84   2839.94    195.84  " style="stroke-width: 0.85 ;&st7;   " /><path d=" M  2839.94,   195.84  C  2839.16    195.84   2838.53    196.47   2838.53    197.25  " style="stroke-width: 0.85 ;&st7;   " /><path d=" M  2838.53,   197.25  C  2838.53    198.03   2839.16    198.67   2839.94    198.67  " style="stroke-width: 0.85 ;&st7;   " /><path d=" M  2839.94,   198.67  C  2840.72    198.67   2841.36    198.03   2841.36    197.25  " style="stroke-width: 0.85 ;&st7;   " /><path d=" M  2861.19,   248.24  C  2859.58    245.51   2856.05    244.59   2853.31    246.21  " style="stroke-width: 1.42 ;&st7;   " /><path d=" M  2853.31,   246.21  C  2852.43    246.73   2851.79    247.36   2851.27    248.24  " style="stroke-width: 1.42 ;&st7;   " /><path d=" M  2841.36,   248.24  C  2842.97    250.98   2846.50    251.89   2849.24    250.28  " style="stroke-width: 1.42 ;&st7;   " /><path d=" M  2849.24,   250.28  C  2850.12    249.76   2850.75    249.13   2851.27    248.24  " style="stroke-width: 1.42 ;&st7;   " /><path d=" M  2864.02,   248.24  C  2864.02    247.46   2863.39    246.83   2862.61    246.83  " style="stroke-width: 0.85 ;&st7;   " /><path d=" M  2862.61,   246.83  C  2861.82    246.83   2861.19    247.46   2861.19    248.24  " style="stroke-width: 0.85 ;&st7;   " /><path d=" M  2861.19,   248.24  C  2861.19    249.03   2861.82    249.66   2862.61    249.66  " style="stroke-width: 0.85 ;&st7;   " /><path d=" M  2862.61,   249.66  C  2863.39    249.66   2864.02    249.03   2864.02    248.24  " style="stroke-width: 0.85 ;&st7;   " /><path d=" M  2841.36,   248.24  C  2841.36    247.46   2840.72    246.83   2839.94    246.83  " style="stroke-width: 0.85 ;&st7;   " /><path d=" M  2839.94,   246.83  C  2839.16    246.83   2838.53    247.46   2838.53    248.24  " style="stroke-width: 0.85 ;&st7;   " /><path d=" M  2838.53,   248.24  C  2838.53    249.03   2839.16    249.66   2839.94    249.66  " style="stroke-width: 0.85 ;&st7;   " /><path d=" M  2839.94,   249.66  C  2840.72    249.66   2841.36    249.03   2841.36    248.24  " style="stroke-width: 0.85 ;&st7;   " /><path d=" M  2861.19,   299.24  C  2859.58    296.50   2856.05    295.59   2853.31    297.20  " style="stroke-width: 1.42 ;&st7;   " /><path d=" M  2853.31,   297.20  C  2852.43    297.72   2851.79    298.35   2851.27    299.24  " style="stroke-width: 1.42 ;&st7;   " /><path d=" M  2841.36,   299.24  C  2842.97    301.97   2846.50    302.89   2849.24    301.27  " style="stroke-width: 1.42 ;&st7;   " /><path d=" M  2849.24,   301.27  C  2850.12    300.75   2850.75    300.12   2851.27    299.24  " style="stroke-width: 1.42 ;&st7;   " /><path d=" M  2864.02,   299.24  C  2864.02    298.45   2863.39    297.82   2862.61    297.82  " style="stroke-width: 0.85 ;&st7;   " /><path d=" M  2862.61,   297.82  C  2861.82    297.82   2861.19    298.45   2861.19    299.24  " style="stroke-width: 0.85 ;&st7;   " /><path d=" M  2861.19,   299.24  C  2861.19    300.02   2861.82    300.65   2862.61    300.65  " style="stroke-width: 0.85 ;&st7;   " /><path d=" M  2862.61,   300.65  C  2863.39    300.65   2864.02    300.02   2864.02    299.24  " style="stroke-width: 0.85 ;&st7;   " /><path d=" M  2841.36,   299.24  C  2841.36    298.45   2840.72    297.82   2839.94    297.82  " style="stroke-width: 0.85 ;&st7;   " /><path d=" M  2839.94,   297.82  C  2839.16    297.82   2838.53    298.45   2838.53    299.24  " style="stroke-width: 0.85 ;&st7;   " /><path d=" M  2838.53,   299.24  C  2838.53    300.02   2839.16    300.65   2839.94    300.65  " style="stroke-width: 0.85 ;&st7;   " /><path d=" M  2839.94,   300.65  C  2840.72    300.65   2841.36    300.02   2841.36    299.24  " style="stroke-width: 0.85 ;&st7;   " /><path d=" M  2861.19,   350.23  C  2859.58    347.49   2856.05    346.58   2853.31    348.19  " style="stroke-width: 1.42 ;&st7;   " /><path d=" M  2853.31,   348.19  C  2852.43    348.71   2851.79    349.34   2851.27    350.23  " style="stroke-width: 1.42 ;&st7;   " /><path d=" M  2841.36,   350.23  C  2842.97    352.96   2846.50    353.88   2849.24    352.26  " style="stroke-width: 1.42 ;&st7;   " /><path d=" M  2849.24,   352.26  C  2850.12    351.74   2850.75    351.11   2851.27    350.23  " style="stroke-width: 1.42 ;&st7;   " /><path d=" M  2864.02,   350.23  C  2864.02    349.44   2863.39    348.81   2862.61    348.81  " style="stroke-width: 0.85 ;&st7;   " /><path d=" M  2862.61,   348.81  C  2861.82    348.81   2861.19    349.44   2861.19    350.23  " style="stroke-width: 0.85 ;&st7;   " /><path d=" M  2861.19,   350.23  C  2861.19    351.01   2861.82    351.64   2862.61    351.64  " style="stroke-width: 0.85 ;&st7;   " /><path d=" M  2862.61,   351.64  C  2863.39    351.64   2864.02    351.01   2864.02    350.23  " style="stroke-width: 0.85 ;&st7;   " /><path d=" M  2841.36,   350.23  C  2841.36    349.44   2840.72    348.81   2839.94    348.81  " style="stroke-width: 0.85 ;&st7;   " /><path d=" M  2839.94,   348.81  C  2839.16    348.81   2838.53    349.44   2838.53    350.23  " style="stroke-width: 0.85 ;&st7;   " /><path d=" M  2838.53,   350.23  C  2838.53    351.01   2839.16    351.64   2839.94    351.64  " style="stroke-width: 0.85 ;&st7;   " /><path d=" M  2839.94,   351.64  C  2840.72    351.64   2841.36    351.01   2841.36    350.23  " style="stroke-width: 0.85 ;&st7;   " /><path d=" M  2841.36,   401.22  C  2841.36    400.44   2840.72    399.80   2839.94    399.80  " style="stroke-width: 0.85 ;&st7;   " /><path d=" M  2839.94,   399.80  C  2839.16    399.80   2838.53    400.44   2838.53    401.22  " style="stroke-width: 0.85 ;&st7;   " /><path d=" M  2838.53,   401.22  C  2838.53    402.00   2839.16    402.63   2839.94    402.63  " style="stroke-width: 0.85 ;&st7;   " /><path d=" M  2839.94,   402.63  C  2840.72    402.63   2841.36    402.00   2841.36    401.22  " style="stroke-width: 0.85 ;&st7;   " /><path d=" M  2864.02,   401.22  C  2864.02    400.44   2863.39    399.80   2862.61    399.80  " style="stroke-width: 0.85 ;&st7;   " /><path d=" M  2862.61,   399.80  C  2861.82    399.80   2861.19    400.44   2861.19    401.22  " style="stroke-width: 0.85 ;&st7;   " /><path d=" M  2861.19,   401.22  C  2861.19    402.00   2861.82    402.63   2862.61    402.63  " style="stroke-width: 0.85 ;&st7;   " /><path d=" M  2862.61,   402.63  C  2863.39    402.63   2864.02    402.00   2864.02    401.22  " style="stroke-width: 0.85 ;&st7;   " /><path d=" M  2841.36,   401.22  C  2842.97    403.96   2846.50    404.87   2849.24    403.26  " style="stroke-width: 1.42 ;&st7;   " /><path d=" M  2849.24,   403.26  C  2850.12    402.74   2850.75    402.10   2851.27    401.22  " style="stroke-width: 1.42 ;&st7;   " /><path d=" M  2861.19,   401.22  C  2859.58    398.48   2856.05    397.57   2853.31    399.18  " style="stroke-width: 1.42 ;&st7;   " /><path d=" M  2853.31,   399.18  C  2852.43    399.70   2851.79    400.34   2851.27    401.22  " style="stroke-width: 1.42 ;&st7;   " /><path d=" M  3008.50,   396.97  C  3006.15    396.97   3004.25    398.87   3004.25    401.22  " style="stroke-width: 1.42 ;&st7;   " /><path d=" M  3004.25,   401.22  C  3004.25    403.57   3006.15    405.47   3008.50    405.47  " style="stroke-width: 1.42 ;&st7;   " /><path d=" M  3012.75,   405.47  C  3015.09    405.47   3017.00    403.57   3017.00    401.22  " style="stroke-width: 1.42 ;&st7;   " /><path d=" M  3017.00,   401.22  C  3017.00    398.87   3015.09    396.97   3012.75    396.97  " style="stroke-width: 1.42 ;&st7;   " /><path d=" M  3017.00,   299.24  C  3017.00    296.89   3015.09    294.99   3012.75    294.99  " style="stroke-width: 1.42 ;&st7;   " /><path d=" M  3012.75,   303.48  C  3015.09    303.48   3017.00    301.58   3017.00    299.24  " style="stroke-width: 1.42 ;&st7;   " /><path d=" M  3004.25,   299.24  C  3004.25    301.58   3006.15    303.48   3008.50    303.48  " style="stroke-width: 1.42 ;&st7;   " /><path d=" M  3008.50,   294.99  C  3006.15    294.99   3004.25    296.89   3004.25    299.24  " style="stroke-width: 1.42 ;&st7;   " /><path d=" M  2954.67,   350.23  C  2953.06    347.49   2949.53    346.58   2946.79    348.19  " style="stroke-width: 1.42 ;&st7;   " /><path d=" M  2946.79,   348.19  C  2945.91    348.71   2945.28    349.34   2944.76    350.23  " style="stroke-width: 1.42 ;&st7;   " /><path d=" M  2934.84,   350.23  C  2936.46    352.96   2939.98    353.88   2942.72    352.26  " style="stroke-width: 1.42 ;&st7;   " /><path d=" M  2942.72,   352.26  C  2943.60    351.74   2944.24    351.11   2944.76    350.23  " style="stroke-width: 1.42 ;&st7;   " /><path d=" M  2957.51,   350.23  C  2957.51    349.44   2956.87    348.81   2956.09    348.81  " style="stroke-width: 0.85 ;&st7;   " /><path d=" M  2956.09,   348.81  C  2955.31    348.81   2954.67    349.44   2954.67    350.23  " style="stroke-width: 0.85 ;&st7;   " /><path d=" M  2954.67,   350.23  C  2954.67    351.01   2955.31    351.64   2956.09    351.64  " style="stroke-width: 0.85 ;&st7;   " /><path d=" M  2956.09,   351.64  C  2956.87    351.64   2957.51    351.01   2957.51    350.23  " style="stroke-width: 0.85 ;&st7;   " /><path d=" M  2934.84,   350.23  C  2934.84    349.44   2934.21    348.81   2933.43    348.81  " style="stroke-width: 0.85 ;&st7;   " /><path d=" M  2933.43,   348.81  C  2932.64    348.81   2932.01    349.44   2932.01    350.23  " style="stroke-width: 0.85 ;&st7;   " /><path d=" M  2932.01,   350.23  C  2932.01    351.01   2932.64    351.64   2933.43    351.64  " style="stroke-width: 0.85 ;&st7;   " /><path d=" M  2933.43,   351.64  C  2934.21    351.64   2934.84    351.01   2934.84    350.23  " style="stroke-width: 0.85 ;&st7;   " /><path d=" M  2841.36,   146.26  C  2842.97    149.00   2846.50    149.91   2849.24    148.30  " style="stroke-width: 1.42 ;&st7;   " /><path d=" M  2849.24,   148.30  C  2850.12    147.78   2850.75    147.14   2851.27    146.26  " style="stroke-width: 1.42 ;&st7;   " /><path d=" M  2861.19,   146.26  C  2859.58    143.52   2856.05    142.61   2853.31    144.22  " style="stroke-width: 1.42 ;&st7;   " /><path d=" M  2853.31,   144.22  C  2852.43    144.74   2851.79    145.38   2851.27    146.26  " style="stroke-width: 1.42 ;&st7;   " /><path d=" M  2864.02,   146.26  C  2864.02    145.48   2863.39    144.84   2862.61    144.84  " style="stroke-width: 0.85 ;&st7;   " /><path d=" M  2862.61,   144.84  C  2861.82    144.84   2861.19    145.48   2861.19    146.26  " style="stroke-width: 0.85 ;&st7;   " /><path d=" M  2861.19,   146.26  C  2861.19    147.04   2861.82    147.68   2862.61    147.68  " style="stroke-width: 0.85 ;&st7;   " /><path d=" M  2862.61,   147.68  C  2863.39    147.68   2864.02    147.04   2864.02    146.26  " style="stroke-width: 0.85 ;&st7;   " /><path d=" M  2841.36,   146.26  C  2841.36    145.48   2840.72    144.84   2839.94    144.84  " style="stroke-width: 0.85 ;&st7;   " /><path d=" M  2839.94,   144.84  C  2839.16    144.84   2838.53    145.48   2838.53    146.26  " style="stroke-width: 0.85 ;&st7;   " /><path d=" M  2838.53,   146.26  C  2838.53    147.04   2839.16    147.68   2839.94    147.68  " style="stroke-width: 0.85 ;&st7;   " /><path d=" M  2839.94,   147.68  C  2840.72    147.68   2841.36    147.04   2841.36    146.26  " style="stroke-width: 0.85 ;&st7;   " /><path d=" M  2787.53,    99.52  L  2783.28,    99.52  " style="stroke-width: 1.42 ;&st7;  " /><path d=" M  2783.28,    91.02  L  2787.53,    91.02  " style="stroke-width: 1.42 ;&st7;  " /><path d=" M  2783.28,   193.00  L  2787.53,   193.00  " style="stroke-width: 1.42 ;&st7;  " /><path d=" M  2787.53,   201.50  L  2783.28,   201.50  " style="stroke-width: 1.42 ;&st7;  " /><path d=" M  2932.01,    95.27  L  2923.51,    95.27  " style="stroke-width: 0.85 ;&st7;  " /><path d=" M  2932.01,   146.26  L  2923.51,   146.26  " style="stroke-width: 0.85 ;&st7;  " /><path d=" M  2932.01,   197.25  L  2923.51,   197.25  " style="stroke-width: 0.85 ;&st7;  " /><path d=" M  2932.01,   248.24  L  2923.51,   248.24  " style="stroke-width: 0.85 ;&st7;  " /><path d=" M  2932.01,   299.24  L  2923.51,   299.24  " style="stroke-width: 0.85 ;&st7;  " /><path d=" M  2932.01,   401.22  L  2923.51,   401.22  " style="stroke-width: 0.85 ;&st7;  " /><path d=" M  2838.53,   197.25  L  2830.03,   197.25  " style="stroke-width: 0.85 ;&st7;  " /><path d=" M  2838.53,   248.24  L  2830.03,   248.24  " style="stroke-width: 0.85 ;&st7;  " /><path d=" M  2838.53,   299.24  L  2830.03,   299.24  " style="stroke-width: 0.85 ;&st7;  " /><path d=" M  2838.53,   350.23  L  2830.03,   350.23  " style="stroke-width: 0.85 ;&st7;  " /><path d=" M  2838.53,   401.22  L  2830.03,   401.22  " style="stroke-width: 0.85 ;&st7;  " /><path d=" M  3012.75,   396.97  L  3008.50,   396.97  " style="stroke-width: 1.42 ;&st7;  " /><path d=" M  3012.75,   405.47  L  3008.50,   405.47  " style="stroke-width: 1.42 ;&st7;  " /><path d=" M  3012.75,   303.48  L  3008.50,   303.48  " style="stroke-width: 1.42 ;&st7;  " /><path d=" M  3012.75,   294.99  L  3008.50,   294.99  " style="stroke-width: 1.42 ;&st7;  " /><path d=" M  2932.01,   350.23  L  2923.51,   350.23  " style="stroke-width: 0.85 ;&st7;  " /><path d=" M  2838.53,   146.26  L  2830.03,   146.26  " style="stroke-width: 0.85 ;&st7;  " /><text style="&st18;" transform="matrix(&st16;  2875.1  346.54 )">2</text><text style="&st18;" transform="matrix(&st16;  2823.84  346.54 )">1</text><text style="&st18;" transform="matrix(&st16;  2875.1  295.55 )">2</text><text style="&st18;" transform="matrix(&st16;  2823.84  295.55 )">1</text><text style="&st18;" transform="matrix(&st16;  2875.1  244.55 )">2</text><text style="&st18;" transform="matrix(&st16;  2823.84  244.55 )">1</text><text style="&st18;" transform="matrix(&st16;  2875.1  193.56 )">2</text><text style="&st18;" transform="matrix(&st16;  2823.84  193.56 )">1</text><text style="&st18;" transform="matrix(&st16;  2968.59  397.53 )">2</text><text style="&st18;" transform="matrix(&st16;  2917.33  397.53 )">1</text><text style="&st18;" transform="matrix(&st16;  2968.59  295.55 )">2</text><text style="&st18;" transform="matrix(&st16;  2917.33  295.55 )">1</text><text style="&st18;" transform="matrix(&st16;  2968.59  244.55 )">2</text><text style="&st18;" transform="matrix(&st16;  2917.33  244.55 )">1</text><text style="&st18;" transform="matrix(&st16;  2968.59  193.56 )">2</text><text style="&st18;" transform="matrix(&st16;  2917.33  193.56 )">1</text><text style="&st18;" transform="matrix(&st16;  2968.59  142.57 )">2</text><text style="&st18;" transform="matrix(&st16;  2917.33  142.57 )">1</text><text style="&st18;" transform="matrix(&st16;  2917.33  91.58 )">1</text><text style="&st18;" transform="matrix(&st16;  2968.59  91.58 )">2</text><text style="&st18;" transform="matrix(&st16;  2834.0  332.37 )">5A IG2 NO.1</text><text style="&st18;" transform="matrix(&st16;  2836.68  281.37 )">5A A/BAG</text><text style="&st18;" transform="matrix(&st16;  2834.0  230.38 )">5A IG2 NO.3</text><text style="&st18;" transform="matrix(&st16;  2836.48  179.39 )">5A METER</text><g ewd:code="" ewd:comment="19,2" ewd:figID="228" ewd:figtype="commref"><text style="&st18;" transform="matrix(&st16;  2918.49  377.42 )">10A IG1 NO.2 (*19) <tspan dy="6.0" x="0 ">10A IG1 NO.3 (*2)</tspan></text></g><text style="&st18;" transform="matrix(&st16;  2925.94  281.37 )">10A IG1 NO.3</text><text style="&st18;" transform="matrix(&st16;  2925.94  230.38 )">10A IG1 NO.2</text><text style="&st18;" transform="matrix(&st16;  2925.94  179.39 )">10A IG1 NO.1</text><text style="&st18;" transform="matrix(&st16;  2926.13  128.4 )">15A WASHER</text><text style="&st18;" transform="matrix(&st16;  2929.35  77.41 )">25A WIPER</text><text style="&st18;" transform="matrix(&st16;  2783.61  190.01 )">1</text><text style="&st18;" transform="matrix(&st16;  2781.4  199.22 )">2G</text><text style="&st18;" transform="matrix(&st16;  2781.75  97.24 )">2E</text><text style="&st18;" transform="matrix(&st16;  2783.61  88.03 )">1</text><text style="&st18;" transform="matrix(&st16;  2834.0  383.36 )">5A IG2 NO.2</text><text style="&st18;" transform="matrix(&st16;  2823.84  397.53 )">1</text><text style="&st18;" transform="matrix(&st16;  2875.1  397.53 )">2</text></g><g ewd:code="" ewd:comment="" ewd:figID="190" ewd:figtype="commref"><text style="&st18;" transform="matrix(&st16;  2690.64  305.17 )">(RHD)</text></g><g ewd:code="" ewd:comment="" ewd:figID="191" ewd:figtype="commref"><text style="&st18;" transform="matrix(&st16;  2690.64  296.11 )">(LHD)</text></g><g ewd:code="" ewd:comment="" ewd:figID="192" ewd:figtype="commref"><text style="&st18;" transform="matrix(&st16;  2648.15  340.3 )">(RHD)</text></g><g ewd:code="" ewd:comment="" ewd:figID="193" ewd:figtype="commref"><text style="&st18;" transform="matrix(&st16;  2648.15  331.23 )">(LHD)</text></g><g ewd:code="" ewd:comment="" ewd:figID="194" ewd:figtype="commref"><text style="&st18;" transform="matrix(&st17;  2929.45  541.5 )">(RHD)</text></g><g ewd:code="" ewd:comment="" ewd:figID="195" ewd:figtype="commref"><text style="&st18;" transform="matrix(&st17;  2920.38  541.42 )">(LHD)</text></g><g ewd:code="" ewd:comment="" ewd:figID="196" ewd:figtype="commref"><text style="&st18;" transform="matrix(&st17;  2955.51  541.42 )">(LHD)</text></g><g ewd:code="" ewd:comment="" ewd:figID="197" ewd:figtype="commref"><text style="&st18;" transform="matrix(&st17;  2964.58  541.5 )">(RHD)</text></g><g ewd:code="2" ewd:comment="" ewd:figID="183" ewd:figtype="comment"><text style="&st18;" transform="matrix(&st16;  2622.66  607.15 )">* 2 :1GD-FTV, 2GD-FTV</text></g><g ewd:code="16" ewd:comment="" ewd:figID="220" ewd:figtype="comment"><text style="&st18;" transform="matrix(&st16;  2622.66  649.65 )">*16 :1KD-FTV</text></g><g ewd:code="17" ewd:comment="" ewd:figID="219" ewd:figtype="comment"><text ewd:textID="8" style="&st18;" transform="matrix(&st16;  2622.66  658.14 )">*17 :Except 1KD-FTV</text></g><g ewd:code="8" ewd:comment="3" ewd:figID="184" ewd:figtype="comment"><text ewd:textID="5" style="&st18;" transform="matrix(&st16;  2622.66  641.15 )">* 8 :Except *3</text></g><g ewd:code="19" ewd:comment="" ewd:figID="218" ewd:figtype="comment"><text style="&st18;" transform="matrix(&st16;  2622.66  666.64 )">*19 :2TR-FE, 1GR-FE, 1KD-FTV, 2KD-FTV, 5L-E</text></g><g ewd:code="6" ewd:comment="" ewd:figID="185" ewd:figtype="comment"><text ewd:textID="3" style="&st18;" transform="matrix(&st16;  2622.66  624.15 )">* 6 :w/ Smart Entry &amp; Start System</text></g><g ewd:code="7" ewd:comment="" ewd:figID="213" ewd:figtype="comment"><text ewd:textID="4" style="&st18;" transform="matrix(&st16;  2622.66  632.65 )">* 7 :w/o Smart Entry &amp; Start System</text></g><g ewd:code="3" ewd:comment="" ewd:figID="186" ewd:figtype="comment"><text style="&st18;" transform="matrix(&st16;  2622.66  615.65 )">* 3 :1KD-FTV, 2KD-FTV</text></g></svg>