﻿<?xml version="1.0" encoding="utf-8"?>
<!DOCTYPE svg PUBLIC "-//W3C//DTD SVG 1.0//EN" "http://www.w3.org/TR/2001/REC-SVG-20010904/DTD/svg10.dtd"[
	<!ENTITY ns_flows "http://ns.adobe.com/Flows/1.0/">
	<!ENTITY ns_svg "http://www.w3.org/2000/svg">
	<!ENTITY ns_xlink "http://www.w3.org/1999/xlink">
	<!ENTITY st0 "font-size:7px;font-family:'MS-PGothic';adobe-font-script:japanese;">
	<!ENTITY st1 "font-size:6px;font-family:'ArialMT';">
	<!-- White fill  -->
	<!ENTITY st2 "fill:#FFFFFF;stroke:#000000; stroke-width:1.41;stroke-linecap:round;stroke-linejoin:round;">
	<!-- Yellow fill  -->
	<!ENTITY st3 "fill:#FFFFCC;stroke:#FFFFCC; stroke-width:0.1;stroke-linecap:round;stroke-linejoin:round;">
	<!-- Gray fill  -->
	<!ENTITY st4 "fill:#CCCCCC;stroke:#CCCCCC; stroke-width:0.1;stroke-linecap:round;stroke-linejoin:round;">
	<!-- Light-blue fill -->
	<!ENTITY st5 "fill:#CCECF4;stroke:#000000; stroke-width:1.133;stroke-linecap:round;stroke-linejoin:round;">
	<!ENTITY st6 "fill:none;stroke-linecap:butt; stroke-linejoin:round;">
	<!ENTITY st7 "fill:none;stroke:#000000;stroke-linecap:round;stroke-linejoin:round;">
	<!ENTITY st8 "enable-background:new    ;">
	<!-- Black fill -->
	<!ENTITY st9 "fill:#000000;stroke:#000000; stroke-linecap:round;stroke-linejoin:round;">
	<!-- SRS note   -->
	<!ENTITY st10 "font-size:9px;font-family:'ArialMT';">
	<!ENTITY st11 "font-size:9px;font-family:'Svg Symbol';">
	<!ENTITY st12 "font-size:6px;font-family:'Svg Symbol';">
	<!ENTITY st13 "fill:none;stroke:#ff0000;stroke-linecap:round;stroke-linejoin:round;">
	<!-- Yellow fill  -->
	<!ENTITY st14 "fill:#FFFF00;stroke:#FFFF00; stroke-width:0.1;stroke-linecap:round;stroke-linejoin:round;">
	<!ENTITY st15 "font-size:6px;font-family:'MS-PGothic';adobe-font-script:japanese;">
	<!ENTITY st16 "1.00 0.00 0.00 1.00">
	<!ENTITY st17 "0.00 -1.00 1.00 0.00">
	<!ENTITY st18 "font-size:6px;font-family:'Arial';">
	<!ENTITY st19 "font-size:9px;font-family:'Arial';">
	<!ENTITY st20 "font-size:6px;font-family:'MS-PGothic','MS PGothic';adobe-font-script:japanese;">
	<!ENTITY st21 "font-size:7px;font-family:'MS-PGothic','MS PGothic';adobe-font-script:japanese;">
	<!ATTLIST svg
		xmlns:ewd CDATA #FIXED "http://shcl.co.jp/ewd"
		xmlns:a CDATA #FIXED "http://ns.adobe.com/AdobeSVGViewerExtensions/3.0/"
		ewd:ver CDATA #IMPLIED
	>
	<!ATTLIST a
		ewd:lineID CDATA #IMPLIED
		ewd:groupID CDATA #IMPLIED
		ewd:figtype CDATA #IMPLIED
		ewd:code CDATA #IMPLIED
		ewd:figID CDATA #IMPLIED
		ewd:pinNo CDATA #IMPLIED
		ewd:comment CDATA #IMPLIED >
	<!ATTLIST g
		ewd:lineID CDATA #IMPLIED
		ewd:groupID CDATA #IMPLIED
		ewd:figtype CDATA #IMPLIED
		ewd:code CDATA #IMPLIED
		ewd:figID CDATA #IMPLIED
		ewd:pinNo CDATA #IMPLIED
		ewd:comment CDATA #IMPLIED >
	<!ATTLIST text
		ewd:textID CDATA #IMPLIED >
	<!ATTLIST title
		ewd:textID CDATA #IMPLIED >
]>
<!-- Generator: Shintec Hozumi YS   -->
<svg onload="call_execInitLoadProc_svg('system')" style="overflow:visible;  enable-background:new 0 0 937.812 710.000" viewBox="0 0 937.812 710.000" height="710.000" width="937.812" xml:space="preserve" ewd:ver="2.1.2.9" xmlns="&ns_svg;" xmlns:a="http://ns.adobe.com/AdobeSVGViewerExtensions/3.0/" xmlns:ewd="http://shcl.co.jp/ewd" xmlns:xlink="&ns_xlink;">
<path style="stroke-width: 1.42 ;&st7;  " d=" M   161.47,   494.70  L   152.97,   494.70  " /><text style="&st18;" transform="matrix(&st17;  149.28  453.78 )">L</text><text style="&st18;" transform="matrix(&st17;  174.77  216.21 )">G</text><text style="&st18;" transform="matrix(&st17;  30.3  653.63 )">W-B</text><text style="&st18;" transform="matrix(&st17;  149.28  523.75 )">BR</text><text style="&st18;" transform="matrix(&st16;  210.47  346.53 )">P</text><path style="stroke-width: 1.42 ;&st7;  " d=" M   144.48,   409.72  L   152.97,   409.72  " /><text style="&st18;" transform="matrix(&st17;  149.28  648.98 )">#</text><text style="&st18;" transform="matrix(&st17;  149.28  130.95 )">B</text><text style="&st18;" transform="matrix(&st17;  242.76  135.47 )">G</text><text style="&st18;" transform="matrix(&st17;  149.28  385.79 )">L</text><path style="stroke-width: 1.42 ;&st7;  " d=" M   280.45,   384.22  L   288.95,   384.22  " /><text style="&st18;" transform="matrix(&st17;  296.59  431.43 )">(*1)</text><text style="&st18;" transform="matrix(&st17;  285.26  428.67 )">G</text><text style="&st18;" transform="matrix(&st17;  285.26  530.31 )">R</text><text style="&st18;" transform="matrix(&st17;  296.59  533.41 )">(*1)</text><text style="&st18;" transform="matrix(&st16;  235.97  406.02 )">P</text><text style="&st18;" transform="matrix(&st16;  232.75  417.35 )">(*2)</text><text style="&st18;" transform="matrix(&st16;  487.71  646.81 )">(*2)</text><text style="&st18;" transform="matrix(&st16;  490.92  635.48 )">P</text><path style="stroke-width: 1.42 ;&st7;  " d=" M    76.49,   588.19  L    84.99,   588.19  " /><text style="&st18;" transform="matrix(&st16;  114.7  346.53 )">LG</text><text style="&st18;" transform="matrix(&st16;  109.73  357.86 )">(*3,*4)</text><text style="&st18;" transform="matrix(&st17;  81.29  496.39 )">B</text><text style="&st18;" transform="matrix(&st17;  92.62  503.45 )">(*3,*4)</text><text style="&st18;" transform="matrix(&st17;  81.29  564.38 )">B</text><text style="&st18;" transform="matrix(&st17;  92.62  571.44 )">(*3,*4)</text><text style="&st18;" transform="matrix(&st17;  81.29  615.37 )">B</text><text style="&st18;" transform="matrix(&st17;  92.62  622.43 )">(*3,*4)</text><text style="&st18;" transform="matrix(&st16;  480.57  247.38 )">(LHD *2)</text><text style="&st18;" transform="matrix(&st16;  490.46  236.05 )">G</text><text style="&st18;" transform="matrix(&st17;  370.24  156.72 )">G</text><text style="&st18;" transform="matrix(&st17;  412.74  517.65 )">W-B</text><text style="&st18;" transform="matrix(&st17;  370.24  513.31 )">R</text><text style="&st18;" transform="matrix(&st17;  370.24  351.8 )">L</text><text style="&st18;" transform="matrix(&st17;  381.57  362.11 )">(RHD *1)</text><text style="&st18;" transform="matrix(&st17;  381.57  516.41 )">(*1)</text><text style="&st18;" transform="matrix(&st17;  424.07  523.59 )">(RHD *1)</text><text style="&st18;" transform="matrix(&st17;  455.23  517.65 )">W-B</text><text style="&st18;" transform="matrix(&st17;  466.56  523.55 )">(LHD *1)</text><text style="&st18;" transform="matrix(&st17;  441.06  281.55 )">(LHD)</text><text style="&st18;" transform="matrix(&st17;  429.73  275.7 )">G</text><text style="&st18;" transform="matrix(&st17;  429.73  351.8 )">L</text><text style="&st18;" transform="matrix(&st17;  441.07  362.07 )">(LHD *1)</text><text style="&st18;" transform="matrix(&st16;  490.46  159.56 )">G</text><text style="&st18;" transform="matrix(&st16;  480.53  170.89 )">(RHD *2)</text><g ewd:figtype="conn" ewd:figID="1" ewd:code="N27"><path style="stroke-width: 1.42 ;&st7;  " d=" M   237.96,   154.76  L   254.96,   154.76  L   254.96,   171.76  L   237.96,   171.76  L   237.96,   154.76  " /><path style="stroke-width: 0.85 ;&st7;  " d=" M   246.46,   154.76  L   246.46,   171.76  " /><text style="&st18;" transform="matrix(&st16;  237.17  179.95 )">21</text><text style="&st18;" transform="matrix(&st16;  237.17  151.07 )">19</text><g ewd:figtype="title"><text style="&st18;" transform="matrix(&st17;  225.77  174.66 )" ewd:textID="14">No. 21 Junction <tspan x="0 " dy="6.0">Connector</tspan></text><text style="&st18;" transform="matrix(&st17;  218.94  174.66 )">N27</text></g></g><g ewd:figtype="conn" ewd:figID="2" ewd:code="G37"><path style="stroke-width: 1.42 ;&st7;  " d=" M   271.95,   460.71  L   271.95,   494.70  L   305.95,   494.70  L   305.95,   460.71  L   271.95,   460.71  " /><g ewd:lineID="14"><text style="&st18;" transform="matrix(&st16;  277.16  501.2 )">37</text><path style="stroke-width: 1.42 ;&st7;   " d=" M   293.48,   499.24  C   293.48    496.73    291.45    494.70    288.95    494.70  " /><path style="stroke-width: 1.42 ;&st7;   " d=" M   288.95,   494.70  C   286.45    494.70    284.42    496.73    284.42    499.24  " /><path style="stroke-width: 1.42 ;&st7;   " d=" M   284.42,   499.24  C   284.42    501.74    286.45    503.77    288.95    503.77  " /><path style="stroke-width: 1.42 ;&st7;   " d=" M   288.95,   503.77  C   291.45    503.77    293.48    501.74    293.48    499.24  " /><text style="&st18;" transform="matrix(&st16;  286.65  501.2 )">A</text><text style="&st18;" transform="matrix(&st16;  282.38  491.01 )">LIN1</text></g><g ewd:lineID="15"><text style="&st18;" transform="matrix(&st16;  277.16  458.14 )">38</text><path style="stroke-width: 1.42 ;&st7;   " d=" M   293.48,   456.18  C   293.48    453.67    291.45    451.64    288.95    451.64  " /><path style="stroke-width: 1.42 ;&st7;   " d=" M   288.95,   451.64  C   286.45    451.64    284.42    453.67    284.42    456.18  " /><path style="stroke-width: 1.42 ;&st7;   " d=" M   284.42,   456.18  C   284.42    458.68    286.45    460.71    288.95    460.71  " /><path style="stroke-width: 1.42 ;&st7;   " d=" M   288.95,   460.71  C   291.45    460.71    293.48    458.68    293.48    456.18  " /><text style="&st18;" transform="matrix(&st16;  286.65  458.14 )">A</text><text style="&st18;" transform="matrix(&st16;  280.64  468.34 )">RDFG</text></g><g ewd:figtype="title"><text style="&st18;" transform="matrix(&st17;  262.31  497.61 )" ewd:textID="4">A/C Amplifier <tspan x="0 " dy="6.0">Assembly</tspan></text><text style="&st18;" transform="matrix(&st17;  255.49  497.6 )">G37(A)</text></g></g><g ewd:figtype="rb" ewd:figID="3" ewd:code="6"><path style="stroke-width: 1.42 ;&st7;  " d=" M   180.59,   231.25  L   176.35,   231.25  " /><path style="stroke-width: 1.42 ;&st7;  " d=" M   180.59,   239.75  L   176.35,   239.75  " /><path style="stroke-width: 1.42 ;&st7;  " d=" M   155.10,   231.25  L   150.85,   231.25  " /><path style="stroke-width: 1.42 ;&st7;  " d=" M   155.10,   239.75  L   150.85,   239.75  " /><path style="stroke-width: 1.42 ;&st7;  " d=" M   155.10,   324.73  L   150.85,   324.73  " /><path style="stroke-width: 1.42 ;&st7;  " d=" M   155.10,   333.23  L   150.85,   333.23  " /><path style="stroke-width: 1.42 ;&st7;  " d=" M   180.59,   324.73  L   176.35,   324.73  " /><path style="stroke-width: 1.42 ;&st7;  " d=" M   180.59,   333.23  L   176.35,   333.23  " /><path style="stroke-width: 1.42 ;&st7;  " d=" M   106.23,   277.99  L   110.48,   277.99  " /><path style="stroke-width: 1.42 ;&st7;  " d=" M   110.48,   286.49  L   106.23,   286.49  " /><path style="stroke-width: 1.42 ;&st7;   " d=" M   176.35,   231.25  C   174.00    231.25    172.10    233.15    172.10    235.50  " /><path style="stroke-width: 1.42 ;&st7;   " d=" M   172.10,   235.50  C   172.10    237.84    174.00    239.75    176.35    239.75  " /><path style="stroke-width: 1.42 ;&st7;   " d=" M   180.59,   239.75  C   182.94    239.75    184.84    237.84    184.84    235.50  " /><path style="stroke-width: 1.42 ;&st7;   " d=" M   184.84,   235.50  C   184.84    233.15    182.94    231.25    180.59    231.25  " /><path style="stroke-width: 1.42 ;&st7;   " d=" M   150.85,   231.25  C   148.50    231.25    146.60    233.15    146.60    235.50  " /><path style="stroke-width: 1.42 ;&st7;   " d=" M   146.60,   235.50  C   146.60    237.84    148.50    239.75    150.85    239.75  " /><path style="stroke-width: 1.42 ;&st7;   " d=" M   155.10,   239.75  C   157.45    239.75    159.35    237.84    159.35    235.50  " /><path style="stroke-width: 1.42 ;&st7;   " d=" M   159.35,   235.50  C   159.35    233.15    157.45    231.25    155.10    231.25  " /><path style="stroke-width: 1.42 ;&st7;   " d=" M   150.85,   324.73  C   148.50    324.73    146.60    326.63    146.60    328.98  " /><path style="stroke-width: 1.42 ;&st7;   " d=" M   146.60,   328.98  C   146.60    331.33    148.50    333.23    150.85    333.23  " /><path style="stroke-width: 1.42 ;&st7;   " d=" M   155.10,   333.23  C   157.45    333.23    159.35    331.33    159.35    328.98  " /><path style="stroke-width: 1.42 ;&st7;   " d=" M   159.35,   328.98  C   159.35    326.63    157.45    324.73    155.10    324.73  " /><path style="stroke-width: 1.42 ;&st7;   " d=" M   176.35,   324.73  C   174.00    324.73    172.10    326.63    172.10    328.98  " /><path style="stroke-width: 1.42 ;&st7;   " d=" M   172.10,   328.98  C   172.10    331.33    174.00    333.23    176.35    333.23  " /><path style="stroke-width: 1.42 ;&st7;   " d=" M   180.59,   333.23  C   182.94    333.23    184.84    331.33    184.84    328.98  " /><path style="stroke-width: 1.42 ;&st7;   " d=" M   184.84,   328.98  C   184.84    326.63    182.94    324.73    180.59    324.73  " /><path style="stroke-width: 1.42 ;&st7;   " d=" M   106.23,   277.99  C   103.89    277.99    101.98    279.89    101.98    282.24  " /><path style="stroke-width: 1.42 ;&st7;   " d=" M   101.98,   282.24  C   101.98    284.58    103.89    286.49    106.23    286.49  " /><path style="stroke-width: 1.42 ;&st7;   " d=" M   110.48,   286.49  C   112.83    286.49    114.73    284.58    114.73    282.24  " /><path style="stroke-width: 1.42 ;&st7;   " d=" M   114.73,   282.24  C   114.73    279.89    112.83    277.99    110.48    277.99  " /><path style="stroke-width: 0.28 ;&st9;  " d=" M   178.47,   244.64  L   181.30,   247.47  L   181.30,   243.22  L   178.47,   240.39  L   175.64,   243.22  L   175.64,   247.47  L   178.47,   244.64  " /><path style="stroke-width: 0.28 ;&st9;  " d=" M   152.97,   244.64  L   155.81,   247.47  L   155.81,   243.22  L   152.97,   240.39  L   150.14,   243.22  L   150.14,   247.47  L   152.97,   244.64  " /><path style="stroke-width: 0.28 ;&st9;  " d=" M   152.97,   319.84  L   150.14,   317.00  L   150.14,   321.25  L   152.97,   324.09  L   155.81,   321.25  L   155.81,   317.00  L   152.97,   319.84  " /><path style="stroke-width: 0.28 ;&st9;  " d=" M   178.47,   319.84  L   175.64,   317.00  L   175.64,   321.25  L   178.47,   324.09  L   181.30,   321.25  L   181.30,   317.00  L   178.47,   319.84  " /><path style="stroke-width: 0.85 ;&st7;  " d=" M   152.97,   239.75  L   152.97,   265.24  " /><path style="stroke-width: 0.85 ;&st7;  " d=" M   178.47,   239.75  L   178.47,   265.24  " /><path style="stroke-width: 0.85 ;&st7;  " d=" M   152.97,   299.24  L   152.97,   324.73  " /><path style="stroke-width: 0.85 ;&st7;  " d=" M   178.47,   299.24  L   178.47,   324.73  " /><path style="stroke-width: 0.28 ;&st9;  " d=" M   119.63,   282.24  L   122.46,   279.41  L   118.21,   279.41  L   115.38,   282.24  L   118.21,   285.07  L   122.46,   285.07  L   119.63,   282.24  " /><path style="stroke-width: 0.85 ;&st7;  " d=" M   114.73,   282.24  L   144.48,   282.24  " /><text style="&st18;" transform="matrix(&st16;  176.67  237.47 )">6</text><text style="&st18;" transform="matrix(&st16;  151.17  237.47 )">6</text><text style="&st18;" transform="matrix(&st16;  151.17  330.95 )">6</text><text style="&st18;" transform="matrix(&st16;  176.67  330.95 )">6</text><text style="&st18;" transform="matrix(&st16;  189.23  281.38 )" ewd:textID="7">DEF <tspan x="0 " dy="6.0">Relay</tspan></text><text style="&st18;" transform="matrix(&st16;  146.79  307.43 )">3</text><text style="&st18;" transform="matrix(&st16;  172.29  307.43 )">2</text><text style="&st18;" transform="matrix(&st16;  138.29  278.55 )">4</text><text style="&st18;" transform="matrix(&st16;  146.79  261.55 )">5</text><text style="&st18;" transform="matrix(&st16;  172.29  261.55 )">1</text><text style="&st18;" transform="matrix(&st16;  106.56  284.21 )">6</text><path style="stroke-width: 1.42 ;&st7;  " d=" M   152.97,   292.15  L   147.31,   269.49  " /><path style="stroke-width: 0.85 ;&st7;  " d=" M   152.97,   294.99  L   152.97,   299.24  " /><path style="stroke-width: 0.85 ;&st7;  " d=" M   144.48,   282.24  L   147.31,   282.24  " /><path style="stroke-width: 0.85 ;&st7;  " d=" M   152.97,   265.24  L   152.97,   269.49  " /><path style="stroke-width: 0.85 ;&st7;  " d=" M   178.47,   265.24  L   178.47,   273.74  " /><path style="stroke-width: 0.85 ;&st7;  " d=" M   178.47,   290.74  L   178.47,   299.24  " /><path style="stroke-width: 0.85 ;&st7;   " d=" M   150.14,   282.24  C   150.14    281.46    149.51    280.82    148.73    280.82  " /><path style="stroke-width: 0.85 ;&st7;   " d=" M   148.73,   280.82  C   147.94    280.82    147.31    281.46    147.31    282.24  " /><path style="stroke-width: 0.85 ;&st7;   " d=" M   147.31,   282.24  C   147.31    283.02    147.94    283.65    148.73    283.65  " /><path style="stroke-width: 0.85 ;&st7;   " d=" M   148.73,   283.65  C   149.51    283.65    150.14    283.02    150.14    282.24  " /><path style="stroke-width: 0.85 ;&st7;   " d=" M   154.39,   293.57  C   154.39    292.79    153.76    292.15    152.97    292.15  " /><path style="stroke-width: 0.85 ;&st7;   " d=" M   152.97,   292.15  C   152.19    292.15    151.56    292.79    151.56    293.57  " /><path style="stroke-width: 0.85 ;&st7;   " d=" M   151.56,   293.57  C   151.56    294.35    152.19    294.99    152.97    294.99  " /><path style="stroke-width: 0.85 ;&st7;   " d=" M   152.97,   294.99  C   153.76    294.99    154.39    294.35    154.39    293.57  " /><path style="stroke-width: 0.85 ;&st7;   " d=" M   154.39,   270.91  C   154.39    270.12    153.76    269.49    152.97    269.49  " /><path style="stroke-width: 0.85 ;&st7;   " d=" M   152.97,   269.49  C   152.19    269.49    151.56    270.12    151.56    270.91  " /><path style="stroke-width: 0.85 ;&st7;   " d=" M   151.56,   270.91  C   151.56    271.69    152.19    272.32    152.97    272.32  " /><path style="stroke-width: 0.85 ;&st7;   " d=" M   152.97,   272.32  C   153.76    272.32    154.39    271.69    154.39    270.91  " /><path style="stroke-width: 0.85 ;&st7;   " d=" M   175.94,   279.76  C   177.31    281.16    179.55    281.18    180.95    279.81  " /><path style="stroke-width: 0.85 ;&st7;   " d=" M   180.95,   279.81  C   182.35    278.44    182.37    276.20    181.00    274.80  " /><path style="stroke-width: 0.85 ;&st7;   " d=" M   181.00,   274.80  C   180.31    274.09    179.46    273.74    178.47    273.74  " /><path style="stroke-width: 0.85 ;&st7;   " d=" M   175.94,   284.72  C   177.31    286.11    179.55    286.14    180.95    284.77  " /><path style="stroke-width: 0.85 ;&st7;   " d=" M   180.95,   284.77  C   182.35    283.40    182.37    281.16    181.00    279.76  " /><path style="stroke-width: 0.85 ;&st7;   " d=" M   181.00,   279.76  C   179.63    278.36    177.39    278.34    175.99    279.71  " /><path style="stroke-width: 0.85 ;&st7;   " d=" M   175.99,   279.71  C   175.97    279.73    175.96    279.74    175.94    279.76  " /><path style="stroke-width: 0.85 ;&st7;   " d=" M   178.47,   290.74  C   180.43    290.74    182.01    289.15    182.01    287.20  " /><path style="stroke-width: 0.85 ;&st7;   " d=" M   182.01,   287.20  C   182.01    285.24    180.43    283.65    178.47    283.65  " /><path style="stroke-width: 0.85 ;&st7;   " d=" M   178.47,   283.65  C   177.48    283.65    176.63    284.01    175.94    284.72  " /><path style="stroke-width: 1.42 ;&st7;  " d=" M   144.48,   265.24  L   186.97,   265.24  L   186.97,   299.24  L   144.48,   299.24  L   144.48,   265.24  " /></g><g ewd:figtype="rb" ewd:figID="4" ewd:code="FUSE83"><path style="stroke-width: 1.42 ;&st7;  " d=" M   155.10,    95.27  L   150.85,    95.27  " /><path style="stroke-width: 1.42 ;&st7;  " d=" M   155.10,   103.77  L   150.85,   103.77  " /><path style="stroke-width: 0.85 ;&st7;  " d=" M   152.97,    78.27  L   152.97,    95.27  " /><path style="stroke-width: 1.42 ;&st7;   " d=" M   150.85,    95.27  C   148.50     95.27    146.60     97.17    146.60     99.52  " /><path style="stroke-width: 1.42 ;&st7;   " d=" M   146.60,    99.52  C   146.60    101.87    148.50    103.77    150.85    103.77  " /><path style="stroke-width: 1.42 ;&st7;   " d=" M   155.10,   103.77  C   157.45    103.77    159.35    101.87    159.35     99.52  " /><path style="stroke-width: 1.42 ;&st7;   " d=" M   159.35,    99.52  C   159.35     97.17    157.45     95.27    155.10     95.27  " /><path style="stroke-width: 0.28 ;&st9;  " d=" M   152.97,    90.37  L   150.14,    87.54  L   150.14,    91.79  L   152.97,    94.62  L   155.81,    91.79  L   155.81,    87.54  L   152.97,    90.37  " /><text style="&st18;" transform="matrix(&st16;  144.93  32.08 )">(BAT)</text><text style="&st18;" transform="matrix(&st16;  169.4  56.17 )">25A <tspan x="0 " dy="6.0">DEF</tspan></text><text style="&st18;" transform="matrix(&st16;  151.17  101.49 )">6</text><text style="&st18;" transform="matrix(&st16;  146.79  86.47 )">2</text><path style="stroke-width: 1.42 ;&st7;   " d=" M   152.97,    47.11  C   150.24     48.72    149.32     52.25    150.94     54.99  " /><path style="stroke-width: 1.42 ;&st7;   " d=" M   150.94,    54.99  C   151.46     55.87    152.09     56.51    152.97     57.03  " /><path style="stroke-width: 1.42 ;&st7;   " d=" M   152.97,    66.94  C   155.71     65.33    156.62     61.80    155.01     59.06  " /><path style="stroke-width: 1.42 ;&st7;   " d=" M   155.01,    59.06  C   154.49     58.18    153.86     57.55    152.97     57.03  " /><path style="stroke-width: 0.85 ;&st7;   " d=" M   154.39,    45.69  C   154.39     44.91    153.76     44.28    152.97     44.28  " /><path style="stroke-width: 0.85 ;&st7;   " d=" M   152.97,    44.28  C   152.19     44.28    151.56     44.91    151.56     45.69  " /><path style="stroke-width: 0.85 ;&st7;   " d=" M   151.56,    45.69  C   151.56     46.48    152.19     47.11    152.97     47.11  " /><path style="stroke-width: 0.85 ;&st7;   " d=" M   152.97,    47.11  C   153.76     47.11    154.39     46.48    154.39     45.69  " /><path style="stroke-width: 0.85 ;&st7;   " d=" M   154.39,    68.36  C   154.39     67.57    153.76     66.94    152.97     66.94  " /><path style="stroke-width: 0.85 ;&st7;   " d=" M   152.97,    66.94  C   152.19     66.94    151.56     67.57    151.56     68.36  " /><path style="stroke-width: 0.85 ;&st7;   " d=" M   151.56,    68.36  C   151.56     69.14    152.19     69.77    152.97     69.77  " /><path style="stroke-width: 0.85 ;&st7;   " d=" M   152.97,    69.77  C   153.76     69.77    154.39     69.14    154.39     68.36  " /><path style="stroke-width: 0.85 ;&st7;  " d=" M   152.97,    69.77  L   152.97,    78.27  " /><path style="stroke-width: 1.42 ;&st7;  " d=" M   140.23,    35.78  L   140.23,    78.27  L   165.72,    78.27  L   165.72,    35.78  L   140.23,    35.78  " /></g><g ewd:code="G142,G144" ewd:figID="5" ewd:comment="3,4" ewd:figtype="conn"><path style="stroke-width: 1.42 ;&st7;  " d=" M    67.99,   647.68  L    67.99,   681.67  L   101.98,   681.67  L   101.98,   647.68  L    67.99,   647.68  " /><text style="&st18;" transform="matrix(&st16;  73.19  645.11 )">11</text><text style="&st18;" transform="matrix(&st16;  73.19  636.05 )">28</text><path style="stroke-width: 1.42 ;&st7;   " d=" M    89.52,   643.14  C    89.52    640.64     87.49    638.61     84.99    638.61  " /><path style="stroke-width: 1.42 ;&st7;   " d=" M    84.99,   638.61  C    82.48    638.61     80.45    640.64     80.45    643.14  " /><path style="stroke-width: 1.42 ;&st7;   " d=" M    80.45,   643.14  C    80.45    645.65     82.48    647.68     84.99    647.68  " /><path style="stroke-width: 1.42 ;&st7;   " d=" M    84.99,   647.68  C    87.49    647.68     89.52    645.65     89.52    643.14  " /><text style="&st18;" transform="matrix(&st16;  82.6  636.05 )">D</text><path style="stroke-width: 1.42 ;&st7;   " d=" M    89.52,   634.08  C    89.52    631.58     87.49    629.55     84.99    629.55  " /><path style="stroke-width: 1.42 ;&st7;   " d=" M    84.99,   629.55  C    82.48    629.55     80.45    631.58     80.45    634.08  " /><path style="stroke-width: 1.42 ;&st7;   " d=" M    80.45,   634.08  C    80.45    636.58     82.48    638.61     84.99    638.61  " /><path style="stroke-width: 1.42 ;&st7;   " d=" M    84.99,   638.61  C    87.49    638.61     89.52    636.58     89.52    634.08  " /><text style="&st18;" transform="matrix(&st16;  82.88  645.11 )">E</text><text style="&st18;" transform="matrix(&st16;  77.95  655.31 )">ELS2</text><g ewd:figtype="title"><text style="&st18;" transform="matrix(&st16;  64.58  696.39 )">ECM</text><text style="&st18;" transform="matrix(&st16;  64.58  689.56 )">G142(D),G144(E)</text></g><g ewd:code="" ewd:figID="40" ewd:comment="4" ewd:figtype="commref"><text style="&st18;" transform="matrix(&st16;  90.08  645.11 )">(*4)</text></g><g ewd:code="" ewd:figID="41" ewd:comment="3" ewd:figtype="commref"><text style="&st18;" transform="matrix(&st16;  90.08  636.05 )">(*3)</text></g></g><g ewd:figtype="conn" ewd:figID="6" ewd:code="N29"><path style="stroke-width: 1.42 ;&st7;  " d=" M    76.49,   520.20  L    93.48,   520.20  L    93.48,   537.20  L    76.49,   537.20  L    76.49,   520.20  " /><path style="stroke-width: 0.85 ;&st7;  " d=" M    84.99,   520.20  L    84.99,   537.20  " /><text style="&st18;" transform="matrix(&st16;  78.8  545.39 )">7</text><text style="&st18;" transform="matrix(&st16;  78.8  516.51 )">5</text><g ewd:figtype="title"><text style="&st18;" transform="matrix(&st17;  108.2  540.1 )" ewd:textID="15">No. 23 <tspan x="0 " dy="6.0">Junction </tspan><tspan x="0 " dy="6.0">Connector</tspan></text><text style="&st18;" transform="matrix(&st17;  101.38  540.09 )">N29</text></g></g><g ewd:figtype="rb" ewd:figID="7" ewd:code="FUSE81"><path style="stroke-width: 1.42 ;&st7;  " d=" M    87.11,   384.22  L    82.86,   384.22  " /><path style="stroke-width: 1.42 ;&st7;  " d=" M    87.11,   392.72  L    82.86,   392.72  " /><path style="stroke-width: 1.42 ;&st7;   " d=" M    82.86,   384.22  C    80.51    384.22     78.61    386.12     78.61    388.47  " /><path style="stroke-width: 1.42 ;&st7;   " d=" M    78.61,   388.47  C    78.61    390.82     80.51    392.72     82.86    392.72  " /><path style="stroke-width: 1.42 ;&st7;   " d=" M    87.11,   392.72  C    89.46    392.72     91.36    390.82     91.36    388.47  " /><path style="stroke-width: 1.42 ;&st7;   " d=" M    91.36,   388.47  C    91.36    386.12     89.46    384.22     87.11    384.22  " /><path style="stroke-width: 0.28 ;&st9;  " d=" M    84.99,   397.61  L    87.82,   400.45  L    87.82,   396.20  L    84.99,   393.37  L    82.15,   396.20  L    82.15,   400.45  L    84.99,   397.61  " /><text style="&st18;" transform="matrix(&st16;  83.19  390.44 )">6</text><path style="stroke-width: 1.42 ;&st7;  " d=" M    87.11,   469.21  L    82.86,   469.21  " /><path style="stroke-width: 1.42 ;&st7;  " d=" M    87.11,   477.71  L    82.86,   477.71  " /><path style="stroke-width: 0.85 ;&st7;  " d=" M    84.99,   452.21  L    84.99,   469.21  " /><path style="stroke-width: 1.42 ;&st7;   " d=" M    82.86,   469.21  C    80.51    469.21     78.61    471.11     78.61    473.46  " /><path style="stroke-width: 1.42 ;&st7;   " d=" M    78.61,   473.46  C    78.61    475.80     80.51    477.71     82.86    477.71  " /><path style="stroke-width: 1.42 ;&st7;   " d=" M    87.11,   477.71  C    89.46    477.71     91.36    475.80     91.36    473.46  " /><path style="stroke-width: 1.42 ;&st7;   " d=" M    91.36,   473.46  C    91.36    471.11     89.46    469.21     87.11    469.21  " /><path style="stroke-width: 0.28 ;&st9;  " d=" M    84.99,   464.31  L    82.15,   461.48  L    82.15,   465.73  L    84.99,   468.56  L    87.82,   465.73  L    87.82,   461.48  L    84.99,   464.31  " /><text style="&st18;" transform="matrix(&st16;  101.41  430.11 )">10A <tspan x="0 " dy="6.0">DEF-S</tspan></text><text style="&st18;" transform="matrix(&st16;  83.19  475.43 )">6</text><text style="&st18;" transform="matrix(&st16;  78.8  460.4 )">2</text><path style="stroke-width: 0.85 ;&st7;  " d=" M    84.99,   409.72  L    84.99,   392.72  " /><text style="&st18;" transform="matrix(&st16;  78.8  406.03 )">1</text><path style="stroke-width: 0.85 ;&st7;  " d=" M    84.99,   443.71  L    84.99,   452.21  " /><path style="stroke-width: 1.42 ;&st7;   " d=" M    84.99,   421.05  C    82.25    422.66     81.34    426.19     82.95    428.93  " /><path style="stroke-width: 1.42 ;&st7;   " d=" M    82.95,   428.93  C    83.47    429.81     84.10    430.44     84.99    430.96  " /><path style="stroke-width: 1.42 ;&st7;   " d=" M    84.99,   440.88  C    87.72    439.27     88.64    435.74     87.02    433.00  " /><path style="stroke-width: 1.42 ;&st7;   " d=" M    87.02,   433.00  C    86.50    432.12     85.87    431.48     84.99    430.96  " /><path style="stroke-width: 0.85 ;&st7;   " d=" M    86.40,   419.63  C    86.40    418.85     85.77    418.22     84.99    418.22  " /><path style="stroke-width: 0.85 ;&st7;   " d=" M    84.99,   418.22  C    84.20    418.22     83.57    418.85     83.57    419.63  " /><path style="stroke-width: 0.85 ;&st7;   " d=" M    83.57,   419.63  C    83.57    420.41     84.20    421.05     84.99    421.05  " /><path style="stroke-width: 0.85 ;&st7;   " d=" M    84.99,   421.05  C    85.77    421.05     86.40    420.41     86.40    419.63  " /><path style="stroke-width: 0.85 ;&st7;   " d=" M    86.40,   442.29  C    86.40    441.51     85.77    440.88     84.99    440.88  " /><path style="stroke-width: 0.85 ;&st7;   " d=" M    84.99,   440.88  C    84.20    440.88     83.57    441.51     83.57    442.29  " /><path style="stroke-width: 0.85 ;&st7;   " d=" M    83.57,   442.29  C    83.57    443.08     84.20    443.71     84.99    443.71  " /><path style="stroke-width: 0.85 ;&st7;   " d=" M    84.99,   443.71  C    85.77    443.71     86.40    443.08     86.40    442.29  " /><path style="stroke-width: 1.42 ;&st7;  " d=" M    72.24,   409.72  L    72.24,   452.21  L    97.73,   452.21  L    97.73,   409.72  L    72.24,   409.72  " /><path style="stroke-width: 0.85 ;&st7;  " d=" M    84.99,   409.72  L    84.99,   418.22  " /></g><g ewd:figtype="conn" ewd:figID="8" ewd:code="G153"><path style="stroke-width: 1.42 ;&st7;  " d=" M   424.93,   307.73  L   424.93,   324.73  L   484.42,   324.73  L   484.42,   307.73  L   424.93,   307.73  " /><path style="stroke-width: 0.85 ;&st7;  " d=" M   433.43,   307.73  L   433.43,   316.23  " /><path style="stroke-width: 0.85 ;&st7;  " d=" M   433.43,   316.23  L   475.92,   316.23  L   475.92,   307.73  " /><path style="stroke-width: 0.85 ;&st7;  " d=" M   433.43,   316.23  L   433.43,   324.73  " /><path style="stroke-width: 0.85 ;&st7;  " d=" M   432.23,   315.23  L   431.96,   315.70  L   431.87,   316.23  L   431.96,   316.77  L   432.23,   317.24  L   432.65,   317.58  L   433.16,   317.77  L   433.70,   317.77  L   434.21,   317.58  L   434.62,   317.24  L   434.89,   316.77  L   434.99,   316.23  L   434.89,   315.70  L   434.62,   315.23  L   434.21,   314.88  L   433.70,   314.70  L   433.16,   314.70  L   432.65,   314.88  L   432.23,   315.23  L   432.63,   315.94  L   432.63,   316.52  L   433.00,   316.97  L   433.57,   317.07  L   434.08,   316.78  L   434.28,   316.23  L   434.08,   315.69  L   433.57,   315.40  L   433.00,   315.50  L   433.43,   316.23  " /><text style="&st18;" transform="matrix(&st16;  427.24  332.92 )">8</text><text style="&st18;" transform="matrix(&st16;  427.24  304.04 )">5</text><text style="&st18;" transform="matrix(&st16;  469.74  304.04 )">9</text><g ewd:figtype="title"><text style="&st18;" transform="matrix(&st17;  492.31  327.63 )">G153</text><text style="&st18;" transform="matrix(&st17;  499.14  327.64 )" ewd:textID="17">No. 34 Junction <tspan x="0 " dy="6.0">Connector</tspan></text></g></g><g ewd:figtype="conn" ewd:figID="10" ewd:code="G110,G165"><path style="stroke-width: 0.85 ;&st7;  " d=" M   288.95,   562.69  L   288.95,   579.69  " /><path style="stroke-width: 1.42 ;&st7;  " d=" M   280.45,   562.69  L   297.45,   562.69  L   297.45,   579.69  L   280.45,   579.69  L   280.45,   562.69  " /><text style="&st18;" transform="matrix(&st16;  280.26  560.13 )">4</text><text style="&st18;" transform="matrix(&st16;  277.16  551.06 )">12</text><text style="&st18;" transform="matrix(&st16;  286.65  551.06 )">A</text><path style="stroke-width: 1.42 ;&st7;   " d=" M   293.48,   549.09  C   293.48    546.59    291.45    544.56    288.95    544.56  " /><path style="stroke-width: 1.42 ;&st7;   " d=" M   288.95,   544.56  C   286.45    544.56    284.42    546.59    284.42    549.09  " /><path style="stroke-width: 1.42 ;&st7;   " d=" M   284.42,   549.09  C   284.42    551.60    286.45    553.63    288.95    553.63  " /><path style="stroke-width: 1.42 ;&st7;   " d=" M   288.95,   553.63  C   291.45    553.63    293.48    551.60    293.48    549.09  " /><path style="stroke-width: 1.42 ;&st7;   " d=" M   293.48,   558.16  C   293.48    555.66    291.45    553.63    288.95    553.63  " /><path style="stroke-width: 1.42 ;&st7;   " d=" M   288.95,   553.63  C   286.45    553.63    284.42    555.66    284.42    558.16  " /><path style="stroke-width: 1.42 ;&st7;   " d=" M   284.42,   558.16  C   284.42    560.66    286.45    562.69    288.95    562.69  " /><path style="stroke-width: 1.42 ;&st7;   " d=" M   288.95,   562.69  C   291.45    562.69    293.48    560.66    293.48    558.16  " /><text style="&st18;" transform="matrix(&st16;  286.76  560.13 )">B</text><text style="&st18;" transform="matrix(&st16;  277.16  586.19 )">13</text><text style="&st18;" transform="matrix(&st16;  280.26  595.26 )">5</text><text style="&st18;" transform="matrix(&st16;  286.76  595.26 )">B</text><text style="&st18;" transform="matrix(&st16;  286.65  586.19 )">A</text><path style="stroke-width: 1.42 ;&st7;   " d=" M   293.48,   584.22  C   293.48    581.72    291.45    579.69    288.95    579.69  " /><path style="stroke-width: 1.42 ;&st7;   " d=" M   288.95,   579.69  C   286.45    579.69    284.42    581.72    284.42    584.22  " /><path style="stroke-width: 1.42 ;&st7;   " d=" M   284.42,   584.22  C   284.42    586.72    286.45    588.75    288.95    588.75  " /><path style="stroke-width: 1.42 ;&st7;   " d=" M   288.95,   588.75  C   291.45    588.75    293.48    586.72    293.48    584.22  " /><path style="stroke-width: 1.42 ;&st7;   " d=" M   293.48,   593.29  C   293.48    590.78    291.45    588.75    288.95    588.75  " /><path style="stroke-width: 1.42 ;&st7;   " d=" M   288.95,   588.75  C   286.45    588.75    284.42    590.78    284.42    593.29  " /><path style="stroke-width: 1.42 ;&st7;   " d=" M   284.42,   593.29  C   284.42    595.79    286.45    597.82    288.95    597.82  " /><path style="stroke-width: 1.42 ;&st7;   " d=" M   288.95,   597.82  C   291.45    597.82    293.48    595.79    293.48    593.29  " /><g ewd:figtype="title"><text style="&st18;" transform="matrix(&st17;  241.04  582.59 )">G165(A)</text><text style="&st18;" transform="matrix(&st17;  247.86  582.59 )" ewd:textID="18">No. 39 Junction <tspan x="0 " dy="6.0">Connector</tspan></text><text style="&st18;" transform="matrix(&st17;  261.15  582.59 )">G110(B)</text><text style="&st18;" transform="matrix(&st17;  267.98  582.59 )" ewd:textID="10">No. 9 Junction <tspan x="0 " dy="6.0">Connector</tspan></text></g><g ewd:code="" ewd:figID="42" ewd:comment="" ewd:figtype="commref"><text style="&st18;" transform="matrix(&st16;  294.04  560.13 )">(RHD)</text></g><g ewd:code="" ewd:figID="43" ewd:comment="" ewd:figtype="commref"><text style="&st18;" transform="matrix(&st16;  294.04  551.06 )">(LHD)</text></g><g ewd:code="" ewd:figID="44" ewd:comment="" ewd:figtype="commref"><text style="&st18;" transform="matrix(&st16;  294.04  595.26 )">(RHD)</text></g><g ewd:code="" ewd:figID="45" ewd:comment="" ewd:figtype="commref"><text style="&st18;" transform="matrix(&st16;  294.04  586.19 )">(LHD)</text></g></g><g ewd:figtype="conn" ewd:figID="11" ewd:code="G36"><text style="&st18;" transform="matrix(&st16;  374.31  434.36 )" ewd:textID="20">Rear Window <tspan x="0 " dy="6.0">Defogger Switch</tspan></text><path style="stroke-width: 1.42 ;&st7;  " d=" M   356.94,   409.72  L   356.94,   460.71  L   433.43,   460.71  L   433.43,   409.72  L   356.94,   409.72  " /><text style="&st18;" transform="matrix(&st16;  409.78  457.01 )">GND</text><text style="&st18;" transform="matrix(&st16;  369.04  417.35 )">IG+</text><text style="&st18;" transform="matrix(&st16;  367.37  457.01 )">LIN1</text><text style="&st18;" transform="matrix(&st16;  367.75  468.9 )">3</text><text style="&st18;" transform="matrix(&st16;  367.75  406.03 )">2</text><text style="&st18;" transform="matrix(&st16;  410.25  468.9 )">4</text><g ewd:figtype="title"><text style="&st18;" transform="matrix(&st17;  448.15  463.61 )" ewd:textID="5">A/C Control <tspan x="0 " dy="6.0">Assembly</tspan></text><text style="&st18;" transform="matrix(&st17;  441.32  463.61 )">G36</text></g></g><g ewd:code="G114,G151" ewd:figID="12" ewd:comment="2,1" ewd:figtype="conn"><path style="stroke-width: 1.42 ;&st7;  " d=" M   365.44,   197.25  L   441.93,   197.25  L   441.93,   214.25  L   365.44,   214.25  L   365.44,   197.25  " /><path style="stroke-width: 0.85 ;&st7;  " d=" M   373.94,   197.25  L   373.94,   214.25  " /><path style="stroke-width: 0.85 ;&st7;  " d=" M   433.43,   197.25  L   433.43,   205.75  L   373.94,   205.75  " /><path style="stroke-width: 0.85 ;&st7;  " d=" M   372.74,   204.75  L   372.47,   205.22  L   372.38,   205.75  L   372.47,   206.28  L   372.74,   206.75  L   373.16,   207.10  L   373.67,   207.29  L   374.21,   207.29  L   374.72,   207.10  L   375.13,   206.75  L   375.40,   206.28  L   375.50,   205.75  L   375.40,   205.22  L   375.13,   204.75  L   374.72,   204.40  L   374.21,   204.22  L   373.67,   204.22  L   373.16,   204.40  L   372.74,   204.75  L   373.14,   205.46  L   373.14,   206.04  L   373.51,   206.49  L   374.08,   206.59  L   374.59,   206.30  L   374.79,   205.75  L   374.59,   205.20  L   374.08,   204.92  L   373.51,   205.01  L   373.94,   205.75  " /><text style="&st18;" transform="matrix(&st16;  362.14  220.75 )">18</text><text style="&st18;" transform="matrix(&st16;  365.24  229.82 )">8</text><path style="stroke-width: 1.42 ;&st7;   " d=" M   378.47,   227.85  C   378.47    225.34    376.44    223.31    373.94    223.31  " /><path style="stroke-width: 1.42 ;&st7;   " d=" M   373.94,   223.31  C   371.43    223.31    369.40    225.34    369.40    227.85  " /><path style="stroke-width: 1.42 ;&st7;   " d=" M   369.40,   227.85  C   369.40    230.35    371.43    232.38    373.94    232.38  " /><path style="stroke-width: 1.42 ;&st7;   " d=" M   373.94,   232.38  C   376.44    232.38    378.47    230.35    378.47    227.85  " /><text style="&st18;" transform="matrix(&st16;  371.63  220.75 )">A</text><text style="&st18;" transform="matrix(&st16;  371.75  229.82 )">B</text><path style="stroke-width: 1.42 ;&st7;   " d=" M   378.47,   218.78  C   378.47    216.28    376.44    214.25    373.94    214.25  " /><path style="stroke-width: 1.42 ;&st7;   " d=" M   373.94,   214.25  C   371.43    214.25    369.40    216.28    369.40    218.78  " /><path style="stroke-width: 1.42 ;&st7;   " d=" M   369.40,   218.78  C   369.40    221.29    371.43    223.31    373.94    223.31  " /><path style="stroke-width: 1.42 ;&st7;   " d=" M   373.94,   223.31  C   376.44    223.31    378.47    221.29    378.47    218.78  " /><text style="&st18;" transform="matrix(&st16;  362.14  185.62 )">17</text><text style="&st18;" transform="matrix(&st16;  365.24  194.69 )">6</text><text style="&st18;" transform="matrix(&st16;  371.75  194.69 )">B</text><text style="&st18;" transform="matrix(&st16;  371.63  185.62 )">A</text><path style="stroke-width: 1.42 ;&st7;   " d=" M   378.47,   192.72  C   378.47    190.22    376.44    188.19    373.94    188.19  " /><path style="stroke-width: 1.42 ;&st7;   " d=" M   373.94,   188.19  C   371.43    188.19    369.40    190.22    369.40    192.72  " /><path style="stroke-width: 1.42 ;&st7;   " d=" M   369.40,   192.72  C   369.40    195.22    371.43    197.25    373.94    197.25  " /><path style="stroke-width: 1.42 ;&st7;   " d=" M   373.94,   197.25  C   376.44    197.25    378.47    195.22    378.47    192.72  " /><path style="stroke-width: 1.42 ;&st7;   " d=" M   378.47,   183.65  C   378.47    181.15    376.44    179.12    373.94    179.12  " /><path style="stroke-width: 1.42 ;&st7;   " d=" M   373.94,   179.12  C   371.43    179.12    369.40    181.15    369.40    183.65  " /><path style="stroke-width: 1.42 ;&st7;   " d=" M   369.40,   183.65  C   369.40    186.16    371.43    188.19    373.94    188.19  " /><path style="stroke-width: 1.42 ;&st7;   " d=" M   373.94,   188.19  C   376.44    188.19    378.47    186.16    378.47    183.65  " /><text style="&st18;" transform="matrix(&st16;  421.63  194.69 )">10</text><path style="stroke-width: 1.42 ;&st7;   " d=" M   437.96,   192.72  C   437.96    190.22    435.93    188.19    433.43    188.19  " /><path style="stroke-width: 1.42 ;&st7;   " d=" M   433.43,   188.19  C   430.92    188.19    428.90    190.22    428.90    192.72  " /><path style="stroke-width: 1.42 ;&st7;   " d=" M   428.90,   192.72  C   428.90    195.22    430.92    197.25    433.43    197.25  " /><path style="stroke-width: 1.42 ;&st7;   " d=" M   433.43,   197.25  C   435.93    197.25    437.96    195.22    437.96    192.72  " /><text style="&st18;" transform="matrix(&st16;  431.24  194.69 )">B</text><g ewd:figtype="title"><text style="&st18;" transform="matrix(&st17;  332.85  217.16 )" ewd:textID="16">No. 32 Junction <tspan x="0 " dy="6.0">Connector</tspan></text><text style="&st18;" transform="matrix(&st17;  352.96  217.16 )" ewd:textID="12">No. 13 Junction <tspan x="0 " dy="6.0">Connector</tspan></text><text style="&st18;" transform="matrix(&st17;  346.14  217.15 )">G114(B)</text><text style="&st18;" transform="matrix(&st17;  326.02  217.15 )">G151(A)</text></g><g ewd:code="" ewd:figID="32" ewd:comment="" ewd:figtype="commref"><text style="&st18;" transform="matrix(&st16;  379.03  185.62 )">(LHD)</text></g><g ewd:code="" ewd:figID="36" ewd:comment="" ewd:figtype="commref"><text style="&st18;" transform="matrix(&st16;  379.03  220.75 )">(LHD)</text></g><g ewd:code="" ewd:figID="37" ewd:comment="1" ewd:figtype="commref"><text style="&st18;" transform="matrix(&st16;  379.03  229.82 )">(RHD *1)</text></g><g ewd:code="" ewd:figID="38" ewd:comment="" ewd:figtype="commref"><text style="&st18;" transform="matrix(&st16;  379.03  194.69 )">(RHD)</text></g><g ewd:code="" ewd:figID="46" ewd:comment="2" ewd:figtype="commref"><text style="&st18;" transform="matrix(&st16;  438.52  194.69 )">(RHD *2)</text></g></g><g ewd:figtype="conn" ewd:figID="13" ewd:code="b1,b2"><path style="stroke-width: 1.42 ;&st7;  " d=" M   127.48,   554.19  L   127.48,   605.18  L   169.97,   605.18  L   169.97,   554.19  L   127.48,   554.19  " /><path style="stroke-width: 0.85 ;&st7;  " d=" M   152.97,   605.18  L   152.97,   588.19  L   150.14,   586.77  L   155.81,   583.94  L   150.14,   581.10  L   155.81,   578.27  L   150.14,   575.44  L   155.81,   572.61  L   152.97,   571.19  L   152.97,   554.19  " /><text style="&st18;" transform="matrix(&st17;  140.51  596.19 )" ewd:textID="19">Rear Window <tspan x="0 " dy="6.0">Defogger</tspan></text><text style="&st18;" transform="matrix(&st16;  144.28  611.69 )">1</text><text style="&st18;" transform="matrix(&st16;  150.67  611.69 )">A</text><path style="stroke-width: 1.42 ;&st7;   " d=" M   157.51,   609.72  C   157.51    607.21    155.48    605.18    152.97    605.18  " /><path style="stroke-width: 1.42 ;&st7;   " d=" M   152.97,   605.18  C   150.47    605.18    148.44    607.21    148.44    609.72  " /><path style="stroke-width: 1.42 ;&st7;   " d=" M   148.44,   609.72  C   148.44    612.22    150.47    614.25    152.97    614.25  " /><path style="stroke-width: 1.42 ;&st7;   " d=" M   152.97,   614.25  C   155.48    614.25    157.51    612.22    157.51    609.72  " /><text style="&st18;" transform="matrix(&st16;  144.28  551.63 )">1</text><text style="&st18;" transform="matrix(&st16;  150.79  551.63 )">B</text><path style="stroke-width: 1.42 ;&st7;   " d=" M   157.51,   549.66  C   157.51    547.16    155.48    545.13    152.97    545.13  " /><path style="stroke-width: 1.42 ;&st7;   " d=" M   152.97,   545.13  C   150.47    545.13    148.44    547.16    148.44    549.66  " /><path style="stroke-width: 1.42 ;&st7;   " d=" M   148.44,   549.66  C   148.44    552.16    150.47    554.19    152.97    554.19  " /><path style="stroke-width: 1.42 ;&st7;   " d=" M   152.97,   554.19  C   155.48    554.19    157.51    552.16    157.51    549.66  " /><g ewd:figtype="title"><text style="&st18;" transform="matrix(&st17;  177.87  608.08 )">b1(B),b2(A)</text><text style="&st18;" transform="matrix(&st17;  184.69  608.09 )" ewd:textID="6">Back Door Glass</text></g></g><g ewd:figtype="jb" ewd:figID="17" ewd:code="2"><path style="stroke-width: 0.85 ;&st7;  " d=" M   246.46,    69.77  L   246.46,    78.27  " /><path style="stroke-width: 1.42 ;&st7;  " d=" M   248.58,   112.27  L   244.33,   112.27  " /><path style="stroke-width: 1.42 ;&st7;  " d=" M   248.58,   120.77  L   244.33,   120.77  " /><path style="stroke-width: 0.85 ;&st7;  " d=" M   246.46,    78.27  L   246.46,   112.27  " /><path style="stroke-width: 1.42 ;&st7;   " d=" M   246.46,    47.11  C   243.72     48.72    242.81     52.25    244.42     54.99  " /><path style="stroke-width: 1.42 ;&st7;   " d=" M   244.42,    54.99  C   244.94     55.87    245.58     56.51    246.46     57.03  " /><path style="stroke-width: 1.42 ;&st7;   " d=" M   246.46,    66.94  C   249.20     65.33    250.11     61.80    248.50     59.06  " /><path style="stroke-width: 1.42 ;&st7;   " d=" M   248.50,    59.06  C   247.98     58.18    247.34     57.55    246.46     57.03  " /><path style="stroke-width: 0.85 ;&st7;   " d=" M   247.88,    45.69  C   247.88     44.91    247.24     44.28    246.46     44.28  " /><path style="stroke-width: 0.85 ;&st7;   " d=" M   246.46,    44.28  C   245.68     44.28    245.04     44.91    245.04     45.69  " /><path style="stroke-width: 0.85 ;&st7;   " d=" M   245.04,    45.69  C   245.04     46.48    245.68     47.11    246.46     47.11  " /><path style="stroke-width: 0.85 ;&st7;   " d=" M   246.46,    47.11  C   247.24     47.11    247.88     46.48    247.88     45.69  " /><path style="stroke-width: 0.85 ;&st7;   " d=" M   247.88,    68.36  C   247.88     67.57    247.24     66.94    246.46     66.94  " /><path style="stroke-width: 0.85 ;&st7;   " d=" M   246.46,    66.94  C   245.68     66.94    245.04     67.57    245.04     68.36  " /><path style="stroke-width: 0.85 ;&st7;   " d=" M   245.04,    68.36  C   245.04     69.14    245.68     69.77    246.46     69.77  " /><path style="stroke-width: 0.85 ;&st7;   " d=" M   246.46,    69.77  C   247.24     69.77    247.88     69.14    247.88     68.36  " /><path style="stroke-width: 1.42 ;&st7;   " d=" M   244.33,   112.27  C   241.99    112.27    240.08    114.17    240.08    116.52  " /><path style="stroke-width: 1.42 ;&st7;   " d=" M   240.08,   116.52  C   240.08    118.86    241.99    120.77    244.33    120.77  " /><path style="stroke-width: 1.42 ;&st7;   " d=" M   248.58,   120.77  C   250.93    120.77    252.83    118.86    252.83    116.52  " /><path style="stroke-width: 1.42 ;&st7;   " d=" M   252.83,   116.52  C   252.83    114.17    250.93    112.27    248.58    112.27  " /><path style="stroke-width: 0.28 ;&st9;  " d=" M   246.46,   107.37  L   243.63,   104.54  L   243.63,   108.79  L   246.46,   111.62  L   249.29,   108.79  L   249.29,   104.54  L   246.46,   107.37  " /><path style="stroke-width: 1.42 ;&st7;  " d=" M   233.71,    35.78  L   233.71,    78.27  L   259.21,    78.27  L   259.21,    35.78  L   233.71,    35.78  " /><text style="&st18;" transform="matrix(&st16;  262.88  53.34 )">10A <tspan x="0 " dy="6.0">IG1 </tspan><tspan x="0 " dy="6.0">NO.4</tspan></text><text style="&st18;" transform="matrix(&st16;  242.84  118.49 )">2L</text><text style="&st18;" transform="matrix(&st16;  235.95  118.49 )">5</text><text style="&st18;" transform="matrix(&st16;  240.27  86.47 )">2</text><text style="&st18;" transform="matrix(&st16;  241.25  32.08 )">(IG)</text><path style="stroke-width: 1.42 ;&st7;  " d=" M   376.06,   112.27  L   371.81,   112.27  " /><path style="stroke-width: 1.42 ;&st7;  " d=" M   376.06,   120.77  L   371.81,   120.77  " /><path style="stroke-width: 0.85 ;&st7;  " d=" M   245.27,    94.27  L   244.99,    94.74  L   244.90,    95.27  L   244.99,    95.80  L   245.27,    96.27  L   245.68,    96.62  L   246.19,    96.81  L   246.73,    96.81  L   247.24,    96.62  L   247.65,    96.27  L   247.92,    95.80  L   248.02,    95.27  L   247.92,    94.74  L   247.65,    94.27  L   247.24,    93.92  L   246.73,    93.73  L   246.19,    93.73  L   245.68,    93.92  L   245.27,    94.27  L   245.66,    94.98  L   245.66,    95.56  L   246.03,    96.01  L   246.61,    96.11  L   247.11,    95.82  L   247.31,    95.27  L   247.11,    94.72  L   246.61,    94.43  L   246.03,    94.53  L   246.46,    95.27  " /><path style="stroke-width: 0.85 ;&st7;  " d=" M   246.46,    95.27  L   373.94,    95.27  L   373.94,   112.27  " /><path style="stroke-width: 1.42 ;&st7;   " d=" M   371.81,   112.27  C   369.47    112.27    367.56    114.17    367.56    116.52  " /><path style="stroke-width: 1.42 ;&st7;   " d=" M   367.56,   116.52  C   367.56    118.86    369.47    120.77    371.81    120.77  " /><path style="stroke-width: 1.42 ;&st7;   " d=" M   376.06,   120.77  C   378.41    120.77    380.31    118.86    380.31    116.52  " /><path style="stroke-width: 1.42 ;&st7;   " d=" M   380.31,   116.52  C   380.31    114.17    378.41    112.27    376.06    112.27  " /><path style="stroke-width: 0.28 ;&st9;  " d=" M   373.94,   107.37  L   371.10,   104.54  L   371.10,   108.79  L   373.94,   111.62  L   376.77,   108.79  L   376.77,   104.54  L   373.94,   107.37  " /><text style="&st18;" transform="matrix(&st16;  363.43  118.49 )">7</text><text style="&st18;" transform="matrix(&st16;  370.39  118.49 )">2P</text></g><g ewd:figtype="w2w" ewd:figID="18" ewd:code="GN1"><path style="stroke-width: 1.42 ;&st7;  " d=" M    80.74,   579.12  L    84.99,   583.37  L    89.24,   579.12  " /><path style="stroke-width: 1.42 ;&st7;  " d=" M    89.24,   582.52  L    84.99,   586.77  L    80.74,   582.52  " /><text style="&st18;" transform="matrix(&st16;  72.35  594.41 )">3</text></g><g ewd:figtype="w2w" ewd:figID="19" ewd:code="Vb1"><path style="stroke-width: 1.42 ;&st7;  " d=" M   157.22,   503.77  L   152.97,   499.52  L   148.73,   503.77  " /><path style="stroke-width: 1.42 ;&st7;  " d=" M   157.22,   500.37  L   152.97,   496.12  L   148.73,   500.37  " /><text style="&st18;" transform="matrix(&st16;  140.34  492.42 )">1</text></g><g ewd:figtype="w2w" ewd:figID="20" ewd:code="VN1"><path style="stroke-width: 1.42 ;&st7;  " d=" M   148.73,   400.65  L   152.97,   404.90  L   157.22,   400.65  " /><path style="stroke-width: 1.42 ;&st7;  " d=" M   157.22,   404.05  L   152.97,   408.30  L   148.73,   404.05  " /><text style="&st18;" transform="matrix(&st16;  140.34  415.94 )">9</text></g><g ewd:figtype="w2w" ewd:figID="21" ewd:code="GN1"><path style="stroke-width: 1.42 ;&st7;  " d=" M   293.20,   378.56  L   288.95,   382.80  L   284.70,   378.56  " /><path style="stroke-width: 1.42 ;&st7;  " d=" M   284.70,   375.16  L   288.95,   379.41  L   293.20,   375.16  " /><text style="&st18;" transform="matrix(&st16;  276.32  390.44 )">9</text></g><g ewd:figtype="gp" ewd:figID="22" ewd:code="NA"><path style="stroke-width: 0.85 ;&st7;  " d=" M    32.58,   710.00  L    35.41,   710.00  " /><path style="stroke-width: 0.85 ;&st7;  " d=" M    31.16,   707.17  L    36.83,   707.17  " /><path style="stroke-width: 0.85 ;&st7;  " d=" M    29.75,   704.33  L    38.24,   704.33  " /><path style="stroke-width: 0.85 ;&st7;  " d=" M    25.50,   701.50  L    42.49,   701.50  " /><path style="stroke-width: 0.85 ;&st7;  " d=" M    33.99,   697.25  L    33.99,   701.50  " /></g><g ewd:figtype="gp" ewd:figID="23" ewd:code="bA"><path style="stroke-width: 0.85 ;&st7;  " d=" M   151.56,   710.00  L   154.39,   710.00  " /><path style="stroke-width: 0.85 ;&st7;  " d=" M   150.14,   707.17  L   155.81,   707.17  " /><path style="stroke-width: 0.85 ;&st7;  " d=" M   148.73,   704.33  L   157.22,   704.33  " /><path style="stroke-width: 0.85 ;&st7;  " d=" M   144.48,   701.50  L   161.47,   701.50  " /><path style="stroke-width: 0.85 ;&st7;  " d=" M   152.97,   697.25  L   152.97,   701.50  " /></g><g ewd:figtype="gp" ewd:figID="24" ewd:code="GC"><path style="stroke-width: 0.85 ;&st7;  " d=" M   415.01,   710.00  L   417.85,   710.00  " /><path style="stroke-width: 0.85 ;&st7;  " d=" M   413.60,   707.17  L   419.26,   707.17  " /><path style="stroke-width: 0.85 ;&st7;  " d=" M   412.18,   704.33  L   420.68,   704.33  " /><path style="stroke-width: 0.85 ;&st7;  " d=" M   407.93,   701.50  L   424.93,   701.50  " /><path style="stroke-width: 0.85 ;&st7;  " d=" M   416.43,   697.25  L   416.43,   701.50  " /></g><g ewd:figtype="gp" ewd:figID="25" ewd:code="GB"><path style="stroke-width: 0.85 ;&st7;  " d=" M   457.51,   710.00  L   460.34,   710.00  " /><path style="stroke-width: 0.85 ;&st7;  " d=" M   456.09,   707.17  L   461.76,   707.17  " /><path style="stroke-width: 0.85 ;&st7;  " d=" M   454.67,   704.33  L   463.17,   704.33  " /><path style="stroke-width: 0.85 ;&st7;  " d=" M   450.42,   701.50  L   467.42,   701.50  " /><path style="stroke-width: 0.85 ;&st7;  " d=" M   458.92,   697.25  L   458.92,   701.50  " /></g></svg>