﻿<?xml version="1.0" encoding="utf-8"?>
<!DOCTYPE svg PUBLIC "-//W3C//DTD SVG 1.0//EN" "http://www.w3.org/TR/2001/REC-SVG-20010904/DTD/svg10.dtd"[
	<!ENTITY ns_flows "http://ns.adobe.com/Flows/1.0/">
	<!ENTITY ns_svg "http://www.w3.org/2000/svg">
	<!ENTITY ns_xlink "http://www.w3.org/1999/xlink">
	<!ENTITY st0 "font-size:7px;font-family:'MS-PGothic';adobe-font-script:japanese;">
	<!ENTITY st1 "font-size:6px;font-family:'ArialMT';">
	<!-- White fill  -->
	<!ENTITY st2 "fill:#FFFFFF;stroke:#000000; stroke-width:1.41;stroke-linecap:round;stroke-linejoin:round;">
	<!-- Yellow fill  -->
	<!ENTITY st3 "fill:#FFFFCC;stroke:#FFFFCC; stroke-width:0.1;stroke-linecap:round;stroke-linejoin:round;">
	<!-- Gray fill  -->
	<!ENTITY st4 "fill:#CCCCCC;stroke:#CCCCCC; stroke-width:0.1;stroke-linecap:round;stroke-linejoin:round;">
	<!-- Light-blue fill -->
	<!ENTITY st5 "fill:#CCECF4;stroke:#000000; stroke-width:1.133;stroke-linecap:round;stroke-linejoin:round;">
	<!ENTITY st6 "fill:none;stroke-linecap:butt; stroke-linejoin:round;">
	<!ENTITY st7 "fill:none;stroke:#000000;stroke-linecap:round;stroke-linejoin:round;">
	<!ENTITY st8 "enable-background:new    ;">
	<!-- Black fill -->
	<!ENTITY st9 "fill:#000000;stroke:#000000; stroke-linecap:round;stroke-linejoin:round;">
	<!-- SRS note   -->
	<!ENTITY st10 "font-size:9px;font-family:'ArialMT';">
	<!ENTITY st11 "font-size:9px;font-family:'Svg Symbol';">
	<!ENTITY st12 "font-size:6px;font-family:'Svg Symbol';">
	<!ENTITY st13 "fill:none;stroke:#ff0000;stroke-linecap:round;stroke-linejoin:round;">
	<!-- Yellow fill  -->
	<!ENTITY st14 "fill:#FFFF00;stroke:#FFFF00; stroke-width:0.1;stroke-linecap:round;stroke-linejoin:round;">
	<!ENTITY st15 "font-size:6px;font-family:'MS-PGothic';adobe-font-script:japanese;">
	<!ENTITY st16 "1.00 0.00 0.00 1.00">
	<!ENTITY st17 "0.00 -1.00 1.00 0.00">
	<!ENTITY st18 "font-size:6px;font-family:'Arial';">
	<!ENTITY st19 "font-size:9px;font-family:'Arial';">
	<!ENTITY st20 "font-size:6px;font-family:'MS-PGothic','MS PGothic';adobe-font-script:japanese;">
	<!ENTITY st21 "font-size:7px;font-family:'MS-PGothic','MS PGothic';adobe-font-script:japanese;">
	<!ATTLIST svg
		xmlns:ewd CDATA #FIXED "http://shcl.co.jp/ewd"
		xmlns:a CDATA #FIXED "http://ns.adobe.com/AdobeSVGViewerExtensions/3.0/"
		ewd:ver CDATA #IMPLIED
	>
	<!ATTLIST a
		ewd:lineID CDATA #IMPLIED
		ewd:groupID CDATA #IMPLIED
		ewd:figtype CDATA #IMPLIED
		ewd:code CDATA #IMPLIED
		ewd:figID CDATA #IMPLIED
		ewd:pinNo CDATA #IMPLIED
		ewd:comment CDATA #IMPLIED >
	<!ATTLIST g
		ewd:lineID CDATA #IMPLIED
		ewd:groupID CDATA #IMPLIED
		ewd:figtype CDATA #IMPLIED
		ewd:code CDATA #IMPLIED
		ewd:figID CDATA #IMPLIED
		ewd:pinNo CDATA #IMPLIED
		ewd:comment CDATA #IMPLIED >
	<!ATTLIST text
		ewd:textID CDATA #IMPLIED >
	<!ATTLIST title
		ewd:textID CDATA #IMPLIED >
]>
<!-- Generator: Shintec Hozumi YS   -->
<svg onload="call_execInitLoadProc_svg('system')" style="overflow:visible;  enable-background:new 0 0 12434.131 710.000" viewBox="0 0 12434.131 710.000" height="710.000" width="12434.131" xml:space="preserve" ewd:ver="2.1.2.9" xmlns="&ns_svg;" xmlns:a="http://ns.adobe.com/AdobeSVGViewerExtensions/3.0/" xmlns:ewd="http://shcl.co.jp/ewd" xmlns:xlink="&ns_xlink;">
<text style="&st18;" transform="matrix(&st16;  7985.25  25.26 )">G33(A),G34(B)</text><text style="&st18;" transform="matrix(&st16;  7787.57  550.5 )">LA-B(*22)</text><text style="&st18;" transform="matrix(&st16;  7736.57  550.5 )">LA-B(*22)</text><text style="&st18;" transform="matrix(&st16;  7735.8  151.06 )">LA-W(*22)</text><text style="&st18;" transform="matrix(&st17;  7579.87  186.52 )">(*22)</text><text style="&st18;" transform="matrix(&st16;  7786.79  151.06 )">LA-W(*22)</text><text style="&st18;" transform="matrix(&st16;  7793.11  491.01 )">L(*19)</text><text style="&st18;" transform="matrix(&st16;  7742.12  491.01 )">L(*19)</text><text style="&st18;" transform="matrix(&st16;  7792.22  202.05 )">W(*21)</text><text style="&st18;" transform="matrix(&st16;  7741.23  202.05 )">W(*21)</text><text style="&st18;" transform="matrix(&st16;  7742.0  219.05 )">B(*21)</text><text style="&st18;" transform="matrix(&st17;  7517.55  184.04 )">LG</text><text style="&st18;" transform="matrix(&st17;  7653.52  184.08 )">GR</text><text style="&st18;" transform="matrix(&st17;  7653.52  385.79 )">L</text><text style="&st18;" transform="matrix(&st17;  7628.03  385.79 )">L</text><text style="&st18;" transform="matrix(&st17;  7594.04  390.18 )">W-B</text><text style="&st18;" transform="matrix(&st17;  7653.52  462.28 )">L</text><text style="&st18;" transform="matrix(&st17;  7679.02  462.28 )">L</text><text style="&st18;" transform="matrix(&st16;  7742.12  474.01 )">L(*19)</text><text style="&st18;" transform="matrix(&st16;  7793.11  474.01 )">L(*19)</text><text style="&st18;" transform="matrix(&st17;  7628.03  242.21 )">W</text><text style="&st18;" transform="matrix(&st17;  7568.54  187.37 )">LA-B</text><text style="&st18;" transform="matrix(&st16;  7985.26  32.08 )" ewd:textID="33">Body ECU</text><text style="&st18;" transform="matrix(&st16;  7798.73  618.48 )">W</text><text style="&st18;" transform="matrix(&st16;  7799.7  635.48 )">P</text><text style="&st18;" transform="matrix(&st16;  7799.62  567.49 )">L</text><text style="&st18;" transform="matrix(&st16;  7747.74  618.48 )">W</text><text style="&st18;" transform="matrix(&st16;  7799.51  601.49 )">Y</text><text style="&st18;" transform="matrix(&st16;  7792.99  219.05 )">B(*21)</text><text style="&st18;" transform="matrix(&st16;  7799.39  584.49 )">V</text><text style="&st18;" transform="matrix(&st16;  7748.71  635.48 )">P</text><text style="&st18;" transform="matrix(&st16;  7748.63  567.49 )">L</text><text style="&st18;" transform="matrix(&st16;  7748.4  584.49 )">V</text><text style="&st18;" transform="matrix(&st16;  7748.52  601.49 )">Y</text><text style="&st18;" transform="matrix(&st17;  7517.55  385.79 )">L</text><text style="&st18;" transform="matrix(&st17;  7528.88  186.52 )">(*21)</text><text style="&st18;" transform="matrix(&st17;  7664.86  186.52 )">(*21)</text><text style="&st18;" transform="matrix(&st17;  7639.36  246.01 )">(*21)</text><text style="&st18;" transform="matrix(&st17;  7503.38  246.01 )">(*21)</text><text style="&st18;" transform="matrix(&st17;  7664.86  390.49 )">(*21)</text><text style="&st18;" transform="matrix(&st17;  7639.36  390.49 )">(*21)</text><text style="&st18;" transform="matrix(&st17;  7605.37  390.49 )">(*21)</text><text style="&st18;" transform="matrix(&st17;  7528.88  390.49 )">(*21)</text><text style="&st18;" transform="matrix(&st17;  7503.38  390.49 )">(*21)</text><text style="&st18;" transform="matrix(&st17;  7664.86  466.97 )">(*21)</text><text style="&st18;" transform="matrix(&st17;  7690.35  466.97 )">(*21)</text><text style="&st18;" transform="matrix(&st17;  7885.82  390.49 )">(*19)</text><text style="&st18;" transform="matrix(&st17;  7860.32  390.49 )">(*19)</text><text style="&st18;" transform="matrix(&st17;  7834.83  390.49 )">(*19)</text><text style="&st18;" transform="matrix(&st17;  7885.82  186.52 )">(*19)</text><text style="&st18;" transform="matrix(&st17;  7823.5  390.18 )">W-B</text><text style="&st18;" transform="matrix(&st17;  7848.99  385.79 )">L</text><text style="&st18;" transform="matrix(&st17;  7874.49  385.79 )">L</text><text style="&st18;" transform="matrix(&st17;  7874.49  181.94 )">Y</text><text style="&st18;" transform="matrix(&st16;  7994.98  465.51 )">B</text><text style="&st18;" transform="matrix(&st16;  7990.4  476.84 )">(*21)</text><path style="stroke-width: 1.42 ;&st7;  " d=" M  7980.17,   265.24  L  7988.67,   265.24  " /><text style="&st18;" transform="matrix(&st16;  7926.99  236.05 )">B</text><text style="&st18;" transform="matrix(&st16;  7922.41  247.38 )">(*19)</text><text style="&st18;" transform="matrix(&st17;  7984.97  293.2 )">W</text><text style="&st18;" transform="matrix(&st17;  7996.3  297.0 )">(*19)</text><g ewd:figtype="rb" ewd:figID="11" ewd:code="5"><path style="stroke-width: 1.42 ;&st7;  " d=" M  7633.85,   256.74  L  7629.60,   256.74  " /><path style="stroke-width: 1.42 ;&st7;  " d=" M  7633.85,   265.24  L  7629.60,   265.24  " /><path style="stroke-width: 1.42 ;&st7;  " d=" M  7659.35,   256.74  L  7655.10,   256.74  " /><path style="stroke-width: 1.42 ;&st7;  " d=" M  7659.35,   265.24  L  7655.10,   265.24  " /><path style="stroke-width: 1.42 ;&st7;  " d=" M  7633.85,   333.23  L  7629.60,   333.23  " /><path style="stroke-width: 1.42 ;&st7;  " d=" M  7633.85,   341.73  L  7629.60,   341.73  " /><path style="stroke-width: 1.42 ;&st7;  " d=" M  7659.35,   333.23  L  7655.10,   333.23  " /><path style="stroke-width: 1.42 ;&st7;  " d=" M  7659.35,   341.73  L  7655.10,   341.73  " /><path style="stroke-width: 1.42 ;&st7;  " d=" M  7599.86,   333.23  L  7595.61,   333.23  " /><path style="stroke-width: 1.42 ;&st7;  " d=" M  7599.86,   341.73  L  7595.61,   341.73  " /><path style="stroke-width: 1.42 ;&st7;   " d=" M  7629.60,   256.74  C  7627.25    256.74   7625.35    258.64   7625.35    260.99  " /><path style="stroke-width: 1.42 ;&st7;   " d=" M  7625.35,   260.99  C  7625.35    263.34   7627.25    265.24   7629.60    265.24  " /><path style="stroke-width: 1.42 ;&st7;   " d=" M  7633.85,   265.24  C  7636.20    265.24   7638.10    263.34   7638.10    260.99  " /><path style="stroke-width: 1.42 ;&st7;   " d=" M  7638.10,   260.99  C  7638.10    258.64   7636.20    256.74   7633.85    256.74  " /><path style="stroke-width: 1.42 ;&st7;   " d=" M  7655.10,   256.74  C  7652.75    256.74   7650.85    258.64   7650.85    260.99  " /><path style="stroke-width: 1.42 ;&st7;   " d=" M  7650.85,   260.99  C  7650.85    263.34   7652.75    265.24   7655.10    265.24  " /><path style="stroke-width: 1.42 ;&st7;   " d=" M  7659.35,   265.24  C  7661.69    265.24   7663.59    263.34   7663.59    260.99  " /><path style="stroke-width: 1.42 ;&st7;   " d=" M  7663.59,   260.99  C  7663.59    258.64   7661.69    256.74   7659.35    256.74  " /><path style="stroke-width: 1.42 ;&st7;   " d=" M  7629.60,   333.23  C  7627.25    333.23   7625.35    335.13   7625.35    337.48  " /><path style="stroke-width: 1.42 ;&st7;   " d=" M  7625.35,   337.48  C  7625.35    339.83   7627.25    341.73   7629.60    341.73  " /><path style="stroke-width: 1.42 ;&st7;   " d=" M  7633.85,   341.73  C  7636.20    341.73   7638.10    339.83   7638.10    337.48  " /><path style="stroke-width: 1.42 ;&st7;   " d=" M  7638.10,   337.48  C  7638.10    335.13   7636.20    333.23   7633.85    333.23  " /><path style="stroke-width: 1.42 ;&st7;   " d=" M  7655.10,   333.23  C  7652.75    333.23   7650.85    335.13   7650.85    337.48  " /><path style="stroke-width: 1.42 ;&st7;   " d=" M  7650.85,   337.48  C  7650.85    339.83   7652.75    341.73   7655.10    341.73  " /><path style="stroke-width: 1.42 ;&st7;   " d=" M  7659.35,   341.73  C  7661.69    341.73   7663.59    339.83   7663.59    337.48  " /><path style="stroke-width: 1.42 ;&st7;   " d=" M  7663.59,   337.48  C  7663.59    335.13   7661.69    333.23   7659.35    333.23  " /><path style="stroke-width: 1.42 ;&st7;   " d=" M  7595.61,   333.23  C  7593.26    333.23   7591.36    335.13   7591.36    337.48  " /><path style="stroke-width: 1.42 ;&st7;   " d=" M  7591.36,   337.48  C  7591.36    339.83   7593.26    341.73   7595.61    341.73  " /><path style="stroke-width: 1.42 ;&st7;   " d=" M  7599.86,   341.73  C  7602.20    341.73   7604.10    339.83   7604.10    337.48  " /><path style="stroke-width: 1.42 ;&st7;   " d=" M  7604.10,   337.48  C  7604.10    335.13   7602.20    333.23   7599.86    333.23  " /><path style="stroke-width: 0.28 ;&st9;  " d=" M  7631.72,   270.14  L  7634.55,   272.97  L  7634.55,   268.72  L  7631.72,   265.89  L  7628.89,   268.72  L  7628.89,   272.97  L  7631.72,   270.14  " /><path style="stroke-width: 0.28 ;&st9;  " d=" M  7657.22,   270.14  L  7660.05,   272.97  L  7660.05,   268.72  L  7657.22,   265.89  L  7654.38,   268.72  L  7654.38,   272.97  L  7657.22,   270.14  " /><path style="stroke-width: 0.28 ;&st9;  " d=" M  7631.72,   328.33  L  7628.89,   325.50  L  7628.89,   329.75  L  7631.72,   332.58  L  7634.55,   329.75  L  7634.55,   325.50  L  7631.72,   328.33  " /><path style="stroke-width: 0.28 ;&st9;  " d=" M  7657.22,   328.33  L  7654.38,   325.50  L  7654.38,   329.75  L  7657.22,   332.58  L  7660.05,   329.75  L  7660.05,   325.50  L  7657.22,   328.33  " /><path style="stroke-width: 0.85 ;&st7;  " d=" M  7631.72,   282.24  L  7631.72,   265.24  " /><path style="stroke-width: 0.85 ;&st7;  " d=" M  7657.22,   282.24  L  7657.22,   265.24  " /><path style="stroke-width: 0.85 ;&st7;  " d=" M  7631.72,   333.23  L  7631.72,   316.23  " /><path style="stroke-width: 0.85 ;&st7;  " d=" M  7657.22,   333.23  L  7657.22,   316.23  " /><path style="stroke-width: 0.28 ;&st9;  " d=" M  7597.73,   328.33  L  7594.89,   325.50  L  7594.89,   329.75  L  7597.73,   332.58  L  7600.56,   329.75  L  7600.56,   325.50  L  7597.73,   328.33  " /><path style="stroke-width: 0.85 ;&st7;  " d=" M  7597.73,   333.23  L  7597.73,   299.24  L  7623.22,   299.24  " /><text style="&st18;" transform="matrix(&st16;  7629.92  262.96 )">5</text><text style="&st18;" transform="matrix(&st16;  7655.42  262.96 )">5</text><text style="&st18;" transform="matrix(&st16;  7629.92  339.45 )">5</text><text style="&st18;" transform="matrix(&st16;  7655.42  339.45 )">5</text><text style="&st18;" transform="matrix(&st16;  7625.54  324.43 )">5</text><text style="&st18;" transform="matrix(&st16;  7651.04  324.43 )">1</text><text style="&st18;" transform="matrix(&st16;  7617.04  295.54 )">4</text><text style="&st18;" transform="matrix(&st16;  7625.54  278.55 )">3</text><text style="&st18;" transform="matrix(&st16;  7651.04  278.55 )">2</text><text style="&st18;" transform="matrix(&st16;  7595.93  339.45 )">5</text><text style="&st18;" transform="matrix(&st16;  7667.98  295.55 )" ewd:textID="43">D/L <tspan x="0 " dy="6.0">NO.2 </tspan><tspan x="0 " dy="6.0">Relay</tspan></text><path style="stroke-width: 1.42 ;&st7;  " d=" M  7631.72,   289.32  L  7626.06,   311.98  " /><path style="stroke-width: 0.85 ;&st7;  " d=" M  7631.72,   311.98  L  7631.72,   316.23  " /><path style="stroke-width: 0.85 ;&st7;  " d=" M  7623.23,   299.24  L  7626.06,   299.24  " /><path style="stroke-width: 0.85 ;&st7;  " d=" M  7631.72,   282.24  L  7631.72,   286.49  " /><path style="stroke-width: 0.85 ;&st7;  " d=" M  7657.22,   282.24  L  7657.22,   290.74  " /><path style="stroke-width: 0.85 ;&st7;  " d=" M  7657.22,   307.73  L  7657.22,   316.23  " /><path style="stroke-width: 0.85 ;&st7;   " d=" M  7628.89,   299.24  C  7628.89    298.45   7628.26    297.82   7627.48    297.82  " /><path style="stroke-width: 0.85 ;&st7;   " d=" M  7627.48,   297.82  C  7626.69    297.82   7626.06    298.45   7626.06    299.24  " /><path style="stroke-width: 0.85 ;&st7;   " d=" M  7626.06,   299.24  C  7626.06    300.02   7626.69    300.65   7627.48    300.65  " /><path style="stroke-width: 0.85 ;&st7;   " d=" M  7627.48,   300.65  C  7628.26    300.65   7628.89    300.02   7628.89    299.24  " /><path style="stroke-width: 0.85 ;&st7;   " d=" M  7633.14,   310.57  C  7633.14    309.78   7632.51    309.15   7631.72    309.15  " /><path style="stroke-width: 0.85 ;&st7;   " d=" M  7631.72,   309.15  C  7630.94    309.15   7630.31    309.78   7630.31    310.57  " /><path style="stroke-width: 0.85 ;&st7;   " d=" M  7630.31,   310.57  C  7630.31    311.35   7630.94    311.98   7631.72    311.98  " /><path style="stroke-width: 0.85 ;&st7;   " d=" M  7631.72,   311.98  C  7632.51    311.98   7633.14    311.35   7633.14    310.57  " /><path style="stroke-width: 0.85 ;&st7;   " d=" M  7633.14,   287.90  C  7633.14    287.12   7632.51    286.49   7631.72    286.49  " /><path style="stroke-width: 0.85 ;&st7;   " d=" M  7631.72,   286.49  C  7630.94    286.49   7630.31    287.12   7630.31    287.90  " /><path style="stroke-width: 0.85 ;&st7;   " d=" M  7630.31,   287.90  C  7630.31    288.69   7630.94    289.32   7631.72    289.32  " /><path style="stroke-width: 0.85 ;&st7;   " d=" M  7631.72,   289.32  C  7632.51    289.32   7633.14    288.69   7633.14    287.90  " /><path style="stroke-width: 0.85 ;&st7;   " d=" M  7654.69,   296.76  C  7656.06    298.15   7658.30    298.18   7659.70    296.81  " /><path style="stroke-width: 0.85 ;&st7;   " d=" M  7659.70,   296.81  C  7661.10    295.44   7661.12    293.20   7659.75    291.80  " /><path style="stroke-width: 0.85 ;&st7;   " d=" M  7659.75,   291.80  C  7659.06    291.09   7658.21    290.74   7657.22    290.74  " /><path style="stroke-width: 0.85 ;&st7;   " d=" M  7654.69,   301.71  C  7656.06    303.11   7658.30    303.13   7659.70    301.77  " /><path style="stroke-width: 0.85 ;&st7;   " d=" M  7659.70,   301.77  C  7661.10    300.40   7661.12    298.15   7659.75    296.76  " /><path style="stroke-width: 0.85 ;&st7;   " d=" M  7659.75,   296.76  C  7658.38    295.36   7656.14    295.34   7654.74    296.71  " /><path style="stroke-width: 0.85 ;&st7;   " d=" M  7654.74,   296.71  C  7654.72    296.72   7654.71    296.74   7654.69    296.76  " /><path style="stroke-width: 0.85 ;&st7;   " d=" M  7657.22,   307.73  C  7659.18    307.73   7660.76    306.15   7660.76    304.19  " /><path style="stroke-width: 0.85 ;&st7;   " d=" M  7660.76,   304.19  C  7660.76    302.24   7659.18    300.65   7657.22    300.65  " /><path style="stroke-width: 0.85 ;&st7;   " d=" M  7657.22,   300.65  C  7656.23    300.65   7655.38    301.01   7654.69    301.71  " /><path style="stroke-width: 1.42 ;&st7;  " d=" M  7623.22,   282.24  L  7665.72,   282.24  L  7665.72,   316.23  L  7623.22,   316.23  L  7623.22,   282.24  " /></g><g ewd:figtype="rb" ewd:figID="91" ewd:code="5"><path style="stroke-width: 1.42 ;&st7;  " d=" M  7829.32,   341.73  L  7825.07,   341.73  " /><path style="stroke-width: 1.42 ;&st7;  " d=" M  7829.32,   333.23  L  7825.07,   333.23  " /><path style="stroke-width: 1.42 ;&st7;  " d=" M  7880.31,   341.73  L  7876.06,   341.73  " /><path style="stroke-width: 1.42 ;&st7;  " d=" M  7880.31,   333.23  L  7876.06,   333.23  " /><path style="stroke-width: 1.42 ;&st7;  " d=" M  7854.81,   341.73  L  7850.56,   341.73  " /><path style="stroke-width: 1.42 ;&st7;  " d=" M  7854.81,   333.23  L  7850.56,   333.23  " /><path style="stroke-width: 1.42 ;&st7;  " d=" M  7880.31,   265.24  L  7876.06,   265.24  " /><path style="stroke-width: 1.42 ;&st7;  " d=" M  7880.31,   256.74  L  7876.06,   256.74  " /><path style="stroke-width: 1.42 ;&st7;  " d=" M  7854.81,   265.24  L  7850.56,   265.24  " /><path style="stroke-width: 1.42 ;&st7;  " d=" M  7854.81,   256.74  L  7850.56,   256.74  " /><path style="stroke-width: 1.42 ;&st7;   " d=" M  7833.57,   337.48  C  7833.57    335.13   7831.66    333.23   7829.32    333.23  " /><path style="stroke-width: 1.42 ;&st7;   " d=" M  7829.32,   341.73  C  7831.66    341.73   7833.57    339.83   7833.57    337.48  " /><path style="stroke-width: 1.42 ;&st7;   " d=" M  7820.82,   337.48  C  7820.82    339.83   7822.72    341.73   7825.07    341.73  " /><path style="stroke-width: 1.42 ;&st7;   " d=" M  7825.07,   333.23  C  7822.72    333.23   7820.82    335.13   7820.82    337.48  " /><path style="stroke-width: 1.42 ;&st7;   " d=" M  7884.56,   337.48  C  7884.56    335.13   7882.66    333.23   7880.31    333.23  " /><path style="stroke-width: 1.42 ;&st7;   " d=" M  7880.31,   341.73  C  7882.66    341.73   7884.56    339.83   7884.56    337.48  " /><path style="stroke-width: 1.42 ;&st7;   " d=" M  7871.81,   337.48  C  7871.81    339.83   7873.71    341.73   7876.06    341.73  " /><path style="stroke-width: 1.42 ;&st7;   " d=" M  7876.06,   333.23  C  7873.71    333.23   7871.81    335.13   7871.81    337.48  " /><path style="stroke-width: 1.42 ;&st7;   " d=" M  7859.06,   337.48  C  7859.06    335.13   7857.16    333.23   7854.81    333.23  " /><path style="stroke-width: 1.42 ;&st7;   " d=" M  7854.81,   341.73  C  7857.16    341.73   7859.06    339.83   7859.06    337.48  " /><path style="stroke-width: 1.42 ;&st7;   " d=" M  7846.31,   337.48  C  7846.31    339.83   7848.22    341.73   7850.56    341.73  " /><path style="stroke-width: 1.42 ;&st7;   " d=" M  7850.56,   333.23  C  7848.22    333.23   7846.31    335.13   7846.31    337.48  " /><path style="stroke-width: 1.42 ;&st7;   " d=" M  7884.56,   260.99  C  7884.56    258.64   7882.66    256.74   7880.31    256.74  " /><path style="stroke-width: 1.42 ;&st7;   " d=" M  7880.31,   265.24  C  7882.66    265.24   7884.56    263.34   7884.56    260.99  " /><path style="stroke-width: 1.42 ;&st7;   " d=" M  7871.81,   260.99  C  7871.81    263.34   7873.71    265.24   7876.06    265.24  " /><path style="stroke-width: 1.42 ;&st7;   " d=" M  7876.06,   256.74  C  7873.71    256.74   7871.81    258.64   7871.81    260.99  " /><path style="stroke-width: 1.42 ;&st7;   " d=" M  7859.06,   260.99  C  7859.06    258.64   7857.16    256.74   7854.81    256.74  " /><path style="stroke-width: 1.42 ;&st7;   " d=" M  7854.81,   265.24  C  7857.16    265.24   7859.06    263.34   7859.06    260.99  " /><path style="stroke-width: 1.42 ;&st7;   " d=" M  7846.31,   260.99  C  7846.31    263.34   7848.22    265.24   7850.56    265.24  " /><path style="stroke-width: 1.42 ;&st7;   " d=" M  7850.56,   256.74  C  7848.22    256.74   7846.31    258.64   7846.31    260.99  " /><path style="stroke-width: 0.85 ;&st7;  " d=" M  7827.19,   333.23  L  7827.19,   299.24  L  7844.19,   299.24  " /><path style="stroke-width: 0.28 ;&st9;  " d=" M  7827.19,   328.33  L  7824.36,   325.50  L  7824.36,   329.75  L  7827.19,   332.58  L  7830.02,   329.75  L  7830.02,   325.50  L  7827.19,   328.33  " /><path style="stroke-width: 0.85 ;&st7;  " d=" M  7878.18,   333.23  L  7878.18,   316.23  " /><path style="stroke-width: 0.85 ;&st7;  " d=" M  7852.68,   333.23  L  7852.68,   316.23  " /><path style="stroke-width: 0.85 ;&st7;  " d=" M  7878.18,   282.24  L  7878.18,   265.24  " /><path style="stroke-width: 0.85 ;&st7;  " d=" M  7852.68,   282.24  L  7852.68,   265.24  " /><path style="stroke-width: 0.28 ;&st9;  " d=" M  7878.18,   328.33  L  7875.35,   325.50  L  7875.35,   329.75  L  7878.18,   332.58  L  7881.01,   329.75  L  7881.01,   325.50  L  7878.18,   328.33  " /><path style="stroke-width: 0.28 ;&st9;  " d=" M  7852.68,   328.33  L  7849.85,   325.50  L  7849.85,   329.75  L  7852.68,   332.58  L  7855.52,   329.75  L  7855.52,   325.50  L  7852.68,   328.33  " /><path style="stroke-width: 0.28 ;&st9;  " d=" M  7878.18,   270.14  L  7881.01,   272.97  L  7881.01,   268.72  L  7878.18,   265.89  L  7875.35,   268.72  L  7875.35,   272.97  L  7878.18,   270.14  " /><path style="stroke-width: 0.28 ;&st9;  " d=" M  7852.68,   270.14  L  7855.52,   272.97  L  7855.52,   268.72  L  7852.68,   265.89  L  7849.85,   268.72  L  7849.85,   272.97  L  7852.68,   270.14  " /><text style="&st18;" transform="matrix(&st16;  7888.94  295.55 )" ewd:textID="44">D/L <tspan x="0 " dy="6.0">NO.3 </tspan><tspan x="0 " dy="6.0">Relay</tspan></text><text style="&st18;" transform="matrix(&st16;  7825.39  339.45 )">5</text><text style="&st18;" transform="matrix(&st16;  7872.0  278.55 )">2</text><text style="&st18;" transform="matrix(&st16;  7846.5  278.55 )">3</text><text style="&st18;" transform="matrix(&st16;  7838.0  295.54 )">4</text><text style="&st18;" transform="matrix(&st16;  7872.0  324.43 )">1</text><text style="&st18;" transform="matrix(&st16;  7846.5  324.43 )">5</text><text style="&st18;" transform="matrix(&st16;  7876.38  339.45 )">5</text><text style="&st18;" transform="matrix(&st16;  7850.89  339.45 )">5</text><text style="&st18;" transform="matrix(&st16;  7876.38  262.96 )">5</text><text style="&st18;" transform="matrix(&st16;  7850.89  262.96 )">5</text><path style="stroke-width: 0.85 ;&st7;  " d=" M  7878.18,   307.73  L  7878.18,   316.23  " /><path style="stroke-width: 0.85 ;&st7;  " d=" M  7878.18,   282.24  L  7878.18,   290.74  " /><path style="stroke-width: 0.85 ;&st7;  " d=" M  7852.69,   282.24  L  7852.69,   286.49  " /><path style="stroke-width: 0.85 ;&st7;  " d=" M  7844.19,   299.24  L  7847.02,   299.24  " /><path style="stroke-width: 0.85 ;&st7;  " d=" M  7852.69,   311.98  L  7852.69,   316.23  " /><path style="stroke-width: 1.42 ;&st7;  " d=" M  7852.69,   289.32  L  7847.02,   311.98  " /><path style="stroke-width: 0.85 ;&st7;   " d=" M  7878.18,   307.73  C  7880.14    307.73   7881.72    306.15   7881.72    304.19  " /><path style="stroke-width: 0.85 ;&st7;   " d=" M  7881.72,   304.19  C  7881.72    302.24   7880.14    300.65   7878.18    300.65  " /><path style="stroke-width: 0.85 ;&st7;   " d=" M  7878.18,   300.65  C  7877.19    300.65   7876.35    301.01   7875.65    301.71  " /><path style="stroke-width: 0.85 ;&st7;   " d=" M  7875.65,   301.71  C  7877.02    303.11   7879.27    303.13   7880.66    301.77  " /><path style="stroke-width: 0.85 ;&st7;   " d=" M  7880.66,   301.77  C  7882.06    300.40   7882.08    298.15   7880.71    296.76  " /><path style="stroke-width: 0.85 ;&st7;   " d=" M  7880.71,   296.76  C  7879.34    295.36   7877.10    295.34   7875.70    296.71  " /><path style="stroke-width: 0.85 ;&st7;   " d=" M  7875.70,   296.71  C  7875.69    296.72   7875.67    296.74   7875.65    296.76  " /><path style="stroke-width: 0.85 ;&st7;   " d=" M  7875.65,   296.76  C  7877.02    298.15   7879.27    298.18   7880.66    296.81  " /><path style="stroke-width: 0.85 ;&st7;   " d=" M  7880.66,   296.81  C  7882.06    295.44   7882.08    293.20   7880.71    291.80  " /><path style="stroke-width: 0.85 ;&st7;   " d=" M  7880.71,   291.80  C  7880.02    291.09   7879.17    290.74   7878.18    290.74  " /><path style="stroke-width: 0.85 ;&st7;   " d=" M  7854.10,   287.90  C  7854.10    287.12   7853.47    286.49   7852.69    286.49  " /><path style="stroke-width: 0.85 ;&st7;   " d=" M  7852.69,   286.49  C  7851.91    286.49   7851.27    287.12   7851.27    287.90  " /><path style="stroke-width: 0.85 ;&st7;   " d=" M  7851.27,   287.90  C  7851.27    288.69   7851.91    289.32   7852.69    289.32  " /><path style="stroke-width: 0.85 ;&st7;   " d=" M  7852.69,   289.32  C  7853.47    289.32   7854.10    288.69   7854.10    287.90  " /><path style="stroke-width: 0.85 ;&st7;   " d=" M  7854.10,   310.57  C  7854.10    309.78   7853.47    309.15   7852.69    309.15  " /><path style="stroke-width: 0.85 ;&st7;   " d=" M  7852.69,   309.15  C  7851.91    309.15   7851.27    309.78   7851.27    310.57  " /><path style="stroke-width: 0.85 ;&st7;   " d=" M  7851.27,   310.57  C  7851.27    311.35   7851.91    311.98   7852.69    311.98  " /><path style="stroke-width: 0.85 ;&st7;   " d=" M  7852.69,   311.98  C  7853.47    311.98   7854.10    311.35   7854.10    310.57  " /><path style="stroke-width: 0.85 ;&st7;   " d=" M  7849.86,   299.24  C  7849.86    298.45   7849.22    297.82   7848.44    297.82  " /><path style="stroke-width: 0.85 ;&st7;   " d=" M  7848.44,   297.82  C  7847.66    297.82   7847.02    298.45   7847.02    299.24  " /><path style="stroke-width: 0.85 ;&st7;   " d=" M  7847.02,   299.24  C  7847.02    300.02   7847.66    300.65   7848.44    300.65  " /><path style="stroke-width: 0.85 ;&st7;   " d=" M  7848.44,   300.65  C  7849.22    300.65   7849.86    300.02   7849.86    299.24  " /><path style="stroke-width: 1.42 ;&st7;  " d=" M  7844.19,   282.24  L  7886.68,   282.24  L  7886.68,   316.23  L  7844.19,   316.23  L  7844.19,   282.24  " /></g><g ewd:figtype="conn" ewd:figID="96" ewd:code="G148"><path style="stroke-width: 0.85 ;&st7;  " d=" M  7656.02,   425.71  L  7655.75,   426.18  L  7655.66,   426.71  L  7655.75,   427.25  L  7656.02,   427.72  L  7656.44,   428.06  L  7656.95,   428.25  L  7657.49,   428.25  L  7658.00,   428.06  L  7658.41,   427.72  L  7658.68,   427.25  L  7658.78,   426.71  L  7658.68,   426.18  L  7658.41,   425.71  L  7658.00,   425.37  L  7657.49,   425.18  L  7656.95,   425.18  L  7656.44,   425.37  L  7656.02,   425.71  L  7656.42,   426.42  L  7656.42,   427.01  L  7656.79,   427.45  L  7657.36,   427.55  L  7657.87,   427.26  L  7658.07,   426.71  L  7657.87,   426.17  L  7657.36,   425.88  L  7656.79,   425.98  L  7657.22,   426.71  " /><path style="stroke-width: 0.85 ;&st7;  " d=" M  7630.53,   425.71  L  7630.26,   426.18  L  7630.16,   426.71  L  7630.26,   427.25  L  7630.53,   427.72  L  7630.94,   428.06  L  7631.45,   428.25  L  7631.99,   428.25  L  7632.50,   428.06  L  7632.91,   427.72  L  7633.19,   427.25  L  7633.28,   426.71  L  7633.19,   426.18  L  7632.91,   425.71  L  7632.50,   425.37  L  7631.99,   425.18  L  7631.45,   425.18  L  7630.94,   425.37  L  7630.53,   425.71  L  7630.92,   426.42  L  7630.92,   427.01  L  7631.30,   427.45  L  7631.87,   427.55  L  7632.37,   427.26  L  7632.57,   426.71  L  7632.37,   426.17  L  7631.87,   425.88  L  7631.30,   425.98  L  7631.72,   426.71  " /><path style="stroke-width: 0.85 ;&st7;  " d=" M  7733.70,   435.21  L  7733.70,   426.71  L  7631.72,   426.71  " /><path style="stroke-width: 0.85 ;&st7;  " d=" M  7657.22,   435.21  L  7657.22,   418.22  " /><path style="stroke-width: 1.42 ;&st7;  " d=" M  7623.22,   418.22  L  7742.20,   418.22  L  7742.20,   435.21  L  7623.22,   435.21  L  7623.22,   418.22  " /><path style="stroke-width: 0.85 ;&st7;  " d=" M  7631.72,   418.22  L  7631.72,   435.21  " /><path style="stroke-width: 0.85 ;&st7;  " d=" M  7681.52,   425.71  L  7681.25,   426.18  L  7681.16,   426.71  L  7681.25,   427.25  L  7681.52,   427.72  L  7681.93,   428.06  L  7682.44,   428.25  L  7682.98,   428.25  L  7683.49,   428.06  L  7683.91,   427.72  L  7684.18,   427.25  L  7684.27,   426.71  L  7684.18,   426.18  L  7683.91,   425.71  L  7683.49,   425.37  L  7682.98,   425.18  L  7682.44,   425.18  L  7681.93,   425.37  L  7681.52,   425.71  L  7681.91,   426.42  L  7681.91,   427.01  L  7682.29,   427.45  L  7682.86,   427.55  L  7683.36,   427.26  L  7683.56,   426.71  L  7683.36,   426.17  L  7682.86,   425.88  L  7682.29,   425.98  L  7682.71,   426.71  " /><path style="stroke-width: 0.85 ;&st7;  " d=" M  7708.21,   435.21  L  7708.21,   426.71  " /><path style="stroke-width: 0.85 ;&st7;  " d=" M  7707.02,   425.71  L  7706.74,   426.18  L  7706.65,   426.71  L  7706.74,   427.25  L  7707.02,   427.72  L  7707.43,   428.06  L  7707.94,   428.25  L  7708.48,   428.25  L  7708.99,   428.06  L  7709.40,   427.72  L  7709.67,   427.25  L  7709.77,   426.71  L  7709.67,   426.18  L  7709.40,   425.71  L  7708.99,   425.37  L  7708.48,   425.18  L  7707.94,   425.18  L  7707.43,   425.37  L  7707.02,   425.71  L  7707.41,   426.42  L  7707.41,   427.01  L  7707.78,   427.45  L  7708.36,   427.55  L  7708.86,   427.26  L  7709.06,   426.71  L  7708.86,   426.17  L  7708.36,   425.88  L  7707.78,   425.98  L  7708.21,   426.71  " /><path style="stroke-width: 0.85 ;&st7;  " d=" M  7682.71,   435.21  L  7682.71,   426.71  " /><text style="&st18;" transform="matrix(&st16;  7676.53  443.41 )">8</text><text style="&st18;" transform="matrix(&st16;  7651.04  443.41 )">9</text><text style="&st18;" transform="matrix(&st16;  7625.54  443.41 )">7</text><text style="&st18;" transform="matrix(&st16;  7622.44  414.53 )">11</text><text style="&st18;" transform="matrix(&st16;  7651.04  414.53 )">1</text><text style="&st18;" transform="matrix(&st16;  7724.42  443.41 )">10</text><text style="&st18;" transform="matrix(&st16;  7702.03  443.41 )">2</text><g ewd:figtype="title"><text style="&st18;" transform="matrix(&st17;  7750.1  438.11 )">G148</text><text style="&st18;" transform="matrix(&st17;  7756.92  438.12 )" ewd:textID="98">No. 30 Junction Connector</text></g></g><g ewd:figtype="conn" ewd:figID="99" ewd:code="G33,G34"><g ewd:lineID="372"><text style="&st18;" transform="matrix(&st16;  7513.28  83.07 )">ACT+</text><text style="&st18;" transform="matrix(&st16;  7649.25  83.07 )">ACT-</text></g><g ewd:lineID="373"><text style="&st18;" transform="matrix(&st16;  7869.64  83.07 )">ACTD</text></g></g><g ewd:figtype="jb" ewd:figID="157" ewd:code="2"><path style="stroke-width: 1.42 ;&st7;  " d=" M  7523.37,   129.26  L  7519.12,   129.26  " /><path style="stroke-width: 1.42 ;&st7;  " d=" M  7523.37,   120.77  L  7519.12,   120.77  " /><path style="stroke-width: 1.42 ;&st7;  " d=" M  7659.35,   129.26  L  7655.10,   129.26  " /><path style="stroke-width: 1.42 ;&st7;  " d=" M  7659.35,   120.77  L  7655.10,   120.77  " /><path style="stroke-width: 1.42 ;&st7;   " d=" M  7527.62,   125.01  C  7527.62    122.67   7525.71    120.77   7523.37    120.77  " /><path style="stroke-width: 1.42 ;&st7;   " d=" M  7523.37,   129.26  C  7525.71    129.26   7527.62    127.36   7527.62    125.01  " /><path style="stroke-width: 1.42 ;&st7;   " d=" M  7514.87,   125.01  C  7514.87    127.36   7516.77    129.26   7519.12    129.26  " /><path style="stroke-width: 1.42 ;&st7;   " d=" M  7519.12,   120.77  C  7516.77    120.77   7514.87    122.67   7514.87    125.01  " /><path style="stroke-width: 1.42 ;&st7;   " d=" M  7663.59,   125.01  C  7663.59    122.67   7661.69    120.77   7659.35    120.77  " /><path style="stroke-width: 1.42 ;&st7;   " d=" M  7659.35,   129.26  C  7661.69    129.26   7663.59    127.36   7663.59    125.01  " /><path style="stroke-width: 1.42 ;&st7;   " d=" M  7650.85,   125.01  C  7650.85    127.36   7652.75    129.26   7655.10    129.26  " /><path style="stroke-width: 1.42 ;&st7;   " d=" M  7655.10,   120.77  C  7652.75    120.77   7650.85    122.67   7650.85    125.01  " /><path style="stroke-width: 0.85 ;&st7;  " d=" M  7521.24,    86.77  L  7521.24,   120.77  " /><path style="stroke-width: 0.28 ;&st9;  " d=" M  7521.24,   115.87  L  7518.41,   113.04  L  7518.41,   117.29  L  7521.24,   120.12  L  7524.07,   117.29  L  7524.07,   113.04  L  7521.24,   115.87  " /><path style="stroke-width: 0.85 ;&st7;  " d=" M  7657.22,    86.77  L  7657.22,   120.77  " /><path style="stroke-width: 0.28 ;&st9;  " d=" M  7657.22,   115.87  L  7654.38,   113.04  L  7654.38,   117.29  L  7657.22,   120.12  L  7660.05,   117.29  L  7660.05,   113.04  L  7657.22,   115.87  " /><text style="&st18;" transform="matrix(&st16;  7515.06  94.96 )">2</text><text style="&st18;" transform="matrix(&st16;  7510.74  126.98 )">2</text><text style="&st18;" transform="matrix(&st16;  7517.39  126.98 )">2N</text><text style="&st18;" transform="matrix(&st16;  7651.04  94.96 )">3</text><text style="&st18;" transform="matrix(&st16;  7646.71  126.98 )">3</text><text style="&st18;" transform="matrix(&st16;  7653.37  126.98 )">2N</text></g><g ewd:figtype="jb" ewd:figID="159" ewd:code="2"><path style="stroke-width: 1.42 ;&st7;  " d=" M  7880.31,   120.77  L  7876.06,   120.77  " /><path style="stroke-width: 1.42 ;&st7;  " d=" M  7880.31,   129.26  L  7876.06,   129.26  " /><path style="stroke-width: 1.42 ;&st7;   " d=" M  7876.06,   120.77  C  7873.71    120.77   7871.81    122.67   7871.81    125.01  " /><path style="stroke-width: 1.42 ;&st7;   " d=" M  7871.81,   125.01  C  7871.81    127.36   7873.71    129.26   7876.06    129.26  " /><path style="stroke-width: 1.42 ;&st7;   " d=" M  7880.31,   129.26  C  7882.66    129.26   7884.56    127.36   7884.56    125.01  " /><path style="stroke-width: 1.42 ;&st7;   " d=" M  7884.56,   125.01  C  7884.56    122.67   7882.66    120.77   7880.31    120.77  " /><path style="stroke-width: 0.28 ;&st9;  " d=" M  7878.18,   115.87  L  7875.35,   113.04  L  7875.35,   117.29  L  7878.18,   120.12  L  7881.01,   117.29  L  7881.01,   113.04  L  7878.18,   115.87  " /><path style="stroke-width: 0.85 ;&st7;  " d=" M  7878.18,    86.77  L  7878.18,   120.77  " /><text style="&st18;" transform="matrix(&st16;  7875.18  126.98 )">2J</text><text style="&st18;" transform="matrix(&st16;  7867.68  126.98 )">4</text><text style="&st18;" transform="matrix(&st16;  7872.0  94.96 )">5</text></g><g ewd:figtype="w2w" ewd:figID="215" ewd:code="JG2"><path style="stroke-width: 1.42 ;&st7;  " d=" M  7984.41,   256.18  L  7988.66,   260.43  L  7992.91,   256.18  " /><path style="stroke-width: 1.42 ;&st7;  " d=" M  7992.91,   259.58  L  7988.66,   263.82  L  7984.41,   259.58  " /><text style="&st18;" transform="matrix(&st16;  7976.03  271.46 )">1</text></g><g ewd:figtype="gp" ewd:figID="267" ewd:code="GB"><path style="stroke-width: 0.85 ;&st7;  " d=" M  7825.77,   710.00  L  7828.61,   710.00  " /><path style="stroke-width: 0.85 ;&st7;  " d=" M  7818.69,   701.50  L  7835.69,   701.50  " /><path style="stroke-width: 0.85 ;&st7;  " d=" M  7822.94,   704.33  L  7831.44,   704.33  " /><path style="stroke-width: 0.85 ;&st7;  " d=" M  7824.36,   707.17  L  7830.02,   707.17  " /><path style="stroke-width: 0.85 ;&st7;  " d=" M  7827.19,   697.25  L  7827.19,   701.50  " /></g><g ewd:code="22" ewd:figID="377" ewd:comment="" ewd:figtype="comment"><text style="&st18;" transform="matrix(&st16;  7942.77  139.73 )" ewd:textID="12">*22 :w/o Door Control Battery</text></g><g ewd:code="20" ewd:figID="379" ewd:comment="" ewd:figtype="comment"><text style="&st18;" transform="matrix(&st16;  7942.77  122.73 )" ewd:textID="10">*20 :w/o Double Locking</text></g><g ewd:code="19" ewd:figID="378" ewd:comment="" ewd:figtype="comment"><text style="&st18;" transform="matrix(&st16;  7942.77  114.24 )" ewd:textID="9">*19 :w/ Double Locking</text></g><g ewd:code="21" ewd:figID="376" ewd:comment="" ewd:figtype="comment"><text style="&st18;" transform="matrix(&st16;  7942.77  131.23 )" ewd:textID="11">*21 :w/ Door Control Battery</text></g></svg>