﻿<?xml version="1.0" encoding="utf-8"?>
<!DOCTYPE svg PUBLIC "-//W3C//DTD SVG 1.0//EN" "http://www.w3.org/TR/2001/REC-SVG-20010904/DTD/svg10.dtd"[
	<!ENTITY ns_flows "http://ns.adobe.com/Flows/1.0/">
	<!ENTITY ns_svg "http://www.w3.org/2000/svg">
	<!ENTITY ns_xlink "http://www.w3.org/1999/xlink">
	<!ENTITY st0 "font-size:7px;font-family:'MS-PGothic';adobe-font-script:japanese;">
	<!ENTITY st1 "font-size:6px;font-family:'ArialMT';">
	<!-- White fill  -->
	<!ENTITY st2 "fill:#FFFFFF;stroke:#000000; stroke-width:1.41;stroke-linecap:round;stroke-linejoin:round;">
	<!-- Yellow fill  -->
	<!ENTITY st3 "fill:#FFFFCC;stroke:#FFFFCC; stroke-width:0.1;stroke-linecap:round;stroke-linejoin:round;">
	<!-- Gray fill  -->
	<!ENTITY st4 "fill:#CCCCCC;stroke:#CCCCCC; stroke-width:0.1;stroke-linecap:round;stroke-linejoin:round;">
	<!-- Light-blue fill -->
	<!ENTITY st5 "fill:#CCECF4;stroke:#000000; stroke-width:1.133;stroke-linecap:round;stroke-linejoin:round;">
	<!ENTITY st6 "fill:none;stroke-linecap:butt; stroke-linejoin:round;">
	<!ENTITY st7 "fill:none;stroke:#000000;stroke-linecap:round;stroke-linejoin:round;">
	<!ENTITY st8 "enable-background:new    ;">
	<!-- Black fill -->
	<!ENTITY st9 "fill:#000000;stroke:#000000; stroke-linecap:round;stroke-linejoin:round;">
	<!-- SRS note   -->
	<!ENTITY st10 "font-size:9px;font-family:'ArialMT';">
	<!ENTITY st11 "font-size:9px;font-family:'Svg Symbol';">
	<!ENTITY st12 "font-size:6px;font-family:'Svg Symbol';">
	<!ENTITY st13 "fill:none;stroke:#ff0000;stroke-linecap:round;stroke-linejoin:round;">
	<!-- Yellow fill  -->
	<!ENTITY st14 "fill:#FFFF00;stroke:#FFFF00; stroke-width:0.1;stroke-linecap:round;stroke-linejoin:round;">
	<!ENTITY st15 "font-size:6px;font-family:'MS-PGothic';adobe-font-script:japanese;">
	<!ENTITY st16 "1.00 0.00 0.00 1.00">
	<!ENTITY st17 "0.00 -1.00 1.00 0.00">
	<!ENTITY st18 "font-size:6px;font-family:'Arial';">
	<!ENTITY st19 "font-size:9px;font-family:'Arial';">
	<!ENTITY st20 "font-size:6px;font-family:'MS-PGothic','MS PGothic';adobe-font-script:japanese;">
	<!ENTITY st21 "font-size:7px;font-family:'MS-PGothic','MS PGothic';adobe-font-script:japanese;">
	<!ATTLIST svg
		xmlns:ewd CDATA #FIXED "http://shcl.co.jp/ewd"
		xmlns:a CDATA #FIXED "http://ns.adobe.com/AdobeSVGViewerExtensions/3.0/"
		ewd:ver CDATA #IMPLIED
	>
	<!ATTLIST a
		ewd:lineID CDATA #IMPLIED
		ewd:groupID CDATA #IMPLIED
		ewd:figtype CDATA #IMPLIED
		ewd:code CDATA #IMPLIED
		ewd:figID CDATA #IMPLIED
		ewd:pinNo CDATA #IMPLIED
		ewd:comment CDATA #IMPLIED >
	<!ATTLIST g
		ewd:lineID CDATA #IMPLIED
		ewd:groupID CDATA #IMPLIED
		ewd:figtype CDATA #IMPLIED
		ewd:code CDATA #IMPLIED
		ewd:figID CDATA #IMPLIED
		ewd:pinNo CDATA #IMPLIED
		ewd:comment CDATA #IMPLIED >
	<!ATTLIST text
		ewd:textID CDATA #IMPLIED >
	<!ATTLIST title
		ewd:textID CDATA #IMPLIED >
]>
<!-- Generator: Shintec Hozumi YS   -->
<svg onload="call_execInitLoadProc_svg('system')" style="overflow:visible;  enable-background:new 0 0 6207.640 710.000" viewBox="0 0 6207.640 710.000" height="710.000" width="6207.640" xml:space="preserve" ewd:ver="2.1.2.9" xmlns="&ns_svg;" xmlns:a="http://ns.adobe.com/AdobeSVGViewerExtensions/3.0/" xmlns:ewd="http://shcl.co.jp/ewd" xmlns:xlink="&ns_xlink;">
<path style="stroke-width: 1.42 ;&st7;  " d=" M  5107.65,   282.24  L  5099.15,   282.24  " /><text style="&st18;" transform="matrix(&st16;  5156.45  575.99 )">B</text><text style="&st18;" transform="matrix(&st16;  5207.44  575.99 )">B</text><text style="&st18;" transform="matrix(&st16;  5156.45  542.0 )">B</text><text style="&st18;" transform="matrix(&st16;  5207.44  542.0 )">B</text><text style="&st18;" transform="matrix(&st16;  5207.17  516.5 )">G</text><text style="&st18;" transform="matrix(&st16;  5156.18  516.5 )">G</text><text style="&st18;" transform="matrix(&st17;  5282.42  436.9 )">B</text><text style="&st18;" transform="matrix(&st17;  5231.43  437.17 )">G</text><text style="&st18;" transform="matrix(&st17;  5044.46  233.21 )">G</text><text style="&st18;" transform="matrix(&st17;  5392.9  198.94 )">Y</text><text style="&st18;" transform="matrix(&st17;  5095.45  232.86 )">R</text><text style="&st18;" transform="matrix(&st17;  5095.45  133.05 )">LG</text><text style="&st18;" transform="matrix(&st17;  5095.45  377.33 )">R</text><text style="&st18;" transform="matrix(&st17;  5333.41  436.9 )">B</text><text style="&st18;" transform="matrix(&st16;  5418.68  25.26 )">G33(A),G34(B)</text><text style="&st18;" transform="matrix(&st16;  5418.69  32.08 )" ewd:textID="27">Body ECU</text><g ewd:figtype="conn" ewd:figID="28" ewd:code="G167"><path style="stroke-width: 0.85 ;&st7;  " d=" M  5097.95,   179.25  L  5097.68,   179.72  L  5097.59,   180.26  L  5097.68,   180.79  L  5097.95,   181.26  L  5098.37,   181.60  L  5098.88,   181.79  L  5099.41,   181.79  L  5099.92,   181.60  L  5100.34,   181.26  L  5100.61,   180.79  L  5100.70,   180.26  L  5100.61,   179.72  L  5100.34,   179.25  L  5099.92,   178.91  L  5099.41,   178.72  L  5098.88,   178.72  L  5098.37,   178.91  L  5097.95,   179.25  L  5098.35,   179.96  L  5098.35,   180.55  L  5098.72,   180.99  L  5099.29,   181.09  L  5099.80,   180.80  L  5100.00,   180.26  L  5099.80,   179.71  L  5099.29,   179.42  L  5098.72,   179.52  L  5099.15,   180.26  " /><path style="stroke-width: 0.85 ;&st7;  " d=" M  5048.15,   188.75  L  5048.15,   180.26  L  5099.15,   180.26  " /><path style="stroke-width: 1.42 ;&st7;  " d=" M  5039.66,   171.76  L  5107.64,   171.76  L  5107.64,   188.75  L  5039.66,   188.75  L  5039.66,   171.76  " /><path style="stroke-width: 0.85 ;&st7;  " d=" M  5099.15,   171.76  L  5099.15,   188.75  " /><text style="&st18;" transform="matrix(&st16;  5089.86  196.95 )">20</text><text style="&st18;" transform="matrix(&st16;  5089.86  168.07 )">19</text><text style="&st18;" transform="matrix(&st16;  5038.87  196.95 )">21</text><g ewd:figtype="title"><text style="&st18;" transform="matrix(&st17;  5122.36  191.66 )" ewd:textID="68">No. 41 Junction <tspan x="0 " dy="6.0">Connector</tspan></text><text style="&st18;" transform="matrix(&st17;  5115.54  191.65 )">G167</text></g></g><g ewd:figtype="conn" ewd:figID="37" ewd:code="N1"><path style="stroke-width: 0.85 ;&st7;  " d=" M  5099.15,   447.96  L  5099.15,   443.71  " /><path style="stroke-width: 0.85 ;&st7;  " d=" M  5099.15,   477.71  L  5099.15,   473.46  " /><path style="stroke-width: 1.42 ;&st7;  " d=" M  5099.15,   470.62  L  5104.81,   447.96  " /><path style="stroke-width: 0.85 ;&st7;   " d=" M  5100.56,   472.04  C  5100.56    471.26   5099.93    470.62   5099.15    470.62  " /><path style="stroke-width: 0.85 ;&st7;   " d=" M  5099.15,   470.62  C  5098.37    470.62   5097.73    471.26   5097.73    472.04  " /><path style="stroke-width: 0.85 ;&st7;   " d=" M  5097.73,   472.04  C  5097.73    472.82   5098.37    473.46   5099.15    473.46  " /><path style="stroke-width: 0.85 ;&st7;   " d=" M  5099.15,   473.46  C  5099.93    473.46   5100.56    472.82   5100.56    472.04  " /><path style="stroke-width: 0.85 ;&st7;   " d=" M  5100.56,   449.38  C  5100.56    448.59   5099.93    447.96   5099.15    447.96  " /><path style="stroke-width: 0.85 ;&st7;   " d=" M  5099.15,   447.96  C  5098.37    447.96   5097.73    448.59   5097.73    449.38  " /><path style="stroke-width: 0.85 ;&st7;   " d=" M  5097.73,   449.38  C  5097.73    450.16   5098.37    450.79   5099.15    450.79  " /><path style="stroke-width: 0.85 ;&st7;   " d=" M  5099.15,   450.79  C  5099.93    450.79   5100.56    450.16   5100.56    449.38  " /><path style="stroke-width: 1.42 ;&st7;  " d=" M  5107.64,   477.71  L  5107.64,   443.71  L  5090.65,   443.71  L  5090.65,   477.71  L  5107.64,   477.71  " /><text style="&st18;" transform="matrix(&st16;  5092.96  440.02 )">1</text><g ewd:figtype="title"><text style="&st18;" transform="matrix(&st17;  5122.36  480.61 )" ewd:textID="40">Front Door Courtesy <tspan x="0 " dy="6.0">Light Switch Assembly RH</tspan></text><text style="&st18;" transform="matrix(&st17;  5115.54  480.6 )">N1</text></g></g><g ewd:figtype="conn" ewd:figID="43" ewd:code="G8,G9,G10"><path style="stroke-width: 0.85 ;&st7;  " d=" M  5396.60,   324.73  L  5405.10,   330.40  " /><path style="stroke-width: 0.85 ;&st7;  " d=" M  5405.10,   333.23  L  5410.76,   333.23  " /><path style="stroke-width: 1.42 ;&st7;  " d=" M  5405.10,   341.73  L  5405.10,   324.73  " /><path style="stroke-width: 0.85 ;&st7;  " d=" M  5881.02,   243.99  L  5881.02,   252.49  " /><path style="stroke-width: 0.85 ;&st7;  " d=" M  5949.01,   252.49  L  5949.01,   243.99  " /><path style="stroke-width: 0.85 ;&st7;  " d=" M  5395.18,   358.73  L  5398.01,   358.73  " /><path style="stroke-width: 0.85 ;&st7;  " d=" M  5393.76,   355.89  L  5399.43,   355.89  " /><path style="stroke-width: 0.85 ;&st7;  " d=" M  5392.35,   353.06  L  5400.85,   353.06  " /><path style="stroke-width: 0.85 ;&st7;  " d=" M  5388.10,   350.23  L  5405.09,   350.23  " /><path style="stroke-width: 0.85 ;&st7;  " d=" M  5396.60,   341.73  L  5396.60,   350.23  " /><path style="stroke-width: 0.85 ;&st7;  " d=" M  5410.76,   333.23  L  5464.58,   333.23  " /><path style="stroke-width: 0.85 ;&st7;  " d=" M  5396.60,   341.73  L  5398.73,   338.54  L  5400.36,   340.99  L  5396.60,   341.73  L  5397.83,   340.91  L  5398.73,   339.56  L  5399.41,   340.59  L  5397.83,   340.91  L  5398.44,   340.50  L  5398.73,   340.07  L  5398.94,   340.40  L  5398.44,   340.50  " /><path style="stroke-width: 0.85 ;&st7;  " d=" M  5396.60,   341.73  L  5405.09,   336.06  " /><path style="stroke-width: 0.85 ;&st7;  " d=" M  5396.60,   222.75  L  5396.60,   324.73  " /><path style="stroke-width: 0.28 ;&st9;  " d=" M  5949.00,   248.24  L  5957.50,   242.58  L  5957.50,   253.91  L  5949.00,   248.24  " /><path style="stroke-width: 1.42 ;&st7;  " d=" M  5209.63,   222.75  L  5209.63,   401.22  L  6186.96,   401.22  L  6186.96,   222.75  L  5209.63,   222.75  " /><path style="stroke-width: 0.85 ;&st7;  " d=" M  5617.56,   401.22  L  5617.56,   350.23  " /><path style="stroke-width: 0.85 ;&st7;  " d=" M  5913.82,   247.24  L  5913.54,   247.71  L  5913.45,   248.24  L  5913.54,   248.78  L  5913.82,   249.25  L  5914.23,   249.59  L  5914.74,   249.78  L  5915.28,   249.78  L  5915.79,   249.59  L  5916.20,   249.25  L  5916.47,   248.78  L  5916.57,   248.24  L  5916.47,   247.71  L  5916.20,   247.24  L  5915.79,   246.90  L  5915.28,   246.71  L  5914.74,   246.71  L  5914.23,   246.90  L  5913.82,   247.24  L  5914.21,   247.95  L  5914.21,   248.54  L  5914.58,   248.98  L  5915.16,   249.08  L  5915.66,   248.79  L  5915.86,   248.24  L  5915.66,   247.70  L  5915.16,   247.41  L  5914.58,   247.51  L  5915.01,   248.24  " /><path style="stroke-width: 0.85 ;&st7;  " d=" M  5838.52,   222.75  L  5838.52,   248.24  L  5915.01,   248.24  " /><path style="stroke-width: 0.28 ;&st9;  " d=" M  5881.01,   248.24  L  5872.52,   253.91  L  5872.52,   242.58  L  5881.01,   248.24  " /><path style="stroke-width: 0.85 ;&st7;  " d=" M  5949.00,   290.74  L  5949.00,   282.24  L  5932.01,   282.24  " /><path style="stroke-width: 0.85 ;&st7;  " d=" M  5947.59,   307.73  L  5950.42,   307.73  " /><path style="stroke-width: 0.85 ;&st7;  " d=" M  5946.17,   304.90  L  5951.84,   304.90  " /><path style="stroke-width: 0.85 ;&st7;  " d=" M  5944.75,   302.07  L  5953.25,   302.07  " /><path style="stroke-width: 0.85 ;&st7;  " d=" M  5940.50,   299.24  L  5957.50,   299.24  " /><path style="stroke-width: 0.85 ;&st7;  " d=" M  5949.00,   290.74  L  5949.00,   299.24  " /><path style="stroke-width: 0.85 ;&st7;  " d=" M  5915.01,   248.24  L  5983.00,   248.24  L  5983.00,   222.75  " /><path style="stroke-width: 0.85 ;&st7;  " d=" M  5915.01,   290.74  L  5915.01,   316.23  " /><path style="stroke-width: 0.85 ;&st7;  " d=" M  5915.01,   273.74  L  5915.01,   248.24  " /><path style="stroke-width: 1.42 ;&st7;  " d=" M  5898.01,   273.74  L  5898.01,   290.74  L  5932.01,   290.74  L  5932.01,   273.74  L  5898.01,   273.74  " /><path style="stroke-width: 1.42 ;&st7;  " d=" M  5464.58,   316.23  L  5464.58,   350.23  L  6016.99,   350.23  L  6016.99,   316.23  L  5464.58,   316.23  " /><text style="&st18;" transform="matrix(&st16;  5328.68  397.52 )">BDCY</text><text style="&st18;" transform="matrix(&st16;  6140.58  397.52 )">LL</text><text style="&st18;" transform="matrix(&st16;  6106.55  397.52 )">LR</text><text style="&st18;" transform="matrix(&st16;  5526.28  230.38 )">HAZ</text><text style="&st18;" transform="matrix(&st16;  6082.8  230.38 )">B</text><text style="&st18;" transform="matrix(&st16;  5277.69  397.52 )">DCTY</text><text style="&st18;" transform="matrix(&st16;  5227.08  397.52 )">PCTY</text><text style="&st18;" transform="matrix(&st16;  6008.95  397.52 )">RLCY</text><text style="&st18;" transform="matrix(&st16;  5923.93  397.52 )">RRCY</text><text style="&st18;" transform="matrix(&st16;  5399.18  230.94 )">DOOR</text><text style="&st18;" transform="matrix(&st16;  5661.91  397.52 )">GND</text><text style="&st18;" transform="matrix(&st16;  5907.16  284.21 )">5V IC</text><text style="&st18;" transform="matrix(&st16;  5853.47  335.2 )">CPU</text><text style="&st18;" transform="matrix(&st16;  5897.74  298.93 )">5V+B</text><text style="&st18;" transform="matrix(&st16;  5985.58  230.94 )">IG+</text><text style="&st18;" transform="matrix(&st16;  5841.11  230.94 )">B</text><text style="&st18;" transform="matrix(&st16;  5620.14  397.53 )">EP</text><text style="&st18;" transform="matrix(&st16;  6163.32  230.38 )">ACC</text><text style="&st18;" transform="matrix(&st16;  5632.51  335.2 )">CPU</text><text style="&st18;" transform="matrix(&st16;  5325.31  407.72 )">19</text><path style="stroke-width: 1.42 ;&st7;   " d=" M  5341.64,   405.75  C  5341.64    403.25   5339.61    401.22   5337.11    401.22  " /><path style="stroke-width: 1.42 ;&st7;   " d=" M  5337.11,   401.22  C  5334.61    401.22   5332.58    403.25   5332.58    405.75  " /><path style="stroke-width: 1.42 ;&st7;   " d=" M  5332.58,   405.75  C  5332.58    408.25   5334.61    410.28   5337.11    410.28  " /><path style="stroke-width: 1.42 ;&st7;   " d=" M  5337.11,   410.28  C  5339.61    410.28   5341.64    408.25   5341.64    405.75  " /><text style="&st18;" transform="matrix(&st16;  5334.92  407.72 )">B</text><text style="&st18;" transform="matrix(&st16;  5223.33  407.72 )">16</text><text style="&st18;" transform="matrix(&st16;  5232.94  407.72 )">B</text><path style="stroke-width: 1.42 ;&st7;   " d=" M  5239.66,   405.75  C  5239.66    403.25   5237.63    401.22   5235.13    401.22  " /><path style="stroke-width: 1.42 ;&st7;   " d=" M  5235.13,   401.22  C  5232.62    401.22   5230.59    403.25   5230.59    405.75  " /><path style="stroke-width: 1.42 ;&st7;   " d=" M  5230.59,   405.75  C  5230.59    408.25   5232.62    410.28   5235.13    410.28  " /><path style="stroke-width: 1.42 ;&st7;   " d=" M  5235.13,   410.28  C  5237.63    410.28   5239.66    408.25   5239.66    405.75  " /><text style="&st18;" transform="matrix(&st16;  5274.32  407.72 )">15</text><text style="&st18;" transform="matrix(&st16;  5283.93  407.72 )">B</text><path style="stroke-width: 1.42 ;&st7;   " d=" M  5290.65,   405.75  C  5290.65    403.25   5288.62    401.22   5286.12    401.22  " /><path style="stroke-width: 1.42 ;&st7;   " d=" M  5286.12,   401.22  C  5283.61    401.22   5281.58    403.25   5281.58    405.75  " /><path style="stroke-width: 1.42 ;&st7;   " d=" M  5281.58,   405.75  C  5281.58    408.25   5283.61    410.28   5286.12    410.28  " /><path style="stroke-width: 1.42 ;&st7;   " d=" M  5286.12,   410.28  C  5288.62    410.28   5290.65    408.25   5290.65    405.75  " /><text style="&st18;" transform="matrix(&st16;  5384.8  220.18 )">12</text><text style="&st18;" transform="matrix(&st16;  5394.41  220.18 )">B</text><path style="stroke-width: 1.42 ;&st7;   " d=" M  5401.13,   218.22  C  5401.13    215.71   5399.10    213.68   5396.60    213.68  " /><path style="stroke-width: 1.42 ;&st7;   " d=" M  5396.60,   213.68  C  5394.10    213.68   5392.07    215.71   5392.07    218.22  " /><path style="stroke-width: 1.42 ;&st7;   " d=" M  5392.07,   218.22  C  5392.07    220.72   5394.10    222.75   5396.60    222.75  " /><path style="stroke-width: 1.42 ;&st7;   " d=" M  5396.60,   222.75  C  5399.10    222.75   5401.13    220.72   5401.13    218.22  " /><text style="&st18;" transform="matrix(&st16;  5523.88  220.18 )">2</text><path style="stroke-width: 1.42 ;&st7;   " d=" M  5537.11,   218.22  C  5537.11    215.71   5535.08    213.68   5532.58    213.68  " /><path style="stroke-width: 1.42 ;&st7;   " d=" M  5532.58,   213.68  C  5530.07    213.68   5528.04    215.71   5528.04    218.22  " /><path style="stroke-width: 1.42 ;&st7;   " d=" M  5528.04,   218.22  C  5528.04    220.72   5530.07    222.75   5532.58    222.75  " /><path style="stroke-width: 1.42 ;&st7;   " d=" M  5532.58,   222.75  C  5535.08    222.75   5537.11    220.72   5537.11    218.22  " /><text style="&st18;" transform="matrix(&st16;  5530.15  220.18 )">C</text><text style="&st18;" transform="matrix(&st16;  5605.77  407.72 )">27</text><text style="&st18;" transform="matrix(&st16;  5615.26  407.72 )">A</text><path style="stroke-width: 1.42 ;&st7;   " d=" M  5622.09,   405.75  C  5622.09    403.25   5620.06    401.22   5617.56    401.22  " /><path style="stroke-width: 1.42 ;&st7;   " d=" M  5617.56,   401.22  C  5615.06    401.22   5613.03    403.25   5613.03    405.75  " /><path style="stroke-width: 1.42 ;&st7;   " d=" M  5613.03,   405.75  C  5613.03    408.25   5615.06    410.28   5617.56    410.28  " /><path style="stroke-width: 1.42 ;&st7;   " d=" M  5617.56,   410.28  C  5620.06    410.28   5622.09    408.25   5622.09    405.75  " /><text style="&st18;" transform="matrix(&st16;  5656.76  407.72 )">20</text><path style="stroke-width: 1.42 ;&st7;   " d=" M  5673.09,   405.75  C  5673.09    403.25   5671.06    401.22   5668.55    401.22  " /><path style="stroke-width: 1.42 ;&st7;   " d=" M  5668.55,   401.22  C  5666.05    401.22   5664.02    403.25   5664.02    405.75  " /><path style="stroke-width: 1.42 ;&st7;   " d=" M  5664.02,   405.75  C  5664.02    408.25   5666.05    410.28   5668.55    410.28  " /><path style="stroke-width: 1.42 ;&st7;   " d=" M  5668.55,   410.28  C  5671.06    410.28   5673.09    408.25   5673.09    405.75  " /><text style="&st18;" transform="matrix(&st16;  5666.36  407.72 )">B</text><text style="&st18;" transform="matrix(&st16;  5826.73  220.18 )">21</text><path style="stroke-width: 1.42 ;&st7;   " d=" M  5843.06,   218.22  C  5843.06    215.71   5841.03    213.68   5838.52    213.68  " /><path style="stroke-width: 1.42 ;&st7;   " d=" M  5838.52,   213.68  C  5836.02    213.68   5833.99    215.71   5833.99    218.22  " /><path style="stroke-width: 1.42 ;&st7;   " d=" M  5833.99,   218.22  C  5833.99    220.72   5836.02    222.75   5838.52    222.75  " /><path style="stroke-width: 1.42 ;&st7;   " d=" M  5838.52,   222.75  C  5841.03    222.75   5843.06    220.72   5843.06    218.22  " /><text style="&st18;" transform="matrix(&st16;  5836.22  220.18 )">A</text><text style="&st18;" transform="matrix(&st16;  5920.21  407.72 )">18</text><path style="stroke-width: 1.42 ;&st7;   " d=" M  5936.54,   405.75  C  5936.54    403.25   5934.51    401.22   5932.01    401.22  " /><path style="stroke-width: 1.42 ;&st7;   " d=" M  5932.01,   401.22  C  5929.51    401.22   5927.48    403.25   5927.48    405.75  " /><path style="stroke-width: 1.42 ;&st7;   " d=" M  5927.48,   405.75  C  5927.48    408.25   5929.51    410.28   5932.01    410.28  " /><path style="stroke-width: 1.42 ;&st7;   " d=" M  5932.01,   410.28  C  5934.51    410.28   5936.54    408.25   5936.54    405.75  " /><text style="&st18;" transform="matrix(&st16;  5929.82  407.72 )">B</text><text style="&st18;" transform="matrix(&st16;  5971.2  220.18 )">22</text><text style="&st18;" transform="matrix(&st16;  5980.7  220.18 )">A</text><path style="stroke-width: 1.42 ;&st7;   " d=" M  5987.53,   218.22  C  5987.53    215.71   5985.50    213.68   5983.00    213.68  " /><path style="stroke-width: 1.42 ;&st7;   " d=" M  5983.00,   213.68  C  5980.50    213.68   5978.47    215.71   5978.47    218.22  " /><path style="stroke-width: 1.42 ;&st7;   " d=" M  5978.47,   218.22  C  5978.47    220.72   5980.50    222.75   5983.00    222.75  " /><path style="stroke-width: 1.42 ;&st7;   " d=" M  5983.00,   222.75  C  5985.50    222.75   5987.53    220.72   5987.53    218.22  " /><text style="&st18;" transform="matrix(&st16;  6005.2  407.72 )">17</text><text style="&st18;" transform="matrix(&st16;  6014.81  407.72 )">B</text><path style="stroke-width: 1.42 ;&st7;   " d=" M  6021.53,   405.75  C  6021.53    403.25   6019.50    401.22   6016.99    401.22  " /><path style="stroke-width: 1.42 ;&st7;   " d=" M  6016.99,   401.22  C  6014.49    401.22   6012.46    403.25   6012.46    405.75  " /><path style="stroke-width: 1.42 ;&st7;   " d=" M  6012.46,   405.75  C  6012.46    408.25   6014.49    410.28   6016.99    410.28  " /><path style="stroke-width: 1.42 ;&st7;   " d=" M  6016.99,   410.28  C  6019.50    410.28   6021.53    408.25   6021.53    405.75  " /><text style="&st18;" transform="matrix(&st16;  6076.29  220.18 )">7</text><text style="&st18;" transform="matrix(&st16;  6082.56  220.18 )">C</text><path style="stroke-width: 1.42 ;&st7;   " d=" M  6089.52,   218.22  C  6089.52    215.71   6087.49    213.68   6084.98    213.68  " /><path style="stroke-width: 1.42 ;&st7;   " d=" M  6084.98,   213.68  C  6082.48    213.68   6080.45    215.71   6080.45    218.22  " /><path style="stroke-width: 1.42 ;&st7;   " d=" M  6080.45,   218.22  C  6080.45    220.72   6082.48    222.75   6084.98    222.75  " /><path style="stroke-width: 1.42 ;&st7;   " d=" M  6084.98,   222.75  C  6087.49    222.75   6089.52    220.72   6089.52    218.22  " /><text style="&st18;" transform="matrix(&st16;  6098.68  407.72 )">13</text><text style="&st18;" transform="matrix(&st16;  6108.06  407.72 )">C</text><path style="stroke-width: 1.42 ;&st7;   " d=" M  6115.01,   405.75  C  6115.01    403.25   6112.98    401.22   6110.48    401.22  " /><path style="stroke-width: 1.42 ;&st7;   " d=" M  6110.48,   401.22  C  6107.98    401.22   6105.95    403.25   6105.95    405.75  " /><path style="stroke-width: 1.42 ;&st7;   " d=" M  6105.95,   405.75  C  6105.95    408.25   6107.98    410.28   6110.48    410.28  " /><path style="stroke-width: 1.42 ;&st7;   " d=" M  6110.48,   410.28  C  6112.98    410.28   6115.01    408.25   6115.01    405.75  " /><text style="&st18;" transform="matrix(&st16;  6135.78  407.72 )">8</text><text style="&st18;" transform="matrix(&st16;  6142.05  407.72 )">C</text><path style="stroke-width: 1.42 ;&st7;   " d=" M  6149.01,   405.75  C  6149.01    403.25   6146.98    401.22   6144.47    401.22  " /><path style="stroke-width: 1.42 ;&st7;   " d=" M  6144.47,   401.22  C  6141.97    401.22   6139.94    403.25   6139.94    405.75  " /><path style="stroke-width: 1.42 ;&st7;   " d=" M  6139.94,   405.75  C  6139.94    408.25   6141.97    410.28   6144.47    410.28  " /><path style="stroke-width: 1.42 ;&st7;   " d=" M  6144.47,   410.28  C  6146.98    410.28   6149.01    408.25   6149.01    405.75  " /><text style="&st18;" transform="matrix(&st16;  6158.17  220.18 )">39</text><text style="&st18;" transform="matrix(&st16;  6167.66  220.18 )">A</text><path style="stroke-width: 1.42 ;&st7;   " d=" M  6174.50,   218.22  C  6174.50    215.71   6172.47    213.68   6169.97    213.68  " /><path style="stroke-width: 1.42 ;&st7;   " d=" M  6169.97,   213.68  C  6167.47    213.68   6165.44    215.71   6165.44    218.22  " /><path style="stroke-width: 1.42 ;&st7;   " d=" M  6165.44,   218.22  C  6165.44    220.72   6167.47    222.75   6169.97    222.75  " /><path style="stroke-width: 1.42 ;&st7;   " d=" M  6169.97,   222.75  C  6172.47    222.75   6174.50    220.72   6174.50    218.22  " /><g ewd:figtype="title"><text style="&st18;" transform="matrix(&st16;  5248.72  219.05 )" ewd:textID="29">Combination Meter Assembly</text><text style="&st18;" transform="matrix(&st16;  5248.71  212.23 )">G8(A),G9(B),G10(C)</text></g></g><g ewd:figtype="conn" ewd:figID="65" ewd:code="G33,G34"><g ewd:lineID="145"><text style="&st18;" transform="matrix(&st16;  5087.35  93.27 )">14</text><text style="&st18;" transform="matrix(&st16;  5096.84  93.27 )">A</text><path style="stroke-width: 1.42 ;&st7;   " d=" M  5103.68,    91.30  C  5103.68     88.80   5101.65     86.77   5099.15     86.77  " /><path style="stroke-width: 1.42 ;&st7;   " d=" M  5099.15,    86.77  C  5096.64     86.77   5094.62     88.80   5094.62     91.30  " /><path style="stroke-width: 1.42 ;&st7;   " d=" M  5094.62,    91.30  C  5094.62     93.81   5096.64     95.84   5099.15     95.84  " /><path style="stroke-width: 1.42 ;&st7;   " d=" M  5099.15,    95.84  C  5101.65     95.84   5103.68     93.81   5103.68     91.30  " /><text style="&st18;" transform="matrix(&st16;  5091.1  83.07 )">PCTY</text></g><g ewd:lineID="181"><text style="&st18;" transform="matrix(&st16;  5388.24  83.07 )">ACTY</text></g></g><g ewd:figtype="jb" ewd:figID="85" ewd:code="2"><path style="stroke-width: 1.42 ;&st7;  " d=" M  5398.72,   120.77  L  5394.47,   120.77  " /><path style="stroke-width: 1.42 ;&st7;  " d=" M  5398.72,   129.26  L  5394.47,   129.26  " /><path style="stroke-width: 1.42 ;&st7;   " d=" M  5394.47,   120.77  C  5392.13    120.77   5390.22    122.67   5390.22    125.01  " /><path style="stroke-width: 1.42 ;&st7;   " d=" M  5390.22,   125.01  C  5390.22    127.36   5392.13    129.26   5394.47    129.26  " /><path style="stroke-width: 1.42 ;&st7;   " d=" M  5398.72,   129.26  C  5401.07    129.26   5402.97    127.36   5402.97    125.01  " /><path style="stroke-width: 1.42 ;&st7;   " d=" M  5402.97,   125.01  C  5402.97    122.67   5401.07    120.77   5398.72    120.77  " /><path style="stroke-width: 0.85 ;&st7;  " d=" M  5396.60,    86.77  L  5396.60,   120.77  " /><path style="stroke-width: 0.28 ;&st9;  " d=" M  5396.60,   115.87  L  5393.76,   113.04  L  5393.76,   117.29  L  5396.60,   120.12  L  5399.43,   117.29  L  5399.43,   113.04  L  5396.60,   115.87  " /><text style="&st18;" transform="matrix(&st16;  5387.31  94.96 )">21</text><text style="&st18;" transform="matrix(&st16;  5386.09  126.98 )">2</text><text style="&st18;" transform="matrix(&st16;  5392.43  126.98 )">2Q</text></g><g ewd:figtype="w2w" ewd:figID="131" ewd:code="GN2"><path style="stroke-width: 1.42 ;&st7;  " d=" M  5103.40,   291.30  L  5099.15,   287.05  L  5094.90,   291.30  " /><path style="stroke-width: 1.42 ;&st7;  " d=" M  5103.40,   287.90  L  5099.15,   283.65  L  5094.90,   287.90  " /><text style="&st18;" transform="matrix(&st16;  5083.41  279.96 )">20</text></g><g ewd:figtype="annex" ewd:figID="183" ewd:code=" "><path style="stroke-width: 0.85 ;&st7;  " d=" M  5097.73,   494.70  L  5100.56,   494.70  " /><path style="stroke-width: 0.85 ;&st7;  " d=" M  5090.65,   486.20  L  5107.64,   486.20  " /><path style="stroke-width: 0.85 ;&st7;  " d=" M  5099.15,   477.71  L  5099.15,   486.20  " /><path style="stroke-width: 0.85 ;&st7;  " d=" M  5094.90,   489.04  L  5103.40,   489.04  " /><path style="stroke-width: 0.85 ;&st7;  " d=" M  5096.31,   491.87  L  5101.98,   491.87  " /></g></svg>