﻿<?xml version="1.0" encoding="utf-8"?>
<!DOCTYPE svg PUBLIC "-//W3C//DTD SVG 1.0//EN" "http://www.w3.org/TR/2001/REC-SVG-20010904/DTD/svg10.dtd"[
	<!ENTITY ns_flows "http://ns.adobe.com/Flows/1.0/">
	<!ENTITY ns_svg "http://www.w3.org/2000/svg">
	<!ENTITY ns_xlink "http://www.w3.org/1999/xlink">
	<!ENTITY st0 "font-size:7px;font-family:'MS-PGothic';adobe-font-script:japanese;">
	<!ENTITY st1 "font-size:6px;font-family:'ArialMT';">
	<!-- White fill  -->
	<!ENTITY st2 "fill:#FFFFFF;stroke:#000000; stroke-width:1.41;stroke-linecap:round;stroke-linejoin:round;">
	<!-- Yellow fill  -->
	<!ENTITY st3 "fill:#FFFFCC;stroke:#FFFFCC; stroke-width:0.1;stroke-linecap:round;stroke-linejoin:round;">
	<!-- Gray fill  -->
	<!ENTITY st4 "fill:#CCCCCC;stroke:#CCCCCC; stroke-width:0.1;stroke-linecap:round;stroke-linejoin:round;">
	<!-- Light-blue fill -->
	<!ENTITY st5 "fill:#CCECF4;stroke:#000000; stroke-width:1.133;stroke-linecap:round;stroke-linejoin:round;">
	<!ENTITY st6 "fill:none;stroke-linecap:butt; stroke-linejoin:round;">
	<!ENTITY st7 "fill:none;stroke:#000000;stroke-linecap:round;stroke-linejoin:round;">
	<!ENTITY st8 "enable-background:new    ;">
	<!-- Black fill -->
	<!ENTITY st9 "fill:#000000;stroke:#000000; stroke-linecap:round;stroke-linejoin:round;">
	<!-- SRS note   -->
	<!ENTITY st10 "font-size:9px;font-family:'ArialMT';">
	<!ENTITY st11 "font-size:9px;font-family:'Svg Symbol';">
	<!ENTITY st12 "font-size:6px;font-family:'Svg Symbol';">
	<!ENTITY st13 "fill:none;stroke:#ff0000;stroke-linecap:round;stroke-linejoin:round;">
	<!-- Yellow fill  -->
	<!ENTITY st14 "fill:#FFFF00;stroke:#FFFF00; stroke-width:0.1;stroke-linecap:round;stroke-linejoin:round;">
	<!ENTITY st15 "font-size:6px;font-family:'MS-PGothic';adobe-font-script:japanese;">
	<!ENTITY st16 "1.00 0.00 0.00 1.00">
	<!ENTITY st17 "0.00 -1.00 1.00 0.00">
	<!ENTITY st18 "font-size:6px;font-family:'Arial';">
	<!ENTITY st19 "font-size:9px;font-family:'Arial';">
	<!ENTITY st20 "font-size:6px;font-family:'MS-PGothic','MS PGothic';adobe-font-script:japanese;">
	<!ENTITY st21 "font-size:7px;font-family:'MS-PGothic','MS PGothic';adobe-font-script:japanese;">
	<!ATTLIST svg
		xmlns:ewd CDATA #FIXED "http://shcl.co.jp/ewd"
		xmlns:a CDATA #FIXED "http://ns.adobe.com/AdobeSVGViewerExtensions/3.0/"
		ewd:ver CDATA #IMPLIED
	>
	<!ATTLIST a
		ewd:lineID CDATA #IMPLIED
		ewd:groupID CDATA #IMPLIED
		ewd:figtype CDATA #IMPLIED
		ewd:code CDATA #IMPLIED
		ewd:figID CDATA #IMPLIED
		ewd:pinNo CDATA #IMPLIED
		ewd:comment CDATA #IMPLIED >
	<!ATTLIST g
		ewd:lineID CDATA #IMPLIED
		ewd:groupID CDATA #IMPLIED
		ewd:figtype CDATA #IMPLIED
		ewd:code CDATA #IMPLIED
		ewd:figID CDATA #IMPLIED
		ewd:pinNo CDATA #IMPLIED
		ewd:comment CDATA #IMPLIED >
	<!ATTLIST text
		ewd:textID CDATA #IMPLIED >
	<!ATTLIST title
		ewd:textID CDATA #IMPLIED >
]>
<!-- Generator: Shintec Hozumi YS   -->
<svg onload="call_execInitLoadProc_svg('system')" style="overflow:visible;  enable-background:new 0 0 5689.227 710.000" viewBox="0 0 5689.227 710.000" height="710.000" width="5689.227" xml:space="preserve" ewd:ver="2.1.2.9" xmlns="&ns_svg;" xmlns:a="http://ns.adobe.com/AdobeSVGViewerExtensions/3.0/" xmlns:ewd="http://shcl.co.jp/ewd" xmlns:xlink="&ns_xlink;">
<path style="stroke-width: 1.42 ;&st7;  " d=" M  4019.83,   647.68  L  4028.33,   647.68  " /><text style="&st18;" transform="matrix(&st17;  4024.63  629.98 )">BR</text><text style="&st18;" transform="matrix(&st17;  4024.63  672.47 )">BR</text><path style="stroke-width: 1.42 ;&st7;  " d=" M  4495.75,   477.71  L  4504.25,   477.71  " /><text style="&st18;" transform="matrix(&st16;  4381.86  32.08 )" ewd:textID="30">Body ECU</text><text style="&st18;" transform="matrix(&st16;  4381.85  25.26 )">G33(A),G34(B)</text><text style="&st18;" transform="matrix(&st17;  4441.06  445.4 )">B</text><text style="&st18;" transform="matrix(&st17;  4441.06  522.66 )">W</text><text style="&st18;" transform="matrix(&st17;  4441.06  645.13 )">W-B</text><path style="stroke-width: 1.42 ;&st7;  " d=" M  4036.83,   418.22  L  4028.33,   418.22  " /><text style="&st18;" transform="matrix(&st17;  4058.63  276.2 )">W</text><text style="&st18;" transform="matrix(&st17;  4092.62  275.54 )">V</text><text style="&st18;" transform="matrix(&st17;  4024.63  377.41 )">Y</text><text style="&st18;" transform="matrix(&st17;  4024.63  479.39 )">Y</text><text style="&st18;" transform="matrix(&st17;  4024.63  275.23 )">P</text><text style="&st18;" transform="matrix(&st17;  4010.47  278.45 )">(*3)</text><text style="&st18;" transform="matrix(&st17;  4035.96  278.45 )">(*3)</text><text style="&st18;" transform="matrix(&st17;  4069.96  278.45 )">(*3)</text><text style="&st18;" transform="matrix(&st17;  4103.95  278.45 )">(*3)</text><text style="&st18;" transform="matrix(&st17;  4035.96  380.44 )">(*3)</text><path style="stroke-width: 1.42 ;&st7;  " d=" M  4317.28,   290.74  L  4308.78,   290.74  " /><text style="&st18;" transform="matrix(&st16;  4119.51  108.57 )">V</text><text style="&st18;" transform="matrix(&st16;  4116.6  119.9 )">(*4)</text><text style="&st18;" transform="matrix(&st16;  4118.85  134.07 )">W</text><text style="&st18;" transform="matrix(&st16;  4116.6  145.4 )">(*4)</text><text style="&st18;" transform="matrix(&st16;  4169.84  134.07 )">W</text><text style="&st18;" transform="matrix(&st16;  4167.59  145.4 )">(*4)</text><text style="&st18;" transform="matrix(&st16;  4170.5  108.57 )">V</text><text style="&st18;" transform="matrix(&st16;  4167.59  119.9 )">(*4)</text><text style="&st18;" transform="matrix(&st17;  4214.43  329.44 )">(*4)</text><text style="&st18;" transform="matrix(&st17;  4203.1  327.2 )">W</text><text style="&st18;" transform="matrix(&st17;  4248.43  329.44 )">(*4)</text><text style="&st18;" transform="matrix(&st17;  4237.1  326.54 )">V</text><text style="&st18;" transform="matrix(&st17;  4305.08  327.2 )">W</text><text style="&st18;" transform="matrix(&st17;  4316.42  329.44 )">(*4)</text><text style="&st18;" transform="matrix(&st17;  4305.08  235.07 )">GR</text><text style="&st18;" transform="matrix(&st17;  4316.42  241.54 )">(*4 *11)</text><text style="&st18;" transform="matrix(&st17;  4339.08  233.71 )">W</text><text style="&st18;" transform="matrix(&st17;  4350.41  241.54 )">(*4 *12)</text><text style="&st18;" transform="matrix(&st17;  4237.1  437.68 )">W</text><text style="&st18;" transform="matrix(&st17;  4248.43  439.93 )">(*4)</text><text style="&st18;" transform="matrix(&st17;  4203.1  438.76 )">BR</text><text style="&st18;" transform="matrix(&st17;  4214.43  439.93 )">(*4)</text><text style="&st18;" transform="matrix(&st17;  4375.91  645.44 )">(*15)</text><text style="&st18;" transform="matrix(&st17;  4364.57  645.13 )">W-B</text><text style="&st18;" transform="matrix(&st17;  4452.39  651.03 )">(*13,*14)</text><text style="&st18;" transform="matrix(&st17;  4452.39  455.56 )">(*13,*14)</text><text style="&st18;" transform="matrix(&st17;  4375.91  449.98 )">(*15)</text><text style="&st18;" transform="matrix(&st17;  4364.57  445.4 )">B</text><text style="&st18;" transform="matrix(&st17;  4452.39  532.05 )">(*13,*14)</text><g ewd:figtype="conn" ewd:figID="42" ewd:code="V22"><path style="stroke-width: 1.42 ;&st7;  " d=" M  4436.26,   477.71  L  4453.25,   477.71  L  4453.25,   494.70  L  4436.26,   494.70  L  4436.26,   477.71  " /><path style="stroke-width: 0.85 ;&st7;  " d=" M  4444.76,   477.71  L  4444.76,   494.70  " /><text style="&st18;" transform="matrix(&st16;  4435.47  502.9 )">14</text><text style="&st18;" transform="matrix(&st16;  4435.47  474.02 )">12</text><g ewd:figtype="title"><text style="&st18;" transform="matrix(&st17;  4467.97  497.61 )" ewd:textID="71">No. 25 Junction <tspan x="0 " dy="6.0">Connector</tspan></text><text style="&st18;" transform="matrix(&st17;  4461.15  497.6 )">V22</text></g></g><g ewd:figtype="conn" ewd:figID="43" ewd:code="V23"><path style="stroke-width: 1.42 ;&st7;  " d=" M  4427.76,   554.19  L  4427.76,   588.19  L  4461.75,   588.19  L  4461.75,   554.19  L  4427.76,   554.19  " /><g ewd:lineID="139"><text style="&st18;" transform="matrix(&st16;  4436.06  594.69 )">1</text><path style="stroke-width: 1.42 ;&st7;   " d=" M  4449.29,   592.72  C  4449.29    590.22   4447.26    588.19   4444.76    588.19  " /><path style="stroke-width: 1.42 ;&st7;   " d=" M  4444.76,   588.19  C  4442.25    588.19   4440.22    590.22   4440.22    592.72  " /><path style="stroke-width: 1.42 ;&st7;   " d=" M  4440.22,   592.72  C  4440.22    595.22   4442.25    597.25   4444.76    597.25  " /><path style="stroke-width: 1.42 ;&st7;   " d=" M  4444.76,   597.25  C  4447.26    597.25   4449.29    595.22   4449.29    592.72  " /><text style="&st18;" transform="matrix(&st16;  4442.45  594.69 )">A</text><text style="&st18;" transform="matrix(&st16;  4442.65  584.49 )">E</text></g><g ewd:lineID="140"><text style="&st18;" transform="matrix(&st16;  4436.06  551.63 )">4</text><path style="stroke-width: 1.42 ;&st7;   " d=" M  4449.29,   549.66  C  4449.29    547.16   4447.26    545.13   4444.76    545.13  " /><path style="stroke-width: 1.42 ;&st7;   " d=" M  4444.76,   545.13  C  4442.25    545.13   4440.22    547.16   4440.22    549.66  " /><path style="stroke-width: 1.42 ;&st7;   " d=" M  4440.22,   549.66  C  4440.22    552.16   4442.25    554.19   4444.76    554.19  " /><path style="stroke-width: 1.42 ;&st7;   " d=" M  4444.76,   554.19  C  4447.26    554.19   4449.29    552.16   4449.29    549.66  " /><text style="&st18;" transform="matrix(&st16;  4442.45  551.63 )">A</text><text style="&st18;" transform="matrix(&st16;  4438.46  561.83 )">CTY</text></g><g ewd:figtype="title"><text style="&st18;" transform="matrix(&st17;  4476.47  591.09 )" ewd:textID="29">Back Door <tspan x="0 " dy="6.0">Lock Assembly</tspan></text><text style="&st18;" transform="matrix(&st17;  4469.65  591.09 )">V23(A)</text></g></g><g ewd:figtype="conn" ewd:figID="47" ewd:code="G129"><path style="stroke-width: 1.42 ;&st7;  " d=" M  4189.80,   401.22  L  4257.79,   401.22  L  4257.79,   367.22  L  4189.80,   367.22  L  4189.80,   401.22  " /><g ewd:lineID="129"><text style="&st18;" transform="matrix(&st16;  4200.61  363.53 )">2</text><text style="&st18;" transform="matrix(&st16;  4200.5  374.86 )">RDA</text></g><g ewd:lineID="131"><text style="&st18;" transform="matrix(&st16;  4234.61  363.53 )">3</text><text style="&st18;" transform="matrix(&st16;  4234.73  374.86 )">PRG</text></g><g ewd:lineID="132"><text style="&st18;" transform="matrix(&st16;  4200.61  409.41 )">1</text><text style="&st18;" transform="matrix(&st16;  4200.15  397.52 )">GND</text></g><g ewd:lineID="133"><text style="&st18;" transform="matrix(&st16;  4234.61  409.41 )">5</text><text style="&st18;" transform="matrix(&st16;  4237.05  397.52 )">+B</text></g><g ewd:figtype="title"><text style="&st18;" transform="matrix(&st17;  4272.51  404.12 )" ewd:textID="38">Door Control Receiver</text><text style="&st18;" transform="matrix(&st17;  4265.68  404.12 )">G129</text></g></g><g ewd:figtype="conn" ewd:figID="48" ewd:code="G111"><path style="stroke-width: 0.85 ;&st7;  " d=" M  4308.78,   384.22  L  4308.78,   401.22  " /><path style="stroke-width: 1.42 ;&st7;  " d=" M  4300.28,   384.22  L  4300.28,   401.22  L  4317.28,   401.22  L  4317.28,   384.22  L  4300.28,   384.22  " /><text style="&st18;" transform="matrix(&st16;  4299.49  409.41 )">15</text><text style="&st18;" transform="matrix(&st16;  4299.49  380.53 )">17</text><g ewd:figtype="title"><text style="&st18;" transform="matrix(&st17;  4325.17  404.12 )">G111</text><text style="&st18;" transform="matrix(&st17;  4332.0  404.12 )" ewd:textID="61">No. 10 Junction Connector</text></g></g><g ewd:figtype="conn" ewd:figID="49" ewd:code="V2"><path style="stroke-width: 1.42 ;&st7;  " d=" M  4368.27,   564.11  L  4373.94,   541.44  " /><path style="stroke-width: 0.85 ;&st7;  " d=" M  4368.27,   524.45  L  4368.27,   528.70  " /><path style="stroke-width: 0.85 ;&st7;  " d=" M  4368.27,   511.70  L  4368.27,   515.95  " /><path style="stroke-width: 0.85 ;&st7;   " d=" M  4369.69,   542.86  C  4369.69    542.08   4369.05    541.44   4368.27    541.44  " /><path style="stroke-width: 0.85 ;&st7;   " d=" M  4368.27,   541.44  C  4367.49    541.44   4366.85    542.08   4366.85    542.86  " /><path style="stroke-width: 0.85 ;&st7;   " d=" M  4366.85,   542.86  C  4366.85    543.64   4367.49    544.28   4368.27    544.28  " /><path style="stroke-width: 0.85 ;&st7;   " d=" M  4368.27,   544.28  C  4369.05    544.28   4369.69    543.64   4369.69    542.86  " /><path style="stroke-width: 0.85 ;&st7;   " d=" M  4369.69,   565.52  C  4369.69    564.74   4369.05    564.11   4368.27    564.11  " /><path style="stroke-width: 0.85 ;&st7;   " d=" M  4368.27,   564.11  C  4367.49    564.11   4366.85    564.74   4366.85    565.52  " /><path style="stroke-width: 0.85 ;&st7;   " d=" M  4366.85,   565.52  C  4366.85    566.31   4367.49    566.94   4368.27    566.94  " /><path style="stroke-width: 0.85 ;&st7;   " d=" M  4368.27,   566.94  C  4369.05    566.94   4369.69    566.31   4369.69    565.52  " /><path style="stroke-width: 0.85 ;&st7;   " d=" M  4365.86,   520.20  C  4366.65    521.54   4368.38    521.98   4369.72    521.19  " /><path style="stroke-width: 0.85 ;&st7;   " d=" M  4369.72,   521.19  C  4371.06    520.40   4371.50    518.67   4370.71    517.33  " /><path style="stroke-width: 0.85 ;&st7;   " d=" M  4370.71,   517.33  C  4370.19    516.44   4369.30    515.94   4368.27    515.95  " /><path style="stroke-width: 0.85 ;&st7;   " d=" M  4368.27,   524.45  C  4369.83    524.46   4371.09    523.20   4371.10    521.65  " /><path style="stroke-width: 0.85 ;&st7;   " d=" M  4371.10,   521.65  C  4371.11    520.09   4369.86    518.83   4368.30    518.82  " /><path style="stroke-width: 0.85 ;&st7;   " d=" M  4368.30,   518.82  C  4367.27    518.81   4366.39    519.31   4365.86    520.20  " /><path style="stroke-width: 1.42 ;&st7;   " d=" M  4376.77,   520.20  C  4376.77    515.50   4372.96    511.70   4368.27    511.70  " /><path style="stroke-width: 1.42 ;&st7;   " d=" M  4368.27,   511.70  C  4363.58    511.70   4359.77    515.50   4359.77    520.20  " /><path style="stroke-width: 1.42 ;&st7;   " d=" M  4359.77,   520.20  C  4359.77    524.89   4363.58    528.70   4368.27    528.70  " /><path style="stroke-width: 1.42 ;&st7;   " d=" M  4368.27,   528.70  C  4372.96    528.70   4376.77    524.89   4376.77    520.20  " /><path style="stroke-width: 1.42 ;&st7;  " d=" M  4351.27,   588.19  L  4393.76,   588.19  L  4393.76,   494.70  L  4351.27,   494.70  L  4351.27,   588.19  " /><path style="stroke-width: 0.85 ;&st7;  " d=" M  4368.27,   541.44  L  4368.27,   528.70  " /><path style="stroke-width: 0.85 ;&st7;  " d=" M  4368.27,   566.94  L  4368.27,   588.19  " /><path style="stroke-width: 0.85 ;&st7;  " d=" M  4368.27,   494.70  L  4368.27,   511.70  " /><text style="&st18;" transform="matrix(&st16;  4370.85  584.5 )">ACT-</text><text style="&st18;" transform="matrix(&st16;  4370.85  502.9 )">D+</text><text style="&st18;" transform="matrix(&st16;  4362.09  596.38 )">2</text><text style="&st18;" transform="matrix(&st16;  4362.09  491.01 )">3</text><g ewd:figtype="title"><text style="&st18;" transform="matrix(&st17;  4401.66  591.09 )">V2</text><text style="&st18;" transform="matrix(&st17;  4408.48  591.09 )" ewd:textID="29">Back Door <tspan x="0 " dy="6.0">Lock Assembly</tspan></text></g></g><g ewd:figtype="rb" ewd:figID="50" ewd:code="FUSE10"><path style="stroke-width: 1.42 ;&st7;  " d=" M  4310.90,   180.26  L  4306.66,   180.26  " /><path style="stroke-width: 1.42 ;&st7;  " d=" M  4310.90,   188.75  L  4306.66,   188.75  " /><path style="stroke-width: 0.85 ;&st7;  " d=" M  4308.78,   163.26  L  4308.78,   180.26  " /><path style="stroke-width: 1.42 ;&st7;   " d=" M  4306.66,   180.26  C  4304.31    180.26   4302.41    182.16   4302.41    184.50  " /><path style="stroke-width: 1.42 ;&st7;   " d=" M  4302.41,   184.50  C  4302.41    186.85   4304.31    188.75   4306.66    188.75  " /><path style="stroke-width: 1.42 ;&st7;   " d=" M  4310.90,   188.75  C  4313.25    188.75   4315.15    186.85   4315.15    184.50  " /><path style="stroke-width: 1.42 ;&st7;   " d=" M  4315.15,   184.50  C  4315.15    182.16   4313.25    180.26   4310.90    180.26  " /><path style="stroke-width: 0.28 ;&st9;  " d=" M  4308.78,   175.36  L  4305.95,   172.53  L  4305.95,   176.78  L  4308.78,   179.61  L  4311.61,   176.78  L  4311.61,   172.53  L  4308.78,   175.36  " /><text style="&st18;" transform="matrix(&st16;  4325.2  138.33 )">10A <tspan x="0 " dy="6.0">ECU-B </tspan><tspan x="0 " dy="6.0">NO.1</tspan></text><text style="&st18;" transform="matrix(&st16;  4306.98  186.47 )">1</text><text style="&st18;" transform="matrix(&st16;  4302.6  171.45 )">2</text><text style="&st18;" transform="matrix(&st16;  4300.74  117.07 )">(BAT)</text><path style="stroke-width: 0.85 ;&st7;  " d=" M  4308.78,   154.76  L  4308.78,   163.26  " /><path style="stroke-width: 1.42 ;&st7;   " d=" M  4308.78,   132.10  C  4306.04    133.71   4305.13    137.24   4306.74    139.97  " /><path style="stroke-width: 1.42 ;&st7;   " d=" M  4306.74,   139.97  C  4307.26    140.86   4307.90    141.49   4308.78    142.01  " /><path style="stroke-width: 1.42 ;&st7;   " d=" M  4308.78,   151.93  C  4311.52    150.31   4312.43    146.79   4310.82    144.05  " /><path style="stroke-width: 1.42 ;&st7;   " d=" M  4310.82,   144.05  C  4310.30    143.17   4309.66    142.53   4308.78    142.01  " /><path style="stroke-width: 0.85 ;&st7;   " d=" M  4310.20,   130.68  C  4310.20    129.90   4309.56    129.26   4308.78    129.26  " /><path style="stroke-width: 0.85 ;&st7;   " d=" M  4308.78,   129.26  C  4308.00    129.26   4307.36    129.90   4307.36    130.68  " /><path style="stroke-width: 0.85 ;&st7;   " d=" M  4307.36,   130.68  C  4307.36    131.46   4308.00    132.10   4308.78    132.10  " /><path style="stroke-width: 0.85 ;&st7;   " d=" M  4308.78,   132.10  C  4309.56    132.10   4310.20    131.46   4310.20    130.68  " /><path style="stroke-width: 0.85 ;&st7;   " d=" M  4310.20,   153.34  C  4310.20    152.56   4309.56    151.93   4308.78    151.93  " /><path style="stroke-width: 0.85 ;&st7;   " d=" M  4308.78,   151.93  C  4308.00    151.93   4307.36    152.56   4307.36    153.34  " /><path style="stroke-width: 0.85 ;&st7;   " d=" M  4307.36,   153.34  C  4307.36    154.13   4308.00    154.76   4308.78    154.76  " /><path style="stroke-width: 0.85 ;&st7;   " d=" M  4308.78,   154.76  C  4309.56    154.76   4310.20    154.13   4310.20    153.34  " /><path style="stroke-width: 1.42 ;&st7;  " d=" M  4296.03,   120.77  L  4296.03,   163.26  L  4321.53,   163.26  L  4321.53,   120.77  L  4296.03,   120.77  " /></g><g ewd:figtype="conn" ewd:figID="57" ewd:code="G16,G17"><g ewd:lineID="122"><path style="stroke-width: 1.42 ;&st7;   " d=" M  4007.36,   294.70  C  4007.36    292.20   4005.33    290.17   4002.83    290.17  " /><path style="stroke-width: 1.42 ;&st7;   " d=" M  4002.83,   290.17  C  4000.33    290.17   3998.30    292.20   3998.30    294.70  " /><path style="stroke-width: 1.42 ;&st7;   " d=" M  4002.83,   299.24  C  4005.33    299.24   4007.36    297.21   4007.36    294.70  " /><text style="&st18;" transform="matrix(&st16;  4000.64  296.67 )">B</text></g><g ewd:lineID="126"><text style="&st18;" transform="matrix(&st16;  4016.53  348.23 )">15</text><text style="&st18;" transform="matrix(&st16;  4026.02  348.23 )">A</text><path style="stroke-width: 1.42 ;&st7;   " d=" M  4032.86,   346.26  C  4032.86    343.76   4030.83    341.73   4028.33    341.73  " /><path style="stroke-width: 1.42 ;&st7;   " d=" M  4028.33,   341.73  C  4025.82    341.73   4023.79    343.76   4023.79    346.26  " /><path style="stroke-width: 1.42 ;&st7;   " d=" M  4023.79,   346.26  C  4023.79    348.76   4025.82    350.79   4028.33    350.79  " /><path style="stroke-width: 1.42 ;&st7;   " d=" M  4028.33,   350.79  C  4030.83    350.79   4032.86    348.76   4032.86    346.26  " /><text style="&st18;" transform="matrix(&st16;  4023.0  338.03 )">IND</text></g><g ewd:lineID="127"><text style="&st18;" transform="matrix(&st16;  4016.53  296.67 )">21</text><text style="&st18;" transform="matrix(&st16;  4026.14  296.67 )">B</text><path style="stroke-width: 1.42 ;&st7;   " d=" M  4032.86,   294.70  C  4032.86    292.20   4030.83    290.17   4028.33    290.17  " /><path style="stroke-width: 1.42 ;&st7;   " d=" M  4028.33,   290.17  C  4025.82    290.17   4023.79    292.20   4023.79    294.70  " /><path style="stroke-width: 1.42 ;&st7;   " d=" M  4023.79,   294.70  C  4023.79    297.21   4025.82    299.24   4028.33    299.24  " /><path style="stroke-width: 1.42 ;&st7;   " d=" M  4028.33,   299.24  C  4030.83    299.24   4032.86    297.21   4032.86    294.70  " /><text style="&st18;" transform="matrix(&st16;  4020.67  306.87 )">CSEL</text></g><g ewd:lineID="128"><text style="&st18;" transform="matrix(&st16;  4050.53  296.67 )">13</text><text style="&st18;" transform="matrix(&st16;  4060.13  296.67 )">B</text><path style="stroke-width: 1.42 ;&st7;   " d=" M  4066.85,   294.70  C  4066.85    292.20   4064.82    290.17   4062.32    290.17  " /><path style="stroke-width: 1.42 ;&st7;   " d=" M  4062.32,   290.17  C  4059.82    290.17   4057.79    292.20   4057.79    294.70  " /><path style="stroke-width: 1.42 ;&st7;   " d=" M  4057.79,   294.70  C  4057.79    297.21   4059.82    299.24   4062.32    299.24  " /><path style="stroke-width: 1.42 ;&st7;   " d=" M  4062.32,   299.24  C  4064.82    299.24   4066.85    297.21   4066.85    294.70  " /><text style="&st18;" transform="matrix(&st16;  4054.47  306.87 )">RDA3</text></g><g ewd:lineID="130"><text style="&st18;" transform="matrix(&st16;  4084.52  296.67 )">36</text><text style="&st18;" transform="matrix(&st16;  4094.13  296.67 )">B</text><path style="stroke-width: 1.42 ;&st7;   " d=" M  4100.85,   294.70  C  4100.85    292.20   4098.82    290.17   4096.32    290.17  " /><path style="stroke-width: 1.42 ;&st7;   " d=" M  4096.32,   290.17  C  4093.81    290.17   4091.78    292.20   4091.78    294.70  " /><path style="stroke-width: 1.42 ;&st7;   " d=" M  4091.78,   294.70  C  4091.78    297.21   4093.81    299.24   4096.32    299.24  " /><path style="stroke-width: 1.42 ;&st7;   " d=" M  4096.32,   299.24  C  4098.82    299.24   4100.85    297.21   4100.85    294.70  " /><text style="&st18;" transform="matrix(&st16;  4088.7  306.87 )">PRG3</text></g><g ewd:figtype="title"><text style="&st18;" transform="matrix(&st17;  4128.03  344.63 )" ewd:textID="31">Certification ECU</text><text style="&st18;" transform="matrix(&st17;  4121.21  344.63 )">G16(A),G17(B)</text></g></g><g ewd:figtype="conn" ewd:figID="58" ewd:code="G25"><g ewd:lineID="127"><text style="&st18;" transform="matrix(&st16;  4022.14  222.44 )">2</text><text style="&st18;" transform="matrix(&st16;  4020.67  210.55 )">CSEL</text></g></g><g ewd:figtype="conn" ewd:figID="64" ewd:code="G33,G34"><g ewd:lineID="128,129"><text style="&st18;" transform="matrix(&st16;  4050.53  93.27 )">16</text><path style="stroke-width: 1.42 ;&st7;   " d=" M  4066.85,    91.30  C  4066.85     88.80   4064.82     86.77   4062.32     86.77  " /><path style="stroke-width: 1.42 ;&st7;   " d=" M  4062.32,    86.77  C  4059.82     86.77   4057.79     88.80   4057.79     91.30  " /><path style="stroke-width: 1.42 ;&st7;   " d=" M  4057.79,    91.30  C  4057.79     93.81   4059.82     95.84   4062.32     95.84  " /><path style="stroke-width: 1.42 ;&st7;   " d=" M  4062.32,    95.84  C  4064.82     95.84   4066.85     93.81   4066.85     91.30  " /><text style="&st18;" transform="matrix(&st16;  4060.02  93.27 )">A</text><text style="&st18;" transform="matrix(&st16;  4056.02  83.07 )">RDA</text></g><g ewd:lineID="130,131"><text style="&st18;" transform="matrix(&st16;  4087.62  93.27 )">9</text><path style="stroke-width: 1.42 ;&st7;   " d=" M  4100.85,    91.30  C  4100.85     88.80   4098.82     86.77   4096.32     86.77  " /><path style="stroke-width: 1.42 ;&st7;   " d=" M  4096.32,    86.77  C  4093.81     86.77   4091.78     88.80   4091.78     91.30  " /><path style="stroke-width: 1.42 ;&st7;   " d=" M  4091.78,    91.30  C  4091.78     93.81   4093.81     95.84   4096.32     95.84  " /><path style="stroke-width: 1.42 ;&st7;   " d=" M  4096.32,    95.84  C  4098.82     95.84   4100.85     93.81   4100.85     91.30  " /><text style="&st18;" transform="matrix(&st16;  4094.01  93.27 )">A</text><text style="&st18;" transform="matrix(&st16;  4090.25  83.07 )">RPG</text></g></g><g ewd:figtype="w2w" ewd:figID="127" ewd:code="GH1"><path style="stroke-width: 1.42 ;&st7;  " d=" M  4024.08,   638.61  L  4028.33,   642.86  L  4032.57,   638.61  " /><path style="stroke-width: 1.42 ;&st7;  " d=" M  4032.57,   642.01  L  4028.33,   646.26  L  4024.08,   642.01  " /><text style="&st18;" transform="matrix(&st16;  4012.59  653.9 )">12</text></g><g ewd:figtype="w2w" ewd:figID="128" ewd:code="GH1"><path style="stroke-width: 1.42 ;&st7;  " d=" M  4032.57,   427.28  L  4028.33,   423.03  L  4024.08,   427.28  " /><path style="stroke-width: 1.42 ;&st7;  " d=" M  4032.57,   423.88  L  4028.33,   419.63  L  4024.08,   423.88  " /><text style="&st18;" transform="matrix(&st16;  4015.7  415.94 )">7</text></g><g ewd:figtype="w2w" ewd:figID="129" ewd:code="AG1"><path style="stroke-width: 1.42 ;&st7;  " d=" M  4313.03,   299.80  L  4308.78,   295.55  L  4304.53,   299.80  " /><path style="stroke-width: 1.42 ;&st7;  " d=" M  4313.03,   296.40  L  4308.78,   292.15  L  4304.53,   296.40  " /><text style="&st18;" transform="matrix(&st16;  4293.05  288.46 )">24</text></g><g ewd:figtype="w2w" ewd:figID="130" ewd:code="GN3"><text style="&st18;" transform="matrix(&st16;  4491.62  483.92 )">6</text><path style="stroke-width: 1.42 ;&st7;  " d=" M  4508.49,   472.04  L  4504.25,   476.29  L  4500.00,   472.04  " /><path style="stroke-width: 1.42 ;&st7;  " d=" M  4500.00,   468.64  L  4504.25,   472.89  L  4508.49,   468.64  " /></g><g ewd:figtype="w2w" ewd:figID="131" ewd:code="VN1"><path style="stroke-width: 1.42 ;&st7;  " d=" M  4508.49,   427.28  L  4504.25,   423.03  L  4500.00,   427.28  " /><path style="stroke-width: 1.42 ;&st7;  " d=" M  4508.49,   423.88  L  4504.25,   419.63  L  4500.00,   423.88  " /><text style="&st18;" transform="matrix(&st16;  4491.62  415.94 )">4</text></g><g ewd:figtype="gp" ewd:figID="147" ewd:code="GE"><path style="stroke-width: 0.85 ;&st7;  " d=" M  4028.33,   697.25  L  4028.33,   701.50  " /><path style="stroke-width: 0.85 ;&st7;  " d=" M  4019.83,   701.50  L  4036.82,   701.50  " /><path style="stroke-width: 0.85 ;&st7;  " d=" M  4024.08,   704.33  L  4032.57,   704.33  " /><path style="stroke-width: 0.85 ;&st7;  " d=" M  4025.49,   707.17  L  4031.16,   707.17  " /><path style="stroke-width: 0.85 ;&st7;  " d=" M  4026.91,   710.00  L  4029.74,   710.00  " /></g><g ewd:figtype="gp" ewd:figID="148" ewd:code="GB"><path style="stroke-width: 0.85 ;&st7;  " d=" M  4206.80,   697.25  L  4206.80,   701.50  " /><path style="stroke-width: 0.85 ;&st7;  " d=" M  4198.30,   701.50  L  4215.29,   701.50  " /><path style="stroke-width: 0.85 ;&st7;  " d=" M  4202.55,   704.33  L  4211.04,   704.33  " /><path style="stroke-width: 0.85 ;&st7;  " d=" M  4203.96,   707.17  L  4209.63,   707.17  " /><path style="stroke-width: 0.85 ;&st7;  " d=" M  4205.38,   710.00  L  4208.21,   710.00  " /></g><g ewd:figtype="gp" ewd:figID="149" ewd:code="VA"><path style="stroke-width: 0.85 ;&st7;  " d=" M  4366.85,   710.00  L  4369.68,   710.00  " /><path style="stroke-width: 0.85 ;&st7;  " d=" M  4365.44,   707.17  L  4371.10,   707.17  " /><path style="stroke-width: 0.85 ;&st7;  " d=" M  4364.02,   704.33  L  4372.52,   704.33  " /><path style="stroke-width: 0.85 ;&st7;  " d=" M  4359.77,   701.50  L  4376.77,   701.50  " /><path style="stroke-width: 0.85 ;&st7;  " d=" M  4368.27,   697.25  L  4368.27,   701.50  " /></g><g ewd:figtype="gp" ewd:figID="150" ewd:code="VA"><path style="stroke-width: 0.85 ;&st7;  " d=" M  4444.76,   697.25  L  4444.76,   701.50  " /><path style="stroke-width: 0.85 ;&st7;  " d=" M  4436.26,   701.50  L  4453.25,   701.50  " /><path style="stroke-width: 0.85 ;&st7;  " d=" M  4440.51,   704.33  L  4449.00,   704.33  " /><path style="stroke-width: 0.85 ;&st7;  " d=" M  4441.92,   707.17  L  4447.59,   707.17  " /><path style="stroke-width: 0.85 ;&st7;  " d=" M  4443.34,   710.00  L  4446.17,   710.00  " /></g><g ewd:code="12" ewd:figID="214" ewd:comment="" ewd:figtype="comment"><text style="&st18;" transform="matrix(&st16;  4373.36  216.22 )">*12 :1GD-FTV, 2GD-FTV</text></g><g ewd:code="4" ewd:figID="231" ewd:comment="" ewd:figtype="comment"><text style="&st18;" transform="matrix(&st16;  4373.36  199.22 )" ewd:textID="5">* 4 :w/o Smart Entry &amp; Start System</text></g><g ewd:code="25" ewd:figID="230" ewd:comment="" ewd:figtype="comment"><text style="&st18;" transform="matrix(&st16;  4373.36  250.21 )" ewd:textID="22">*25 :w/ TFT Display</text></g><g ewd:code="14" ewd:figID="232" ewd:comment="" ewd:figtype="comment"><text style="&st18;" transform="matrix(&st16;  4373.36  233.22 )" ewd:textID="14">*14 :w/o Power Back Door w/ Back Door Closer</text></g><g ewd:code="11" ewd:figID="213" ewd:comment="12" ewd:figtype="comment"><text style="&st18;" transform="matrix(&st16;  4373.36  207.72 )" ewd:textID="12">*11 :Except *12</text></g><g ewd:code="15" ewd:figID="215" ewd:comment="" ewd:figtype="comment"><text style="&st18;" transform="matrix(&st16;  4373.36  241.71 )" ewd:textID="15">*15 :w/o Power Back Door w/o Back Door Closer</text></g><g ewd:code="13" ewd:figID="195" ewd:comment="" ewd:figtype="comment"><text style="&st18;" transform="matrix(&st16;  4373.36  224.72 )" ewd:textID="13">*13 :w/ Power Back Door</text></g></svg>