﻿<?xml version="1.0" encoding="utf-8"?>
<!DOCTYPE svg PUBLIC "-//W3C//DTD SVG 1.0//EN" "http://www.w3.org/TR/2001/REC-SVG-20010904/DTD/svg10.dtd"[
	<!ENTITY ns_flows "http://ns.adobe.com/Flows/1.0/">
	<!ENTITY ns_svg "http://www.w3.org/2000/svg">
	<!ENTITY ns_xlink "http://www.w3.org/1999/xlink">
	<!ENTITY st0 "font-size:7px;font-family:'MS-PGothic';adobe-font-script:japanese;">
	<!ENTITY st1 "font-size:6px;font-family:'ArialMT';">
	<!-- White fill  -->
	<!ENTITY st2 "fill:#FFFFFF;stroke:#000000; stroke-width:1.41;stroke-linecap:round;stroke-linejoin:round;">
	<!-- Yellow fill  -->
	<!ENTITY st3 "fill:#FFFFCC;stroke:#FFFFCC; stroke-width:0.1;stroke-linecap:round;stroke-linejoin:round;">
	<!-- Gray fill  -->
	<!ENTITY st4 "fill:#CCCCCC;stroke:#CCCCCC; stroke-width:0.1;stroke-linecap:round;stroke-linejoin:round;">
	<!-- Light-blue fill -->
	<!ENTITY st5 "fill:#CCECF4;stroke:#000000; stroke-width:1.133;stroke-linecap:round;stroke-linejoin:round;">
	<!ENTITY st6 "fill:none;stroke-linecap:butt; stroke-linejoin:round;">
	<!ENTITY st7 "fill:none;stroke:#000000;stroke-linecap:round;stroke-linejoin:round;">
	<!ENTITY st8 "enable-background:new    ;">
	<!-- Black fill -->
	<!ENTITY st9 "fill:#000000;stroke:#000000; stroke-linecap:round;stroke-linejoin:round;">
	<!-- SRS note   -->
	<!ENTITY st10 "font-size:9px;font-family:'ArialMT';">
	<!ENTITY st11 "font-size:9px;font-family:'Svg Symbol';">
	<!ENTITY st12 "font-size:6px;font-family:'Svg Symbol';">
	<!ENTITY st13 "fill:none;stroke:#ff0000;stroke-linecap:round;stroke-linejoin:round;">
	<!-- Yellow fill  -->
	<!ENTITY st14 "fill:#FFFF00;stroke:#FFFF00; stroke-width:0.1;stroke-linecap:round;stroke-linejoin:round;">
	<!ENTITY st15 "font-size:6px;font-family:'MS-PGothic';adobe-font-script:japanese;">
	<!ENTITY st16 "1.00 0.00 0.00 1.00">
	<!ENTITY st17 "0.00 -1.00 1.00 0.00">
	<!ENTITY st18 "font-size:6px;font-family:'Arial';">
	<!ENTITY st19 "font-size:9px;font-family:'Arial';">
	<!ENTITY st20 "font-size:6px;font-family:'MS-PGothic','MS PGothic';adobe-font-script:japanese;">
	<!ENTITY st21 "font-size:7px;font-family:'MS-PGothic','MS PGothic';adobe-font-script:japanese;">
	<!ATTLIST svg
		xmlns:ewd CDATA #FIXED "http://shcl.co.jp/ewd"
		xmlns:a CDATA #FIXED "http://ns.adobe.com/AdobeSVGViewerExtensions/3.0/"
		ewd:ver CDATA #IMPLIED
	>
	<!ATTLIST a
		ewd:lineID CDATA #IMPLIED
		ewd:groupID CDATA #IMPLIED
		ewd:figtype CDATA #IMPLIED
		ewd:code CDATA #IMPLIED
		ewd:figID CDATA #IMPLIED
		ewd:pinNo CDATA #IMPLIED
		ewd:comment CDATA #IMPLIED >
	<!ATTLIST g
		ewd:lineID CDATA #IMPLIED
		ewd:groupID CDATA #IMPLIED
		ewd:figtype CDATA #IMPLIED
		ewd:code CDATA #IMPLIED
		ewd:figID CDATA #IMPLIED
		ewd:pinNo CDATA #IMPLIED
		ewd:comment CDATA #IMPLIED >
	<!ATTLIST text
		ewd:textID CDATA #IMPLIED >
	<!ATTLIST title
		ewd:textID CDATA #IMPLIED >
]>
<!-- Generator: Shintec Hozumi YS   -->
<svg onload="call_execInitLoadProc_svg('system')" style="overflow:visible;  enable-background:new 0 0 4652.400 710.000" viewBox="0 0 4652.400 710.000" height="710.000" width="4652.400" xml:space="preserve" ewd:ver="2.1.2.9" xmlns="&ns_svg;" xmlns:a="http://ns.adobe.com/AdobeSVGViewerExtensions/3.0/" xmlns:ewd="http://shcl.co.jp/ewd" xmlns:xlink="&ns_xlink;">
<path style="stroke-width: 1.42 ;&st7;   " d=" M   730.88,   690.17  C   728.67    688.35    725.53    688.41    723.39    690.31  " /><path style="stroke-width: 1.42 ;&st7;  " d=" M   569.40,   430.24  L   574.37,   435.21  " /><path style="stroke-width: 1.42 ;&st7;  " d=" M   654.39,   214.25  L   662.89,   214.25  " /><path style="stroke-width: 1.42 ;&st7;  " d=" M   659.36,   443.71  L   654.39,   448.68  " /><path style="stroke-width: 1.42 ;&st7;  " d=" M   654.39,   455.74  L   659.36,   460.71  " /><path style="stroke-width: 1.42 ;&st7;  " d=" M   666.42,   460.71  L   671.39,   455.74  " /><path style="stroke-width: 1.42 ;&st7;  " d=" M   671.39,   448.68  L   666.42,   443.71  " /><path style="stroke-width: 1.42 ;&st7;  " d=" M   574.37,   418.22  L   569.40,   423.19  " /><path style="stroke-width: 1.42 ;&st7;  " d=" M   581.43,   435.21  L   586.40,   430.24  " /><path style="stroke-width: 1.42 ;&st7;  " d=" M   586.40,   423.19  L   581.43,   418.22  " /><path style="stroke-width: 1.42 ;&st7;  " d=" M   569.40,   214.25  L   577.90,   214.25  " /><path style="stroke-width: 1.42 ;&st7;  " d=" M   934.84,   239.75  L   926.35,   239.75  " /><text style="&st18;" transform="matrix(&st17;  752.68  156.45 )">B</text><text style="&st18;" transform="matrix(&st17;  999.14  249.82 )">L</text><text style="&st18;" transform="matrix(&st17;  922.65  267.05 )">V</text><text style="&st18;" transform="matrix(&st17;  922.65  216.05 )">V</text><text style="&st18;" transform="matrix(&st17;  820.67  215.86 )">R</text><text style="&st18;" transform="matrix(&st17;  574.21  504.89 )">B</text><text style="&st18;" transform="matrix(&st17;  574.21  292.43 )">B</text><text style="&st18;" transform="matrix(&st17;  744.18  504.81 )">R</text><text style="&st18;" transform="matrix(&st17;  727.18  662.13 )">W-B</text><text style="&st18;" transform="matrix(&st17;  820.67  292.7 )">G</text><text style="&st18;" transform="matrix(&st17;  922.65  411.33 )">R</text><text style="&st18;" transform="matrix(&st16;  752.96  25.26 )">G33(A),G34(B)</text><text style="&st18;" transform="matrix(&st16;  752.97  32.08 )" ewd:textID="22">Body ECU</text><text style="&st18;" transform="matrix(&st17;  752.68  292.43 )">B</text><text style="&st18;" transform="matrix(&st17;  948.14  411.29 )">L</text><text style="&st18;" transform="matrix(&st17;  659.19  292.35 )">R</text><text style="&st18;" transform="matrix(&st17;  659.19  504.81 )">R</text><text style="&st18;" transform="matrix(&st16;  941.04  278.54 )">V</text><text style="&st18;" transform="matrix(&st17;  820.67  504.77 )">L</text><text style="&st18;" transform="matrix(&st17;  710.18  215.94 )">B</text><text style="&st18;" transform="matrix(&st17;  585.54  507.91 )">(*3)</text><text style="&st18;" transform="matrix(&st16;  541.72  423.02 )">B</text><text style="&st18;" transform="matrix(&st16;  538.7  434.35 )">(*4)</text><text style="&st18;" transform="matrix(&st16;  541.8  448.51 )">R</text><text style="&st18;" transform="matrix(&st16;  534.66  459.84 )">(*5 *4)</text><path style="stroke-width: 1.42 ;&st7;  " d=" M   611.90,   499.67  L   606.93,   494.70  " /><path style="stroke-width: 1.42 ;&st7;  " d=" M   594.90,   506.73  L   599.87,   511.70  " /><path style="stroke-width: 1.42 ;&st7;  " d=" M   606.93,   511.70  L   611.90,   506.73  " /><path style="stroke-width: 1.42 ;&st7;  " d=" M   599.87,   494.70  L   594.90,   499.67  " /><text style="&st18;" transform="matrix(&st16;  623.68  476.84 )">(*5)</text><text style="&st18;" transform="matrix(&st17;  670.53  515.98 )">(*9,*5 *3)</text><text style="&st18;" transform="matrix(&st16;  626.78  465.51 )">R</text><text style="&st18;" transform="matrix(&st16;  619.65  544.83 )">(*6 *3)</text><text style="&st18;" transform="matrix(&st16;  626.78  533.5 )">R</text><text style="&st18;" transform="matrix(&st17;  832.0  295.45 )">(*7)</text><text style="&st18;" transform="matrix(&st17;  764.01  295.45 )">(*7)</text><text style="&st18;" transform="matrix(&st17;  738.51  662.44 )">(*10)</text><text style="&st18;" transform="matrix(&st17;  755.51  509.47 )">(*10)</text><text style="&st18;" transform="matrix(&st17;  832.0  509.47 )">(*10)</text><g ewd:figtype="rb" ewd:figID="6" ewd:code="3"><path style="stroke-width: 0.85 ;&st7;  " d=" M   951.84,   375.72  L   951.84,   358.73  " /><path style="stroke-width: 0.85 ;&st7;  " d=" M   926.34,   375.72  L   926.34,   358.73  " /><path style="stroke-width: 0.85 ;&st7;  " d=" M   951.84,   324.73  L   951.84,   307.73  " /><path style="stroke-width: 0.85 ;&st7;  " d=" M   926.34,   324.73  L   926.34,   307.73  " /><path style="stroke-width: 0.28 ;&st9;  " d=" M   951.84,   370.83  L   949.01,   367.99  L   949.01,   372.24  L   951.84,   375.08  L   954.67,   372.24  L   954.67,   367.99  L   951.84,   370.83  " /><path style="stroke-width: 0.28 ;&st9;  " d=" M   926.34,   370.83  L   923.51,   367.99  L   923.51,   372.24  L   926.34,   375.08  L   929.18,   372.24  L   929.18,   367.99  L   926.34,   370.83  " /><path style="stroke-width: 0.28 ;&st9;  " d=" M   951.84,   312.63  L   954.67,   315.46  L   954.67,   311.21  L   951.84,   308.38  L   949.01,   311.21  L   949.01,   315.46  L   951.84,   312.63  " /><path style="stroke-width: 0.28 ;&st9;  " d=" M   926.34,   312.63  L   929.18,   315.46  L   929.18,   311.21  L   926.34,   308.38  L   923.51,   311.21  L   923.51,   315.46  L   926.34,   312.63  " /><path style="stroke-width: 1.42 ;&st7;   " d=" M   958.21,   379.97  C   958.21    377.63    956.31    375.72    953.97    375.72  " /><path style="stroke-width: 1.42 ;&st7;   " d=" M   953.97,   384.22  C   956.31    384.22    958.21    382.32    958.21    379.97  " /><path style="stroke-width: 1.42 ;&st7;   " d=" M   945.47,   379.97  C   945.47    382.32    947.37    384.22    949.72    384.22  " /><path style="stroke-width: 1.42 ;&st7;   " d=" M   949.72,   375.72  C   947.37    375.72    945.47    377.63    945.47    379.97  " /><path style="stroke-width: 1.42 ;&st7;   " d=" M   932.72,   379.97  C   932.72    377.63    930.82    375.72    928.47    375.72  " /><path style="stroke-width: 1.42 ;&st7;   " d=" M   928.47,   384.22  C   930.82    384.22    932.72    382.32    932.72    379.97  " /><path style="stroke-width: 1.42 ;&st7;   " d=" M   919.97,   379.97  C   919.97    382.32    921.87    384.22    924.22    384.22  " /><path style="stroke-width: 1.42 ;&st7;   " d=" M   924.22,   375.72  C   921.87    375.72    919.97    377.63    919.97    379.97  " /><path style="stroke-width: 1.42 ;&st7;   " d=" M   958.21,   303.48  C   958.21    301.14    956.31    299.24    953.97    299.24  " /><path style="stroke-width: 1.42 ;&st7;   " d=" M   953.97,   307.73  C   956.31    307.73    958.21    305.83    958.21    303.48  " /><path style="stroke-width: 1.42 ;&st7;   " d=" M   945.47,   303.48  C   945.47    305.83    947.37    307.73    949.72    307.73  " /><path style="stroke-width: 1.42 ;&st7;   " d=" M   949.72,   299.24  C   947.37    299.24    945.47    301.14    945.47    303.48  " /><path style="stroke-width: 1.42 ;&st7;   " d=" M   932.72,   303.48  C   932.72    301.14    930.82    299.24    928.47    299.24  " /><path style="stroke-width: 1.42 ;&st7;  " d=" M   953.97,   375.72  L   949.72,   375.72  " /><path style="stroke-width: 1.42 ;&st7;   " d=" M   928.47,   307.73  C   930.82    307.73    932.72    305.83    932.72    303.48  " /><path style="stroke-width: 1.42 ;&st7;   " d=" M   919.97,   303.48  C   919.97    305.83    921.87    307.73    924.22    307.73  " /><path style="stroke-width: 1.42 ;&st7;   " d=" M   924.22,   299.24  C   921.87    299.24    919.97    301.14    919.97    303.48  " /><path style="stroke-width: 1.42 ;&st7;  " d=" M   928.47,   384.22  L   924.22,   384.22  " /><path style="stroke-width: 1.42 ;&st7;  " d=" M   928.47,   375.72  L   924.22,   375.72  " /><path style="stroke-width: 1.42 ;&st7;  " d=" M   953.97,   307.73  L   949.72,   307.73  " /><path style="stroke-width: 1.42 ;&st7;  " d=" M   953.97,   299.24  L   949.72,   299.24  " /><path style="stroke-width: 1.42 ;&st7;  " d=" M   928.47,   307.73  L   924.22,   307.73  " /><path style="stroke-width: 1.42 ;&st7;  " d=" M   928.47,   299.24  L   924.22,   299.24  " /><path style="stroke-width: 1.42 ;&st7;  " d=" M   953.97,   384.22  L   949.72,   384.22  " /><text style="&st18;" transform="matrix(&st16;  962.6  343.7 )" ewd:textID="28">DOME <tspan x="0 " dy="6.0">CUT </tspan><tspan x="0 " dy="6.0">Relay</tspan></text><text style="&st18;" transform="matrix(&st16;  945.66  321.04 )">2</text><text style="&st18;" transform="matrix(&st16;  920.16  321.04 )">5</text><text style="&st18;" transform="matrix(&st16;  945.66  366.92 )">1</text><text style="&st18;" transform="matrix(&st16;  920.16  366.92 )">3</text><text style="&st18;" transform="matrix(&st16;  950.04  381.94 )">3</text><text style="&st18;" transform="matrix(&st16;  924.54  381.94 )">3</text><text style="&st18;" transform="matrix(&st16;  950.04  305.45 )">3</text><text style="&st18;" transform="matrix(&st16;  924.54  305.45 )">3</text><path style="stroke-width: 1.42 ;&st7;  " d=" M   960.34,   324.73  L   917.85,   324.73  L   917.85,   358.73  L   960.34,   358.73  L   960.34,   324.73  " /><path style="stroke-width: 0.85 ;&st7;   " d=" M   951.84,   350.23  C   953.80    350.23    955.38    348.64    955.38    346.69  " /><path style="stroke-width: 0.85 ;&st7;   " d=" M   955.38,   346.69  C   955.38    344.73    953.80    343.14    951.84    343.14  " /><path style="stroke-width: 0.85 ;&st7;   " d=" M   951.84,   343.14  C   950.85    343.14    950.00    343.50    949.31    344.21  " /><path style="stroke-width: 0.85 ;&st7;   " d=" M   949.31,   344.21  C   950.68    345.60    952.92    345.63    954.32    344.26  " /><path style="stroke-width: 0.85 ;&st7;   " d=" M   954.32,   344.26  C   955.72    342.89    955.74    340.65    954.37    339.25  " /><path style="stroke-width: 0.85 ;&st7;   " d=" M   954.37,   339.25  C   953.00    337.85    950.76    337.83    949.36    339.20  " /><path style="stroke-width: 0.85 ;&st7;   " d=" M   949.36,   339.20  C   949.34    339.22    949.33    339.23    949.31    339.25  " /><path style="stroke-width: 0.85 ;&st7;   " d=" M   949.31,   339.25  C   950.68    340.65    952.92    340.67    954.32    339.30  " /><path style="stroke-width: 0.85 ;&st7;   " d=" M   954.32,   339.30  C   955.72    337.93    955.74    335.69    954.37    334.29  " /><path style="stroke-width: 0.85 ;&st7;   " d=" M   954.37,   334.29  C   953.68    333.58    952.83    333.23    951.84    333.23  " /><path style="stroke-width: 0.85 ;&st7;   " d=" M   927.76,   330.40  C   927.76    329.61    927.13    328.98    926.35    328.98  " /><path style="stroke-width: 0.85 ;&st7;   " d=" M   926.35,   328.98  C   925.56    328.98    924.93    329.61    924.93    330.40  " /><path style="stroke-width: 0.85 ;&st7;   " d=" M   924.93,   330.40  C   924.93    331.18    925.56    331.81    926.35    331.81  " /><path style="stroke-width: 0.85 ;&st7;   " d=" M   926.35,   331.81  C   927.13    331.81    927.76    331.18    927.76    330.40  " /><path style="stroke-width: 0.85 ;&st7;   " d=" M   927.76,   353.06  C   927.76    352.28    927.13    351.64    926.35    351.64  " /><path style="stroke-width: 0.85 ;&st7;   " d=" M   926.35,   351.64  C   925.56    351.64    924.93    352.28    924.93    353.06  " /><path style="stroke-width: 0.85 ;&st7;   " d=" M   924.93,   353.06  C   924.93    353.84    925.56    354.48    926.35    354.48  " /><path style="stroke-width: 0.85 ;&st7;   " d=" M   926.35,   354.48  C   927.13    354.48    927.76    353.84    927.76    353.06  " /><path style="stroke-width: 0.85 ;&st7;  " d=" M   951.84,   350.23  L   951.84,   358.73  " /><path style="stroke-width: 0.85 ;&st7;  " d=" M   951.84,   324.73  L   951.84,   333.23  " /><path style="stroke-width: 0.85 ;&st7;  " d=" M   926.35,   328.98  L   926.35,   324.73  " /><path style="stroke-width: 0.85 ;&st7;  " d=" M   926.35,   358.73  L   926.35,   354.48  " /><path style="stroke-width: 1.42 ;&st7;  " d=" M   926.35,   351.64  L   920.68,   328.98  " /></g><g ewd:figtype="rb" ewd:figID="7" ewd:code="FUSE8"><path style="stroke-width: 0.28 ;&st9;  " d=" M   926.34,   183.86  L   923.51,   181.03  L   923.51,   185.28  L   926.34,   188.11  L   929.18,   185.28  L   929.18,   181.03  L   926.34,   183.86  " /><path style="stroke-width: 1.42 ;&st7;  " d=" M   928.47,   188.75  L   924.22,   188.75  " /><path style="stroke-width: 1.42 ;&st7;   " d=" M   932.72,   193.00  C   932.72    190.66    930.82    188.75    928.47    188.75  " /><path style="stroke-width: 1.42 ;&st7;   " d=" M   928.47,   197.25  C   930.82    197.25    932.72    195.35    932.72    193.00  " /><path style="stroke-width: 1.42 ;&st7;   " d=" M   919.97,   193.00  C   919.97    195.35    921.87    197.25    924.22    197.25  " /><path style="stroke-width: 1.42 ;&st7;   " d=" M   924.22,   188.75  C   921.87    188.75    919.97    190.66    919.97    193.00  " /><path style="stroke-width: 0.85 ;&st7;  " d=" M   926.35,   171.76  L   926.35,   188.75  " /><path style="stroke-width: 1.42 ;&st7;  " d=" M   928.47,   197.25  L   924.22,   197.25  " /><text style="&st18;" transform="matrix(&st16;  942.77  149.65 )">10A <tspan x="0 " dy="6.0">DOME</tspan></text><text style="&st18;" transform="matrix(&st16;  924.54  194.97 )">1</text><text style="&st18;" transform="matrix(&st16;  920.16  179.95 )">2</text><text style="&st18;" transform="matrix(&st16;  918.3  125.57 )">(BAT)</text><path style="stroke-width: 1.42 ;&st7;  " d=" M   913.60,   129.26  L   913.60,   171.76  L   939.09,   171.76  L   939.09,   129.26  L   913.60,   129.26  " /><path style="stroke-width: 0.85 ;&st7;   " d=" M   927.76,   161.84  C   927.76    161.06    927.13    160.43    926.35    160.43  " /><path style="stroke-width: 0.85 ;&st7;   " d=" M   926.35,   160.43  C   925.56    160.43    924.93    161.06    924.93    161.84  " /><path style="stroke-width: 0.85 ;&st7;   " d=" M   924.93,   161.84  C   924.93    162.62    925.56    163.26    926.35    163.26  " /><path style="stroke-width: 0.85 ;&st7;   " d=" M   926.35,   163.26  C   927.13    163.26    927.76    162.62    927.76    161.84  " /><path style="stroke-width: 0.85 ;&st7;   " d=" M   927.76,   139.18  C   927.76    138.40    927.13    137.76    926.35    137.76  " /><path style="stroke-width: 0.85 ;&st7;   " d=" M   926.35,   137.76  C   925.56    137.76    924.93    138.40    924.93    139.18  " /><path style="stroke-width: 0.85 ;&st7;   " d=" M   924.93,   139.18  C   924.93    139.96    925.56    140.60    926.35    140.60  " /><path style="stroke-width: 0.85 ;&st7;   " d=" M   926.35,   140.60  C   927.13    140.60    927.76    139.96    927.76    139.18  " /><path style="stroke-width: 1.42 ;&st7;   " d=" M   926.35,   160.43  C   929.08    158.81    930.00    155.28    928.38    152.55  " /><path style="stroke-width: 1.42 ;&st7;   " d=" M   928.38,   152.55  C   927.86    151.67    927.23    151.03    926.35    150.51  " /><path style="stroke-width: 1.42 ;&st7;   " d=" M   926.35,   140.60  C   923.61    142.21    922.70    145.74    924.31    148.47  " /><path style="stroke-width: 1.42 ;&st7;   " d=" M   924.31,   148.47  C   924.83    149.36    925.46    149.99    926.35    150.51  " /><path style="stroke-width: 0.85 ;&st7;  " d=" M   926.35,   163.26  L   926.35,   171.76  " /></g><g ewd:figtype="conn" ewd:figID="8" ewd:code="G111"><path style="stroke-width: 0.85 ;&st7;  " d=" M   713.88,   248.24  L   713.88,   256.74  L   756.37,   256.74  " /><path style="stroke-width: 1.42 ;&st7;  " d=" M   705.38,   248.24  L   764.87,   248.24  L   764.87,   265.24  L   705.38,   265.24  L   705.38,   248.24  " /><path style="stroke-width: 0.85 ;&st7;  " d=" M   756.37,   248.24  L   756.37,   265.24  " /><path style="stroke-width: 0.85 ;&st7;  " d=" M   755.18,   255.74  L   754.91,   256.21  L   754.82,   256.74  L   754.91,   257.28  L   755.18,   257.75  L   755.59,   258.09  L   756.10,   258.28  L   756.65,   258.28  L   757.15,   258.09  L   757.57,   257.75  L   757.84,   257.28  L   757.93,   256.74  L   757.84,   256.21  L   757.57,   255.74  L   757.15,   255.39  L   756.65,   255.21  L   756.10,   255.21  L   755.59,   255.39  L   755.18,   255.74  L   755.57,   256.45  L   755.57,   257.03  L   755.95,   257.48  L   756.52,   257.58  L   757.02,   257.29  L   757.22,   256.74  L   757.02,   256.20  L   756.52,   255.91  L   755.95,   256.01  L   756.37,   256.74  " /><text style="&st18;" transform="matrix(&st16;  704.59  244.55 )">14</text><text style="&st18;" transform="matrix(&st16;  747.09  244.55 )">13</text><text style="&st18;" transform="matrix(&st16;  747.09  273.43 )">12</text><g ewd:figtype="title"><text style="&st18;" transform="matrix(&st17;  772.77  268.14 )">G111</text><text style="&st18;" transform="matrix(&st17;  779.59  268.15 )" ewd:textID="46">No. 10 Junction <tspan x="0 " dy="6.0">Connector</tspan></text></g></g><g ewd:figtype="conn" ewd:figID="9" ewd:code="Q2"><path style="stroke-width: 0.85 ;&st7;  " d=" M   610.70,   646.67  L   610.43,   647.14  L   610.34,   647.68  L   610.43,   648.21  L   610.70,   648.68  L   611.12,   649.03  L   611.63,   649.21  L   612.17,   649.21  L   612.68,   649.03  L   613.09,   648.68  L   613.36,   648.21  L   613.46,   647.68  L   613.36,   647.14  L   613.09,   646.67  L   612.68,   646.33  L   612.17,   646.14  L   611.63,   646.14  L   611.12,   646.33  L   610.70,   646.67  L   611.10,   647.39  L   611.10,   647.97  L   611.47,   648.41  L   612.04,   648.51  L   612.55,   648.22  L   612.75,   647.68  L   612.55,   647.13  L   612.04,   646.84  L   611.47,   646.94  L   611.90,   647.68  " /><path style="stroke-width: 0.85 ;&st7;  " d=" M   662.89,   579.69  L   662.89,   554.19  " /><path style="stroke-width: 0.85 ;&st7;  " d=" M   671.39,   647.68  L   671.39,   664.67  " /><path style="stroke-width: 0.85 ;&st7;  " d=" M   577.90,   613.68  L   577.90,   647.68  " /><path style="stroke-width: 0.85 ;&st7;  " d=" M   654.39,   647.68  L   577.90,   647.68  " /><path style="stroke-width: 0.85 ;&st7;  " d=" M   628.89,   647.68  L   628.89,   656.18  L   671.39,   656.18  " /><path style="stroke-width: 0.85 ;&st7;  " d=" M   662.89,   571.19  L   620.40,   571.19  L   620.40,   579.69  " /><path style="stroke-width: 1.42 ;&st7;  " d=" M   560.91,   673.17  L   688.38,   673.17  L   688.38,   554.19  L   560.91,   554.19  L   560.91,   673.17  " /><path style="stroke-width: 0.85 ;&st7;   " d=" M   579.32,   585.35  C   579.32    584.57    578.69    583.94    577.90    583.94  " /><path style="stroke-width: 0.85 ;&st7;   " d=" M   577.90,   583.94  C   577.12    583.94    576.49    584.57    576.49    585.35  " /><path style="stroke-width: 0.85 ;&st7;   " d=" M   576.49,   585.35  C   576.49    586.14    577.12    586.77    577.90    586.77  " /><path style="stroke-width: 0.85 ;&st7;   " d=" M   577.90,   586.77  C   578.69    586.77    579.32    586.14    579.32    585.35  " /><path style="stroke-width: 0.85 ;&st7;   " d=" M   579.32,   608.02  C   579.32    607.23    578.69    606.60    577.90    606.60  " /><path style="stroke-width: 0.85 ;&st7;   " d=" M   577.90,   606.60  C   577.12    606.60    576.49    607.23    576.49    608.02  " /><path style="stroke-width: 0.85 ;&st7;   " d=" M   576.49,   608.02  C   576.49    608.80    577.12    609.43    577.90    609.43  " /><path style="stroke-width: 0.85 ;&st7;   " d=" M   577.90,   609.43  C   578.69    609.43    579.32    608.80    579.32    608.02  " /><path style="stroke-width: 0.85 ;&st7;   " d=" M   662.89,   600.93  C   664.44    600.94    665.71    599.69    665.72    598.14  " /><path style="stroke-width: 0.85 ;&st7;   " d=" M   665.72,   598.14  C   665.73    596.58    664.48    595.31    662.92    595.30  " /><path style="stroke-width: 0.85 ;&st7;   " d=" M   662.92,   595.30  C   661.89    595.30    661.01    595.80    660.48    596.69  " /><path style="stroke-width: 0.85 ;&st7;   " d=" M   660.48,   596.69  C   661.27    598.02    663.00    598.47    664.34    597.68  " /><path style="stroke-width: 0.85 ;&st7;   " d=" M   664.34,   597.68  C   665.68    596.89    666.12    595.16    665.33    593.82  " /><path style="stroke-width: 0.85 ;&st7;   " d=" M   665.33,   593.82  C   664.81    592.93    663.92    592.43    662.89    592.44  " /><path style="stroke-width: 1.42 ;&st7;   " d=" M   671.39,   596.69  C   671.39    591.99    667.58    588.19    662.89    588.19  " /><path style="stroke-width: 1.42 ;&st7;   " d=" M   662.89,   588.19  C   658.20    588.19    654.39    591.99    654.39    596.69  " /><path style="stroke-width: 1.42 ;&st7;   " d=" M   654.39,   596.69  C   654.39    601.38    658.20    605.18    662.89    605.18  " /><path style="stroke-width: 1.42 ;&st7;   " d=" M   662.89,   605.18  C   667.58    605.18    671.39    601.38    671.39    596.69  " /><path style="stroke-width: 0.85 ;&st7;   " d=" M   620.40,   600.93  C   621.95    600.94    623.22    599.69    623.23    598.14  " /><path style="stroke-width: 0.85 ;&st7;   " d=" M   623.23,   598.14  C   623.24    596.58    621.99    595.31    620.43    595.30  " /><path style="stroke-width: 0.85 ;&st7;   " d=" M   620.43,   595.30  C   619.40    595.30    618.51    595.80    617.99    596.69  " /><path style="stroke-width: 0.85 ;&st7;   " d=" M   617.99,   596.69  C   618.78    598.02    620.51    598.47    621.85    597.68  " /><path style="stroke-width: 0.85 ;&st7;   " d=" M   621.85,   597.68  C   623.19    596.89    623.63    595.16    622.84    593.82  " /><path style="stroke-width: 0.85 ;&st7;   " d=" M   622.84,   593.82  C   622.31    592.93    621.43    592.43    620.40    592.44  " /><path style="stroke-width: 1.42 ;&st7;   " d=" M   628.89,   596.69  C   628.89    591.99    625.09    588.19    620.40    588.19  " /><path style="stroke-width: 1.42 ;&st7;   " d=" M   620.40,   588.19  C   615.70    588.19    611.90    591.99    611.90    596.69  " /><path style="stroke-width: 1.42 ;&st7;   " d=" M   611.90,   596.69  C   611.90    601.38    615.70    605.18    620.40    605.18  " /><path style="stroke-width: 1.42 ;&st7;   " d=" M   620.40,   605.18  C   625.09    605.18    628.89    601.38    628.89    596.69  " /><path style="stroke-width: 0.85 ;&st7;   " d=" M   621.81,   623.60  C   621.81    622.82    621.18    622.18    620.40    622.18  " /><path style="stroke-width: 0.85 ;&st7;   " d=" M   620.40,   622.18  C   619.61    622.18    618.98    622.82    618.98    623.60  " /><path style="stroke-width: 0.85 ;&st7;   " d=" M   618.98,   623.60  C   618.98    624.38    619.61    625.01    620.40    625.01  " /><path style="stroke-width: 0.85 ;&st7;   " d=" M   620.40,   625.01  C   621.18    625.01    621.81    624.38    621.81    623.60  " /><path style="stroke-width: 0.85 ;&st7;   " d=" M   630.31,   637.76  C   630.31    636.98    629.68    636.35    628.89    636.35  " /><path style="stroke-width: 0.85 ;&st7;   " d=" M   628.89,   636.35  C   628.11    636.35    627.48    636.98    627.48    637.76  " /><path style="stroke-width: 0.85 ;&st7;   " d=" M   627.48,   637.76  C   627.48    638.54    628.11    639.18    628.89    639.18  " /><path style="stroke-width: 0.85 ;&st7;   " d=" M   628.89,   639.18  C   629.68    639.18    630.31    638.54    630.31    637.76  " /><path style="stroke-width: 0.85 ;&st7;   " d=" M   613.31,   637.76  C   613.31    636.98    612.68    636.35    611.90    636.35  " /><path style="stroke-width: 0.85 ;&st7;   " d=" M   611.90,   636.35  C   611.12    636.35    610.48    636.98    610.48    637.76  " /><path style="stroke-width: 0.85 ;&st7;   " d=" M   610.48,   637.76  C   610.48    638.54    611.12    639.18    611.90    639.18  " /><path style="stroke-width: 0.85 ;&st7;   " d=" M   611.90,   639.18  C   612.68    639.18    613.31    638.54    613.31    637.76  " /><path style="stroke-width: 0.85 ;&st7;   " d=" M   664.31,   623.60  C   664.31    622.82    663.67    622.18    662.89    622.18  " /><path style="stroke-width: 0.85 ;&st7;   " d=" M   662.89,   622.18  C   662.11    622.18    661.47    622.82    661.47    623.60  " /><path style="stroke-width: 0.85 ;&st7;   " d=" M   661.47,   623.60  C   661.47    624.38    662.11    625.01    662.89    625.01  " /><path style="stroke-width: 0.85 ;&st7;   " d=" M   662.89,   625.01  C   663.67    625.01    664.31    624.38    664.31    623.60  " /><path style="stroke-width: 0.85 ;&st7;   " d=" M   672.80,   637.76  C   672.80    636.98    672.17    636.35    671.39    636.35  " /><path style="stroke-width: 0.85 ;&st7;   " d=" M   671.39,   636.35  C   670.61    636.35    669.97    636.98    669.97    637.76  " /><path style="stroke-width: 0.85 ;&st7;   " d=" M   669.97,   637.76  C   669.97    638.54    670.61    639.18    671.39    639.18  " /><path style="stroke-width: 0.85 ;&st7;   " d=" M   671.39,   639.18  C   672.17    639.18    672.80    638.54    672.80    637.76  " /><path style="stroke-width: 0.85 ;&st7;   " d=" M   655.81,   637.76  C   655.81    636.98    655.17    636.35    654.39    636.35  " /><path style="stroke-width: 0.85 ;&st7;   " d=" M   654.39,   636.35  C   653.61    636.35    652.97    636.98    652.97    637.76  " /><path style="stroke-width: 0.85 ;&st7;   " d=" M   652.97,   637.76  C   652.97    638.54    653.61    639.18    654.39    639.18  " /><path style="stroke-width: 0.85 ;&st7;   " d=" M   654.39,   639.18  C   655.17    639.18    655.81    638.54    655.81    637.76  " /><path style="stroke-width: 1.42 ;&st7;   " d=" M   671.39,   664.67  C   669.18    662.85    666.04    662.91    663.90    664.82  " /><path style="stroke-width: 1.42 ;&st7;   " d=" M   671.39,   664.67  C   673.60    666.50    676.73    666.44    678.87    664.53  " /><path style="stroke-width: 0.85 ;&st7;  " d=" M   577.90,   583.94  L   577.90,   579.69  " /><path style="stroke-width: 0.85 ;&st7;  " d=" M   577.90,   613.68  L   577.90,   609.43  " /><path style="stroke-width: 1.42 ;&st7;  " d=" M   577.90,   606.60  L   583.57,   583.94  " /><path style="stroke-width: 0.85 ;&st7;  " d=" M   662.89,   579.69  L   662.89,   592.44  " /><path style="stroke-width: 0.85 ;&st7;  " d=" M   662.89,   600.93  L   662.89,   613.68  " /><path style="stroke-width: 0.85 ;&st7;  " d=" M   620.40,   579.69  L   620.40,   592.44  " /><path style="stroke-width: 0.85 ;&st7;  " d=" M   620.40,   600.93  L   620.40,   613.68  " /><path style="stroke-width: 1.42 ;&st7;  " d=" M   612.42,   640.02  L   620.40,   625.01  " /><path style="stroke-width: 0.85 ;&st7;  " d=" M   611.90,   639.18  L   611.90,   647.68  " /><path style="stroke-width: 0.85 ;&st7;  " d=" M   628.89,   639.18  L   628.89,   647.68  " /><path style="stroke-width: 0.85 ;&st7;  " d=" M   620.40,   613.68  L   620.40,   622.18  " /><path style="stroke-width: 1.42 ;&st7;  " d=" M   654.91,   640.02  L   662.89,   625.01  " /><path style="stroke-width: 0.85 ;&st7;  " d=" M   654.39,   639.18  L   654.39,   647.68  " /><path style="stroke-width: 0.85 ;&st7;  " d=" M   671.39,   639.18  L   671.39,   647.68  " /><path style="stroke-width: 0.85 ;&st7;  " d=" M   662.89,   613.68  L   662.89,   622.18  " /><path style="stroke-width: 0.85 ;&st7;  " d=" M   670.19,   655.17  L   669.92,   655.64  L   669.83,   656.18  L   669.92,   656.71  L   670.19,   657.18  L   670.61,   657.52  L   671.12,   657.71  L   671.66,   657.71  L   672.17,   657.52  L   672.58,   657.18  L   672.85,   656.71  L   672.95,   656.18  L   672.85,   655.64  L   672.58,   655.17  L   672.17,   654.83  L   671.66,   654.64  L   671.12,   654.64  L   670.61,   654.83  L   670.19,   655.17  L   670.59,   655.88  L   670.59,   656.47  L   670.96,   656.91  L   671.53,   657.01  L   672.04,   656.72  L   672.24,   656.18  L   672.04,   655.63  L   671.53,   655.34  L   670.96,   655.44  L   671.39,   656.18  " /><path style="stroke-width: 0.85 ;&st7;  " d=" M   661.70,   570.19  L   661.42,   570.66  L   661.33,   571.19  L   661.42,   571.72  L   661.70,   572.19  L   662.11,   572.54  L   662.62,   572.73  L   663.16,   572.73  L   663.67,   572.54  L   664.08,   572.19  L   664.35,   571.72  L   664.45,   571.19  L   664.35,   570.66  L   664.08,   570.19  L   663.67,   569.84  L   663.16,   569.65  L   662.62,   569.65  L   662.11,   569.84  L   661.70,   570.19  L   662.09,   570.90  L   662.09,   571.48  L   662.46,   571.93  L   663.04,   572.03  L   663.54,   571.74  L   663.74,   571.19  L   663.54,   570.64  L   663.04,   570.35  L   662.46,   570.45  L   662.89,   571.19  " /><path style="stroke-width: 0.85 ;&st7;  " d=" M   577.90,   554.19  L   577.90,   579.69  " /><text style="&st18;" transform="matrix(&st17;  572.79  608.15 )" ewd:textID="24">Courtesy</text><text style="&st18;" transform="matrix(&st17;  606.79  634.35 )" ewd:textID="57">Off</text><text style="&st18;" transform="matrix(&st17;  649.28  634.35 )" ewd:textID="57">Off</text><text style="&st18;" transform="matrix(&st17;  635.11  634.35 )" ewd:textID="58">On</text><text style="&st18;" transform="matrix(&st17;  677.61  634.35 )" ewd:textID="58">On</text><text style="&st18;" transform="matrix(&st16;  580.49  562.39 )">CTY</text><text style="&st18;" transform="matrix(&st16;  665.47  562.39 )">B</text><text style="&st18;" transform="matrix(&st16;  571.72  550.5 )">1</text><text style="&st18;" transform="matrix(&st16;  656.7  550.5 )">5</text><g ewd:figtype="title"><text style="&st18;" transform="matrix(&st16;  557.5  687.89 )" ewd:textID="42">Map Light Assembly</text><text style="&st18;" transform="matrix(&st16;  557.49  681.07 )">Q2</text></g></g><g ewd:figtype="conn" ewd:figID="11" ewd:code="G137"><path style="stroke-width: 1.42 ;&st7;  " d=" M   790.37,   324.73  L   790.37,   384.22  L   849.86,   384.22  L   849.86,   324.73  L   790.37,   324.73  " /><text style="&st18;" transform="matrix(&st16;  826.95  332.92 )">ILL+</text><text style="&st18;" transform="matrix(&st16;  826.95  380.53 )">ILL-</text><path style="stroke-width: 0.85 ;&st7;  " d=" M   831.74,   356.78  L   839.10,   352.53  " /><path style="stroke-width: 0.85 ;&st7;  " d=" M   837.09,   349.06  L   829.73,   353.31  " /><path style="stroke-width: 0.85 ;&st7;  " d=" M   828.61,   358.73  L   820.11,   358.73  " /><path style="stroke-width: 0.85 ;&st7;  " d=" M   839.10,   352.53  L   836.76,   355.57  L   835.30,   353.03  L   839.10,   352.53  L   837.82,   353.27  L   836.83,   354.55  L   836.21,   353.48  L   837.82,   353.27  L   837.17,   353.64  L   836.86,   354.05  L   836.67,   353.71  L   837.17,   353.64  " /><path style="stroke-width: 0.85 ;&st7;  " d=" M   837.10,   349.06  L   834.76,   352.10  L   833.29,   349.56  L   837.10,   349.06  L   835.81,   349.80  L   834.83,   351.09  L   834.21,   350.01  L   835.81,   349.80  L   835.17,   350.17  L   834.86,   350.58  L   834.67,   350.24  L   835.17,   350.17  " /><path style="stroke-width: 0.28 ;&st9;  " d=" M   824.36,   358.73  L   818.70,   350.23  L   830.03,   350.23  L   824.36,   358.73  " /><text style="&st18;" transform="matrix(&st17;  804.27  369.74 )" ewd:textID="39">Ignition Key <tspan x="0 " dy="6.0">Cylinder </tspan><tspan x="0 " dy="6.0">Light</tspan></text><path style="stroke-width: 0.85 ;&st7;  " d=" M   824.36,   324.73  L   824.36,   384.22  " /><text style="&st18;" transform="matrix(&st16;  818.18  392.41 )">4</text><text style="&st18;" transform="matrix(&st16;  818.18  321.04 )">2</text><g ewd:figtype="title"><text style="&st18;" transform="matrix(&st17;  857.75  387.12 )">G137</text><text style="&st18;" transform="matrix(&st17;  864.58  387.13 )" ewd:textID="67">Transponder Key Coil</text></g></g><g ewd:figtype="conn" ewd:figID="12" ewd:code="G114"><path style="stroke-width: 0.85 ;&st7;  " d=" M   824.36,   256.74  L   875.35,   256.74  L   875.35,   265.24  " /><path style="stroke-width: 0.85 ;&st7;  " d=" M   823.17,   255.74  L   822.90,   256.21  L   822.80,   256.74  L   822.90,   257.28  L   823.17,   257.75  L   823.58,   258.09  L   824.09,   258.28  L   824.63,   258.28  L   825.14,   258.09  L   825.55,   257.75  L   825.83,   257.28  L   825.92,   256.74  L   825.83,   256.21  L   825.55,   255.74  L   825.14,   255.39  L   824.63,   255.21  L   824.09,   255.21  L   823.58,   255.39  L   823.17,   255.74  L   823.56,   256.45  L   823.56,   257.03  L   823.94,   257.48  L   824.51,   257.58  L   825.01,   257.29  L   825.21,   256.74  L   825.01,   256.20  L   824.51,   255.91  L   823.94,   256.01  L   824.36,   256.74  " /><path style="stroke-width: 0.85 ;&st7;  " d=" M   824.36,   248.24  L   824.36,   265.24  " /><path style="stroke-width: 1.42 ;&st7;  " d=" M   815.86,   248.24  L   883.85,   248.24  L   883.85,   265.24  L   815.86,   265.24  L   815.86,   248.24  " /><text style="&st18;" transform="matrix(&st16;  815.08  244.55 )">16</text><text style="&st18;" transform="matrix(&st16;  815.08  273.43 )">14</text><text style="&st18;" transform="matrix(&st16;  866.07  273.43 )">15</text><g ewd:figtype="title"><text style="&st18;" transform="matrix(&st17;  891.75  268.14 )">G114</text><text style="&st18;" transform="matrix(&st17;  898.57  268.15 )" ewd:textID="48">No. 13 Junction Connector</text></g></g><g ewd:figtype="conn" ewd:figID="31" ewd:code="Q1"><path style="stroke-width: 0.85 ;&st7;   " d=" M   740.79,   603.77  C   740.79    602.99    740.16    602.35    739.38    602.35  " /><path style="stroke-width: 0.85 ;&st7;   " d=" M   739.38,   602.35  C   738.59    602.35    737.96    602.99    737.96    603.77  " /><path style="stroke-width: 0.85 ;&st7;   " d=" M   737.96,   603.77  C   737.96    604.55    738.59    605.18    739.38    605.18  " /><path style="stroke-width: 0.85 ;&st7;   " d=" M   739.38,   605.18  C   740.16    605.18    740.79    604.55    740.79    603.77  " /><path style="stroke-width: 0.85 ;&st7;   " d=" M   749.29,   589.60  C   749.29    588.82    748.66    588.19    747.88    588.19  " /><path style="stroke-width: 0.85 ;&st7;   " d=" M   747.88,   588.19  C   747.09    588.19    746.46    588.82    746.46    589.60  " /><path style="stroke-width: 0.85 ;&st7;   " d=" M   746.46,   589.60  C   746.46    590.39    747.09    591.02    747.88    591.02  " /><path style="stroke-width: 0.85 ;&st7;   " d=" M   747.88,   591.02  C   748.66    591.02    749.29    590.39    749.29    589.60  " /><path style="stroke-width: 0.85 ;&st7;   " d=" M   747.88,   566.94  C   749.43    566.95    750.70    565.70    750.71    564.14  " /><path style="stroke-width: 0.85 ;&st7;   " d=" M   750.71,   564.14  C   750.72    562.59    749.46    561.32    747.91    561.31  " /><path style="stroke-width: 0.85 ;&st7;   " d=" M   747.91,   561.31  C   746.88    561.30    745.99    561.80    745.47    562.69  " /><path style="stroke-width: 0.85 ;&st7;   " d=" M   745.47,   562.69  C   746.26    564.03    747.99    564.47    749.33    563.68  " /><path style="stroke-width: 0.85 ;&st7;   " d=" M   749.33,   563.68  C   750.66    562.89    751.11    561.16    750.32    559.82  " /><path style="stroke-width: 0.85 ;&st7;   " d=" M   750.32,   559.82  C   749.79    558.94    748.91    558.43    747.88    558.44  " /><path style="stroke-width: 1.42 ;&st7;   " d=" M   756.37,   562.69  C   756.37    558.00    752.57    554.19    747.88    554.19  " /><path style="stroke-width: 1.42 ;&st7;   " d=" M   747.88,   554.19  C   743.18    554.19    739.38    558.00    739.38    562.69  " /><path style="stroke-width: 1.42 ;&st7;   " d=" M   739.38,   562.69  C   739.38    567.38    743.18    571.19    747.88    571.19  " /><path style="stroke-width: 1.42 ;&st7;   " d=" M   747.88,   571.19  C   752.57    571.19    756.37    567.38    756.37    562.69  " /><path style="stroke-width: 0.85 ;&st7;  " d=" M   747.88,   571.19  L   747.88,   588.19  " /><path style="stroke-width: 1.42 ;&st7;  " d=" M   747.88,   608.02  L   747.88,   591.02  " /><path style="stroke-width: 0.85 ;&st7;  " d=" M   747.88,   554.19  L   747.88,   558.44  " /><path style="stroke-width: 0.85 ;&st7;  " d=" M   747.88,   566.94  L   747.88,   571.19  " /><path style="stroke-width: 0.85 ;&st7;   " d=" M   757.79,   603.77  C   757.79    602.99    757.16    602.35    756.37    602.35  " /><path style="stroke-width: 0.85 ;&st7;   " d=" M   756.37,   602.35  C   755.59    602.35    754.96    602.99    754.96    603.77  " /><path style="stroke-width: 0.85 ;&st7;   " d=" M   754.96,   603.77  C   754.96    604.55    755.59    605.18    756.37    605.18  " /><path style="stroke-width: 0.85 ;&st7;   " d=" M   756.37,   605.18  C   757.16    605.18    757.79    604.55    757.79    603.77  " /><path style="stroke-width: 1.42 ;&st7;  " d=" M   713.88,   630.68  L   790.37,   630.68  L   790.37,   537.20  L   713.88,   537.20  L   713.88,   630.68  " /><path style="stroke-width: 0.85 ;&st7;  " d=" M   737.96,   603.77  L   730.88,   603.77  L   730.88,   630.68  " /><path style="stroke-width: 0.85 ;&st7;  " d=" M   757.79,   603.77  L   764.87,   603.77  L   764.87,   630.68  " /><path style="stroke-width: 0.85 ;&st7;  " d=" M   747.87,   537.20  L   747.87,   554.19  " /><text style="&st18;" transform="matrix(&st17;  772.51  611.29 )" ewd:textID="29">Door</text><text style="&st18;" transform="matrix(&st17;  727.18  608.85 )" ewd:textID="58">On</text><text style="&st18;" transform="matrix(&st16;  750.46  545.39 )">B</text><text style="&st18;" transform="matrix(&st16;  767.46  626.99 )">CTY</text><text style="&st18;" transform="matrix(&st16;  733.46  626.99 )">E</text><text style="&st18;" transform="matrix(&st17;  755.51  594.02 )">OFF</text><text style="&st18;" transform="matrix(&st16;  758.69  638.87 )">3</text><text style="&st18;" transform="matrix(&st16;  741.69  533.51 )">1</text><text style="&st18;" transform="matrix(&st16;  724.69  638.87 )">2</text><g ewd:figtype="title"><text style="&st18;" transform="matrix(&st17;  805.09  633.59 )" ewd:textID="44">No. 1 Room <tspan x="0 " dy="6.0">Light Assembly</tspan></text><text style="&st18;" transform="matrix(&st17;  798.26  633.58 )">Q1</text></g></g><g ewd:figtype="conn" ewd:figID="60" ewd:code="G33,G34"><g ewd:lineID="177"><text style="&st18;" transform="matrix(&st16;  751.55  83.07 )">ILE</text></g><g ewd:lineID="176"><text style="&st18;" transform="matrix(&st16;  993.74  83.07 )">DOMR</text></g></g><g ewd:figtype="jb" ewd:figID="76" ewd:code="2"><path style="stroke-width: 0.85 ;&st7;  " d=" M  1002.83,    86.77  L  1002.83,   120.77  " /><path style="stroke-width: 0.28 ;&st9;  " d=" M  1002.83,   115.87  L  1000.00,   113.04  L  1000.00,   117.29  L  1002.83,   120.12  L  1005.66,   117.29  L  1005.66,   113.04  L  1002.83,   115.87  " /><path style="stroke-width: 1.42 ;&st7;   " d=" M  1009.21,   125.01  C  1009.21    122.67   1007.30    120.77   1004.96    120.77  " /><path style="stroke-width: 1.42 ;&st7;   " d=" M  1004.96,   129.26  C  1007.30    129.26   1009.21    127.36   1009.21    125.01  " /><path style="stroke-width: 1.42 ;&st7;   " d=" M   996.46,   125.01  C   996.46    127.36    998.36    129.26   1000.71    129.26  " /><path style="stroke-width: 1.42 ;&st7;   " d=" M  1000.71,   120.77  C   998.36    120.77    996.46    122.67    996.46    125.01  " /><path style="stroke-width: 1.42 ;&st7;  " d=" M  1004.96,   129.26  L  1000.71,   129.26  " /><path style="stroke-width: 1.42 ;&st7;  " d=" M  1004.96,   120.77  L  1000.71,   120.77  " /><text style="&st18;" transform="matrix(&st16;  989.22  126.98 )">13</text><text style="&st18;" transform="matrix(&st16;  999.29  126.98 )">2P</text><text style="&st18;" transform="matrix(&st16;  993.55  94.96 )">13</text></g><g ewd:figtype="jb" ewd:figID="77" ewd:code="2"><path style="stroke-width: 0.85 ;&st7;  " d=" M   756.37,    86.77  L   756.37,   120.77  " /><path style="stroke-width: 0.28 ;&st9;  " d=" M   756.37,   115.87  L   753.54,   113.04  L   753.54,   117.29  L   756.37,   120.12  L   759.21,   117.29  L   759.21,   113.04  L   756.37,   115.87  " /><path style="stroke-width: 1.42 ;&st7;   " d=" M   754.25,   120.77  C   751.90    120.77    750.00    122.67    750.00    125.01  " /><path style="stroke-width: 1.42 ;&st7;   " d=" M   750.00,   125.01  C   750.00    127.36    751.90    129.26    754.25    129.26  " /><path style="stroke-width: 1.42 ;&st7;   " d=" M   758.50,   129.26  C   760.85    129.26    762.75    127.36    762.75    125.01  " /><path style="stroke-width: 1.42 ;&st7;   " d=" M   762.75,   125.01  C   762.75    122.67    760.85    120.77    758.50    120.77  " /><path style="stroke-width: 1.42 ;&st7;  " d=" M   758.50,   120.77  L   754.25,   120.77  " /><path style="stroke-width: 1.42 ;&st7;  " d=" M   758.50,   129.26  L   754.25,   129.26  " /><text style="&st18;" transform="matrix(&st16;  752.21  126.98 )">2Q</text><text style="&st18;" transform="matrix(&st16;  745.87  126.98 )">9</text><text style="&st18;" transform="matrix(&st16;  750.19  94.96 )">8</text></g><g ewd:figtype="w2w" ewd:figID="89" ewd:code="QG1"><path style="stroke-width: 1.42 ;&st7;  " d=" M   573.65,   205.18  L   577.90,   209.43  L   582.15,   205.18  " /><path style="stroke-width: 1.42 ;&st7;  " d=" M   582.15,   208.58  L   577.90,   212.83  L   573.65,   208.58  " /><text style="&st18;" transform="matrix(&st16;  565.27  220.47 )">1</text></g><g ewd:figtype="w2w" ewd:figID="90" ewd:code="QG1"><path style="stroke-width: 1.42 ;&st7;  " d=" M   667.14,   208.58  L   662.89,   212.83  L   658.64,   208.58  " /><path style="stroke-width: 1.42 ;&st7;  " d=" M   658.64,   205.18  L   662.89,   209.43  L   667.14,   205.18  " /><text style="&st18;" transform="matrix(&st16;  647.16  220.47 )">15</text></g><g ewd:figtype="w2w" ewd:figID="91" ewd:code="AG1"><path style="stroke-width: 1.42 ;&st7;  " d=" M   930.59,   248.81  L   926.34,   244.56  L   922.10,   248.81  " /><path style="stroke-width: 1.42 ;&st7;  " d=" M   930.59,   245.41  L   926.34,   241.16  L   922.10,   245.41  " /><text style="&st18;" transform="matrix(&st16;  913.71  237.47 )">9</text></g><g ewd:figtype="annex" ewd:figID="155" ewd:code=" "><path style="stroke-width: 1.42 ;&st7;   " d=" M   730.88,   690.17  C   728.67    688.35    725.53    688.41    723.39    690.31  " /><path style="stroke-width: 1.42 ;&st7;   " d=" M   730.88,   690.17  C   733.09    691.99    736.22    691.93    738.36    690.03  " /></g><g ewd:code="2" ewd:figID="158" ewd:comment="1" ewd:figtype="comment"><text style="&st18;" transform="matrix(&st16;  854.95  513.67 )" ewd:textID="1">* 2 :Except *1</text></g><g ewd:code="10" ewd:figID="205" ewd:comment="" ewd:figtype="comment"><text style="&st18;" transform="matrix(&st16;  854.95  590.16 )" ewd:textID="9">*10 :Bulb Type</text></g><g ewd:code="3" ewd:figID="157" ewd:comment="" ewd:figtype="comment"><text style="&st18;" transform="matrix(&st16;  854.95  522.17 )" ewd:textID="2">* 3 :w/ Map Light Assembly (Bulb Type) <tspan x="14.17" dy="8.5">w/ Microphone Amplifier</tspan></text></g><g ewd:code="5" ewd:figID="162" ewd:comment="" ewd:figtype="comment"><text style="&st18;" transform="matrix(&st16;  854.95  556.16 )" ewd:textID="4">* 5 :w/ Vanity Light Assembly</text></g><g ewd:code="1" ewd:figID="159" ewd:comment="" ewd:figtype="comment"><text style="&st18;" transform="matrix(&st16;  854.95  505.17 )">* 1 :1GD-FTV, 2GD-FTV</text></g><g ewd:code="9" ewd:figID="206" ewd:comment="" ewd:figtype="comment"><text style="&st18;" transform="matrix(&st16;  854.95  581.66 )" ewd:textID="8">* 9 :w/ Map Light Assembly (LED type)</text></g><g ewd:code="4" ewd:figID="156" ewd:comment="" ewd:figtype="comment"><text style="&st18;" transform="matrix(&st16;  854.95  539.16 )" ewd:textID="3">* 4 :w/ Map Light Assembly (Bulb Type) <tspan x="14.17" dy="8.5">w/o Microphone Amplifier</tspan></text></g><g ewd:code="7" ewd:figID="160" ewd:comment="" ewd:figtype="comment"><text style="&st18;" transform="matrix(&st16;  854.95  573.16 )" ewd:textID="6">* 7 :w/ Ignition Key Cylinder Light</text></g><g ewd:code="6" ewd:figID="161" ewd:comment="" ewd:figtype="comment"><text style="&st18;" transform="matrix(&st16;  854.95  564.66 )" ewd:textID="5">* 6 :w/o Vanity Light Assembly</text></g></svg>