﻿<?xml version="1.0"?>
<!-- Generator: Adobe Illustrator 10.0, SVG Export Plug-In . SVG Version: 3.0.0 Build 77)  -->
<!DOCTYPE svg PUBLIC "-//W3C//DTD SVG 1.0//EN" "http://www.w3.org/TR/2001/REC-SVG-20010904/DTD/svg10.dtd"[
	<!ENTITY ns_flows "http://ns.adobe.com/Flows/1.0/">
	<!ENTITY ns_svg "http://www.w3.org/2000/svg">
	<!ENTITY ns_xlink "http://www.w3.org/1999/xlink">
	<!ENTITY st0 "fill:none;stroke:#000000;stroke-width:0.175;stroke-linecap:round;">
	<!ENTITY st1 "fill:none;stroke:#000000;stroke-width:0.245;stroke-linecap:round;stroke-linejoin:round;">
	<!ENTITY st2 "fill:#B2B2B2;">
	<!ENTITY st3 "fill:none;stroke:#000000;stroke-width:0.5;">
	<!ENTITY st4 "fill:none;stroke:#FFFFFF;stroke-width:2;">
	<!ENTITY st5 "fill:#B2B2B2;stroke:#000000;stroke-width:0.35;">
	<!ENTITY st6 "fill:none;stroke:#000000;stroke-width:0.35;stroke-linecap:round;stroke-linejoin:round;">
	<!ENTITY st7 "font-family:'Arial';">
	<!ENTITY st8 "fill:none;stroke:#FFFFFF;stroke-width:0.525;stroke-linecap:round;">
	<!ENTITY st9 "font-size:10px;">
	<!ENTITY st10 "fill:none;stroke:#FFFFFF;stroke-width:0.2;">
	<!ENTITY st11 "fill:none;stroke:#000000;stroke-width:0.175;stroke-linecap:round;stroke-linejoin:round;">
	<!ENTITY st12 "fill:#FFFFFF;stroke:#000000;stroke-width:0.35;stroke-linecap:round;stroke-linejoin:round;">
	<!ATTLIST svg
		xmlns:ewd CDATA #FIXED "http://shcl.co.jp/ewd"
		xmlns:a CDATA #FIXED "http://ns.adobe.com/AdobeSVGViewerExtensions/3.0/"
		ewd:ver CDATA #IMPLIED>
	<!ATTLIST a
		ewd:innerGroupID CDATA #IMPLIED
		ewd:figtype CDATA #IMPLIED
		ewd:code CDATA #IMPLIED
		ewd:pinNo CDATA #IMPLIED>
]>
<svg width="518.94" height="312.01" viewBox="0 0 518.94 312.01" style="overflow:visible;enable-background:new 0 0 518.94 312.01" xml:space="preserve" onload="call_execInitLoadProc_svg('location')" ewd:ver="2.1.2.9" xmlns="&ns_svg;" xmlns:ewd="http://shcl.co.jp/ewd" xmlns:a="http://ns.adobe.com/AdobeSVGViewerExtensions/3.0/" xmlns:xlink="&ns_xlink;">
<script type="text/javascript" xlink:href="../../../../../system/js/ewd/fig/svgfig.js"/>
<g id="台紙">
	<path style="&st10;" d="M518.84,311.911V0.1H0.1v311.811H518.84z"/>
	<g>
	</g>
</g>
<g id="細線">
	<path style="&st5;" d="M250.403,71.608c-0.005,0.009-0.567,0.896-1.17,1.561c-1.104,1.219-0.689,2.262-0.356,3.101    c0.303,0.763,0.454,1.225,0.021,1.854c-0.165,0.239-0.104,0.566,0.135,0.73c0.239,0.165,0.565,0.104,0.73-0.135    c0.771-1.121,0.393-2.072,0.089-2.837c-0.305-0.767-0.506-1.274,0.158-2.008c0.666-0.734,1.256-1.667,1.28-1.706    c0.155-0.245,0.081-0.569-0.164-0.724S250.558,71.363,250.403,71.608z"/>
	<g>
		<g>
			<path style="&st12;" d="M251.77,73.18l1.286-1.52l-0.59-1.585l-1.537,0.295l-1.307,1.513l0.559,1.593L251.77,73.18z"/>
			<path style="&st11;" d="M250.16,73.473l1.285-1.518l-0.538-1.563"/>
			<path style="&st11;" d="M251.486,71.963l1.601-0.299"/>
		</g>
	</g>
	<path style="&st5;" d="M251.082,75.367c-0.497,0.621-1.595,2.461-1.642,2.54c-0.042,0.074-0.204,0.144-0.429,0.144    c0,0-1.665-0.04-1.666-0.04c-0.557,0-1.065,0.123-1.57,0.375l-0.247,0.125c-0.527,0.269-1.41,0.72-2.336,1.05l-17.709,5.757    c-0.018,0.006-0.036,0.013-0.053,0.021c-0.499,0.225-0.57,0.614-0.578,0.771c0,0.013-0.001,0.027-0.001,0.04    c0,0.449,0.358,0.814,0.672,0.994c0.191,0.109,0.669,0.524,0.983,0.815c-0.228-0.063-0.518-0.186-0.773-0.302l-0.422-0.188    c-0.564-0.237-1.557-0.266-2.167-0.063c-0.379,0.094-10.18,2.567-10.957,2.782c-1.071,0.296-1.924,1.065-2.366,1.686l-1.057,1.548    c-1.166,1.748-2.009,3.01-3.172,3.133c-0.838,0.088-1.807-0.149-2.468-0.604c-0.702-0.482-1.497-0.755-2.431-0.833    c-0.604-0.05-4.865,0.038-5.349,0.048c-1.673,0-2.272,1.013-3.031,2.296l-0.082,0.138c-0.561,0.947-1.059,2.717-0.347,3.51    c0.217,0.241,0.722,0.583,1.66,0.154c0.264-0.12,0.38-0.432,0.259-0.696s-0.432-0.379-0.696-0.259    c-0.284,0.13-0.425,0.118-0.442,0.099c-0.204-0.227-0.072-1.359,0.469-2.273l0.082-0.139c0.782-1.323,1.105-1.781,2.138-1.781    c1.889-0.04,4.835-0.086,5.25-0.051c0.476,0.04,1.194,0.15,1.923,0.651c0.868,0.597,2.084,0.897,3.172,0.782    c1.653-0.174,2.66-1.683,3.936-3.594l1.039-1.522c0.322-0.453,0.984-1.06,1.79-1.283c0.766-0.211,10.87-2.762,10.972-2.788    c0.442-0.146,1.161-0.105,1.465,0.023l0.395,0.175c0.397,0.181,0.808,0.369,1.142,0.424c0.498,0.083,0.941-0.147,1.129-0.587    c0.189-0.442,0.053-0.953-0.332-1.242c0.015,0.012,0.03,0.024,0.044,0.037c-0.139-0.13-0.844-0.784-1.227-1.006    c0.43-0.14,17.477-5.683,17.477-5.683c1.004-0.358,1.924-0.829,2.474-1.109l0.239-0.122c0.356-0.178,0.711-0.265,1.085-0.265    c0.001,0,1.68,0.04,1.68,0.04c0.599,0,1.099-0.249,1.336-0.665c0.006-0.01,1.102-1.848,1.555-2.413    c0.181-0.227,0.144-0.557-0.082-0.738C251.593,75.104,251.263,75.14,251.082,75.367z"/>
	<g>
		<g>
			<path style="&st12;" d="M252.829,76.287l0.723-0.848l-0.853-2.521l-1.576,0.303l-0.745,0.842l0.82,2.528L252.829,76.287z"/>
			<path style="&st11;" d="M251.179,76.587l0.722-0.847l-0.799-2.498"/>
			<path style="&st11;" d="M251.943,75.749l1.642-0.307"/>
		</g>
		<g>
			<path style="&st12;" d="M253.617,75.377l0.724-0.848l-0.852-2.521l-1.576,0.303l-0.746,0.842l0.821,2.528L253.617,75.377z"/>
			<path style="&st11;" d="M251.966,75.678l0.723-0.847l-0.8-2.498"/>
			<path style="&st11;" d="M252.73,74.839l1.643-0.307"/>
		</g>
	</g>
	<g>
		<g>
			<path style="&st12;" d="M195.148,101.901l0.997-0.54l-0.593-2.582l-1.497,0.207l-1.021,0.529l0.555,2.583L195.148,101.901z"/>
			<path style="&st11;" d="M193.565,102.091l0.995-0.539l-0.536-2.544"/>
			<path style="&st11;" d="M194.607,101.57l1.576-0.199"/>
		</g>
		<g>
			<path style="&st12;" d="M196.133,101.368l0.997-0.54l-0.593-2.582l-1.497,0.207l-1.021,0.529l0.555,2.584L196.133,101.368z"/>
			<path style="&st11;" d="M194.55,101.557l0.995-0.539l-0.536-2.544"/>
			<path style="&st11;" d="M195.592,101.036l1.576-0.199"/>
		</g>
	</g>
	<path style="&st5;" d="M206.557,89.307c-0.078,0.185-0.108,0.362-0.108,0.528c0,0.531,0.317,0.948,0.441,1.111    c0.007,0.01,0.034,0.04,0.042,0.048l0.579,0.661l0.032,0.053c-0.025,0.032-0.248,0.222-0.732,0.358    c-0.008,0-9.12,1.828-9.12,1.828c-0.506,0.101-1.239,0.706-1.239,1.536c0,0.052-0.013,0.937-0.013,1.68    c0,0.396,0.003,0.752,0.014,0.919c0.003,0.041,0.004,0.083,0.004,0.127c0,0.429-0.121,0.977-0.351,1.014    c-0.258,0.042-0.442,0.265-0.442,0.518c0,0.027,0.002,0.055,0.007,0.083c0.046,0.286,0.315,0.481,0.602,0.435    c0.979-0.156,1.234-1.275,1.234-2.041c0-0.071-0.002-0.139-0.006-0.202c-0.009-0.141-0.012-0.461-0.012-0.835    c0-0.599,0.008-1.335,0.013-1.691c0-0.269,0.297-0.489,0.396-0.514l9.157-1.837c0.486-0.135,1.271-0.44,1.484-1.077    c0.034-0.103,0.051-0.208,0.051-0.313c0-0.232-0.083-0.464-0.245-0.677c0,0-0.551-0.63-0.623-0.712    c-0.181-0.239-0.227-0.381-0.227-0.473c0-0.054,0.016-0.091,0.028-0.121c0.028-0.066,0.042-0.135,0.042-0.204    c0-0.205-0.121-0.399-0.322-0.484C206.978,88.914,206.669,89.039,206.557,89.307z"/>
	<g>
		<path style="&st12;" d="M205.99,89.055v0.235c0,0.177,0,0.275,0.118,0.294l0.765,0.333c0.235,0.118,0.549,0.118,0.647,0.079     c0.098-0.04,0.785-0.255,0.785-0.255c0.157-0.039,0.255-0.157,0.255-0.294c0-0.137,0-1.099,0-1.099"/>
		<path style="&st12;" d="M205.134,88.822l0.453,0.196c0.15,0.064,0.494,0.064,0.73,0l7.188-2.146     c0.129-0.022,0.236-0.172,0.236-0.279c0,0,0-0.558,0-0.644c0-0.085-0.064-0.236-0.193-0.257l-4.034-1.395     c-0.322-0.107-0.794-0.128-1.052-0.021c0,0-6.802,1.695-6.952,1.717c-0.15,0.022-0.3,0.279-0.3,0.408c0,0,0,0.451,0,0.579     c0,0.129,0.107,0.129,0.257,0.258l0.742,0.32v1.525l0.975,0.451L205.134,88.822z"/>
		<path style="&st11;" d="M202.23,87.493l2.925,1.265"/>
		<path style="&st11;" d="M201.831,86.443l3.863,1.652c0.171,0.043,0.3,0.279,0.3,0.429v0.15"/>
		<path style="&st11;" d="M210.105,85.344l3.077,1.099"/>
		<path style="&st11;" d="M202.389,86.636l2.925-0.747"/>
		<path style="&st11;" d="M205.122,87.122l1.988,0.952c0.15,0.064,0.287,0.14,0.458,0.14c0.086,0,0.539,0.013,0.539,0.013"/>
		<path style="&st6;" d="M205.029,86.859v-0.288c0-0.15,0.051-0.278,0.093-0.343l0.25-0.408c0.066-0.118,0.263-0.184,0.263-0.184     l2.905-0.736c0.145-0.026,0.289-0.013,0.381,0.013c0.092,0.027,0.749,0.29,0.749,0.29c0.197,0.066,0.35,0.185,0.394,0.224     l0.527,0.526l1.038,0.381c0.145,0.065,0.224,0.197,0.224,0.276c0,0.079,0,0.447,0,0.447"/>
		<path style="&st11;" d="M205.845,85.847l0.447,0.171c0.184,0.092,0.446,0,0.525-0.013s2.524-0.657,2.524-0.657"/>
		<path style="&st11;" d="M205.254,86.544l1.265,0.602l0.32,0.234l0.532,0.268c0.145,0.066,0.223,0.053,0.223,0.053l0.5,0.026     c0.131,0,0.421-0.052,0.525-0.092c0.105-0.04,2.618-0.779,2.618-0.779c0.087-0.016,0.17-0.099,0.222-0.162"/>
		<path style="&st11;" d="M207.06,87.048l3.125-0.875"/>
		<path style="&st11;" d="M203.191,87.958v1.109"/>
	</g>
	<path style="&st5;" d="M205.139,96.95c-0.07,0.282,0.101,0.566,0.382,0.636l0.122,0.03c1.427,0.354,3.381,0.838,3.192,5.113    c-0.122,2.758-0.514,2.902-0.768,2.981c-0.471,0.147-1.081-0.099-1.68-0.887c-1.394-1.834-1.342-2.563-1.255-2.791    c0.087-0.227,0.373-0.389,0.851-0.482c0.285-0.055,0.471-0.33,0.416-0.615c-0.055-0.284-0.331-0.47-0.615-0.416    c-0.858,0.166-1.408,0.549-1.633,1.138c-0.339,0.889,0.105,2.097,1.4,3.801c0.9,1.185,1.897,1.545,2.829,1.254    c0.815-0.255,1.368-0.872,1.504-3.938c0.227-5.133-2.515-5.813-3.988-6.178l-0.12-0.03    C205.495,96.498,205.209,96.669,205.139,96.95z"/>
	<path style="&st5;" d="M205.027,96.702c-0.515,0.193-3.038,1.387-3.038,6.193c0,0.097,0.001,0.196,0.003,0.297    c0.006,0.282,0.008,0.542,0.008,0.78c0,1.766-0.148,2.357-0.243,2.559c-0.083-0.054-0.229-0.168-0.471-0.445    c-0.604-0.69-1.651-2.089-1.651-3.54c0-0.302,0.037-0.591,0.122-0.856c0.229-0.717,0.774-1.169,1.667-1.382    c0.241-0.057,0.403-0.272,0.403-0.51c0-0.041-0.005-0.081-0.015-0.122c-0.067-0.282-0.35-0.456-0.632-0.389    c-1.574,0.375-2.187,1.34-2.424,2.084c-0.656,2.055,0.875,4.418,1.739,5.407c0.279,0.319,0.933,1.065,1.638,0.792    c0.732-0.284,0.97-1.435,0.908-4.399c-0.071-3.37,1.224-5.061,2.354-5.484c0.271-0.102,0.409-0.404,0.307-0.676    C205.601,96.737,205.298,96.6,205.027,96.702z"/>
	<g>
		<path style="&st12;" d="M207.05,99.955l-1.902,0.529l0.325,1.481l1.586-0.169l1.927-0.517l-0.285-1.482L207.05,99.955z"/>
		<path style="&st11;" d="M208.727,99.807l-1.9,0.528l0.267,1.439"/>
		<path style="&st11;" d="M206.777,100.314l-1.668,0.158"/>
	</g>
	<path style="&st2;" d="M204.413,96.642c0.798,0.174,1.646-0.025,2.02-0.175l0.399,0.125l-0.548,0.973l-0.624-0.125    c0,0-0.349,0.1-0.624,0.175l-0.574-0.05l-0.499-0.623L204.413,96.642z"/>
	<path style="&st5;" d="M261.609,62.134c-1.932,2.024-6.585,7.78-8.697,10.893c-0.163,0.24-0.1,0.566,0.14,0.729    c0.24,0.163,0.566,0.101,0.729-0.14c2.086-3.076,6.681-8.76,8.587-10.757c1.705-1.787,1.845-1.933,6.777-1.763l2.355,0.011    c3.745-0.045,6.704-0.081,15.549,4.823c3.734,2.25,19.875,9.354,35.862,15.479c12.305,4.714,23.601,9.209,26.282,10.356    c6.518,2.789,12.419,5.628,18.649,12.142l1.723,1.878c2.385,2.578,3.96,4.281,5.628,7.692l1.674,3.313    c0.756,1.463,1.303,2.52,1.799,3.806c0.104,0.271,0.408,0.405,0.68,0.3c0.27-0.104,0.404-0.409,0.3-0.679    c-0.517-1.339-1.074-2.417-1.846-3.909l-1.663-3.292c-1.735-3.55-3.353-5.298-5.801-7.944l-1.724-1.88    c-6.378-6.668-12.381-9.557-19.006-12.393c-2.689-1.151-14.003-5.653-26.32-10.372c-15.937-6.105-31.998-13.17-35.711-15.407    c-9.105-5.048-12.341-5.009-16.087-4.964l-2.308-0.011C264.132,59.873,263.637,60.009,261.609,62.134z"/>
	<g>
		<g>
			<path style="&st12;" d="M380.689,122.992l0.966-1.655l-0.806-1.688l-1.572-0.229l-1.274,1.614l0.807,1.692L380.689,122.992z"/>
			<path style="&st1;" d="M381.655,121.337l-1.571-0.228"/>
			<path style="&st11;" d="M378.809,122.726l1.274-1.617l-0.807-1.689"/>
		</g>
	</g>
	<g>
		<g>
			<path style="&st12;" d="M381.233,124.656l1.274-1.617l-0.806-1.688l-1.572-0.23l-1.276,1.614l0.808,1.693L381.233,124.656z"/>
			<path style="&st11;" d="M382.507,123.04l-1.571-0.228"/>
			<path style="&st11;" d="M379.661,124.428l1.275-1.617l-0.807-1.69"/>
		</g>
	</g>
	<path style="&st5;" d="M355.094,97.499c-1.303,0.13-12.861,1.34-17.284,3.675c-1.912,1.01-2.947,1.955-3.777,2.714    c-1.002,0.915-1.664,1.52-3.313,1.844c-1.187,0.233-2.034,0.087-2.519-0.435c-0.662-0.711-0.723-2.221-0.169-4.25    c0.076-0.28-0.089-0.568-0.368-0.645c-0.28-0.076-0.568,0.089-0.645,0.369c-0.672,2.461-0.533,4.225,0.412,5.241    c0.749,0.805,1.924,1.057,3.491,0.75c1.937-0.38,2.809-1.177,3.817-2.099c0.827-0.756,1.766-1.613,3.56-2.56    c4.247-2.242,15.616-3.431,16.898-3.559c3.339-0.334,4.447,0.195,6.526,2.189c0.881,0.845,2.102,2.292,3.516,3.968    c1.96,2.324,4.4,5.217,6.868,7.582c1.928,1.847,3.268,2.711,4.45,3.474c1.407,0.907,2.518,1.624,4.146,3.718    c2.251,2.894,3.358,5.046,3.702,7.198c0.265,1.656-0.216,2.519-0.442,2.566c-0.089,0.019-0.428-0.231-0.676-1.165l-0.223-0.875    c-0.296-1.191-0.475-1.91-1.4-3.577c-0.141-0.253-0.46-0.345-0.714-0.204c-0.254,0.141-0.345,0.46-0.204,0.714    c0.858,1.545,1.015,2.176,1.3,3.32l0.227,0.891c0.543,2.044,1.598,1.988,1.908,1.922c1.044-0.222,1.574-1.802,1.262-3.759    c-0.374-2.338-1.544-4.634-3.91-7.677c-1.739-2.235-2.976-3.032-4.406-3.956c-1.144-0.737-2.438-1.572-4.293-3.349    c-2.428-2.327-4.848-5.196-6.793-7.501c-1.432-1.698-2.669-3.165-3.591-4.048C360.214,97.829,358.766,97.132,355.094,97.499z"/>
	<path style="&st12;" d="M332.98,102.469c-0.524-0.627-0.812-1.37-0.831-2.216c0,0-0.007-0.438-0.007-1.05    c0-0.612,0.065-1.137-0.416-1.291c0,0-0.634-0.328-2.056-0.81c-1.422-0.481-2.473-0.262-3.719,0.219l-3.106,1.094    c-0.875,0.263-1.339,1.124-0.591,1.772c1.641,1.422,6.104,2.974,7.722,3.507c0.686,0.226,1.079,0.226,1.371,0.233    c0.598,0.015,1.386-0.117,1.779-0.408C333.505,103.198,333.331,102.907,332.98,102.469z"/>
	<path style="&st5;" d="M204.197,97.972c-1.199,1.687-1.265,4.31-0.717,6.371c0.621,2.335,1.937,3.852,3.434,3.958    c1.064,0.076,1.901-0.167,2.489-0.721c1.132-1.068,1.107-3.022,1.083-4.913c-0.036-2.799,0.115-4.123,1.643-4.166    c0.29-0.008,0.518-0.25,0.51-0.54c-0.008-0.29-0.25-0.518-0.54-0.51c-2.729,0.077-2.693,2.934-2.664,5.229    c0.021,1.664,0.043,3.383-0.753,4.135c-0.371,0.349-0.924,0.492-1.693,0.437c-1.021-0.073-2-1.321-2.494-3.181    c-0.6-2.257-0.344-5.122,1.306-6.229c0,0,0.349-0.261,0.582-0.334"/>
	<g>
		<path style="&st12;" d="M213.073,96.819l-1.902,0.529l0.325,1.481l1.586-0.169l1.927-0.517l-0.285-1.481L213.073,96.819z"/>
		<path style="&st11;" d="M214.75,96.671l-1.9,0.528l0.267,1.439"/>
		<path style="&st11;" d="M212.8,97.179l-1.669,0.158"/>
	</g>
	<g>
		<path style="&st12;" d="M202.31,98.619l-1.902,0.529l0.325,1.481l1.586-0.169l1.927-0.517l-0.285-1.482L202.31,98.619z"/>
		<path style="&st11;" d="M203.986,98.471l-1.9,0.528l0.267,1.439"/>
		<path style="&st11;" d="M202.037,98.979l-1.669,0.158"/>
	</g>
	<path style="&st2;" d="M203.903,97.89l0.394,0.292l1.08-0.219c0.327-0.364,0.7-0.496,1.313-0.219    c0.277-0.758-0.117-0.773-0.117-0.773l-1.385,0.058l-0.962,0.481L203.903,97.89z"/>
	<path style="&st2;" d="M248.787,78.225c0.394-0.011,0.416-0.219,0.536-0.624c0.35-0.711,0.602-0.952,0.602-0.952    c0.131,0.307,0.372,0.219,0.514-0.011c0.043,0.47-0.175,1.006-0.175,1.006l-0.93,0.918L248.787,78.225z"/>
	<path style="&st8;" d="M256.439,224.542c-3.301-11.845-10.638-20.148-16.389-18.546c-5.75,1.603-7.735,12.504-4.434,24.349    s10.639,20.148,16.388,18.546C257.755,247.29,259.74,236.387,256.439,224.542z"/>
	<path style="&st8;" d="M250.439,260.245c1.862,0.613,3.696,0.714,5.436,0.229c4.734-1.318,7.819-6.711,8.901-14.229"/>
	<path style="&st8;" d="M254.242,204.159c-5.244-7.493-11.503-11.571-16.869-10.077c-0.969,0.271-1.869,0.711-2.697,1.306"/>
	<path style="&st8;" d="M248.333,190.261c-1.393,0.244-2.843,0.57-4.319,0.98c-3.083,0.855-7.09,2.499-9.338,4.146    c-6.775,4.867-8.719,20.044-4.166,36.382c4.013,14.397,11.878,25.415,19.381,28.28c3.48,1.417,8.738,0.793,15.421-1.257    c6.685-2.05,8.688-3.888,10.449-5.82c1.382-1.546,2.488-3.617,3.298-6.093"/>
	<path style="&st8;" d="M371.083,227.615c0.918-0.211,1.899-0.457,2.957-0.737c7.675-2.031,9.832-4.411,11.853-6.344"/>
	<path style="&st8;" d="M137.597,156.699c-2.627-10.538-8.36-18.182-12.806-17.073c-4.446,1.108-5.921,10.549-3.294,21.087    c2.627,10.537,8.36,18.181,12.806,17.073S140.224,167.236,137.597,156.699z"/>
	<path style="&st8;" d="M132.553,187.293c1.744,0.965,3.466,1.304,5.08,0.901c3.579-0.893,5.919-5.258,6.778-11.535"/>
	<path style="&st8;" d="M135.151,137.195c-3.929-5.98-8.432-9.29-12.306-8.325c-0.979,0.244-1.866,0.748-2.655,1.48"/>
	<path style="&st8;" d="M158.678,173.699c-0.701,4.306-2.143,7.612-4.237,9.361c-2.615,2.111-3.84,2.986-8.915,4.387    c-3.162,0.872-8.663,2.1-11.947,0.342c-6.03-2.485-12.537-12.825-15.855-26.135c-3.505-14.062-2.313-26.867,2.466-31.303    c2.586-2.229,5.918-3.308,9.586-4.155"/>
	<path style="&st8;" d="M112.017,124.809c0.405-1.101,0.886-1.958,1.396-2.725c1.225-1.837,2.625-2.45,4.813-2.013    s7.263,2.888,9.8,4.55s5.337,5.075,7.788,11.987c2.45,6.913,4.9,14.087,6.825,19.513c1.925,5.425,4.288,9.362,6.125,9.362    s5.337,0.7,6.563,1.4c1.225,0.699,56.509,32.351,59.587,34.125c5.163,2.975,8.225,5.074,10.238,8.925    c1.4,1.356,1.881,1.399,2.887,1.399"/>
	<path style="&st8;" d="M115.689,145.49c-1.313-0.7-3.194-2.1-4.463-7.044c-1.313-2.188-2.275-3.938-3.938-9.625    c-1.662-5.688-2.056-16.406-1.4-21.043c0.656-4.638,2.275-5.95,3.85-7.525c0.175-2.057,1.444-7.175,4.506-9.538    c0.394-1.225,1.487-2.669,3.762-3.85c2.275-1.181,7.088-3.106,8.094-3.85c1.006-0.744,1.313-1.4,2.538-2.144    s14.525-5.381,26.863-7.525c12.337-2.144,15.619-2.538,20.344-2.844c4.725-0.307,10.894-1.225,13.693-1.4    c2.8-0.175,5.292-0.137,7.481-0.043c3.063,0.131,4.375,0.35,5.337,0.394"/>
	<path style="&st8;" d="M155.808,95.659c-0.135-1.754-0.481-2.494-1.181-2.625c-0.7-0.131-2.756-0.307-4.682,0.875    c-1.925,1.181-6.256,4.637-7.087,5.556c-0.831,0.918-1.094,2.1-1.094,2.538s0.306,0.787,0.306,0.918s-0.219,0.569-0.131,1.531    c0.087,0.962,0.438,1.444,0.438,1.444s-0.088,1.006,0.175,1.356c0.263,0.35,1.969,1.706,2.712,2.056s1.313,0.569,1.75,0.612    c0.438,0.044,1.05,0.175,1.794,0c0.744-0.175,3.587-1.313,4.506-1.793c0.918-0.481,1.837-1.663,2.144-3.588    C155.764,102.615,155.982,97.934,155.808,95.659z"/>
	<path style="&st8;" d="M148.458,109.265c-0.612,0.087-2.625-1.094-2.756-1.925c-0.131-0.832-0.043-2.975,0.087-4.332    c0.131-1.356,0.832-3.063,2.1-4.418c1.269-1.356,4.419-3.631,5.513-4.462c1.094-0.832,1.356-0.35,1.619,0.306"/>
	<path style="&st8;" d="M147.495,108.959c0.831,0,3.938-1.138,4.813-1.575s1.619-1.4,1.881-2.844    c0.262-1.443,0.525-6.387,0.043-8.881c-0.208-1.082-0.569-1.356-0.962-1.356"/>
	<path style="&st8;" d="M152.92,92.903c3.587-2.844,15.575-10.938,20.869-13.913c5.294-2.975,11.506-4.813,13.432-5.25l2.931-0.744    c0,0,3.019-0.875,4.9-1.444s19.075-5.381,33.644-8.05c14.569-2.669,26.119-4.2,34.693-4.944l3.238-0.306    c1.443-0.394,4.55-0.613,6.737-0.481s6.432,0.744,10.5,2.013C297.802,64.13,349.1,84.118,377.97,99.29    c0,0,10.019,5.381,10.412,5.775c0.394,0.394,0.394,0.7,0.351,1.006c-0.044,0.307-0.132,1.138-0.132,1.138    c0,0.394-0.219,0.744-0.481,1.094c-0.117,0.157-0.927,1.035-1.618,1.4c-3.981,2.1-17.588,5.469-18.375,5.775    c-0.788,0.307-1.007,0.525-1.575,0.788c-0.568,0.263-2.188,1.138-2.669,1.313c-0.481,0.175-1.138,0.438-1.575,0.306    c-0.438-0.131-2.1-0.394-2.1-0.394"/>
	<path style="&st8;" d="M183.458,74.878c4.55-1.531,9.181-2.684,20.169,1.269c22.137,7.962,60.463,24.675,92.531,40.775    c0.117,0.059,0.438,0.481,0.438,0.481"/>
	<path style="&st8;" d="M362.92,117.053c0,0-0.044-0.306-0.481-0.131c-0.438,0.175-15.531,3.5-16.45,3.763    c-0.919,0.262-1.225,0.525-1.443,0.788c-0.219,0.262-0.919,1.05-1.27,1.05c-0.35,0-3.806-0.044-4.987,0.087    c-1.181,0.131-14.263,2.888-17.675,3.325s-10.5,1.094-13.693,1.487c-3.194,0.394-5.731,1.269-7.481,1.881s-4.9,2.1-5.119,2.275    c-0.219,0.175-0.612,0.219-1.225,0.175c-0.612-0.044-3.763-0.394-4.112-0.525c-0.351-0.131-0.613-0.262-0.569-1.006    c0.044-0.744,2.275-8.4,2.538-8.925c0.262-0.525,0.524-1.006,1.313-1.706c0.787-0.7,3.938-2.144,3.938-2.144l1.181,0.088    l1.925-0.788c2.101,0.394,5.207,0.918,10.5-0.306c5.294-1.225,18.437-4.838,31.807-7.919c14.175-3.267,27.475-5.6,29.575-6.081    c2.1-0.481,3.325-1.05,1.269-2.188v-0.175l1.838-0.087c0,0,0.306-0.35,0.524-0.394c0.219-0.044,2.538-0.175,3.5-0.088"/>
	<path style="&st8;" d="M299.307,116.747c0,0,0.161-0.233,0.452-0.35c0.292-0.117,1.459-0.612,2.45-0.933    c0.992-0.321,2.217-1.167,2.654-1.517c0.438-0.35,0.787-0.642,1.079-0.758s4.695-1.429,4.987-1.458    c0.292-0.029,0.963-0.058,1.167-0.058s1.821,0.032,3.5-0.438c6.154-1.721,12.95-3.208,21.088-5.133    c8.137-1.925,16.333-3.413,20.736-4.316c1.302-0.268,2.83-0.904,3.354-1.196c0.525-0.292,0.846-0.496,1.458-0.613    c0.613-0.117,3.092-0.379,3.588-0.408s0.904,0.117,1.255,0.175c0.35,0.059,1.254,0.554,1.837,0.554s2.829-0.292,3.033-0.292    s0.487,0.234,0.487,0.234"/>
	<path style="&st8;" d="M265.08,58.472c3.56-0.117,7.808,0.501,13.009,1.925c15.342,4.2,66.325,24.967,92.458,39.2    c0.257,0.139,0.117,0.466,0.117,0.466"/>
	<path style="&st8;" d="M404.22,139.409c2.493,1.094,4.156,2.494,4.506,2.887c0.351,0.394,0.513,0.768,0.7,1.444    c0.219,0.788,0.656,5.337,0.481,7.831c-0.831,1.4-1.356,3.325-1.487,4.069c0,0,1.225,4.069,1.269,5.294    c0.044,1.226-0.351,6.3-0.351,8.399c0,2.101,0.351,4.288,1.313,5.95c0.963,1.663,2.976,4.156,3.457,5.075    c0.48,0.919,0.581,1.521,0.524,2.231c-0.087,1.094-0.175,8.881-1.969,14.962c-0.306,2.669-1.313,5.95-2.188,7.481    s-3.368,4.769-5.425,6.125c0,0,0.131,0.394-0.088,0.612s-3.324,2.582-6.781,4.069c-3.456,1.487-20.737,7.919-33.818,11.813    s-35.088,8.969-39.856,9.625s-12.818,1.662-13.606,1.531c-0.787-0.132-0.524-0.307-0.524-0.307    c-1.531,0.132-9.362,0.307-12.031,0.263s-6.169-0.044-8.575-0.525c-2.406-0.48-16.057-4.55-17.675-4.899    c-1.05-0.132-2.844-0.263-2.844-0.263c-1.226-0.131-2.45-0.612-4.594-5.818c-2.145-5.207-5.031-15.4-7-21.525    s-4.069-11.156-8.619-14.875c-4.55-3.719-10.587-6.344-13.737-7.131c-4.9-1.226-6.65,0.524-8.575,3.324    c-0.568,0.826-1.166,1.953-1.71,3.28"/>
	<path style="&st8;" d="M260.283,214.747c-0.263,0.306-0.263,1.094-0.088,1.575c0.175,0.48,1.925,7.787,2.713,10.675    c0.787,2.888,3.631,16.625,4.331,18.856c0.7,2.23,1.706,3.063,3.938,2.844s11.769-2.976,13.693-3.544    c1.926-0.569,3.807-2.319,4.332-6.913"/>
	<path style="&st8;" d="M224.976,209.759c-1.269-2.625-3.106-7.351-2.887-11.944s1.313-10.5,3.85-14.306    c2.537-3.807,4.506-4.9,8.793-4.025s11.419,4.287,15.181,7.525c3.763,3.237,7.154,7.416,9.756,14.875    c1.313,3.762,3.544,11.375,5.25,16.668c1.707,5.294,4.9,14.044,6.782,14.744"/>
	<path style="&st8;" d="M236.57,180.009c0-1.138,0.35-5.382,0.525-7.263c0.175-1.882,3.412-17.894,4.244-19.513    c0.831-1.619,2.188-4.112,3.106-5.512c0.919-1.4,1.707-3.238,2.1-5.25c0.394-2.013,0.656-3.719,0.656-3.938    s0.305-1.371,0.305-1.371l0.28-0.28l-7.891-34.705l-0.875-0.525l-0.263-0.35l-0.262-1.356c-0.35-1.793-1.444-3.675-3.106-4.506    c-1.663-0.832-19.163-8.838-26.688-11.9c-6.939-2.824-14.744-5.425-20.038-5.994c-6.676-0.717-9.712,0.481-14.656,3.019    c-4.943,2.537-12.994,8.225-18.462,13.431"/>
	<path style="&st8;" d="M114.595,89.928c-0.35,0.569-0.07,0.883,0.918,1.4c4.856,2.538,11.856,4.988,14.832,5.906    c2.975,0.919,4.681,0.131,6.168-0.306c1.488-0.438,6.038-2.669,13.781-3.194"/>
	<path style="&st8;" d="M149.901,93.734c0.087-0.875,2.188-2.1,6.694-3.675"/>
	<path style="&st8;" d="M109.695,100.428c0.788,0,4.594-1.269,7.175-1.969c2.581-0.7,4.856-1.837,6.431-2.888    c0.257-0.171,0.263-0.568,0.263-0.568"/>
	<path style="&st8;" d="M110.701,100.34c-0.744,0.962-1.094,3.237-0.656,6.563c0.438,3.325,2.8,10.106,2.975,10.587    s0.306,0.962,0.306,0.962s0.044,1.488,0.044,1.707s0.525,1.356,0.525,1.356l2.581-0.043"/>
	<path style="&st8;" d="M111.226,138.446c-1.181-4.725-1.094-15.619,1.881-19.731c2.02-2.792,3.274-2.728,6.388-2.013    c3.237,0.744,7.964,3.487,11.856,6.65c3.5,2.844,6.41,8.076,8.356,13.781c1.925,5.644,5.819,18.025,7.044,21.525    c1.225,3.5,2.887,6.737,3.456,6.913"/>
	<path style="&st8;" d="M147.276,109.965c-0.394,1.793-1.896,7.966-2.013,9.756c-0.219,3.369,0.613,28.175,4.506,39.112    c0.965,2.711,1.75,3.062,3.675,4.244c1.925,1.182,50.794,28.963,56.875,32.375c6.082,3.412,10.325,6.125,12.25,7.394"/>
	<path style="&st8;" d="M155.151,106.028h1.619"/>
	<path style="&st8;" d="M156.026,106.071l0.918,0.7l1.094-0.175l1.138-1.225l3.631-14l-0.438-0.044c0,0-4.419,2.888-6.388,5.294"/>
	<path style="&st8;" d="M157.689,107.349c2.975,1.969,7.394,4.813,11.156,6.169c4.421,1.594,15.706,6.431,25.506,10.587    c9.8,4.156,30.057,12.95,33.906,14.35c3.85,1.4,5.031,0.918,6.869,0.525c1.837-0.394,3.806-0.962,5.119-1.313    s2.931-0.569,5.031,0.306s6.694,2.975,12.075,6.3c3.072,1.898,9.068,5.401,14.607,8.542"/>
	<path style="&st8;" d="M228.092,136.323c-5.38-2.11-23.829-10.114-33.041-14.021c-9.8-4.156-21.085-8.994-25.506-10.587    c-3.762-1.356-7.744-3.894-10.719-5.863"/>
	<path style="&st8;" d="M400.414,134.159c0.175,0.875,0.136,2.538-0.875,3.587c-3.5,3.631-7.959,5.935-14.875,8.881    c-9.756,4.156-34.825,10.719-52.412,13.563c-10.338,1.671-24.938,2.494-32.156,1.881c-6.858-0.582-10.981-2.319-17.15-5.425    c-5.156-2.596-19.512-10.85-24.894-14.175c-5.381-3.325-9.975-5.425-12.075-6.3c-2.275-1.137-3.15-2.012-3.15-2.012    c-1.75-0.7-2.362-0.919-4.025-0.438c-1.663,0.481-5.6,2.012-6.913,2.45c-1.053,0.351-1.515,0.73-2.289,0.641"/>
	<path style="&st8;" d="M239.895,102.178c0,0,36.531,18.594,38.938,19.819s2.581,1.969,3.544,2.975    c0.962,1.006,5.381,5.95,5.381,5.95l0.656,0.481l0.263-0.219"/>
	<path style="&st8;" d="M288.414,131.403c0,0-0.263,0.175-0.263,0.481c0,0.307,1.838,21.656,2.582,28.263"/>
	<path style="&st8;" d="M294.539,131.578c0.569,4.594,2.757,18.944,4.419,30.45l0.263,1.226c0,0,0.219,0.611,0.306,1.137    c0.088,0.525,1.838,7.307,1.838,7.307l0.088,0.48c0,0,0.699,1.27,0.787,1.707s0.525,4.594,0.525,6.3    c-0.351,1.794-0.395,4.987-0.351,5.513c0.044,0.524,0.088,1.006-0.175,1.137c0.263,1.356,1.225,4.944,1.269,5.426    c0.044,0.48,0.525,3.719,0.744,6.475s1.094,5.906,4.068,9.406c2.976,3.5,4.638,5.425,5.119,5.95    c0.481,0.524,0.831,1.05,1.399,1.75c0.569,0.7,1.969,2.712,1.969,2.712c2.538,2.319,3.369,3.15,9.582,2.231    c6.212-0.919,22.05-4.638,39.637-9.406c17.588-4.769,30.188-9.712,33.863-11.375c3.675-1.662,5.337-3.544,6.956-10.106"/>
	<path style="&st8;" d="M407.895,188.365c2.888-1.574,6.388-5.469,6.519-6.387"/>
	<path style="&st8;" d="M406.932,188.19c-0.656-3.587-2.449-9.493-2.274-11.899"/>
	<path style="&st8;" d="M314.838,215.84c2.45-0.044,4.106-0.217,7.525-0.7c8.969-1.269,24.351-5.21,37.406-8.706    c16.013-4.288,29.531-9.231,35.044-12.075c3.988-2.058,4.156-3.15,5.25-5.862c1.094-2.713,2.712-7.394,3.412-9.757    c0.7-2.362,1.094-4.725,1.356-7.962s0.088-9.188-0.088-9.975c0,0,0.525-5.337,1.226-7.175c0.219-1.313-0.132-5.25-0.307-5.906    s-1.006-1.663-1.006-1.663l-0.569-0.744c-0.831-1.531-2.581-4.2-2.975-6.3c-0.098-0.52-0.481-0.525-0.481-0.525    s0.088-1.444-0.481-1.487"/>
	<path style="&st8;" d="M404.963,159.928c2.538-1.706,3.238-3.194,3.413-4.069"/>
	<path style="&st8;" d="M404.614,161.021c-0.656-1.225-2.406-3.019-3.15-3.631"/>
	<path style="&st8;" d="M386.195,109.878c0,0,0.612,1.006,0.919,1.269s1.566,1.538,2.188,2.362    c2.537,3.369,8.75,13.738,9.713,16.188c0.962,2.45,1.05,3.938,1.05,3.938l4.856,6.825c0.787,1.444,1.837,1.313-0.613,4.944    c-2.449,3.631-14.087,9.494-15.618,10.369s-1.706,1.619-2.101,2.669c-0.394,1.05-0.918,2.231-0.918,2.231l4.55,0.394    c1.618,0,2.844-0.263,3.894-0.656c1.05-0.394,3.369-1.444,3.807-1.707c0.438-0.262,0.699-0.087,0.699-0.087s2.319-1.138,3.15-1.4    c0.831-0.263,0.875-0.263,1.225,0.219"/>
	<path style="&st8;" d="M401.07,157.521c-2.45,3.194-5.493,5.623-12.993,8.531c-8.575,3.325-37.101,11.463-49.832,13.344    c-7.997,1.183-13.912,2.45-29.531,2.406"/>
	<path style="&st8;" d="M385.67,160.671c-3.544,1.356-13.038,4.419-22.619,6.825s-19.906,4.987-25.025,5.6    c-0.622,0.075-1.094-0.131-1.094-0.131s-1.443-1.226-2.012-1.75c-0.569-0.525-0.963-0.788-2.757-0.744s-22.399,1.706-30.8,1.226    c-8.4-0.481-12.557-1.444-16.625-2.625c-4.068-1.182-12.644-4.943-13.869-5.25c-1.225-0.307-2.362-0.35-3.019,0.656    s0.219,2.188,0.744,2.975c0.524,0.787,10.237,12.731,13.475,15.706c3.237,2.976,5.425,3.588,8.138,3.675    c2.713,0.088,12.95,0.088,12.95,0.088c0.481-0.044,0.919-0.175,1.356-0.656s1.269-1.75,2.537-2.975    c1.269-1.226,1.881-2.057,5.075-2.625c3.193-0.569,11.681-2.101,14.263-2.713c2.581-0.612,3.543-0.875,4.55-1.4    c1.006-0.524,4.462-1.925,5.993-3.587"/>
	<path style="&st8;" d="M254.07,196.984l1.138,0.394l2.712,0.132c0,0,7.087,1.225,9.144,1.399c2.056,0.175,2.406,0.263,4.2-0.831    c1.793-1.094,8.662-7.787,8.662-7.787s4.813-4.025,5.425-4.551"/>
	<path style="&st8;" d="M257.701,163.691c-1.3-0.468-2.8-0.045-3.631,2.318c-0.831,2.362-1.4,5.6-1.531,8.443    c-0.131,2.844,0.569,3.544,2.1,4.55c1.531,1.007,4.069,2.231,5.688,2.625s2.625-0.263,3.062-1.662    c0.438-1.4,1.357-6.388,1.531-8.663c0.176-2.274-0.043-4.156-1.705-5.206C261.551,165.046,259.408,164.302,257.701,163.691z"/>
	<path style="&st8;" d="M140.976,151.528c0,0.175-0.043,1.094,0.219,2.1c0.263,1.006,3.588,17.981,3.894,20.038    c0.306,2.056,1.137,3.019,2.887,2.668c1.75-0.35,12.207-2.931,16.538-4.112"/>
	<path style="&st8;" d="M194.308,186.309c-1.05-1.531-2.981-4.51-2.712-9.888c0.262-5.25,0.394-9.669-0.656-15.313    c-1.05-5.644-2.363-13.737-2.057-19.775c0.35-3.5,1.663-10.413,4.813-16.319c0.417-0.782,0.716-0.697,1.241-0.785    c0.44-1.201,1.161-1.441,1.161-1.441c0.656-4.069,4.467-22.799,12.342-39.336"/>
	<path style="&st8;" d="M201.001,124.753c1.487-8.707,4.418-21.088,9.45-34.738c0.34-0.922,0.656-0.962,1.138-0.788    c0.481,0.175,22.269,10.325,22.663,10.5c0.394,0.175,0.525,0.481,0.656,0.875c0.131,0.394,6.475,27.169,7.656,33.381"/>
	<path style="&st8;" d="M191.07,120.597c2.188-9.888,6.432-23.932,11.375-34.169c0.17-0.353,0.481-0.656-0.131-0.875    c-0.613-0.219-6.386-2.459-10.894-3.325c-7.744-1.487-12.119-0.481-15.925,1.663c-3.806,2.144-9.275,5.469-13.169,9.275"/>
	<path style="&st8;" d="M227.995,136.828c1.181-6.3,4.944-21.918,8.313-30.538"/>
	<path style="&st8;" d="M229.598,136.823c1.032-5.044,3.94-17.976,7.322-27.514"/>
	<path style="&st8;" d="M226.959,154.43c0.088-0.991,0.029-1.691-0.583-2.012c-0.613-0.321-1.575-0.583-1.867-0.583    c-0.292,0-0.904,0.146-1.138,0.35c-0.233,0.204-0.438,0.642-0.438,1.021c0,0.379,0.087,1.108,0.146,1.429    c0.058,0.321,0.612,0.992,1.575,1.575c0.963,0.583,4.462,2.538,5.046,2.917c0.583,0.379,1.225,1.108,1.225,1.108    c1.108,0.379,2.304,0.642,2.712,0.613c0.409-0.029,0.846-0.117,0.962-0.379c0.117-0.262,0.379-1.575,0.438-2.012    c0.059-0.438-0.029-0.934-0.262-1.225c-0.233-0.292-1.809-1.809-1.925-1.925c-0.116-0.117-0.146-0.204-0.525-0.058    s-1.633,0.875-2.858,0.35c-1.225-0.525-2.188-0.963-2.887-1.284c-0.7-0.321-0.788-0.554-0.729-0.642"/>
	<path style="&st8;" d="M232.589,154.984c-0.817-1.721-2.217-3.295-4.142-2.917"/>
	<path style="&st8;" d="M231.16,160.409c-1.283,0.438-2.362,0.671-3.617-0.933"/>
	<path style="&st8;" d="M180.549,131.226c0,0,0.048-0.579,0.032-0.836c-0.016-0.257-0.097-0.579-0.402-0.788    c-0.306-0.209-1.816-0.643-2.09-0.675c-0.273-0.032-0.45,0-0.643,0.145s-0.691,0.708-0.755,0.917    c-0.064,0.208-0.081,1.141-0.016,1.447c0.064,0.305,0.418,0.482,0.611,0.659c0.193,0.177,4.421,2.798,5.208,3.184    s1.189,0.546,2.009,1.43c0.643,0.241,1.897,0.354,2.412,0.386c0.514,0.032,0.836-0.128,0.98-0.354    c0.145-0.225,0.29-1.062,0.354-1.592c0.064-0.53,0.032-0.9-0.193-1.189c-0.225-0.29-1.72-1.801-1.977-1.978    s-0.37-0.112-0.659-0.048c-0.29,0.064-1.881,0.675-2.636,0.354c-0.756-0.322-1.72-0.724-2.444-1.19    c-0.723-0.466-0.804-0.579-0.788-0.739"/>
	<path style="&st8;" d="M185.742,131.756c-0.611-1.447-1.382-3.215-4.131-2.733"/>
	<path style="&st8;" d="M184.584,136.756c-0.852,0.627-2.283,0.724-3.713-1.286"/>
	<path style="&st8;" d="M390.22,165.396c0.175,3.5-0.498,6.479-1.313,8.313c-1.05,2.363-3.253,6.233-4.726,8.27    c-1.677,2.318-3.048,4.127-7.875,5.906c-4.65,1.714-24.806,7.043-29.355,8.006c-4.551,0.963-6.257,0.568-7.875-0.831    c-1.619-1.4-4.375-4.288-6.301-6.65c-1.925-2.362-2.975-4.725-3.98-7.524"/>
	<path style="&st8;" d="M228.503,207.356c-0.971-2.241-2.764-7.097-1.867-11.505c0.896-4.407,2.465-7.844,3.585-9.487    s3.286-2.732,5.08-2.636"/>
	<path style="&st8;" d="M115.951,141.203c-0.918-1.356-1.881-4.156-1.969-7.962s0.744-8.269,1.75-10.369s2.494-2.625,2.931-2.669"/>
	<path style="&st8;" d="M320.088,237.905c19.075,3.733,49.351-1.808,51.976-12.658"/>
	<path style="&st0;" d="M256.439,224.542c-3.301-11.845-10.638-20.148-16.389-18.546c-5.75,1.603-7.735,12.504-4.434,24.349    s10.639,20.148,16.388,18.546C257.755,247.29,259.74,236.387,256.439,224.542z"/>
	<path style="&st0;" d="M250.439,260.245c1.862,0.613,3.696,0.714,5.436,0.229c4.734-1.318,7.819-6.711,8.901-14.229"/>
	<path style="&st0;" d="M254.242,204.159c-5.244-7.493-11.503-11.571-16.869-10.077c-0.969,0.271-1.869,0.711-2.697,1.306"/>
	<path style="&st0;" d="M248.333,190.261c-1.393,0.244-2.843,0.57-4.319,0.98c-3.083,0.855-7.09,2.499-9.338,4.146    c-6.775,4.867-8.719,20.044-4.166,36.382c4.013,14.397,11.878,25.415,19.381,28.28c3.48,1.417,8.738,0.793,15.421-1.257    c6.685-2.05,8.688-3.888,10.449-5.82c1.382-1.546,2.488-3.617,3.298-6.093"/>
	<path style="&st0;" d="M371.083,227.615c0.918-0.211,1.899-0.457,2.957-0.737c7.675-2.031,9.832-4.411,11.853-6.344"/>
	<path style="&st0;" d="M137.597,156.699c-2.627-10.538-8.36-18.182-12.806-17.073c-4.446,1.108-5.921,10.549-3.294,21.087    c2.627,10.537,8.36,18.181,12.806,17.073S140.224,167.236,137.597,156.699z"/>
	<path style="&st0;" d="M132.553,187.293c1.744,0.965,3.466,1.304,5.08,0.901c3.579-0.893,5.919-5.258,6.778-11.535"/>
	<path style="&st0;" d="M135.151,137.195c-3.929-5.98-8.432-9.29-12.306-8.325c-0.979,0.244-1.866,0.748-2.655,1.48"/>
	<path style="&st0;" d="M158.678,173.699c-0.701,4.306-2.143,7.612-4.237,9.361c-2.615,2.111-3.84,2.986-8.915,4.387    c-3.162,0.872-8.663,2.1-11.947,0.342c-6.03-2.485-12.537-12.825-15.855-26.135c-3.505-14.062-2.313-26.867,2.466-31.303    c2.586-2.229,5.918-3.308,9.586-4.155"/>
	<path style="&st0;" d="M112.017,124.809c0.405-1.101,0.886-1.958,1.396-2.725c1.225-1.837,2.625-2.45,4.813-2.013    s7.263,2.888,9.8,4.55s5.337,5.075,7.788,11.987c2.45,6.913,4.9,14.087,6.825,19.513c1.925,5.425,4.288,9.362,6.125,9.362    s5.337,0.7,6.563,1.4c1.225,0.699,56.509,32.351,59.587,34.125c5.163,2.975,8.225,5.074,10.238,8.925    c1.4,1.356,1.881,1.399,2.887,1.399"/>
	<path style="&st0;" d="M115.689,145.49c-1.313-0.7-3.194-2.1-4.463-7.044c-1.313-2.188-2.275-3.938-3.938-9.625    c-1.662-5.688-2.056-16.406-1.4-21.043c0.656-4.638,2.275-5.95,3.85-7.525c0.175-2.057,1.444-7.175,4.506-9.538    c0.394-1.225,1.487-2.669,3.762-3.85c2.275-1.181,7.088-3.106,8.094-3.85c1.006-0.744,1.313-1.4,2.538-2.144    s14.525-5.381,26.863-7.525c12.337-2.144,15.619-2.538,20.344-2.844c4.725-0.307,10.894-1.225,13.693-1.4    c2.8-0.175,5.292-0.137,7.481-0.043c3.063,0.131,4.375,0.35,5.337,0.394"/>
	<path style="&st0;" d="M155.808,95.659c-0.135-1.754-0.481-2.494-1.181-2.625c-0.7-0.131-2.756-0.307-4.682,0.875    c-1.925,1.181-6.256,4.637-7.087,5.556c-0.831,0.918-1.094,2.1-1.094,2.538s0.306,0.787,0.306,0.918s-0.219,0.569-0.131,1.531    c0.087,0.962,0.438,1.444,0.438,1.444s-0.088,1.006,0.175,1.356c0.263,0.35,1.969,1.706,2.712,2.056s1.313,0.569,1.75,0.612    c0.438,0.044,1.05,0.175,1.794,0c0.744-0.175,3.587-1.313,4.506-1.793c0.918-0.481,1.837-1.663,2.144-3.588    C155.764,102.615,155.982,97.934,155.808,95.659z"/>
	<path style="&st0;" d="M148.458,109.265c-0.612,0.087-2.625-1.094-2.756-1.925c-0.131-0.832-0.043-2.975,0.087-4.332    c0.131-1.356,0.832-3.063,2.1-4.418c1.269-1.356,4.419-3.631,5.513-4.462c1.094-0.832,1.356-0.35,1.619,0.306"/>
	<path style="&st0;" d="M147.495,108.959c0.831,0,3.938-1.138,4.813-1.575s1.619-1.4,1.881-2.844    c0.262-1.443,0.525-6.387,0.043-8.881c-0.208-1.082-0.569-1.356-0.962-1.356"/>
	<path style="&st0;" d="M152.92,92.903c3.587-2.844,15.575-10.938,20.869-13.913c5.294-2.975,11.506-4.813,13.432-5.25l2.931-0.744    c0,0,3.019-0.875,4.9-1.444s19.075-5.381,33.644-8.05c14.569-2.669,26.119-4.2,34.693-4.944l3.238-0.306    c1.443-0.394,4.55-0.613,6.737-0.481s6.432,0.744,10.5,2.013C297.802,64.13,349.1,84.118,377.97,99.29    c0,0,10.019,5.381,10.412,5.775c0.394,0.394,0.394,0.7,0.351,1.006c-0.044,0.307-0.132,1.138-0.132,1.138    c0,0.394-0.219,0.744-0.481,1.094c-0.117,0.157-0.927,1.035-1.618,1.4c-3.981,2.1-17.588,5.469-18.375,5.775    c-0.788,0.307-1.007,0.525-1.575,0.788c-0.568,0.263-2.188,1.138-2.669,1.313c-0.481,0.175-1.138,0.438-1.575,0.306    c-0.438-0.131-2.1-0.394-2.1-0.394"/>
	<path style="&st0;" d="M183.458,74.878c4.55-1.531,9.181-2.684,20.169,1.269c22.137,7.962,60.463,24.675,92.531,40.775    c0.117,0.059,0.438,0.481,0.438,0.481"/>
	<path style="&st0;" d="M362.92,117.053c0,0-0.044-0.306-0.481-0.131c-0.438,0.175-15.531,3.5-16.45,3.763    c-0.919,0.262-1.225,0.525-1.443,0.788c-0.219,0.262-0.919,1.05-1.27,1.05c-0.35,0-3.806-0.044-4.987,0.087    c-1.181,0.131-14.263,2.888-17.675,3.325s-10.5,1.094-13.693,1.487c-3.194,0.394-5.731,1.269-7.481,1.881s-4.9,2.1-5.119,2.275    c-0.219,0.175-0.612,0.219-1.225,0.175c-0.612-0.044-3.763-0.394-4.112-0.525c-0.351-0.131-0.613-0.262-0.569-1.006    c0.044-0.744,2.275-8.4,2.538-8.925c0.262-0.525,0.524-1.006,1.313-1.706c0.787-0.7,3.938-2.144,3.938-2.144l1.181,0.088    l1.925-0.788c2.101,0.394,5.207,0.918,10.5-0.306c5.294-1.225,18.437-4.838,31.807-7.919c14.175-3.267,27.475-5.6,29.575-6.081    c2.1-0.481,3.325-1.05,1.269-2.188v-0.175l1.838-0.087c0,0,0.306-0.35,0.524-0.394c0.219-0.044,2.538-0.175,3.5-0.088"/>
	<path style="&st0;" d="M299.307,116.747c0,0,0.161-0.233,0.452-0.35c0.292-0.117,1.459-0.612,2.45-0.933    c0.992-0.321,2.217-1.167,2.654-1.517c0.438-0.35,0.787-0.642,1.079-0.758s4.695-1.429,4.987-1.458    c0.292-0.029,0.963-0.058,1.167-0.058s1.821,0.032,3.5-0.438c6.154-1.721,12.95-3.208,21.088-5.133    c8.137-1.925,16.333-3.413,20.736-4.316c1.302-0.268,2.83-0.904,3.354-1.196c0.525-0.292,0.846-0.496,1.458-0.613    c0.613-0.117,3.092-0.379,3.588-0.408s0.904,0.117,1.255,0.175c0.35,0.059,1.254,0.554,1.837,0.554s2.829-0.292,3.033-0.292    s0.487,0.234,0.487,0.234"/>
	<path style="&st0;" d="M265.08,58.472c3.56-0.117,7.808,0.501,13.009,1.925c15.342,4.2,66.325,24.967,92.458,39.2    c0.257,0.139,0.117,0.466,0.117,0.466"/>
	<path style="&st0;" d="M404.22,139.409c2.493,1.094,4.156,2.494,4.506,2.887c0.351,0.394,0.513,0.768,0.7,1.444    c0.219,0.788,0.656,5.337,0.481,7.831c-0.831,1.4-1.356,3.325-1.487,4.069c0,0,1.225,4.069,1.269,5.294    c0.044,1.226-0.351,6.3-0.351,8.399c0,2.101,0.351,4.288,1.313,5.95c0.963,1.663,2.976,4.156,3.457,5.075    c0.48,0.919,0.581,1.521,0.524,2.231c-0.087,1.094-0.175,8.881-1.969,14.962c-0.306,2.669-1.313,5.95-2.188,7.481    s-3.368,4.769-5.425,6.125c0,0,0.131,0.394-0.088,0.612s-3.324,2.582-6.781,4.069c-3.456,1.487-20.737,7.919-33.818,11.813    s-35.088,8.969-39.856,9.625s-12.818,1.662-13.606,1.531c-0.787-0.132-0.524-0.307-0.524-0.307    c-1.531,0.132-9.362,0.307-12.031,0.263s-6.169-0.044-8.575-0.525c-2.406-0.48-16.057-4.55-17.675-4.899    c-1.05-0.132-2.844-0.263-2.844-0.263c-1.226-0.131-2.45-0.612-4.594-5.818c-2.145-5.207-5.031-15.4-7-21.525    s-4.069-11.156-8.619-14.875c-4.55-3.719-10.587-6.344-13.737-7.131c-4.9-1.226-6.65,0.524-8.575,3.324    c-0.568,0.826-1.166,1.953-1.71,3.28"/>
	<path style="&st0;" d="M260.283,214.747c-0.263,0.306-0.263,1.094-0.088,1.575c0.175,0.48,1.925,7.787,2.713,10.675    c0.787,2.888,3.631,16.625,4.331,18.856c0.7,2.23,1.706,3.063,3.938,2.844s11.769-2.976,13.693-3.544    c1.926-0.569,3.807-2.319,4.332-6.913"/>
	<path style="&st0;" d="M224.976,209.759c-1.269-2.625-3.106-7.351-2.887-11.944s1.313-10.5,3.85-14.306    c2.537-3.807,4.506-4.9,8.793-4.025s11.419,4.287,15.181,7.525c3.763,3.237,7.154,7.416,9.756,14.875    c1.313,3.762,3.544,11.375,5.25,16.668c1.707,5.294,4.9,14.044,6.782,14.744"/>
	<path style="&st0;" d="M236.57,180.009c0-1.138,0.35-5.382,0.525-7.263c0.175-1.882,3.412-17.894,4.244-19.513    c0.831-1.619,2.188-4.112,3.106-5.512c0.919-1.4,1.707-3.238,2.1-5.25c0.394-2.013,0.656-3.719,0.656-3.938    s0.305-1.371,0.305-1.371l0.28-0.28l-7.891-34.705l-0.875-0.525l-0.263-0.35l-0.262-1.356c-0.35-1.793-1.444-3.675-3.106-4.506    c-1.663-0.832-19.163-8.838-26.688-11.9c-6.939-2.824-14.744-5.425-20.038-5.994c-6.676-0.717-9.712,0.481-14.656,3.019    c-4.943,2.537-12.994,8.225-18.462,13.431"/>
	<path style="&st0;" d="M114.595,89.928c-0.35,0.569-0.07,0.883,0.918,1.4c4.856,2.538,11.856,4.988,14.832,5.906    c2.975,0.919,4.681,0.131,6.168-0.306c1.488-0.438,6.038-2.669,13.781-3.194"/>
	<path style="&st0;" d="M149.901,93.734c0.087-0.875,2.188-2.1,6.694-3.675"/>
	<path style="&st0;" d="M109.695,100.428c0.788,0,4.594-1.269,7.175-1.969c2.581-0.7,4.856-1.837,6.431-2.888    c0.257-0.171,0.263-0.568,0.263-0.568"/>
	<path style="&st0;" d="M110.701,100.34c-0.744,0.962-1.094,3.237-0.656,6.563c0.438,3.325,2.8,10.106,2.975,10.587    s0.306,0.962,0.306,0.962s0.044,1.488,0.044,1.707s0.525,1.356,0.525,1.356l2.581-0.043"/>
	<path style="&st0;" d="M111.226,138.446c-1.181-4.725-1.094-15.619,1.881-19.731c2.02-2.792,3.274-2.728,6.388-2.013    c3.237,0.744,7.964,3.487,11.856,6.65c3.5,2.844,6.41,8.076,8.356,13.781c1.925,5.644,5.819,18.025,7.044,21.525    c1.225,3.5,2.887,6.737,3.456,6.913"/>
	<path style="&st0;" d="M147.276,109.965c-0.394,1.793-1.896,7.966-2.013,9.756c-0.219,3.369,0.613,28.175,4.506,39.112    c0.965,2.711,1.75,3.062,3.675,4.244c1.925,1.182,50.794,28.963,56.875,32.375c6.082,3.412,10.325,6.125,12.25,7.394"/>
	<path style="&st0;" d="M155.151,106.028h1.619"/>
	<path style="&st0;" d="M156.026,106.071l0.918,0.7l1.094-0.175l1.138-1.225l3.631-14l-0.438-0.044c0,0-4.419,2.888-6.388,5.294"/>
	<path style="&st0;" d="M157.689,107.349c2.975,1.969,7.394,4.813,11.156,6.169c4.421,1.594,15.706,6.431,25.506,10.587    c9.8,4.156,30.057,12.95,33.906,14.35c3.85,1.4,5.031,0.918,6.869,0.525c1.837-0.394,3.806-0.962,5.119-1.313    s2.931-0.569,5.031,0.306s6.694,2.975,12.075,6.3c3.072,1.898,9.068,5.401,14.607,8.542"/>
	<path style="&st0;" d="M228.092,136.323c-5.38-2.11-23.829-10.114-33.041-14.021c-9.8-4.156-21.085-8.994-25.506-10.587    c-3.762-1.356-7.744-3.894-10.719-5.863"/>
	<path style="&st0;" d="M400.414,134.159c0.175,0.875,0.136,2.538-0.875,3.587c-3.5,3.631-7.959,5.935-14.875,8.881    c-9.756,4.156-34.825,10.719-52.412,13.563c-10.338,1.671-24.938,2.494-32.156,1.881c-6.858-0.582-10.981-2.319-17.15-5.425    c-5.156-2.596-19.512-10.85-24.894-14.175c-5.381-3.325-9.975-5.425-12.075-6.3c-2.275-1.137-3.15-2.012-3.15-2.012    c-1.75-0.7-2.362-0.919-4.025-0.438c-1.663,0.481-5.6,2.012-6.913,2.45c-1.053,0.351-1.515,0.73-2.289,0.641"/>
	<path style="&st0;" d="M239.895,102.178c0,0,36.531,18.594,38.938,19.819s2.581,1.969,3.544,2.975    c0.962,1.006,5.381,5.95,5.381,5.95l0.656,0.481l0.263-0.219"/>
	<path style="&st0;" d="M288.414,131.403c0,0-0.263,0.175-0.263,0.481c0,0.307,1.838,21.656,2.582,28.263"/>
	<path style="&st0;" d="M294.539,131.578c0.569,4.594,2.757,18.944,4.419,30.45l0.263,1.226c0,0,0.219,0.611,0.306,1.137    c0.088,0.525,1.838,7.307,1.838,7.307l0.088,0.48c0,0,0.699,1.27,0.787,1.707s0.525,4.594,0.525,6.3    c-0.351,1.794-0.395,4.987-0.351,5.513c0.044,0.524,0.088,1.006-0.175,1.137c0.263,1.356,1.225,4.944,1.269,5.426    c0.044,0.48,0.525,3.719,0.744,6.475s1.094,5.906,4.068,9.406c2.976,3.5,4.638,5.425,5.119,5.95    c0.481,0.524,0.831,1.05,1.399,1.75c0.569,0.7,1.969,2.712,1.969,2.712c2.538,2.319,3.369,3.15,9.582,2.231    c6.212-0.919,22.05-4.638,39.637-9.406c17.588-4.769,30.188-9.712,33.863-11.375c3.675-1.662,5.337-3.544,6.956-10.106"/>
	<path style="&st0;" d="M407.895,188.365c2.888-1.574,6.388-5.469,6.519-6.387"/>
	<path style="&st0;" d="M406.932,188.19c-0.656-3.587-2.449-9.493-2.274-11.899"/>
	<path style="&st0;" d="M314.838,215.84c2.45-0.044,4.106-0.217,7.525-0.7c8.969-1.269,24.351-5.21,37.406-8.706    c16.013-4.288,29.531-9.231,35.044-12.075c3.988-2.058,4.156-3.15,5.25-5.862c1.094-2.713,2.712-7.394,3.412-9.757    c0.7-2.362,1.094-4.725,1.356-7.962s0.088-9.188-0.088-9.975c0,0,0.525-5.337,1.226-7.175c0.219-1.313-0.132-5.25-0.307-5.906    s-1.006-1.663-1.006-1.663l-0.569-0.744c-0.831-1.531-2.581-4.2-2.975-6.3c-0.098-0.52-0.481-0.525-0.481-0.525    s0.088-1.444-0.481-1.487"/>
	<path style="&st0;" d="M404.963,159.928c2.538-1.706,3.238-3.194,3.413-4.069"/>
	<path style="&st0;" d="M404.614,161.021c-0.656-1.225-2.406-3.019-3.15-3.631"/>
	<path style="&st0;" d="M386.195,109.878c0,0,0.612,1.006,0.919,1.269s1.566,1.538,2.188,2.362    c2.537,3.369,8.75,13.738,9.713,16.188c0.962,2.45,1.05,3.938,1.05,3.938l4.856,6.825c0.787,1.444,1.837,1.313-0.613,4.944    c-2.449,3.631-14.087,9.494-15.618,10.369s-1.706,1.619-2.101,2.669c-0.394,1.05-0.918,2.231-0.918,2.231l4.55,0.394    c1.618,0,2.844-0.263,3.894-0.656c1.05-0.394,3.369-1.444,3.807-1.707c0.438-0.262,0.699-0.087,0.699-0.087s2.319-1.138,3.15-1.4    c0.831-0.263,0.875-0.263,1.225,0.219"/>
	<path style="&st0;" d="M401.07,157.521c-2.45,3.194-5.493,5.623-12.993,8.531c-8.575,3.325-37.101,11.463-49.832,13.344    c-7.997,1.183-13.912,2.45-29.531,2.406"/>
	<path style="&st0;" d="M385.67,160.671c-3.544,1.356-13.038,4.419-22.619,6.825s-19.906,4.987-25.025,5.6    c-0.622,0.075-1.094-0.131-1.094-0.131s-1.443-1.226-2.012-1.75c-0.569-0.525-0.963-0.788-2.757-0.744s-22.399,1.706-30.8,1.226    c-8.4-0.481-12.557-1.444-16.625-2.625c-4.068-1.182-12.644-4.943-13.869-5.25c-1.225-0.307-2.362-0.35-3.019,0.656    s0.219,2.188,0.744,2.975c0.524,0.787,10.237,12.731,13.475,15.706c3.237,2.976,5.425,3.588,8.138,3.675    c2.713,0.088,12.95,0.088,12.95,0.088c0.481-0.044,0.919-0.175,1.356-0.656s1.269-1.75,2.537-2.975    c1.269-1.226,1.881-2.057,5.075-2.625c3.193-0.569,11.681-2.101,14.263-2.713c2.581-0.612,3.543-0.875,4.55-1.4    c1.006-0.524,4.462-1.925,5.993-3.587"/>
	<path style="&st0;" d="M254.07,196.984l1.138,0.394l2.712,0.132c0,0,7.087,1.225,9.144,1.399c2.056,0.175,2.406,0.263,4.2-0.831    c1.793-1.094,8.662-7.787,8.662-7.787s4.813-4.025,5.425-4.551"/>
	<path style="&st0;" d="M257.701,163.691c-1.3-0.468-2.8-0.045-3.631,2.318c-0.831,2.362-1.4,5.6-1.531,8.443    c-0.131,2.844,0.569,3.544,2.1,4.55c1.531,1.007,4.069,2.231,5.688,2.625s2.625-0.263,3.062-1.662    c0.438-1.4,1.357-6.388,1.531-8.663c0.176-2.274-0.043-4.156-1.705-5.206C261.551,165.046,259.408,164.302,257.701,163.691z"/>
	<path style="&st0;" d="M140.976,151.528c0,0.175-0.043,1.094,0.219,2.1c0.263,1.006,3.588,17.981,3.894,20.038    c0.306,2.056,1.137,3.019,2.887,2.668c1.75-0.35,12.207-2.931,16.538-4.112"/>
	<path style="&st0;" d="M194.308,186.309c-1.05-1.531-2.981-4.51-2.712-9.888c0.262-5.25,0.394-9.669-0.656-15.313    c-1.05-5.644-2.363-13.737-2.057-19.775c0.35-3.5,1.663-10.413,4.813-16.319c0.417-0.782,0.716-0.697,1.241-0.785    c0.44-1.201,1.161-1.441,1.161-1.441c0.656-4.069,4.467-22.799,12.342-39.336"/>
	<path style="&st0;" d="M201.001,124.753c1.487-8.707,4.418-21.088,9.45-34.738c0.34-0.922,0.656-0.962,1.138-0.788    c0.481,0.175,22.269,10.325,22.663,10.5c0.394,0.175,0.525,0.481,0.656,0.875c0.131,0.394,6.475,27.169,7.656,33.381"/>
	<path style="&st0;" d="M191.07,120.597c2.188-9.888,6.432-23.932,11.375-34.169c0.17-0.353,0.481-0.656-0.131-0.875    c-0.613-0.219-6.386-2.459-10.894-3.325c-7.744-1.487-12.119-0.481-15.925,1.663c-3.806,2.144-9.275,5.469-13.169,9.275"/>
	<path style="&st0;" d="M227.995,136.828c1.181-6.3,4.944-21.918,8.313-30.538"/>
	<path style="&st0;" d="M229.598,136.823c1.032-5.044,3.94-17.976,7.322-27.514"/>
	<path style="&st0;" d="M226.959,154.43c0.088-0.991,0.029-1.691-0.583-2.012c-0.613-0.321-1.575-0.583-1.867-0.583    c-0.292,0-0.904,0.146-1.138,0.35c-0.233,0.204-0.438,0.642-0.438,1.021c0,0.379,0.087,1.108,0.146,1.429    c0.058,0.321,0.612,0.992,1.575,1.575c0.963,0.583,4.462,2.538,5.046,2.917c0.583,0.379,1.225,1.108,1.225,1.108    c1.108,0.379,2.304,0.642,2.712,0.613c0.409-0.029,0.846-0.117,0.962-0.379c0.117-0.262,0.379-1.575,0.438-2.012    c0.059-0.438-0.029-0.934-0.262-1.225c-0.233-0.292-1.809-1.809-1.925-1.925c-0.116-0.117-0.146-0.204-0.525-0.058    s-1.633,0.875-2.858,0.35c-1.225-0.525-2.188-0.963-2.887-1.284c-0.7-0.321-0.788-0.554-0.729-0.642"/>
	<path style="&st0;" d="M232.589,154.984c-0.817-1.721-2.217-3.295-4.142-2.917"/>
	<path style="&st0;" d="M231.16,160.409c-1.283,0.438-2.362,0.671-3.617-0.933"/>
	<path style="&st0;" d="M180.549,131.226c0,0,0.048-0.579,0.032-0.836c-0.016-0.257-0.097-0.579-0.402-0.788    c-0.306-0.209-1.816-0.643-2.09-0.675c-0.273-0.032-0.45,0-0.643,0.145s-0.691,0.708-0.755,0.917    c-0.064,0.208-0.081,1.141-0.016,1.447c0.064,0.305,0.418,0.482,0.611,0.659c0.193,0.177,4.421,2.798,5.208,3.184    s1.189,0.546,2.009,1.43c0.643,0.241,1.897,0.354,2.412,0.386c0.514,0.032,0.836-0.128,0.98-0.354    c0.145-0.225,0.29-1.062,0.354-1.592c0.064-0.53,0.032-0.9-0.193-1.189c-0.225-0.29-1.72-1.801-1.977-1.978    s-0.37-0.112-0.659-0.048c-0.29,0.064-1.881,0.675-2.636,0.354c-0.756-0.322-1.72-0.724-2.444-1.19    c-0.723-0.466-0.804-0.579-0.788-0.739"/>
	<path style="&st0;" d="M185.742,131.756c-0.611-1.447-1.382-3.215-4.131-2.733"/>
	<path style="&st0;" d="M184.584,136.756c-0.852,0.627-2.283,0.724-3.713-1.286"/>
	<path style="&st0;" d="M390.22,165.396c0.175,3.5-0.498,6.479-1.313,8.313c-1.05,2.363-3.253,6.233-4.726,8.27    c-1.677,2.318-3.048,4.127-7.875,5.906c-4.65,1.714-24.806,7.043-29.355,8.006c-4.551,0.963-6.257,0.568-7.875-0.831    c-1.619-1.4-4.375-4.288-6.301-6.65c-1.925-2.362-2.975-4.725-3.98-7.524"/>
	<path style="&st0;" d="M228.503,207.356c-0.971-2.241-2.764-7.097-1.867-11.505c0.896-4.407,2.465-7.844,3.585-9.487    s3.286-2.732,5.08-2.636"/>
	<path style="&st0;" d="M115.951,141.203c-0.918-1.356-1.881-4.156-1.969-7.962s0.744-8.269,1.75-10.369s2.494-2.625,2.931-2.669"/>
	<path style="&st0;" d="M320.088,237.905c19.075,3.733,49.351-1.808,51.976-12.658"/>
</g>
<g id="キャプション">
	<text transform="matrix(1 0 0 1 421.4155 109.8838)"><tspan x="0" y="0" style="&st7; &st9;">No. 3 Antenna </tspan><tspan x="0" y="10" style="&st7; &st9;">Cord Sub-Assembly</tspan></text>
	<g>
		<path style="&st4;" d="M418.581,111.507h-16.5l-17.188,14.083"/>
		<path style="&st3;" d="M418.581,111.507h-16.5l-17.188,14.083"/>
	</g>
	<g>
		<path style="&st4;" d="M401.891,57.77h-16.5l-56.618,41.002"/>
		<path style="&st3;" d="M401.891,57.77h-16.5l-56.618,41.002"/>
	</g>
	<text transform="matrix(1 0 0 1 8.604 46.0527)"><tspan x="0" y="0" style="&st7; &st9;">Navigation Antenna Assembly</tspan></text>
	<text transform="matrix(1 0 0 1 8.604 62.6797)"><tspan x="0" y="0" style="&st7; &st9;">No. 2 Navigation Antenna </tspan><tspan x="0" y="10" style="&st7; &st9;">Cord Sub-Assembly</tspan></text>
	<text transform="matrix(1 0 0 1 404.7261 56.146)"><tspan x="0" y="0" style="&st7; &st9;">No. 1 Amplifier Antenna </tspan><tspan x="0" y="10" style="&st7; &st9;">Assembly</tspan></text>
	<g>
		<path style="&st4;" d="M125.403,64.303h16.5l60.245,29.104"/>
		<path style="&st3;" d="M125.403,64.303h16.5l60.245,29.104"/>
	</g>
	<g>
		<path style="&st4;" d="M144.847,42.677h16.5l45.785,43.071"/>
		<path style="&st3;" d="M144.847,42.677h16.5l45.785,43.071"/>
	</g>
	<text transform="matrix(1 0 0 1 122.4614 17.2393)"><tspan x="0" y="0" style="&st7; &st9;">No. 1 Antenna Cord Sub-Assembly</tspan></text>
	<g>
		<path style="&st4;" d="M200.279,18.525v16.5l32.414,48.517"/>
		<path style="&st3;" d="M200.279,18.525v16.5l32.414,48.517"/>
	</g>
	<text transform="matrix(1 0 0 1 289.9009 17.2393)"><tspan x="0" y="0" style="&st7; &st9;">No. 2 Antenna Cord Sub-Assembly</tspan></text>
	<g>
		<path style="&st4;" d="M367.718,18.525v16.5l-62.961,38.493"/>
		<path style="&st3;" d="M367.718,18.525v16.5l-62.961,38.493"/>
	</g>
</g>
</svg>